	*******************************************************
	*                                                     *
	*          Welcome to atalanta (version 2.0)          *
	*                                                     *
	*               Dong S. Ha (ha@vt.edu)                *
	*            Web: http://www.ee.vt.edu/ha             *
	*  Virginia Polytechnic Institute & State University  *
	*                                                     *
	*******************************************************

******   SUMMARY OF TEST PATTERN GENERATION RESULTS   ******
1. Circuit structure
   Name of the circuit                       : s208
   Number of primary inputs                  : 19
   Number of primary outputs                 : 10
   Number of gates                           : 96
   Level of the circuit                      : 14

2. ATPG parameters
   Test pattern generation mode              : RPT + DTPG + TC
   Limit of random patterns (packets)        : 16
   Backtrack limit                           : 10
   Initial random number generator seed      : 1554980294
   Test pattern compaction mode              : REVERSE + SHUFFLE 
   Limit of suffling compaction              : 2
   Number of shuffles                        : 8

3. Test pattern generation results
   Number of test patterns before compaction : 54
   Number of test patterns after compaction  : 28
   Fault coverage                            : 90.698 %
   Number of collapsed faults                : 215
   Number of identified redundant faults     : 20
   Number of aborted faults                  : 0
   Total number of backtrackings             : 20

4. Memory used                               : 17215 Kbytes

5. CPU time
   Initialization                            : 0.000 secs
   Fault simulation                          : 0.000 secs
   FAN                                       : 0.000 secs
   Total                                     : 0.000 secs
