          Statistics Report          
           Stuck-at Faults           
-------------------------------------
Fault Classes              #faults   
                           (coll.)   
---------------------  --------------
  FU (full)                 33032    
  -------------------  --------------
  DS (det_simulation)  24502 (74.18%)
  UU (unused)             18 ( 0.05%)
  TI (tied)              578 ( 1.75%)
  BL (blocked)           366 ( 1.11%)
  RE (redundant)        7568 (22.91%)
-------------------------------------
Coverage                             
  -------------------                
  test_coverage              100.00% 
  fault_coverage              74.18% 
  atpg_effectiveness         100.00% 
-------------------------------------
#test_patterns                   161 
#simulated_patterns              163 
CPU_time (secs)                  4.3 
-------------------------------------

