          Statistics Report          
           Stuck-at Faults           
-------------------------------------
Fault Classes              #faults   
                           (coll.)   
---------------------  --------------
  FU (full)                 33032    
  -------------------  --------------
  DS (det_simulation)  24540 (74.29%)
  UU (unused)             18 ( 0.05%)
  TI (tied)              602 ( 1.82%)
  BL (blocked)           344 ( 1.04%)
  RE (redundant)        7528 (22.79%)
-------------------------------------
Coverage                             
  -------------------                
  test_coverage              100.00% 
  fault_coverage              74.29% 
  atpg_effectiveness         100.00% 
-------------------------------------
#test_patterns                   154 
#simulated_patterns              155 
CPU_time (secs)                  4.2 
-------------------------------------

