// | ------------------------------------------------------------------------------------------------------------------ |
// |                                                                                                                    |
// |          Current split capture setting:     Off (optimal)                                                          |
// |                                                                                                                    |
// |   Current clock off simulation setting:     Off (optimal)                                                          |
// | ------------------------------------------------------------------------------------------------------------------ |
//  ------------------------------------------------------------------------
//  Simulation performed for #gates = 20077  #faults = 41834
//  Run fault simulation without storing patterns.  pattern source = 339 external patterns
//  ------------------------------------------------------------------------
//  #patterns  test      #faults  #faults    # eff.    # test         process 
//  simulated  coverage  in list  detected   patterns  patterns       CPU time
//   64         49.11%    21288     20546       64         0          0.43 sec
//   128        53.01%    19659      1629       62         0          0.52 sec
//   192        56.32%    18275      1384       62         0          0.60 sec
//   256        57.69%    17698       577       50         0          0.67 sec
//   320        59.20%    17067       631       47         0          0.74 sec
//   339        60.43%    16554       513       17         0          0.80 sec
