// | ------------------------------------------------------------------------------------------------------------------ |
// |                                                                                                                    |
// |          Current split capture setting:     Off (optimal)                                                          |
// |                                                                                                                    |
// |   Current clock off simulation setting:     Off (optimal)                                                          |
// | ------------------------------------------------------------------------------------------------------------------ |
//  ------------------------------------------------------------------------
//  Simulation performed for #gates = 20077  #faults = 43602
//  Run fault simulation without storing patterns.  pattern source = 326 external patterns
//  ------------------------------------------------------------------------
//  #patterns  test      #faults  #faults    # eff.    # test         process 
//  simulated  coverage  in list  detected   patterns  patterns       CPU time
//   64         55.68%    19323     24279       64         0          0.48 sec
//   128        60.65%    17157      2166       64         0          0.57 sec
//   192        62.92%    16167       990       61         0          0.64 sec
//   256        64.45%    15500       667       56         0          0.71 sec
//   320        65.48%    15052       448       55         0          0.78 sec
//   326        65.53%    15030        22        4         0          0.83 sec
