// | ------------------------------------------------------------------------------------------------------------------ |
// |                                                                                                                    |
// |          Current split capture setting:     Off (optimal)                                                          |
// |                                                                                                                    |
// |   Current clock off simulation setting:     Off (optimal)                                                          |
// | ------------------------------------------------------------------------------------------------------------------ |
//  ------------------------------------------------------------------------
//  Simulation performed for #gates = 20077  #faults = 44387
//  Run fault simulation without storing patterns.  pattern source = 346 external patterns
//  ------------------------------------------------------------------------
//  #patterns  test      #faults  #faults    # eff.    # test         process 
//  simulated  coverage  in list  detected   patterns  patterns       CPU time
//   64         54.34%    20269     24118       64         0          0.51 sec
//   128        59.07%    18166      2103       63         0          0.60 sec
//   192        61.61%    17040      1126       64         0          0.68 sec
//   256        63.09%    16385       655       60         0          0.75 sec
//   320        63.85%    16048       337       57         0          0.81 sec
//   346        64.30%    15847       201       22         0          0.88 sec
