// | ------------------------------------------------------------------------------------------------------------------ |
// |                                                                                                                    |
// |          Current split capture setting:     Off (optimal)                                                          |
// |                                                                                                                    |
// |   Current clock off simulation setting:     Off (optimal)                                                          |
// | ------------------------------------------------------------------------------------------------------------------ |
//  ------------------------------------------------------------------------
//  Simulation performed for #gates = 20077  #faults = 44081
//  Run fault simulation without storing patterns.  pattern source = 328 external patterns
//  ------------------------------------------------------------------------
//  #patterns  test      #faults  #faults    # eff.    # test         process 
//  simulated  coverage  in list  detected   patterns  patterns       CPU time
//   64         47.00%    23365     20716       64         0          0.43 sec
//   128        52.29%    21030      2335       63         0          0.52 sec
//   192        54.89%    19887      1143       54         0          0.61 sec
//   256        56.60%    19132       755       49         0          0.69 sec
//   320        58.59%    18253       879       52         0          0.76 sec
//   328        58.77%    18175        78        7         0          0.82 sec
