// | ------------------------------------------------------------------------------------------------------------------ |
// |                                                                                                                    |
// |          Current split capture setting:     Off (optimal)                                                          |
// |                                                                                                                    |
// |   Current clock off simulation setting:     Off (optimal)                                                          |
// | ------------------------------------------------------------------------------------------------------------------ |
//  ------------------------------------------------------------------------
//  Simulation performed for #gates = 20077  #faults = 42037
//  Run fault simulation without storing patterns.  pattern source = 351 external patterns
//  ------------------------------------------------------------------------
//  #patterns  test      #faults  #faults    # eff.    # test         process 
//  simulated  coverage  in list  detected   patterns  patterns       CPU time
//   64         56.57%    18255     23782       64         0          0.54 sec
//   128        61.55%    16162      2093       64         0          0.63 sec
//   192        64.06%    15110      1052       63         0          0.70 sec
//   256        65.20%    14628       482       55         0          0.76 sec
//   320        66.22%    14202       426       54         0          0.82 sec
//   351        66.57%    14055       147       27         0          0.88 sec
