// | ------------------------------------------------------------------------------------------------------------------ |
// |                                                                                                                    |
// |          Current split capture setting:     Off (optimal)                                                          |
// |                                                                                                                    |
// |   Current clock off simulation setting:     Off (optimal)                                                          |
// | ------------------------------------------------------------------------------------------------------------------ |
//  ------------------------------------------------------------------------
//  Simulation performed for #gates = 20077  #faults = 44779
//  Run fault simulation without storing patterns.  pattern source = 347 external patterns
//  ------------------------------------------------------------------------
//  #patterns  test      #faults  #faults    # eff.    # test         process 
//  simulated  coverage  in list  detected   patterns  patterns       CPU time
//   64         44.32%    24933     19846       64         0          0.40 sec
//   128        46.86%    23796      1137       63         0          0.51 sec
//   192        48.40%    23104       692       54         0          0.60 sec
//   256        49.34%    22683       421       56         0          0.69 sec
//   320        50.61%    22115       568       49         0          0.78 sec
//   347        51.06%    21913       202       21         0          0.86 sec
