// | ------------------------------------------------------------------------------------------------------------------ |
// |                                                                                                                    |
// |          Current split capture setting:     Off (optimal)                                                          |
// |                                                                                                                    |
// |   Current clock off simulation setting:     Off (optimal)                                                          |
// | ------------------------------------------------------------------------------------------------------------------ |
//  ------------------------------------------------------------------------
//  Simulation performed for #gates = 20077  #faults = 44325
//  Run fault simulation without storing patterns.  pattern source = 321 external patterns
//  ------------------------------------------------------------------------
//  #patterns  test      #faults  #faults    # eff.    # test         process 
//  simulated  coverage  in list  detected   patterns  patterns       CPU time
//   64         50.91%    21757     22568       64         0          0.46 sec
//   128        54.44%    20195      1562       64         0          0.56 sec
//   192        56.40%    19327       868       60         0          0.64 sec
//   256        57.68%    18760       567       51         0          0.73 sec
//   320        58.92%    18209       551       48         0          0.80 sec
//   321        58.94%    18200         9        1         0          0.86 sec
