// | ------------------------------------------------------------------------------------------------------------------ |
// |                                                                                                                    |
// |          Current split capture setting:     Off (optimal)                                                          |
// |                                                                                                                    |
// |   Current clock off simulation setting:     Off (optimal)                                                          |
// | ------------------------------------------------------------------------------------------------------------------ |
//  ------------------------------------------------------------------------
//  Simulation performed for #gates = 20077  #faults = 44552
//  Run fault simulation without storing patterns.  pattern source = 294 external patterns
//  ------------------------------------------------------------------------
//  #patterns  test      #faults  #faults    # eff.    # test         process 
//  simulated  coverage  in list  detected   patterns  patterns       CPU time
//   64         48.45%    22966     21586       64         0          0.44 sec
//   128        52.17%    21311      1655       61         0          0.54 sec
//   192        54.73%    20170      1141       59         0          0.64 sec
//   256        56.29%    19472       698       51         0          0.72 sec
//   294        57.40%    18978       494       34         0          0.80 sec
