// | ------------------------------------------------------------------------------------------------------------------ |
// |                                                                                                                    |
// |          Current split capture setting:     Off (optimal)                                                          |
// |                                                                                                                    |
// |   Current clock off simulation setting:     Off (optimal)                                                          |
// | ------------------------------------------------------------------------------------------------------------------ |
//  ------------------------------------------------------------------------
//  Simulation performed for #gates = 20077  #faults = 45097
//  Run fault simulation without storing patterns.  pattern source = 327 external patterns
//  ------------------------------------------------------------------------
//  #patterns  test      #faults  #faults    # eff.    # test         process 
//  simulated  coverage  in list  detected   patterns  patterns       CPU time
//   64         54.01%    20739     24358       64         0          0.55 sec
//   128        58.57%    18685      2054       64         0          0.65 sec
//   192        61.50%    17363      1322       64         0          0.73 sec
//   256        63.21%    16593       770       58         0          0.80 sec
//   320        64.29%    16102       491       53         0          0.87 sec
//   327        64.35%    16075        27        6         0          0.92 sec
