// | ------------------------------------------------------------------------------------------------------------------ |
// |                                                                                                                    |
// |          Current split capture setting:     Off (optimal)                                                          |
// |                                                                                                                    |
// |   Current clock off simulation setting:     Off (optimal)                                                          |
// | ------------------------------------------------------------------------------------------------------------------ |
//  ------------------------------------------------------------------------
//  Simulation performed for #gates = 20077  #faults = 42590
//  Run fault simulation without storing patterns.  pattern source = 326 external patterns
//  ------------------------------------------------------------------------
//  #patterns  test      #faults  #faults    # eff.    # test         process 
//  simulated  coverage  in list  detected   patterns  patterns       CPU time
//   64         46.92%    22605     19985       64         0          0.38 sec
//   128        52.82%    20096      2509       63         0          0.48 sec
//   192        55.54%    18937      1159       57         0          0.55 sec
//   256        57.70%    18016       921       47         0          0.63 sec
//   320        59.17%    17389       627       50         0          0.69 sec
//   326        59.33%    17321        68        6         0          0.75 sec
