// | ------------------------------------------------------------------------------------------------------------------ |
// |                                                                                                                    |
// |          Current split capture setting:     Off (optimal)                                                          |
// |                                                                                                                    |
// |   Current clock off simulation setting:     Off (optimal)                                                          |
// | ------------------------------------------------------------------------------------------------------------------ |
//  ------------------------------------------------------------------------
//  Simulation performed for #gates = 20077  #faults = 42658
//  Run fault simulation without storing patterns.  pattern source = 303 external patterns
//  ------------------------------------------------------------------------
//  #patterns  test      #faults  #faults    # eff.    # test         process 
//  simulated  coverage  in list  detected   patterns  patterns       CPU time
//   64         46.38%    22873     19785       64         0          0.41 sec
//   128        50.08%    21295      1578       60         0          0.51 sec
//   192        53.02%    20040      1255       55         0          0.61 sec
//   256        54.17%    19549       491       48         0          0.69 sec
//   303        55.11%    19150       399       35         0          0.77 sec
