// | ------------------------------------------------------------------------------------------------------------------ |
// |                                                                                                                    |
// |          Current split capture setting:     Off (optimal)                                                          |
// |                                                                                                                    |
// |   Current clock off simulation setting:     Off (optimal)                                                          |
// | ------------------------------------------------------------------------------------------------------------------ |
//  ------------------------------------------------------------------------
//  Simulation performed for #gates = 20077  #faults = 43945
//  Run fault simulation without storing patterns.  pattern source = 294 external patterns
//  ------------------------------------------------------------------------
//  #patterns  test      #faults  #faults    # eff.    # test         process 
//  simulated  coverage  in list  detected   patterns  patterns       CPU time
//   64         54.13%    20157     23788       64         0          0.52 sec
//   128        60.49%    17363      2794       64         0          0.61 sec
//   192        63.43%    16070      1293       62         0          0.69 sec
//   256        65.41%    15201       869       58         0          0.75 sec
//   294        65.82%    15019       182       26         0          0.81 sec
