// | ------------------------------------------------------------------------------------------------------------------ |
// |                                                                                                                    |
// |          Current split capture setting:     Off (optimal)                                                          |
// |                                                                                                                    |
// |   Current clock off simulation setting:     Off (optimal)                                                          |
// | ------------------------------------------------------------------------------------------------------------------ |
//  ------------------------------------------------------------------------
//  Simulation performed for #gates = 20077  #faults = 44273
//  Run fault simulation without storing patterns.  pattern source = 316 external patterns
//  ------------------------------------------------------------------------
//  #patterns  test      #faults  #faults    # eff.    # test         process 
//  simulated  coverage  in list  detected   patterns  patterns       CPU time
//   64         50.38%    21967     22306       64         0          0.52 sec
//   128        55.39%    19750      2217       64         0          0.62 sec
//   192        58.01%    18592      1158       63         0          0.71 sec
//   256        60.02%    17700       892       60         0          0.79 sec
//   316        60.97%    17279       421       50         0          0.86 sec
