// | ------------------------------------------------------------------------------------------------------------------ |
// |                                                                                                                    |
// |          Current split capture setting:     Off (optimal)                                                          |
// |                                                                                                                    |
// |   Current clock off simulation setting:     Off (optimal)                                                          |
// | ------------------------------------------------------------------------------------------------------------------ |
//  ------------------------------------------------------------------------
//  Simulation performed for #gates = 20077  #faults = 42453
//  Run fault simulation without storing patterns.  pattern source = 289 external patterns
//  ------------------------------------------------------------------------
//  #patterns  test      #faults  #faults    # eff.    # test         process 
//  simulated  coverage  in list  detected   patterns  patterns       CPU time
//   64         47.20%    22417     20036       64         0          0.43 sec
//   128        51.82%    20455      1962       58         0          0.53 sec
//   192        53.82%    19605       850       53         0          0.61 sec
//   256        56.35%    18529      1076       51         0          0.69 sec
//   289        57.32%    18117       412       23         0          0.77 sec
