// | ------------------------------------------------------------------------------------------------------------------ |
// |                                                                                                                    |
// |          Current split capture setting:     Off (optimal)                                                          |
// |                                                                                                                    |
// |   Current clock off simulation setting:     Off (optimal)                                                          |
// | ------------------------------------------------------------------------------------------------------------------ |
//  ------------------------------------------------------------------------
//  Simulation performed for #gates = 20077  #faults = 41193
//  Run fault simulation without storing patterns.  pattern source = 326 external patterns
//  ------------------------------------------------------------------------
//  #patterns  test      #faults  #faults    # eff.    # test         process 
//  simulated  coverage  in list  detected   patterns  patterns       CPU time
//   64         49.96%    20615     20578       64         0          0.42 sec
//   128        55.62%    18282      2333       63         0          0.51 sec
//   192        58.49%    17098      1184       62         0          0.59 sec
//   256        59.64%    16624       474       54         0          0.66 sec
//   320        60.90%    16105       519       51         0          0.73 sec
//   326        60.93%    16095        10        4         0          0.78 sec
