// | ------------------------------------------------------------------------------------------------------------------ |
// |                                                                                                                    |
// |          Current split capture setting:     Off (optimal)                                                          |
// |                                                                                                                    |
// |   Current clock off simulation setting:     Off (optimal)                                                          |
// | ------------------------------------------------------------------------------------------------------------------ |
//  ------------------------------------------------------------------------
//  Simulation performed for #gates = 20077  #faults = 44565
//  Run fault simulation without storing patterns.  pattern source = 326 external patterns
//  ------------------------------------------------------------------------
//  #patterns  test      #faults  #faults    # eff.    # test         process 
//  simulated  coverage  in list  detected   patterns  patterns       CPU time
//   64         52.39%    21218     23347       64         0          0.53 sec
//   128        56.62%    19332      1886       63         0          0.62 sec
//   192        58.97%    18283      1049       61         0          0.71 sec
//   256        60.86%    17441       842       56         0          0.78 sec
//   320        62.05%    16911       530       57         0          0.85 sec
//   326        62.07%    16902         9        3         0          0.91 sec
