// | ------------------------------------------------------------------------------------------------------------------ |
// |                                                                                                                    |
// |          Current split capture setting:     Off (optimal)                                                          |
// |                                                                                                                    |
// |   Current clock off simulation setting:     Off (optimal)                                                          |
// | ------------------------------------------------------------------------------------------------------------------ |
//  ------------------------------------------------------------------------
//  Simulation performed for #gates = 20077  #faults = 41193
//  Run fault simulation without storing patterns.  pattern source = 328 external patterns
//  ------------------------------------------------------------------------
//  #patterns  test      #faults  #faults    # eff.    # test         process 
//  simulated  coverage  in list  detected   patterns  patterns       CPU time
//   64         48.51%    21211     19982       64         0          0.41 sec
//   128        53.33%    19224      1987       62         0          0.51 sec
//   192        55.63%    18279       945       56         0          0.59 sec
//   256        56.75%    17814       465       55         0          0.66 sec
//   320        58.67%    17027       787       53         0          0.73 sec
//   328        58.84%    16954        73        4         0          0.79 sec
