// | ------------------------------------------------------------------------------------------------------------------ |
// |                                                                                                                    |
// |          Current split capture setting:     Off (optimal)                                                          |
// |                                                                                                                    |
// |   Current clock off simulation setting:     Off (optimal)                                                          |
// | ------------------------------------------------------------------------------------------------------------------ |
//  ------------------------------------------------------------------------
//  Simulation performed for #gates = 20077  #faults = 42990
//  Run fault simulation without storing patterns.  pattern source = 319 external patterns
//  ------------------------------------------------------------------------
//  #patterns  test      #faults  #faults    # eff.    # test         process 
//  simulated  coverage  in list  detected   patterns  patterns       CPU time
//   64         56.58%    18666     24324       64         0          0.50 sec
//   128        61.67%    16479      2187       64         0          0.59 sec
//   192        64.28%    15357      1122       64         0          0.66 sec
//   256        65.83%    14691       666       61         0          0.72 sec
//   319        66.78%    14280       411       53         0          0.78 sec
