// | ------------------------------------------------------------------------------------------------------------------ |
// |                                                                                                                    |
// |          Current split capture setting:     Off (optimal)                                                          |
// |                                                                                                                    |
// |   Current clock off simulation setting:     Off (optimal)                                                          |
// | ------------------------------------------------------------------------------------------------------------------ |
//  ------------------------------------------------------------------------
//  Simulation performed for #gates = 20077  #faults = 43289
//  Run fault simulation without storing patterns.  pattern source = 335 external patterns
//  ------------------------------------------------------------------------
//  #patterns  test      #faults  #faults    # eff.    # test         process 
//  simulated  coverage  in list  detected   patterns  patterns       CPU time
//   64         44.28%    24122     19167       64         0          0.43 sec
//   128        48.58%    22260      1862       61         0          0.54 sec
//   192        52.18%    20699      1561       55         0          0.64 sec
//   256        53.96%    19931       768       54         0          0.73 sec
//   320        56.26%    18934       997       50         0          0.82 sec
//   335        56.83%    18689       245       10         0          0.89 sec
