// | ------------------------------------------------------------------------------------------------------------------ |
// |                                                                                                                    |
// |          Current split capture setting:     Off (optimal)                                                          |
// |                                                                                                                    |
// |   Current clock off simulation setting:     Off (optimal)                                                          |
// | ------------------------------------------------------------------------------------------------------------------ |
//  ------------------------------------------------------------------------
//  Simulation performed for #gates = 20077  #faults = 44842
//  Run fault simulation without storing patterns.  pattern source = 332 external patterns
//  ------------------------------------------------------------------------
//  #patterns  test      #faults  #faults    # eff.    # test         process 
//  simulated  coverage  in list  detected   patterns  patterns       CPU time
//   64         51.50%    21748     23094       64         0          0.54 sec
//   128        56.26%    19613      2135       64         0          0.65 sec
//   192        59.16%    18313      1300       64         0          0.74 sec
//   256        60.59%    17671       642       57         0          0.82 sec
//   320        61.25%    17376       295       48         0          0.89 sec
//   332        61.36%    17326        50        9         0          0.96 sec
