// | ------------------------------------------------------------------------------------------------------------------ |
// |                                                                                                                    |
// |          Current split capture setting:     Off (optimal)                                                          |
// |                                                                                                                    |
// |   Current clock off simulation setting:     Off (optimal)                                                          |
// | ------------------------------------------------------------------------------------------------------------------ |
//  ------------------------------------------------------------------------
//  Simulation performed for #gates = 20077  #faults = 45537
//  Run fault simulation without storing patterns.  pattern source = 281 external patterns
//  ------------------------------------------------------------------------
//  #patterns  test      #faults  #faults    # eff.    # test         process 
//  simulated  coverage  in list  detected   patterns  patterns       CPU time
//   64         51.33%    22165     23372       64         0          0.53 sec
//   128        56.17%    19961      2204       64         0          0.64 sec
//   192        58.16%    19051       910       62         0          0.72 sec
//   256        59.61%    18394       657       54         0          0.81 sec
//   281        59.90%    18260       134       21         0          0.88 sec
