// | ------------------------------------------------------------------------------------------------------------------ |
// |                                                                                                                    |
// |          Current split capture setting:     Off (optimal)                                                          |
// |                                                                                                                    |
// |   Current clock off simulation setting:     Off (optimal)                                                          |
// | ------------------------------------------------------------------------------------------------------------------ |
//  ------------------------------------------------------------------------
//  Simulation performed for #gates = 20077  #faults = 41193
//  Run fault simulation without storing patterns.  pattern source = 305 external patterns
//  ------------------------------------------------------------------------
//  #patterns  test      #faults  #faults    # eff.    # test         process 
//  simulated  coverage  in list  detected   patterns  patterns       CPU time
//   64         49.33%    20871     20322       64         0          0.42 sec
//   128        53.21%    19276      1595       63         0          0.51 sec
//   192        55.74%    18233      1043       59         0          0.59 sec
//   256        57.08%    17680       553       53         0          0.67 sec
//   305        58.56%    17071       609       41         0          0.74 sec
