// | ------------------------------------------------------------------------------------------------------------------ |
// |                                                                                                                    |
// |          Current split capture setting:     Off (optimal)                                                          |
// |                                                                                                                    |
// |   Current clock off simulation setting:     Off (optimal)                                                          |
// | ------------------------------------------------------------------------------------------------------------------ |
//  ------------------------------------------------------------------------
//  Simulation performed for #gates = 20077  #faults = 43063
//  Run fault simulation without storing patterns.  pattern source = 339 external patterns
//  ------------------------------------------------------------------------
//  #patterns  test      #faults  #faults    # eff.    # test         process 
//  simulated  coverage  in list  detected   patterns  patterns       CPU time
//   64         57.70%    18214     24849       64         0          0.52 sec
//   128        62.96%    15952      2262       64         0          0.61 sec
//   192        65.41%    14897      1055       64         0          0.68 sec
//   256        67.03%    14200       697       61         0          0.75 sec
//   320        68.02%    13773       427       52         0          0.81 sec
//   339        68.44%    13592       181       19         0          0.86 sec
