// | ------------------------------------------------------------------------------------------------------------------ |
// |                                                                                                                    |
// |          Current split capture setting:     Off (optimal)                                                          |
// |                                                                                                                    |
// |   Current clock off simulation setting:     Off (optimal)                                                          |
// | ------------------------------------------------------------------------------------------------------------------ |
//  ------------------------------------------------------------------------
//  Simulation performed for #gates = 20077  #faults = 44834
//  Run fault simulation without storing patterns.  pattern source = 326 external patterns
//  ------------------------------------------------------------------------
//  #patterns  test      #faults  #faults    # eff.    # test         process 
//  simulated  coverage  in list  detected   patterns  patterns       CPU time
//   64         49.17%    22787     22047       64         0          0.54 sec
//   128        53.65%    20780      2007       63         0          0.66 sec
//   192        56.05%    19706      1074       60         0          0.75 sec
//   256        57.39%    19103       603       54         0          0.84 sec
//   320        58.66%    18535       568       55         0          0.92 sec
//   326        58.74%    18497        38        5         0          0.99 sec
