// | ------------------------------------------------------------------------------------------------------------------ |
// |                                                                                                                    |
// |          Current split capture setting:     Off (optimal)                                                          |
// |                                                                                                                    |
// |   Current clock off simulation setting:     Off (optimal)                                                          |
// | ------------------------------------------------------------------------------------------------------------------ |
//  ------------------------------------------------------------------------
//  Simulation performed for #gates = 20077  #faults = 41834
//  Run fault simulation without storing patterns.  pattern source = 305 external patterns
//  ------------------------------------------------------------------------
//  #patterns  test      #faults  #faults    # eff.    # test         process 
//  simulated  coverage  in list  detected   patterns  patterns       CPU time
//   64         50.20%    20833     21001       64         0          0.43 sec
//   128        54.47%    19046      1787       63         0          0.52 sec
//   192        56.08%    18375       671       53         0          0.59 sec
//   256        57.61%    17732       643       47         0          0.66 sec
//   305        58.93%    17180       552       40         0          0.73 sec
