// | ------------------------------------------------------------------------------------------------------------------ |
// |                                                                                                                    |
// |          Current split capture setting:     Off (optimal)                                                          |
// |                                                                                                                    |
// |   Current clock off simulation setting:     Off (optimal)                                                          |
// | ------------------------------------------------------------------------------------------------------------------ |
//  ------------------------------------------------------------------------
//  Simulation performed for #gates = 20077  #faults = 42590
//  Run fault simulation without storing patterns.  pattern source = 323 external patterns
//  ------------------------------------------------------------------------
//  #patterns  test      #faults  #faults    # eff.    # test         process 
//  simulated  coverage  in list  detected   patterns  patterns       CPU time
//   64         50.33%    21153     21437       64         0          0.39 sec
//   128        54.45%    19399      1754       63         0          0.48 sec
//   192        56.26%    18627       772       53         0          0.56 sec
//   256        58.25%    17780       847       51         0          0.63 sec
//   320        59.46%    17268       512       46         0          0.70 sec
//   323        59.50%    17251        17        2         0          0.75 sec
