// | ------------------------------------------------------------------------------------------------------------------ |
// |                                                                                                                    |
// |          Current split capture setting:     Off (optimal)                                                          |
// |                                                                                                                    |
// |   Current clock off simulation setting:     Off (optimal)                                                          |
// | ------------------------------------------------------------------------------------------------------------------ |
//  ------------------------------------------------------------------------
//  Simulation performed for #gates = 20077  #faults = 44081
//  Run fault simulation without storing patterns.  pattern source = 332 external patterns
//  ------------------------------------------------------------------------
//  #patterns  test      #faults  #faults    # eff.    # test         process 
//  simulated  coverage  in list  detected   patterns  patterns       CPU time
//   64         55.81%    19479     24602       64         0          0.53 sec
//   128        60.04%    17614      1865       63         0          0.61 sec
//   192        62.74%    16424      1190       62         0          0.69 sec
//   256        64.58%    15612       812       63         0          0.76 sec
//   320        66.24%    14881       731       52         0          0.82 sec
//   332        66.41%    14806        75        8         0          0.87 sec
