	*******************************************************
	*                                                     *
	*            Welcome to HOPE (version 2.0)            *
	*                                                     *
	*               Dong S. Ha (ha@vt.edu)                *
	*            Web: http://www.ee.vt.edu/ha             *
	*  Virginia Polytechnic Institute & State University  *
	*                                                     *
	*******************************************************

******   SUMMARY OF SIMULATION RESULTS   ******
1. Circuit structure
   Name of circuit                           : mc1_dual_exmpl1_motivating__example_
   Number of primary inputs                  : 6
   Number of primary outputs                 : 2
   Number of flip-flops                      : 0
   Number of gates                           : 7
   Level of the circuit                      : 4

2. Simulator input parameters
   Simulation mode                           : file (/home/animesh/currentResearch/ISI/secureada/PycharmProject/RandomTestCov/mc1_take1.test)

3. Simulation results
   Number of test patterns applied           : 8
   Fault coverage                            : 86.364 %
   Number of collapsed faults                : 22
   Number of detected faults                 : 19
   Number of undetected faults               : 3

4. Memory used                               : 21680 Kbytes

5. CPU time
   Initialization                            : 0.000 secs
   Fault simulation                          : 0.000 secs
   Total                                     : 0.000 secs
