// | ------------------------------------------------------------------------------------------------------------------ |
// |                                                                                                                    |
// |          Current split capture setting:     Off (optimal)                                                          |
// |                                                                                                                    |
// |   Current clock off simulation setting:     Off (optimal)                                                          |
// | ------------------------------------------------------------------------------------------------------------------ |
//  ------------------------------------------------------------------------
//  Simulation performed for #gates = 12864  #faults = 25984
//  Run fault simulation without storing patterns.  pattern source = 438 external patterns
//  ------------------------------------------------------------------------
//  #patterns  test      #faults  #faults    # eff.    # test         process 
//  simulated  coverage  in list  detected   patterns  patterns       CPU time
//   64         15.26%    22018      3966       64         0          0.13 sec
//   128        16.65%    21658       360       56         0          0.19 sec
//   192        17.21%    21513       145       43         0          0.26 sec
//   256        17.86%    21343       170       42         0          0.32 sec
//   320        18.18%    21260        83       33         0          0.37 sec
//   384        18.36%    21214        46       24         0          0.43 sec
//   438        18.46%    21188        26       14         0          0.49 sec
