// | ------------------------------------------------------------------------------------------------------------------ |
// |                                                                                                                    |
// |          Current split capture setting:     Off (optimal)                                                          |
// |                                                                                                                    |
// |   Current clock off simulation setting:     Off (optimal)                                                          |
// | ------------------------------------------------------------------------------------------------------------------ |
//  ------------------------------------------------------------------------
//  Simulation performed for #gates = 12864  #faults = 25984
//  Run fault simulation without storing patterns.  pattern source = 394 external patterns
//  ------------------------------------------------------------------------
//  #patterns  test      #faults  #faults    # eff.    # test         process 
//  simulated  coverage  in list  detected   patterns  patterns       CPU time
//   64         12.67%    22691      3293       64         0          0.11 sec
//   128        13.91%    22369       322       52         0          0.17 sec
//   192        14.73%    22156       213       40         0          0.24 sec
//   256        15.41%    21981       175       43         0          0.30 sec
//   320        16.16%    21785       196       48         0          0.36 sec
//   384        16.74%    21634       151       43         0          0.42 sec
//   394        16.83%    21610        24        5         0          0.47 sec
