          Statistics Report          
           Stuck-at Faults           
-------------------------------------
Fault Classes              #faults   
                           (coll.)   
---------------------  --------------
  FU (full)                 2648     
  -------------------  --------------
  DS (det_simulation)    836 (31.57%)
  TI (tied)              346 (13.07%)
  BL (blocked)           291 (10.99%)
  RE (redundant)        1175 (44.37%)
-------------------------------------
Coverage                             
  -------------------                
  test_coverage              100.00% 
  fault_coverage              31.57% 
  atpg_effectiveness         100.00% 
-------------------------------------
#test_patterns                    85 
#simulated_patterns              125 
CPU_time (secs)                  1.8 
-------------------------------------

