           Statistics Report          
            Stuck-at Faults           
--------------------------------------
Fault Classes               #faults   
                            (coll.)   
----------------------  --------------
  FU (full)                  20876    
  --------------------  --------------
  DS (det_simulation)   14895 (71.35%)
  TI (tied)               389 ( 1.86%)
  BL (blocked)            518 ( 2.48%)
  RE (redundant)         5071 (24.29%)
  AU (atpg_untestable)      3 ( 0.01%)
--------------------------------------
Coverage                              
  --------------------                
  test_coverage                99.98% 
  fault_coverage               71.35% 
  atpg_effectiveness          100.00% 
--------------------------------------
#test_patterns                    368 
#simulated_patterns               391 
CPU_time (secs)                  11.4 
--------------------------------------

