//  command: set_current_design b14_C 
//  Warning: 1 case: Unused net in DFT library model
//  Note: Issue set_current_design with the -show_elaboration_warnings option to see more details about previous warnings
//  command: set_system_mode analysis
//  Flattening process completed,  design_cells=5856  leaf_cells=5856  library_primitives=5856  sim_gates=6497  PIs=277  POs=245  CPU time=0.02 sec.
//  ---------------------------------------------------------------------------
//  Begin circuit learning analyses.
//  --------------------------------
//  Learning completed, CPU time=0.03 sec.
//  ---------------------------------------------------------------------------
//  Begin scan chain identification process, memory elements = 0.
//  ---------------------------------------------------------------------------
//  Circuit has no memory elements.
//  command: add_faults -all
//  command: set_fault_mode collapsed
//  command: set_fault_type stuck
//  command: create_patterns 
// | ------------------------------------------------------------------------------------------------------------------ |
// |                                             Analyzing the design                                                   |
// |                                                                                                                    |
// |      Current clock restriction setting:     Domain_clock (edge interaction)                                        |
// |                                             (optimal)                                                              |
// |                                                                                                                    |
// |          Current split capture setting:     Off (optimal)                                                          |
// |                                                                                                                    |
// |   Current clock off simulation setting:     Off (optimal)                                                          |
// |                                                                                                                    |
// |            Current abort limit setting:     30                                                                     |
// |                                Calling:     set_abort_limit 300 100                                                |
// | ------------------------------------------------------------------------------------------------------------------ |
// |                                                                                                                    |
// |               Current sequential depth:     0 (optimal)                                                            |
// |                                                                                                                    |
// | ------------------------------------------------------------------------------------------------------------------ |
//  ------------------------------------------------------------------------
//  Simulation performed for #gates = 6497  #faults = 11480
//  system mode = analysis    pattern source = internal patterns
//  ------------------------------------------------------------------------
//  #patterns  test      #faults  #faults    # eff.    # test         process      RE/AU/AAB
//  simulated  coverage  in list  detected   patterns  patterns       CPU time
//  deterministic ATPG invoked with comb/seq abort limit = 300/100
//   ---        ------      ---       ---      ---       ---          1.31 sec     486/16/1
//   64         59.80%     4404      6574       64        64          1.42 sec
//   ---        ------      ---       ---      ---       ---          3.26 sec     2094/84/9
//   128        76.34%     2137       591       57       121          3.27 sec
//   ---        ------      ---       ---      ---       ---          5.31 sec     3912/163/20
//   192        97.03%       62       178       48       169          5.32 sec
//   ---        ------      ---       ---      ---       ---          5.32 sec     3912/163/20
//   229        97.60%       19        43       29       198          5.32 sec
//  -----------------------------------------------------------------------
//  Performing redundant fault identification for 19 faults
//  -----------------------------------------------------------------------
//  deterministic ATPG invoked with abort limit = 300
//  # red.    # non-red.   # abort     # remn.   progress   test        process
//  faults      faults      faults      faults              coverage    CPU time
//       0           0         19            0   100.00%    97.60%       0.39 sec
// | ------------------------------------------------------------------------------------------------------------------ |
// |                                                                                                                    |
// |                   Next step suggestion:     (optional)                                                             |
// |              If truncating pattern set:     Use command 'order_patterns 3'                                         |
// |                                                                                                                    |
// | ------------------------------------------------------------------------------------------------------------------ |
           Statistics Report          
            Stuck-at Faults           
--------------------------------------
Fault Classes               #faults   
                            (coll.)   
----------------------  --------------
  FU (full)                  15054    
  --------------------  --------------
  UO (unobserved)          19 ( 0.13%)
  DS (det_simulation)    7386 (49.06%)
  UU (unused)               4 ( 0.03%)
  TI (tied)               948 ( 6.30%)
  BL (blocked)           2622 (17.42%)
  RE (redundant)         3912 (25.99%)
  AU (atpg_untestable)    163 ( 1.08%)
--------------------------------------
Fault Sub-classes                     
  --------------------                
  UC+UO                               
    AAB  (atpg_abort)      19 ( 0.13%)
--------------------------------------
Coverage                              
  --------------------                
  test_coverage                97.60% 
  fault_coverage               49.06% 
  atpg_effectiveness           99.87% 
--------------------------------------
#test_patterns                    198 
#simulated_patterns               229 
CPU_time (secs)                   7.3 
--------------------------------------

//  command: write_patterns /home/animesh/currentResearch/ISI/atpg_structural/code/dumpData/tessent/itc99/b14_synth/seventyPercent/b14_synth_seventyPercent_25.spf -stil -rep
//  command: report_statistics > /home/animesh/currentResearch/ISI/atpg_structural/code/dumpData/tessent/itc99/b14_synth/seventyPercent/b14_synth_seventyPercent_25.atpg.result
//  command: exit 
