// | ------------------------------------------------------------------------------------------------------------------ |
// |                                                                                                                    |
// |          Current split capture setting:     Off (optimal)                                                          |
// |                                                                                                                    |
// |   Current clock off simulation setting:     Off (optimal)                                                          |
// | ------------------------------------------------------------------------------------------------------------------ |
//  ------------------------------------------------------------------------
//  Simulation performed for #gates = 256  #faults = 557
//  Run fault simulation without storing patterns.  pattern source = 75 external patterns
//  ------------------------------------------------------------------------
//  #patterns  test      #faults  #faults    # eff.    # test         process 
//  simulated  coverage  in list  detected   patterns  patterns       CPU time
//   64         72.53%      153       404       34         0          0.00 sec
//   75         75.94%      134        19        5         0          0.00 sec
