	*******************************************************
	*                                                     *
	*          Welcome to atalanta (version 2.0)          *
	*                                                     *
	*               Dong S. Ha (ha@vt.edu)                *
	*            Web: http://www.ee.vt.edu/ha             *
	*  Virginia Polytechnic Institute & State University  *
	*                                                     *
	*******************************************************

******   SUMMARY OF TEST PATTERN GENERATION RESULTS   ******
1. Circuit structure
   Name of the circuit                       : combinational_logic_example_"c7552"
   Number of primary inputs                  : 207
   Number of primary outputs                 : 108
   Number of gates                           : 3512
   Level of the circuit                      : 43

2. ATPG parameters
   Test pattern generation mode              : RPT + DTPG + TC
   Limit of random patterns (packets)        : 16
   Backtrack limit                           : 10
   Initial random number generator seed      : 1556014746
   Test pattern compaction mode              : REVERSE + SHUFFLE 
   Limit of suffling compaction              : 2
   Number of shuffles                        : 14

3. Test pattern generation results
   Number of test patterns before compaction : 349
   Number of test patterns after compaction  : 204
   Fault coverage                            : 98.199 %
   Number of collapsed faults                : 7550
   Number of identified redundant faults     : 71
   Number of aborted faults                  : 65
   Total number of backtrackings             : 900

4. Memory used                               : 12603 Kbytes

5. CPU time
   Initialization                            : 0.000 secs
   Fault simulation                          : 0.167 secs
   FAN                                       : 0.217 secs
   Total                                     : 0.383 secs
