	*******************************************************
	*                                                     *
	*            Welcome to HOPE (version 2.0)            *
	*                                                     *
	*               Dong S. Ha (ha@vt.edu)                *
	*            Web: http://www.ee.vt.edu/ha             *
	*  Virginia Polytechnic Institute & State University  *
	*                                                     *
	*******************************************************

******   SUMMARY OF SIMULATION RESULTS   ******
1. Circuit structure
   Name of circuit                           : s38584.1
   Number of primary inputs                  : 1464
   Number of primary outputs                 : 1730
   Number of flip-flops                      : 0
   Number of gates                           : 19405
   Level of the circuit                      : 56

2. Simulator input parameters
   Simulation mode                           : file (/home/animesh/currentResearch/ISI/atpg_structural/code/testData/atalanta/tests/iscas89/s38584.test)

3. Simulation results
   Number of test patterns applied           : 652
   Fault coverage                            : 69.553 %
   Number of collapsed faults                : 36303
   Number of detected faults                 : 25250
   Number of undetected faults               : 11053

4. Memory used                               : 47853 Kbytes

5. CPU time
   Initialization                            : 0.067 secs
   Fault simulation                          : 1.200 secs
   Total                                     : 1.267 secs
