	*******************************************************
	*                                                     *
	*            Welcome to HOPE (version 2.0)            *
	*                                                     *
	*               Dong S. Ha (ha@vt.edu)                *
	*            Web: http://www.ee.vt.edu/ha             *
	*  Virginia Polytechnic Institute & State University  *
	*                                                     *
	*******************************************************

******   SUMMARY OF SIMULATION RESULTS   ******
1. Circuit structure
   Name of circuit                           : s208
   Number of primary inputs                  : 19
   Number of primary outputs                 : 10
   Number of flip-flops                      : 0
   Number of gates                           : 96
   Level of the circuit                      : 14

2. Simulator input parameters
   Simulation mode                           : file (/home/animesh/currentResearch/ISI/atpg_structural/code/testData/atalanta/tests/iscas89/s208.test)

3. Simulation results
   Number of test patterns applied           : 33
   Fault coverage                            : 64.651 %
   Number of collapsed faults                : 215
   Number of detected faults                 : 139
   Number of undetected faults               : 76

4. Memory used                               : 22663 Kbytes

5. CPU time
   Initialization                            : 0.000 secs
   Fault simulation                          : 0.000 secs
   Total                                     : 0.000 secs
