//  command: set_current_design top 
//  Warning: 1 case: Unused net in DFT library model
//  Note: Issue set_current_design with the -show_elaboration_warnings option to see more details about previous warnings
//  command: set_system_mode analysis
//  Flattening process completed,  design_cells=13711  leaf_cells=13711  library_primitives=13711  sim_gates=14713  PIs=1001  POs=1  CPU time=0.06 sec.
//  ---------------------------------------------------------------------------
//  Begin circuit learning analyses.
//  --------------------------------
//  Learning completed, CPU time=0.04 sec.
//  ---------------------------------------------------------------------------
//  Begin scan chain identification process, memory elements = 0.
//  ---------------------------------------------------------------------------
//  Circuit has no memory elements.
//  command: add_faults -all
//  command: set_fault_mode collapsed
//  command: set_fault_type stuck
//  command: create_patterns 
// | ------------------------------------------------------------------------------------------------------------------ |
// |                                             Analyzing the design                                                   |
// |                                                                                                                    |
// |      Current clock restriction setting:     Domain_clock (edge interaction)                                        |
// |                                             (optimal)                                                              |
// |                                                                                                                    |
// |          Current split capture setting:     Off (optimal)                                                          |
// |                                                                                                                    |
// |   Current clock off simulation setting:     Off (optimal)                                                          |
// |                                                                                                                    |
// |            Current abort limit setting:     30                                                                     |
// |                                Calling:     set_abort_limit 300 100                                                |
// | ------------------------------------------------------------------------------------------------------------------ |
// |                                                                                                                    |
// |               Current sequential depth:     0 (optimal)                                                            |
// |                                                                                                                    |
// | ------------------------------------------------------------------------------------------------------------------ |
//  ------------------------------------------------------------------------
//  Simulation performed for #gates = 14713  #faults = 37239
//  system mode = analysis    pattern source = internal patterns
//  ------------------------------------------------------------------------
//  #patterns  test      #faults  #faults    # eff.    # test         process      RE/AU/AAB
//  simulated  coverage  in list  detected   patterns  patterns       CPU time
//  deterministic ATPG invoked with comb/seq abort limit = 300/100
//   ---        ------      ---       ---      ---       ---        186.05 sec     1001/6/8035
//   64         81.65%     6643     29589       62        62        187.08 sec
//   ---        ------      ---       ---      ---       ---        246.49 sec     4439/29/10664
//   128        95.33%     1504      1678       59       121        246.56 sec
//   ---        ------      ---       ---      ---       ---        246.56 sec     4439/29/10664
//   133        95.49%     1449        55        5       126        246.57 sec
// | ------------------------------------------------------------------------------------------------------------------ |
// |                                                                                                                    |
// |                   Aborted faults check:     There are 1449 undetected aborted faults.                              |
// |                                                                                                                    |
// | ------------------------------------------------------------------------------------------------------------------ |
// | ------------------------------------------------------------------------------------------------------------------ |
// |                                                                                                                    |
// |                                Calling:     set_abort_limit 3000 1000                                              |
// |                                                                                                                    |
// | ------------------------------------------------------------------------------------------------------------------ |
//  ------------------------------------------------------------------------
//  Simulation performed for #gates = 14713  #faults = 1449
//  system mode = analysis    pattern source = internal patterns
//  ------------------------------------------------------------------------
//  #patterns  test      #faults  #faults    # eff.    # test         process      RE/AU/AAB
//  simulated  coverage  in list  detected   patterns  patterns       CPU time
//  deterministic ATPG invoked with comb/seq abort limit = 3000/1000
//   ---        ------      ---       ---      ---       ---         26.21 sec     4439/29/145
//   138        95.85%     1332       117        5       131         26.22 sec
// | ------------------------------------------------------------------------------------------------------------------ |
// |                                                                                                                    |
// |                                Warning:     Pattern creation aborted.                                              |
// |                                 Reason:     Too many faults still abort.                                           |
// |                                                                                                                    |
// | ------------------------------------------------------------------------------------------------------------------ |
//  -----------------------------------------------------------------------
//  Performing redundant fault identification for 1332 faults
//  -----------------------------------------------------------------------
//  deterministic ATPG invoked with abort limit = 30
//  # red.    # non-red.   # abort     # remn.   progress   test        process
//  faults      faults      faults      faults              coverage    CPU time
//       2           0       1330            0   100.00%    95.86%       6.45 sec
// | ------------------------------------------------------------------------------------------------------------------ |
// |                                                                                                                    |
// |                   Next step suggestion:     (optional)                                                             |
// |              If truncating pattern set:     Use command 'order_patterns 3'                                         |
// |                                                                                                                    |
// | ------------------------------------------------------------------------------------------------------------------ |
           Statistics Report          
            Stuck-at Faults           
--------------------------------------
Fault Classes               #faults   
                            (coll.)   
----------------------  --------------
  FU (full)                  40696    
  --------------------  --------------
  UC (uncontrolled)         1 ( 0.00%)
  UO (unobserved)        1329 ( 3.27%)
  DS (det_simulation)   31439 (77.25%)
  TI (tied)              2224 ( 5.46%)
  BL (blocked)           1233 ( 3.03%)
  RE (redundant)         4441 (10.91%)
  AU (atpg_untestable)     29 ( 0.07%)
--------------------------------------
Fault Sub-classes                     
  --------------------                
  UC+UO                               
    AAB  (atpg_abort)    1330 ( 3.27%)
--------------------------------------
Coverage                              
  --------------------                
  test_coverage                95.86% 
  fault_coverage               77.25% 
  atpg_effectiveness           96.73% 
--------------------------------------
#test_patterns                    131 
#simulated_patterns               138 
CPU_time (secs)                 281.2 
--------------------------------------

//  command: write_patterns /home/animesh/currentResearch/ISI/atpg_structural/code/dumpData/tessent/epfl/random_control/voter_synth/tenPercent/voter_synth_tenPercent_24.spf -stil -rep
//  command: report_statistics > /home/animesh/currentResearch/ISI/atpg_structural/code/dumpData/tessent/epfl/random_control/voter_synth/tenPercent/voter_synth_tenPercent_24.atpg.result
//  command: exit 
