// | ------------------------------------------------------------------------------------------------------------------ |
// |                                                                                                                    |
// |          Current split capture setting:     Off (optimal)                                                          |
// |                                                                                                                    |
// |   Current clock off simulation setting:     Off (optimal)                                                          |
// | ------------------------------------------------------------------------------------------------------------------ |
//  ------------------------------------------------------------------------
//  Simulation performed for #gates = 9044  #faults = 20470
//  Run fault simulation without storing patterns.  pattern source = 310 external patterns
//  ------------------------------------------------------------------------
//  #patterns  test      #faults  #faults    # eff.    # test         process 
//  simulated  coverage  in list  detected   patterns  patterns       CPU time
//   64         50.43%    10147     10323       64         0          0.16 sec
//   128        54.33%     9349       798       63         0          0.19 sec
//   192        56.13%     8980       369       57         0          0.22 sec
//   256        57.98%     8601       379       49         0          0.25 sec
//   310        58.73%     8447       154       34         0          0.27 sec
