// | ------------------------------------------------------------------------------------------------------------------ |
// |                                                                                                                    |
// |          Current split capture setting:     Off (optimal)                                                          |
// |                                                                                                                    |
// |   Current clock off simulation setting:     Off (optimal)                                                          |
// | ------------------------------------------------------------------------------------------------------------------ |
//  ------------------------------------------------------------------------
//  Simulation performed for #gates = 9044  #faults = 20289
//  Run fault simulation without storing patterns.  pattern source = 333 external patterns
//  ------------------------------------------------------------------------
//  #patterns  test      #faults  #faults    # eff.    # test         process 
//  simulated  coverage  in list  detected   patterns  patterns       CPU time
//   64         48.26%    10498      9791       64         0          0.15 sec
//   128        53.22%     9491      1007       62         0          0.19 sec
//   192        55.36%     9058       433       54         0          0.22 sec
//   256        56.90%     8744       314       49         0          0.25 sec
//   320        57.95%     8531       213       47         0          0.28 sec
//   333        58.19%     8482        49        8         0          0.30 sec
