// | ------------------------------------------------------------------------------------------------------------------ |
// |                                                                                                                    |
// |          Current split capture setting:     Off (optimal)                                                          |
// |                                                                                                                    |
// |   Current clock off simulation setting:     Off (optimal)                                                          |
// | ------------------------------------------------------------------------------------------------------------------ |
//  ------------------------------------------------------------------------
//  Simulation performed for #gates = 9044  #faults = 20719
//  Run fault simulation without storing patterns.  pattern source = 328 external patterns
//  ------------------------------------------------------------------------
//  #patterns  test      #faults  #faults    # eff.    # test         process 
//  simulated  coverage  in list  detected   patterns  patterns       CPU time
//   64         48.22%    10728      9991       64         0          0.13 sec
//   128        51.31%    10088       640       62         0          0.17 sec
//   192        53.40%     9655       433       56         0          0.20 sec
//   256        55.05%     9314       341       51         0          0.23 sec
//   320        55.92%     9133       181       46         0          0.25 sec
//   328        56.02%     9112        21        8         0          0.28 sec
