// | ------------------------------------------------------------------------------------------------------------------ |
// |                                                                                                                    |
// |          Current split capture setting:     Off (optimal)                                                          |
// |                                                                                                                    |
// |   Current clock off simulation setting:     Off (optimal)                                                          |
// | ------------------------------------------------------------------------------------------------------------------ |
//  ------------------------------------------------------------------------
//  Simulation performed for #gates = 9044  #faults = 20619
//  Run fault simulation without storing patterns.  pattern source = 385 external patterns
//  ------------------------------------------------------------------------
//  #patterns  test      #faults  #faults    # eff.    # test         process 
//  simulated  coverage  in list  detected   patterns  patterns       CPU time
//   64         48.79%    10559     10060       64         0          0.14 sec
//   128        52.28%     9839       720       60         0          0.17 sec
//   192        54.04%     9477       362       50         0          0.20 sec
//   256        55.42%     9191       286       49         0          0.23 sec
//   320        56.31%     9009       182       36         0          0.26 sec
//   384        56.76%     8915        94       27         0          0.28 sec
