// | ------------------------------------------------------------------------------------------------------------------ |
// |                                                                                                                    |
// |          Current split capture setting:     Off (optimal)                                                          |
// |                                                                                                                    |
// |   Current clock off simulation setting:     Off (optimal)                                                          |
// | ------------------------------------------------------------------------------------------------------------------ |
//  ------------------------------------------------------------------------
//  Simulation performed for #gates = 9044  #faults = 20203
//  Run fault simulation without storing patterns.  pattern source = 315 external patterns
//  ------------------------------------------------------------------------
//  #patterns  test      #faults  #faults    # eff.    # test         process 
//  simulated  coverage  in list  detected   patterns  patterns       CPU time
//   64         51.97%     9703     10500       64         0          0.15 sec
//   128        56.66%     8756       947       64         0          0.18 sec
//   192        58.54%     8377       379       55         0          0.21 sec
//   256        60.10%     8060       317       51         0          0.23 sec
//   315        61.07%     7865       195       43         0          0.26 sec
