// | ------------------------------------------------------------------------------------------------------------------ |
// |                                                                                                                    |
// |          Current split capture setting:     Off (optimal)                                                          |
// |                                                                                                                    |
// |   Current clock off simulation setting:     Off (optimal)                                                          |
// | ------------------------------------------------------------------------------------------------------------------ |
//  ------------------------------------------------------------------------
//  Simulation performed for #gates = 9044  #faults = 20428
//  Run fault simulation without storing patterns.  pattern source = 323 external patterns
//  ------------------------------------------------------------------------
//  #patterns  test      #faults  #faults    # eff.    # test         process 
//  simulated  coverage  in list  detected   patterns  patterns       CPU time
//   64         49.33%    10350     10078       64         0          0.15 sec
//   128        53.03%     9595       755       63         0          0.18 sec
//   192        55.01%     9190       405       55         0          0.21 sec
//   256        56.10%     8967       223       48         0          0.24 sec
//   320        57.14%     8756       211       49         0          0.27 sec
//   323        57.16%     8751         5        2         0          0.29 sec
