// | ------------------------------------------------------------------------------------------------------------------ |
// |                                                                                                                    |
// |          Current split capture setting:     Off (optimal)                                                          |
// |                                                                                                                    |
// |   Current clock off simulation setting:     Off (optimal)                                                          |
// | ------------------------------------------------------------------------------------------------------------------ |
//  ------------------------------------------------------------------------
//  Simulation performed for #gates = 9044  #faults = 20344
//  Run fault simulation without storing patterns.  pattern source = 353 external patterns
//  ------------------------------------------------------------------------
//  #patterns  test      #faults  #faults    # eff.    # test         process 
//  simulated  coverage  in list  detected   patterns  patterns       CPU time
//   64         52.19%     9727     10617       64         0          0.17 sec
//   128        56.62%     8826       901       58         0          0.21 sec
//   192        59.21%     8299       527       54         0          0.24 sec
//   256        60.38%     8060       239       45         0          0.26 sec
//   320        61.25%     7884       176       43         0          0.29 sec
//   353        61.59%     7814        70       19         0          0.31 sec
