// | ------------------------------------------------------------------------------------------------------------------ |
// |                                                                                                                    |
// |          Current split capture setting:     Off (optimal)                                                          |
// |                                                                                                                    |
// |   Current clock off simulation setting:     Off (optimal)                                                          |
// | ------------------------------------------------------------------------------------------------------------------ |
//  ------------------------------------------------------------------------
//  Simulation performed for #gates = 9044  #faults = 20495
//  Run fault simulation without storing patterns.  pattern source = 347 external patterns
//  ------------------------------------------------------------------------
//  #patterns  test      #faults  #faults    # eff.    # test         process 
//  simulated  coverage  in list  detected   patterns  patterns       CPU time
//   64         49.49%    10351     10144       64         0          0.14 sec
//   128        53.40%     9551       800       63         0          0.18 sec
//   192        55.56%     9109       442       60         0          0.21 sec
//   256        57.31%     8749       360       50         0          0.24 sec
//   320        58.20%     8567       182       37         0          0.26 sec
//   347        58.67%     8470        97       19         0          0.29 sec
