// | ------------------------------------------------------------------------------------------------------------------ |
// |                                                                                                                    |
// |          Current split capture setting:     Off (optimal)                                                          |
// |                                                                                                                    |
// |   Current clock off simulation setting:     Off (optimal)                                                          |
// | ------------------------------------------------------------------------------------------------------------------ |
//  ------------------------------------------------------------------------
//  Simulation performed for #gates = 9044  #faults = 20260
//  Run fault simulation without storing patterns.  pattern source = 316 external patterns
//  ------------------------------------------------------------------------
//  #patterns  test      #faults  #faults    # eff.    # test         process 
//  simulated  coverage  in list  detected   patterns  patterns       CPU time
//   64         49.09%    10315      9945       64         0          0.16 sec
//   128        53.53%     9415       900       63         0          0.19 sec
//   192        55.83%     8949       466       60         0          0.22 sec
//   256        57.26%     8660       289       44         0          0.25 sec
//   316        58.39%     8430       230       46         0          0.28 sec
