// | ------------------------------------------------------------------------------------------------------------------ |
// |                                                                                                                    |
// |          Current split capture setting:     Off (optimal)                                                          |
// |                                                                                                                    |
// |   Current clock off simulation setting:     Off (optimal)                                                          |
// | ------------------------------------------------------------------------------------------------------------------ |
//  ------------------------------------------------------------------------
//  Simulation performed for #gates = 9044  #faults = 20410
//  Run fault simulation without storing patterns.  pattern source = 315 external patterns
//  ------------------------------------------------------------------------
//  #patterns  test      #faults  #faults    # eff.    # test         process 
//  simulated  coverage  in list  detected   patterns  patterns       CPU time
//   64         49.97%    10212     10198       64         0          0.14 sec
//   128        53.57%     9476       736       61         0          0.18 sec
//   192        55.63%     9055       421       52         0          0.20 sec
//   256        57.22%     8731       324       50         0          0.23 sec
//   315        57.93%     8586       145       31         0          0.26 sec
