// | ------------------------------------------------------------------------------------------------------------------ |
// |                                                                                                                    |
// |          Current split capture setting:     Off (optimal)                                                          |
// |                                                                                                                    |
// |   Current clock off simulation setting:     Off (optimal)                                                          |
// | ------------------------------------------------------------------------------------------------------------------ |
//  ------------------------------------------------------------------------
//  Simulation performed for #gates = 9044  #faults = 20410
//  Run fault simulation without storing patterns.  pattern source = 353 external patterns
//  ------------------------------------------------------------------------
//  #patterns  test      #faults  #faults    # eff.    # test         process 
//  simulated  coverage  in list  detected   patterns  patterns       CPU time
//   64         50.55%    10092     10318       64         0          0.15 sec
//   128        53.71%     9447       645       61         0          0.18 sec
//   192        55.25%     9133       314       58         0          0.21 sec
//   256        56.85%     8806       327       48         0          0.24 sec
//   320        57.82%     8609       197       40         0          0.26 sec
//   353        58.03%     8566        43       16         0          0.29 sec
