// | ------------------------------------------------------------------------------------------------------------------ |
// |                                                                                                                    |
// |          Current split capture setting:     Off (optimal)                                                          |
// |                                                                                                                    |
// |   Current clock off simulation setting:     Off (optimal)                                                          |
// | ------------------------------------------------------------------------------------------------------------------ |
//  ------------------------------------------------------------------------
//  Simulation performed for #gates = 9044  #faults = 19648
//  Run fault simulation without storing patterns.  pattern source = 350 external patterns
//  ------------------------------------------------------------------------
//  #patterns  test      #faults  #faults    # eff.    # test         process 
//  simulated  coverage  in list  detected   patterns  patterns       CPU time
//   64         53.45%     9147     10501       64         0          0.15 sec
//   128        57.58%     8334       813       60         0          0.18 sec
//   192        59.57%     7944       390       54         0          0.21 sec
//   256        61.02%     7658       286       42         0          0.24 sec
//   320        62.17%     7433       225       42         0          0.26 sec
//   350        62.52%     7364        69       20         0          0.28 sec
