// | ------------------------------------------------------------------------------------------------------------------ |
// |                                                                                                                    |
// |          Current split capture setting:     Off (optimal)                                                          |
// |                                                                                                                    |
// |   Current clock off simulation setting:     Off (optimal)                                                          |
// | ------------------------------------------------------------------------------------------------------------------ |
//  ------------------------------------------------------------------------
//  Simulation performed for #gates = 9044  #faults = 19938
//  Run fault simulation without storing patterns.  pattern source = 302 external patterns
//  ------------------------------------------------------------------------
//  #patterns  test      #faults  #faults    # eff.    # test         process 
//  simulated  coverage  in list  detected   patterns  patterns       CPU time
//   64         48.76%    10216      9722       64         0          0.14 sec
//   128        52.61%     9449       767       61         0          0.18 sec
//   192        54.96%     8981       468       57         0          0.21 sec
//   256        56.34%     8705       276       50         0          0.23 sec
//   302        57.33%     8507       198       28         0          0.26 sec
