// | ------------------------------------------------------------------------------------------------------------------ |
// |                                                                                                                    |
// |          Current split capture setting:     Off (optimal)                                                          |
// |                                                                                                                    |
// |   Current clock off simulation setting:     Off (optimal)                                                          |
// | ------------------------------------------------------------------------------------------------------------------ |
//  ------------------------------------------------------------------------
//  Simulation performed for #gates = 9044  #faults = 19856
//  Run fault simulation without storing patterns.  pattern source = 288 external patterns
//  ------------------------------------------------------------------------
//  #patterns  test      #faults  #faults    # eff.    # test         process 
//  simulated  coverage  in list  detected   patterns  patterns       CPU time
//   64         52.65%     9402     10454       64         0          0.15 sec
//   128        57.00%     8539       863       62         0          0.18 sec
//   192        59.34%     8073       466       54         0          0.20 sec
//   256        60.78%     7787       286       51         0          0.23 sec
//   288        61.24%     7697        90       23         0          0.25 sec
