// | ------------------------------------------------------------------------------------------------------------------ |
// |                                                                                                                    |
// |          Current split capture setting:     Off (optimal)                                                          |
// |                                                                                                                    |
// |   Current clock off simulation setting:     Off (optimal)                                                          |
// | ------------------------------------------------------------------------------------------------------------------ |
//  ------------------------------------------------------------------------
//  Simulation performed for #gates = 9044  #faults = 20555
//  Run fault simulation without storing patterns.  pattern source = 315 external patterns
//  ------------------------------------------------------------------------
//  #patterns  test      #faults  #faults    # eff.    # test         process 
//  simulated  coverage  in list  detected   patterns  patterns       CPU time
//   64         49.05%    10472     10083       64         0          0.17 sec
//   128        53.43%     9572       900       63         0          0.20 sec
//   192        55.45%     9158       414       58         0          0.23 sec
//   256        57.12%     8813       345       54         0          0.26 sec
//   315        57.71%     8692       121       41         0          0.29 sec
