// | ------------------------------------------------------------------------------------------------------------------ |
// |                                                                                                                    |
// |          Current split capture setting:     Off (optimal)                                                          |
// |                                                                                                                    |
// |   Current clock off simulation setting:     Off (optimal)                                                          |
// | ------------------------------------------------------------------------------------------------------------------ |
//  ------------------------------------------------------------------------
//  Simulation performed for #gates = 9044  #faults = 20410
//  Run fault simulation without storing patterns.  pattern source = 336 external patterns
//  ------------------------------------------------------------------------
//  #patterns  test      #faults  #faults    # eff.    # test         process 
//  simulated  coverage  in list  detected   patterns  patterns       CPU time
//   64         49.99%    10207     10203       64         0          0.15 sec
//   128        53.22%     9547       660       62         0          0.18 sec
//   192        55.46%     9090       457       58         0          0.21 sec
//   256        57.08%     8759       331       45         0          0.24 sec
//   320        57.84%     8604       155       37         0          0.27 sec
//   336        57.93%     8586        18        9         0          0.29 sec
