// | ------------------------------------------------------------------------------------------------------------------ |
// |                                                                                                                    |
// |          Current split capture setting:     Off (optimal)                                                          |
// |                                                                                                                    |
// |   Current clock off simulation setting:     Off (optimal)                                                          |
// | ------------------------------------------------------------------------------------------------------------------ |
//  ------------------------------------------------------------------------
//  Simulation performed for #gates = 9044  #faults = 20353
//  Run fault simulation without storing patterns.  pattern source = 361 external patterns
//  ------------------------------------------------------------------------
//  #patterns  test      #faults  #faults    # eff.    # test         process 
//  simulated  coverage  in list  detected   patterns  patterns       CPU time
//   64         52.50%     9667     10686       64         0          0.15 sec
//   128        55.96%     8963       704       62         0          0.18 sec
//   192        57.69%     8611       352       51         0          0.21 sec
//   256        59.13%     8318       293       49         0          0.24 sec
//   320        60.02%     8137       181       43         0          0.26 sec
//   361        60.53%     8034       103       21         0          0.29 sec
