// | ------------------------------------------------------------------------------------------------------------------ |
// |                                                                                                                    |
// |          Current split capture setting:     Off (optimal)                                                          |
// |                                                                                                                    |
// |   Current clock off simulation setting:     Off (optimal)                                                          |
// | ------------------------------------------------------------------------------------------------------------------ |
//  ------------------------------------------------------------------------
//  Simulation performed for #gates = 9044  #faults = 19951
//  Run fault simulation without storing patterns.  pattern source = 324 external patterns
//  ------------------------------------------------------------------------
//  #patterns  test      #faults  #faults    # eff.    # test         process 
//  simulated  coverage  in list  detected   patterns  patterns       CPU time
//   64         48.87%    10201      9750       64         0          0.15 sec
//   128        52.54%     9468       733       59         0          0.18 sec
//   192        54.68%     9042       426       55         0          0.21 sec
//   256        55.72%     8834       208       40         0          0.24 sec
//   320        56.95%     8589       245       37         0          0.27 sec
//   324        57.00%     8579        10        3         0          0.29 sec
