// | ------------------------------------------------------------------------------------------------------------------ |
// |                                                                                                                    |
// |          Current split capture setting:     Off (optimal)                                                          |
// |                                                                                                                    |
// |   Current clock off simulation setting:     Off (optimal)                                                          |
// | ------------------------------------------------------------------------------------------------------------------ |
//  ------------------------------------------------------------------------
//  Simulation performed for #gates = 9044  #faults = 20260
//  Run fault simulation without storing patterns.  pattern source = 324 external patterns
//  ------------------------------------------------------------------------
//  #patterns  test      #faults  #faults    # eff.    # test         process 
//  simulated  coverage  in list  detected   patterns  patterns       CPU time
//   64         49.32%    10268      9992       64         0          0.15 sec
//   128        53.20%     9482       786       62         0          0.19 sec
//   192        55.41%     9034       448       53         0          0.22 sec
//   256        56.81%     8751       283       53         0          0.24 sec
//   320        57.99%     8512       239       42         0          0.27 sec
//   324        58.07%     8495        17        3         0          0.29 sec
