// | ------------------------------------------------------------------------------------------------------------------ |
// |                                                                                                                    |
// |          Current split capture setting:     Off (optimal)                                                          |
// |                                                                                                                    |
// |   Current clock off simulation setting:     Off (optimal)                                                          |
// | ------------------------------------------------------------------------------------------------------------------ |
//  ------------------------------------------------------------------------
//  Simulation performed for #gates = 9044  #faults = 20218
//  Run fault simulation without storing patterns.  pattern source = 324 external patterns
//  ------------------------------------------------------------------------
//  #patterns  test      #faults  #faults    # eff.    # test         process 
//  simulated  coverage  in list  detected   patterns  patterns       CPU time
//   64         50.48%    10011     10207       64         0          0.14 sec
//   128        55.04%     9090       921       62         0          0.18 sec
//   192        57.04%     8686       404       51         0          0.21 sec
//   256        58.58%     8375       311       48         0          0.24 sec
//   320        59.77%     8134       241       46         0          0.26 sec
//   324        59.86%     8116        18        3         0          0.28 sec
