// | ------------------------------------------------------------------------------------------------------------------ |
// |                                                                                                                    |
// |          Current split capture setting:     Off (optimal)                                                          |
// |                                                                                                                    |
// |   Current clock off simulation setting:     Off (optimal)                                                          |
// | ------------------------------------------------------------------------------------------------------------------ |
//  ------------------------------------------------------------------------
//  Simulation performed for #gates = 9044  #faults = 20587
//  Run fault simulation without storing patterns.  pattern source = 302 external patterns
//  ------------------------------------------------------------------------
//  #patterns  test      #faults  #faults    # eff.    # test         process 
//  simulated  coverage  in list  detected   patterns  patterns       CPU time
//   64         48.61%    10579     10008       64         0          0.16 sec
//   128        52.49%     9780       799       61         0          0.20 sec
//   192        55.44%     9174       606       54         0          0.23 sec
//   256        57.33%     8784       390       51         0          0.26 sec
//   302        57.79%     8690        94       31         0          0.28 sec
