// | ------------------------------------------------------------------------------------------------------------------ |
// |                                                                                                                    |
// |          Current split capture setting:     Off (optimal)                                                          |
// |                                                                                                                    |
// |   Current clock off simulation setting:     Off (optimal)                                                          |
// | ------------------------------------------------------------------------------------------------------------------ |
//  ------------------------------------------------------------------------
//  Simulation performed for #gates = 9044  #faults = 20224
//  Run fault simulation without storing patterns.  pattern source = 347 external patterns
//  ------------------------------------------------------------------------
//  #patterns  test      #faults  #faults    # eff.    # test         process 
//  simulated  coverage  in list  detected   patterns  patterns       CPU time
//   64         48.57%    10401      9823       64         0          0.14 sec
//   128        52.01%     9706       695       61         0          0.17 sec
//   192        54.53%     9196       510       56         0          0.20 sec
//   256        55.46%     9007       189       42         0          0.23 sec
//   320        56.22%     8854       153       34         0          0.26 sec
//   347        56.61%     8775        79       16         0          0.28 sec
