// | ------------------------------------------------------------------------------------------------------------------ |
// |                                                                                                                    |
// |          Current split capture setting:     Off (optimal)                                                          |
// |                                                                                                                    |
// |   Current clock off simulation setting:     Off (optimal)                                                          |
// | ------------------------------------------------------------------------------------------------------------------ |
//  ------------------------------------------------------------------------
//  Simulation performed for #gates = 9044  #faults = 20440
//  Run fault simulation without storing patterns.  pattern source = 328 external patterns
//  ------------------------------------------------------------------------
//  #patterns  test      #faults  #faults    # eff.    # test         process 
//  simulated  coverage  in list  detected   patterns  patterns       CPU time
//   64         46.76%    10883      9557       63         0          0.15 sec
//   128        51.14%     9987       896       61         0          0.19 sec
//   192        53.65%     9474       513       58         0          0.22 sec
//   256        55.00%     9198       276       50         0          0.25 sec
//   320        55.96%     9001       197       44         0          0.28 sec
//   328        56.05%     8984        17        8         0          0.30 sec
