// | ------------------------------------------------------------------------------------------------------------------ |
// |                                                                                                                    |
// |          Current split capture setting:     Off (optimal)                                                          |
// |                                                                                                                    |
// |   Current clock off simulation setting:     Off (optimal)                                                          |
// | ------------------------------------------------------------------------------------------------------------------ |
//  ------------------------------------------------------------------------
//  Simulation performed for #gates = 9044  #faults = 20353
//  Run fault simulation without storing patterns.  pattern source = 350 external patterns
//  ------------------------------------------------------------------------
//  #patterns  test      #faults  #faults    # eff.    # test         process 
//  simulated  coverage  in list  detected   patterns  patterns       CPU time
//   64         52.24%     9721     10632       64         0          0.15 sec
//   128        56.79%     8794       927       62         0          0.19 sec
//   192        58.73%     8400       394       58         0          0.22 sec
//   256        59.70%     8203       197       48         0          0.24 sec
//   320        60.73%     7992       211       43         0          0.27 sec
//   350        61.02%     7933        59       17         0          0.29 sec
