// | ------------------------------------------------------------------------------------------------------------------ |
// |                                                                                                                    |
// |          Current split capture setting:     Off (optimal)                                                          |
// |                                                                                                                    |
// |   Current clock off simulation setting:     Off (optimal)                                                          |
// | ------------------------------------------------------------------------------------------------------------------ |
//  ------------------------------------------------------------------------
//  Simulation performed for #gates = 9044  #faults = 20619
//  Run fault simulation without storing patterns.  pattern source = 315 external patterns
//  ------------------------------------------------------------------------
//  #patterns  test      #faults  #faults    # eff.    # test         process 
//  simulated  coverage  in list  detected   patterns  patterns       CPU time
//   64         48.09%    10703      9916       64         0          0.14 sec
//   128        51.89%     9920       783       61         0          0.17 sec
//   192        54.52%     9377       543       55         0          0.20 sec
//   256        55.73%     9129       248       42         0          0.23 sec
//   315        56.60%     8948       181       36         0          0.26 sec
