// | ------------------------------------------------------------------------------------------------------------------ |
// |                                                                                                                    |
// |          Current split capture setting:     Off (optimal)                                                          |
// |                                                                                                                    |
// |   Current clock off simulation setting:     Off (optimal)                                                          |
// | ------------------------------------------------------------------------------------------------------------------ |
//  ------------------------------------------------------------------------
//  Simulation performed for #gates = 9044  #faults = 19553
//  Run fault simulation without storing patterns.  pattern source = 337 external patterns
//  ------------------------------------------------------------------------
//  #patterns  test      #faults  #faults    # eff.    # test         process 
//  simulated  coverage  in list  detected   patterns  patterns       CPU time
//   64         48.62%    10046      9507       64         0          0.14 sec
//   128        52.84%     9221       825       62         0          0.18 sec
//   192        55.07%     8786       435       50         0          0.21 sec
//   256        56.27%     8551       235       43         0          0.24 sec
//   320        57.58%     8294       257       42         0          0.26 sec
//   337        57.73%     8265        29        8         0          0.29 sec
