// | ------------------------------------------------------------------------------------------------------------------ |
// |                                                                                                                    |
// |          Current split capture setting:     Off (optimal)                                                          |
// |                                                                                                                    |
// |   Current clock off simulation setting:     Off (optimal)                                                          |
// | ------------------------------------------------------------------------------------------------------------------ |
//  ------------------------------------------------------------------------
//  Simulation performed for #gates = 9044  #faults = 20344
//  Run fault simulation without storing patterns.  pattern source = 328 external patterns
//  ------------------------------------------------------------------------
//  #patterns  test      #faults  #faults    # eff.    # test         process 
//  simulated  coverage  in list  detected   patterns  patterns       CPU time
//   64         52.05%     9754     10590       64         0          0.18 sec
//   128        56.53%     8843       911       63         0          0.21 sec
//   192        58.54%     8434       409       57         0          0.24 sec
//   256        59.99%     8140       294       52         0          0.26 sec
//   320        61.12%     7909       231       50         0          0.29 sec
//   328        61.28%     7877        32        5         0          0.31 sec
