// | ------------------------------------------------------------------------------------------------------------------ |
// |                                                                                                                    |
// |          Current split capture setting:     Off (optimal)                                                          |
// |                                                                                                                    |
// |   Current clock off simulation setting:     Off (optimal)                                                          |
// | ------------------------------------------------------------------------------------------------------------------ |
//  ------------------------------------------------------------------------
//  Simulation performed for #gates = 9044  #faults = 20292
//  Run fault simulation without storing patterns.  pattern source = 355 external patterns
//  ------------------------------------------------------------------------
//  #patterns  test      #faults  #faults    # eff.    # test         process 
//  simulated  coverage  in list  detected   patterns  patterns       CPU time
//   64         48.96%    10357      9935       64         0          0.16 sec
//   128        53.23%     9490       867       62         0          0.20 sec
//   192        55.08%     9116       374       53         0          0.23 sec
//   256        56.31%     8866       250       44         0          0.26 sec
//   320        57.21%     8682       184       44         0          0.29 sec
//   355        57.57%     8610        72       15         0          0.31 sec
