// | ------------------------------------------------------------------------------------------------------------------ |
// |                                                                                                                    |
// |          Current split capture setting:     Off (optimal)                                                          |
// |                                                                                                                    |
// |   Current clock off simulation setting:     Off (optimal)                                                          |
// | ------------------------------------------------------------------------------------------------------------------ |
//  ------------------------------------------------------------------------
//  Simulation performed for #gates = 9044  #faults = 20218
//  Run fault simulation without storing patterns.  pattern source = 306 external patterns
//  ------------------------------------------------------------------------
//  #patterns  test      #faults  #faults    # eff.    # test         process 
//  simulated  coverage  in list  detected   patterns  patterns       CPU time
//   64         51.73%     9760     10458       64         0          0.15 sec
//   128        55.56%     8985       775       58         0          0.18 sec
//   192        57.68%     8556       429       54         0          0.21 sec
//   256        59.28%     8232       324       51         0          0.23 sec
//   306        59.93%     8102       130       26         0          0.26 sec
