// | ------------------------------------------------------------------------------------------------------------------ |
// |                                                                                                                    |
// |          Current split capture setting:     Off (optimal)                                                          |
// |                                                                                                                    |
// |   Current clock off simulation setting:     Off (optimal)                                                          |
// | ------------------------------------------------------------------------------------------------------------------ |
//  ------------------------------------------------------------------------
//  Simulation performed for #gates = 9044  #faults = 20333
//  Run fault simulation without storing patterns.  pattern source = 310 external patterns
//  ------------------------------------------------------------------------
//  #patterns  test      #faults  #faults    # eff.    # test         process 
//  simulated  coverage  in list  detected   patterns  patterns       CPU time
//   64         46.20%    10939      9394       64         0          0.13 sec
//   128        49.68%    10232       707       58         0          0.17 sec
//   192        51.58%     9846       386       57         0          0.20 sec
//   256        52.91%     9574       272       38         0          0.23 sec
//   310        53.92%     9369       205       40         0          0.25 sec
