// | ------------------------------------------------------------------------------------------------------------------ |
// |                                                                                                                    |
// |          Current split capture setting:     Off (optimal)                                                          |
// |                                                                                                                    |
// |   Current clock off simulation setting:     Off (optimal)                                                          |
// | ------------------------------------------------------------------------------------------------------------------ |
//  ------------------------------------------------------------------------
//  Simulation performed for #gates = 9044  #faults = 20601
//  Run fault simulation without storing patterns.  pattern source = 316 external patterns
//  ------------------------------------------------------------------------
//  #patterns  test      #faults  #faults    # eff.    # test         process 
//  simulated  coverage  in list  detected   patterns  patterns       CPU time
//   64         48.63%    10583     10018       64         0          0.15 sec
//   128        53.12%     9657       926       59         0          0.19 sec
//   192        54.45%     9383       274       49         0          0.22 sec
//   256        55.36%     9197       186       42         0          0.25 sec
//   316        56.03%     9059       138       36         0          0.27 sec
