// | ------------------------------------------------------------------------------------------------------------------ |
// |                                                                                                                    |
// |          Current split capture setting:     Off (optimal)                                                          |
// |                                                                                                                    |
// |   Current clock off simulation setting:     Off (optimal)                                                          |
// | ------------------------------------------------------------------------------------------------------------------ |
//  ------------------------------------------------------------------------
//  Simulation performed for #gates = 9044  #faults = 20178
//  Run fault simulation without storing patterns.  pattern source = 340 external patterns
//  ------------------------------------------------------------------------
//  #patterns  test      #faults  #faults    # eff.    # test         process 
//  simulated  coverage  in list  detected   patterns  patterns       CPU time
//   64         46.13%    10870      9308       64         0          0.15 sec
//   128        50.45%     9999       871       57         0          0.19 sec
//   192        52.37%     9611       388       53         0          0.22 sec
//   256        54.15%     9252       359       42         0          0.25 sec
//   320        54.87%     9106       146       32         0          0.28 sec
//   340        55.22%     9035        71       14         0          0.30 sec
