// | ------------------------------------------------------------------------------------------------------------------ |
// |                                                                                                                    |
// |          Current split capture setting:     Off (optimal)                                                          |
// |                                                                                                                    |
// |   Current clock off simulation setting:     Off (optimal)                                                          |
// | ------------------------------------------------------------------------------------------------------------------ |
//  ------------------------------------------------------------------------
//  Simulation performed for #gates = 9044  #faults = 20571
//  Run fault simulation without storing patterns.  pattern source = 367 external patterns
//  ------------------------------------------------------------------------
//  #patterns  test      #faults  #faults    # eff.    # test         process 
//  simulated  coverage  in list  detected   patterns  patterns       CPU time
//   64         47.84%    10730      9841       64         0          0.15 sec
//   128        51.83%     9910       820       60         0          0.19 sec
//   192        53.54%     9558       352       52         0          0.22 sec
//   256        54.77%     9305       253       46         0          0.25 sec
//   320        55.59%     9135       170       41         0          0.28 sec
//   367        56.13%     9024       111       28         0          0.30 sec
