// | ------------------------------------------------------------------------------------------------------------------ |
// |                                                                                                                    |
// |          Current split capture setting:     Off (optimal)                                                          |
// |                                                                                                                    |
// |   Current clock off simulation setting:     Off (optimal)                                                          |
// | ------------------------------------------------------------------------------------------------------------------ |
//  ------------------------------------------------------------------------
//  Simulation performed for #gates = 9044  #faults = 20619
//  Run fault simulation without storing patterns.  pattern source = 331 external patterns
//  ------------------------------------------------------------------------
//  #patterns  test      #faults  #faults    # eff.    # test         process 
//  simulated  coverage  in list  detected   patterns  patterns       CPU time
//   64         48.09%    10704      9915       64         0          0.14 sec
//   128        51.50%    10000       704       60         0          0.18 sec
//   192        53.55%     9577       423       57         0          0.21 sec
//   256        55.09%     9259       318       51         0          0.23 sec
//   320        55.88%     9097       162       23         0          0.26 sec
//   331        56.06%     9060        37        8         0          0.29 sec
