// | ------------------------------------------------------------------------------------------------------------------ |
// |                                                                                                                    |
// |          Current split capture setting:     Off (optimal)                                                          |
// |                                                                                                                    |
// |   Current clock off simulation setting:     Off (optimal)                                                          |
// | ------------------------------------------------------------------------------------------------------------------ |
//  ------------------------------------------------------------------------
//  Simulation performed for #gates = 9044  #faults = 20251
//  Run fault simulation without storing patterns.  pattern source = 286 external patterns
//  ------------------------------------------------------------------------
//  #patterns  test      #faults  #faults    # eff.    # test         process 
//  simulated  coverage  in list  detected   patterns  patterns       CPU time
//   64         51.15%     9892     10359       64         0          0.16 sec
//   128        55.71%     8970       922       63         0          0.20 sec
//   192        58.31%     8443       527       57         0          0.23 sec
//   256        59.67%     8167       276       50         0          0.25 sec
//   286        60.34%     8031       136       21         0          0.28 sec
