// | ------------------------------------------------------------------------------------------------------------------ |
// |                                                                                                                    |
// |          Current split capture setting:     Off (optimal)                                                          |
// |                                                                                                                    |
// |   Current clock off simulation setting:     Off (optimal)                                                          |
// | ------------------------------------------------------------------------------------------------------------------ |
//  ------------------------------------------------------------------------
//  Simulation performed for #gates = 9044  #faults = 20323
//  Run fault simulation without storing patterns.  pattern source = 290 external patterns
//  ------------------------------------------------------------------------
//  #patterns  test      #faults  #faults    # eff.    # test         process 
//  simulated  coverage  in list  detected   patterns  patterns       CPU time
//   64         48.06%    10556      9767       64         0          0.14 sec
//   128        52.05%     9745       811       60         0          0.18 sec
//   192        54.31%     9285       460       56         0          0.21 sec
//   256        56.03%     8937       348       50         0          0.24 sec
//   290        56.37%     8866        71       22         0          0.26 sec
