// | ------------------------------------------------------------------------------------------------------------------ |
// |                                                                                                                    |
// |          Current split capture setting:     Off (optimal)                                                          |
// |                                                                                                                    |
// |   Current clock off simulation setting:     Off (optimal)                                                          |
// | ------------------------------------------------------------------------------------------------------------------ |
//  ------------------------------------------------------------------------
//  Simulation performed for #gates = 9044  #faults = 20587
//  Run fault simulation without storing patterns.  pattern source = 333 external patterns
//  ------------------------------------------------------------------------
//  #patterns  test      #faults  #faults    # eff.    # test         process 
//  simulated  coverage  in list  detected   patterns  patterns       CPU time
//   64         50.00%    10293     10294       64         0          0.16 sec
//   128        53.83%     9505       788       62         0          0.20 sec
//   192        56.55%     8945       560       56         0          0.23 sec
//   256        57.75%     8697       248       52         0          0.26 sec
//   320        58.80%     8482       215       46         0          0.28 sec
//   333        59.02%     8436        46       11         0          0.31 sec
