// | ------------------------------------------------------------------------------------------------------------------ |
// |                                                                                                                    |
// |          Current split capture setting:     Off (optimal)                                                          |
// |                                                                                                                    |
// |   Current clock off simulation setting:     Off (optimal)                                                          |
// | ------------------------------------------------------------------------------------------------------------------ |
//  ------------------------------------------------------------------------
//  Simulation performed for #gates = 9044  #faults = 20440
//  Run fault simulation without storing patterns.  pattern source = 315 external patterns
//  ------------------------------------------------------------------------
//  #patterns  test      #faults  #faults    # eff.    # test         process 
//  simulated  coverage  in list  detected   patterns  patterns       CPU time
//   64         48.29%    10570      9870       64         0          0.16 sec
//   128        52.51%     9707       863       62         0          0.20 sec
//   192        54.92%     9214       493       54         0          0.23 sec
//   256        56.22%     8948       266       50         0          0.26 sec
//   315        57.07%     8775       173       40         0          0.29 sec
