// | ------------------------------------------------------------------------------------------------------------------ |
// |                                                                                                                    |
// |          Current split capture setting:     Off (optimal)                                                          |
// |                                                                                                                    |
// |   Current clock off simulation setting:     Off (optimal)                                                          |
// | ------------------------------------------------------------------------------------------------------------------ |
//  ------------------------------------------------------------------------
//  Simulation performed for #gates = 9044  #faults = 20332
//  Run fault simulation without storing patterns.  pattern source = 321 external patterns
//  ------------------------------------------------------------------------
//  #patterns  test      #faults  #faults    # eff.    # test         process 
//  simulated  coverage  in list  detected   patterns  patterns       CPU time
//   64         51.39%     9884     10448       64         0          0.15 sec
//   128        55.65%     9018       866       61         0          0.19 sec
//   192        57.65%     8610       408       56         0          0.22 sec
//   256        59.13%     8310       300       48         0          0.24 sec
//   320        60.10%     8112       198       43         0          0.27 sec
//   321        60.11%     8111         1        1         0          0.29 sec
