// | ------------------------------------------------------------------------------------------------------------------ |
// |                                                                                                                    |
// |          Current split capture setting:     Off (optimal)                                                          |
// |                                                                                                                    |
// |   Current clock off simulation setting:     Off (optimal)                                                          |
// | ------------------------------------------------------------------------------------------------------------------ |
//  ------------------------------------------------------------------------
//  Simulation performed for #gates = 9044  #faults = 20540
//  Run fault simulation without storing patterns.  pattern source = 342 external patterns
//  ------------------------------------------------------------------------
//  #patterns  test      #faults  #faults    # eff.    # test         process 
//  simulated  coverage  in list  detected   patterns  patterns       CPU time
//   64         58.41%     8542     11998       64         0          0.19 sec
//   128        65.40%     7107      1435       64         0          0.22 sec
//   192        67.83%     6607       500       64         0          0.25 sec
//   256        68.91%     6386       221       64         0          0.27 sec
//   320        69.43%     6280       106       64         0          0.28 sec
//   342        69.56%     6252        28       22         0          0.30 sec
