// | ------------------------------------------------------------------------------------------------------------------ |
// |                                                                                                                    |
// |          Current split capture setting:     Off (optimal)                                                          |
// |                                                                                                                    |
// |   Current clock off simulation setting:     Off (optimal)                                                          |
// | ------------------------------------------------------------------------------------------------------------------ |
//  ------------------------------------------------------------------------
//  Simulation performed for #gates = 9044  #faults = 20236
//  Run fault simulation without storing patterns.  pattern source = 315 external patterns
//  ------------------------------------------------------------------------
//  #patterns  test      #faults  #faults    # eff.    # test         process 
//  simulated  coverage  in list  detected   patterns  patterns       CPU time
//   64         52.71%     9569     10667       64         0          0.18 sec
//   128        57.28%     8644       925       63         0          0.21 sec
//   192        59.29%     8239       405       57         0          0.24 sec
//   256        60.66%     7961       278       50         0          0.27 sec
//   315        61.66%     7759       202       40         0          0.29 sec
