// | ------------------------------------------------------------------------------------------------------------------ |
// |                                                                                                                    |
// |          Current split capture setting:     Off (optimal)                                                          |
// |                                                                                                                    |
// |   Current clock off simulation setting:     Off (optimal)                                                          |
// | ------------------------------------------------------------------------------------------------------------------ |
//  ------------------------------------------------------------------------
//  Simulation performed for #gates = 20871  #faults = 58811
//  Run fault simulation without storing patterns.  pattern source = 258 external patterns
//  ------------------------------------------------------------------------
//  #patterns  test      #faults  #faults    # eff.    # test         process 
//  simulated  coverage  in list  detected   patterns  patterns       CPU time
//   64         86.46%     7963     50848       64         0          1.66 sec
//   128        88.45%     6791      1172       64         0          1.70 sec
//   192        89.12%     6399       392       59         0          1.72 sec
//   256        89.41%     6231       168       57         0          1.74 sec
//   258        89.41%     6226         5        2         0          1.75 sec
