// | ------------------------------------------------------------------------------------------------------------------ |
// |                                                                                                                    |
// |          Current split capture setting:     Off (optimal)                                                          |
// |                                                                                                                    |
// |   Current clock off simulation setting:     Off (optimal)                                                          |
// | ------------------------------------------------------------------------------------------------------------------ |
//  ------------------------------------------------------------------------
//  Simulation performed for #gates = 20871  #faults = 58857
//  Run fault simulation without storing patterns.  pattern source = 258 external patterns
//  ------------------------------------------------------------------------
//  #patterns  test      #faults  #faults    # eff.    # test         process 
//  simulated  coverage  in list  detected   patterns  patterns       CPU time
//   64         86.77%     7784     51073       64         0          1.67 sec
//   128        88.64%     6688      1096       64         0          1.70 sec
//   192        89.19%     6360       328       64         0          1.73 sec
//   256        89.44%     6218       142       62         0          1.74 sec
//   258        89.44%     6216         2        2         0          1.76 sec
