// | ------------------------------------------------------------------------------------------------------------------ |
// |                                                                                                                    |
// |          Current split capture setting:     Off (optimal)                                                          |
// |                                                                                                                    |
// |   Current clock off simulation setting:     Off (optimal)                                                          |
// | ------------------------------------------------------------------------------------------------------------------ |
//  ------------------------------------------------------------------------
//  Simulation performed for #gates = 20871  #faults = 58845
//  Run fault simulation without storing patterns.  pattern source = 272 external patterns
//  ------------------------------------------------------------------------
//  #patterns  test      #faults  #faults    # eff.    # test         process 
//  simulated  coverage  in list  detected   patterns  patterns       CPU time
//   64         86.35%     8031     50814       64         0          1.65 sec
//   128        88.34%     6859      1172       64         0          1.69 sec
//   192        88.95%     6502       357       62         0          1.71 sec
//   256        89.23%     6336       166       56         0          1.73 sec
//   272        89.27%     6312        24       10         0          1.74 sec
