// | ------------------------------------------------------------------------------------------------------------------ |
// |                                                                                                                    |
// |          Current split capture setting:     Off (optimal)                                                          |
// |                                                                                                                    |
// |   Current clock off simulation setting:     Off (optimal)                                                          |
// | ------------------------------------------------------------------------------------------------------------------ |
//  ------------------------------------------------------------------------
//  Simulation performed for #gates = 4839  #faults = 12496
//  Run fault simulation without storing patterns.  pattern source = 151 external patterns
//  ------------------------------------------------------------------------
//  #patterns  test      #faults  #faults    # eff.    # test         process 
//  simulated  coverage  in list  detected   patterns  patterns       CPU time
//   64         54.51%     5685      6811       60         0          0.28 sec
//   128        57.57%     5302       383       35         0          0.30 sec
//   151        58.22%     5221        81       10         0          0.32 sec
