           Statistics Report          
            Stuck-at Faults           
--------------------------------------
Fault Classes               #faults   
                            (coll.)   
----------------------  --------------
  FU (full)                  5106     
  --------------------  --------------
  DS (det_simulation)    4455 (87.25%)
  TI (tied)                42 ( 0.82%)
  BL (blocked)             22 ( 0.43%)
  RE (redundant)          568 (11.12%)
  AU (atpg_untestable)     19 ( 0.37%)
--------------------------------------
Coverage                              
  --------------------                
  test_coverage                99.58% 
  fault_coverage               87.25% 
  atpg_effectiveness          100.00% 
--------------------------------------
#test_patterns                    139 
#simulated_patterns               146 
CPU_time (secs)                   2.2 
--------------------------------------

