	*******************************************************
	*                                                     *
	*            Welcome to HOPE (version 2.0)            *
	*                                                     *
	*               Dong S. Ha (ha@vt.edu)                *
	*            Web: http://www.ee.vt.edu/ha             *
	*  Virginia Polytechnic Institute & State University  *
	*                                                     *
	*******************************************************

******   SUMMARY OF SIMULATION RESULTS   ******
1. Circuit structure
   Name of circuit                           : combinational_logic_example_"c3540"
   Number of primary inputs                  : 50
   Number of primary outputs                 : 22
   Number of flip-flops                      : 0
   Number of gates                           : 1669
   Level of the circuit                      : 47

2. Simulator input parameters
   Simulation mode                           : file (/home/animesh/currentResearch/ISI/atpg_structural/code/testData/atalanta/tests/iscas85/c3540.test)

3. Simulation results
   Number of test patterns applied           : 156
   Fault coverage                            : 25.671 %
   Number of collapsed faults                : 3428
   Number of detected faults                 : 880
   Number of undetected faults               : 2548

4. Memory used                               : 18837 Kbytes

5. CPU time
   Initialization                            : 0.000 secs
   Fault simulation                          : 0.067 secs
   Total                                     : 0.067 secs
