	*******************************************************
	*                                                     *
	*            Welcome to HOPE (version 2.0)            *
	*                                                     *
	*               Dong S. Ha (ha@vt.edu)                *
	*            Web: http://www.ee.vt.edu/ha             *
	*  Virginia Polytechnic Institute & State University  *
	*                                                     *
	*******************************************************

******   SUMMARY OF SIMULATION RESULTS   ******
1. Circuit structure
   Name of circuit                           : s444
   Number of primary inputs                  : 24
   Number of primary outputs                 : 27
   Number of flip-flops                      : 0
   Number of gates                           : 181
   Level of the circuit                      : 11

2. Simulator input parameters
   Simulation mode                           : file (/home/animesh/currentResearch/ISI/atpg_structural/code/testData/atalanta/tests/iscas89/s444.test)

3. Simulation results
   Number of test patterns applied           : 33
   Fault coverage                            : 63.502 %
   Number of collapsed faults                : 474
   Number of detected faults                 : 301
   Number of undetected faults               : 173

4. Memory used                               : 8671 Kbytes

5. CPU time
   Initialization                            : 0.000 secs
   Fault simulation                          : 0.000 secs
   Total                                     : 0.000 secs
