	*******************************************************
	*                                                     *
	*          Welcome to atalanta (version 2.0)          *
	*                                                     *
	*               Dong S. Ha (ha@vt.edu)                *
	*            Web: http://www.ee.vt.edu/ha             *
	*  Virginia Polytechnic Institute & State University  *
	*                                                     *
	*******************************************************

******   SUMMARY OF TEST PATTERN GENERATION RESULTS   ******
1. Circuit structure
   Name of the circuit                       : s13207.1
   Number of primary inputs                  : 700
   Number of primary outputs                 : 790
   Number of gates                           : 7979
   Level of the circuit                      : 59

2. ATPG parameters
   Test pattern generation mode              : RPT + DTPG + TC
   Limit of random patterns (packets)        : 16
   Backtrack limit                           : 10
   Initial random number generator seed      : 1556530088
   Test pattern compaction mode              : REVERSE + SHUFFLE 
   Limit of suffling compaction              : 2
   Number of shuffles                        : 8

3. Test pattern generation results
   Number of test patterns before compaction : 729
   Number of test patterns after compaction  : 467
   Fault coverage                            : 98.462 %
   Number of collapsed faults                : 9815
   Number of identified redundant faults     : 142
   Number of aborted faults                  : 9
   Total number of backtrackings             : 278

4. Memory used                               : 35295 Kbytes

5. CPU time
   Initialization                            : 0.033 secs
   Fault simulation                          : 0.383 secs
   FAN                                       : 0.217 secs
   Total                                     : 0.633 secs
