	*******************************************************
	*                                                     *
	*            Welcome to HOPE (version 2.0)            *
	*                                                     *
	*               Dong S. Ha (ha@vt.edu)                *
	*            Web: http://www.ee.vt.edu/ha             *
	*  Virginia Polytechnic Institute & State University  *
	*                                                     *
	*******************************************************

******   SUMMARY OF SIMULATION RESULTS   ******
1. Circuit structure
   Name of circuit                           : s13207.1
   Number of primary inputs                  : 700
   Number of primary outputs                 : 790
   Number of flip-flops                      : 0
   Number of gates                           : 7979
   Level of the circuit                      : 59

2. Simulator input parameters
   Simulation mode                           : file (/home/animesh/currentResearch/ISI/atpg_structural/code/testData/atalanta/tests/iscas89/s13207.test)

3. Simulation results
   Number of test patterns applied           : 464
   Fault coverage                            : 73.622 %
   Number of collapsed faults                : 9815
   Number of detected faults                 : 7226
   Number of undetected faults               : 2589

4. Memory used                               : 18079 Kbytes

5. CPU time
   Initialization                            : 0.017 secs
   Fault simulation                          : 0.250 secs
   Total                                     : 0.267 secs
