// | ------------------------------------------------------------------------------------------------------------------ |
// |                                                                                                                    |
// |          Current split capture setting:     Off (optimal)                                                          |
// |                                                                                                                    |
// |   Current clock off simulation setting:     Off (optimal)                                                          |
// | ------------------------------------------------------------------------------------------------------------------ |
//  ------------------------------------------------------------------------
//  Simulation performed for #gates = 20871  #faults = 58879
//  Run fault simulation without storing patterns.  pattern source = 166 external patterns
//  ------------------------------------------------------------------------
//  #patterns  test      #faults  #faults    # eff.    # test         process 
//  simulated  coverage  in list  detected   patterns  patterns       CPU time
//   64         94.13%     3456     55423       64         0          1.87 sec
//   128        95.11%     2878       578       62         0          1.89 sec
//   166        95.28%     2780        98       32         0          1.90 sec
