// | ------------------------------------------------------------------------------------------------------------------ |
// |                                                                                                                    |
// |          Current split capture setting:     Off (optimal)                                                          |
// |                                                                                                                    |
// |   Current clock off simulation setting:     Off (optimal)                                                          |
// | ------------------------------------------------------------------------------------------------------------------ |
//  ------------------------------------------------------------------------
//  Simulation performed for #gates = 20871  #faults = 58782
//  Run fault simulation without storing patterns.  pattern source = 168 external patterns
//  ------------------------------------------------------------------------
//  #patterns  test      #faults  #faults    # eff.    # test         process 
//  simulated  coverage  in list  detected   patterns  patterns       CPU time
//   64         94.25%     3379     55403       64         0          1.85 sec
//   128        95.21%     2818       561       63         0          1.87 sec
//   168        95.36%     2727        91       34         0          1.88 sec
