// | ------------------------------------------------------------------------------------------------------------------ |
// |                                                                                                                    |
// |          Current split capture setting:     Off (optimal)                                                          |
// |                                                                                                                    |
// |   Current clock off simulation setting:     Off (optimal)                                                          |
// | ------------------------------------------------------------------------------------------------------------------ |
//  ------------------------------------------------------------------------
//  Simulation performed for #gates = 20871  #faults = 58864
//  Run fault simulation without storing patterns.  pattern source = 198 external patterns
//  ------------------------------------------------------------------------
//  #patterns  test      #faults  #faults    # eff.    # test         process 
//  simulated  coverage  in list  detected   patterns  patterns       CPU time
//   64         94.50%     3236     55628       64         0          1.95 sec
//   128        95.42%     2698       538       62         0          1.97 sec
//   192        95.63%     2572       126       47         0          1.98 sec
//   198        95.64%     2565         7        2         0          1.98 sec
