	*******************************************************
	*                                                     *
	*          Welcome to atalanta (version 2.0)          *
	*                                                     *
	*               Dong S. Ha (ha@vt.edu)                *
	*            Web: http://www.ee.vt.edu/ha             *
	*  Virginia Polytechnic Institute & State University  *
	*                                                     *
	*******************************************************

******   SUMMARY OF TEST PATTERN GENERATION RESULTS   ******
1. Circuit structure
   Name of the circuit                       : s9234.1
   Number of primary inputs                  : 247
   Number of primary outputs                 : 250
   Number of gates                           : 5597
   Level of the circuit                      : 58

2. ATPG parameters
   Test pattern generation mode              : RPT + DTPG + TC
   Limit of random patterns (packets)        : 16
   Backtrack limit                           : 10
   Initial random number generator seed      : 1556032083
   Test pattern compaction mode              : REVERSE + SHUFFLE 
   Limit of suffling compaction              : 2
   Number of shuffles                        : 12

3. Test pattern generation results
   Number of test patterns before compaction : 261
   Number of test patterns after compaction  : 142
   Fault coverage                            : 43.684 %
   Number of collapsed faults                : 6927
   Number of identified redundant faults     : 3679
   Number of aborted faults                  : 222
   Total number of backtrackings             : 6539

4. Memory used                               : 31428 Kbytes

5. CPU time
   Initialization                            : 0.000 secs
   Fault simulation                          : 0.217 secs
   FAN                                       : 1.733 secs
   Total                                     : 1.950 secs
