          Statistics Report          
           Stuck-at Faults           
-------------------------------------
Fault Classes              #faults   
                           (coll.)   
---------------------  --------------
  FU (full)                 33032    
  -------------------  --------------
  DS (det_simulation)  24788 (75.04%)
  UU (unused)             18 ( 0.05%)
  TI (tied)              570 ( 1.73%)
  BL (blocked)           350 ( 1.06%)
  RE (redundant)        7306 (22.12%)
-------------------------------------
Coverage                             
  -------------------                
  test_coverage              100.00% 
  fault_coverage              75.04% 
  atpg_effectiveness         100.00% 
-------------------------------------
#test_patterns                   153 
#simulated_patterns              154 
CPU_time (secs)                  4.3 
-------------------------------------

