	*******************************************************
	*                                                     *
	*          Welcome to atalanta (version 2.0)          *
	*                                                     *
	*               Dong S. Ha (ha@vt.edu)                *
	*            Web: http://www.ee.vt.edu/ha             *
	*  Virginia Polytechnic Institute & State University  *
	*                                                     *
	*******************************************************

******   SUMMARY OF TEST PATTERN GENERATION RESULTS   ******
1. Circuit structure
   Name of the circuit                       : combinational_logic_example_"c1355"
   Number of primary inputs                  : 41
   Number of primary outputs                 : 32
   Number of gates                           : 546
   Level of the circuit                      : 24

2. ATPG parameters
   Test pattern generation mode              : RPT + DTPG + TC
   Limit of random patterns (packets)        : 16
   Backtrack limit                           : 10
   Initial random number generator seed      : 1556017614
   Test pattern compaction mode              : REVERSE + SHUFFLE 
   Limit of suffling compaction              : 2
   Number of shuffles                        : 6

3. Test pattern generation results
   Number of test patterns before compaction : 32
   Number of test patterns after compaction  : 17
   Fault coverage                            : 53.177 %
   Number of collapsed faults                : 1574
   Number of identified redundant faults     : 618
   Number of aborted faults                  : 119
   Total number of backtrackings             : 2253

4. Memory used                               : 41078 Kbytes

5. CPU time
   Initialization                            : 0.000 secs
   Fault simulation                          : 0.017 secs
   FAN                                       : 0.067 secs
   Total                                     : 0.083 secs
