	*******************************************************
	*                                                     *
	*            Welcome to HOPE (version 2.0)            *
	*                                                     *
	*               Dong S. Ha (ha@vt.edu)                *
	*            Web: http://www.ee.vt.edu/ha             *
	*  Virginia Polytechnic Institute & State University  *
	*                                                     *
	*******************************************************

******   SUMMARY OF SIMULATION RESULTS   ******
1. Circuit structure
   Name of circuit                           : s9234.1
   Number of primary inputs                  : 247
   Number of primary outputs                 : 250
   Number of flip-flops                      : 0
   Number of gates                           : 5597
   Level of the circuit                      : 58

2. Simulator input parameters
   Simulation mode                           : file (/home/animesh/currentResearch/ISI/atpg_structural/code/testData/atalanta/tests/iscas89/s9234.test)

3. Simulation results
   Number of test patterns applied           : 377
   Fault coverage                            : 34.734 %
   Number of collapsed faults                : 6927
   Number of detected faults                 : 2406
   Number of undetected faults               : 4521

4. Memory used                               : 13225 Kbytes

5. CPU time
   Initialization                            : 0.017 secs
   Fault simulation                          : 0.283 secs
   Total                                     : 0.300 secs
