          Statistics Report          
           Stuck-at Faults           
-------------------------------------
Fault Classes              #faults   
                           (coll.)   
---------------------  --------------
  FU (full)                 4754     
  -------------------  --------------
  DS (det_simulation)   3261 (68.59%)
  TI (tied)              171 ( 3.60%)
  BL (blocked)           283 ( 5.95%)
  RE (redundant)        1039 (21.86%)
-------------------------------------
Coverage                             
  -------------------                
  test_coverage              100.00% 
  fault_coverage              68.59% 
  atpg_effectiveness         100.00% 
-------------------------------------
#test_patterns                   110 
#simulated_patterns              132 
CPU_time (secs)                  2.4 
-------------------------------------

