          Statistics Report          
           Stuck-at Faults           
-------------------------------------
Fault Classes              #faults   
                           (coll.)   
---------------------  --------------
  FU (full)                 4754     
  -------------------  --------------
  DS (det_simulation)   3855 (81.09%)
  TI (tied)              109 ( 2.29%)
  BL (blocked)            36 ( 0.76%)
  RE (redundant)         754 (15.86%)
-------------------------------------
Coverage                             
  -------------------                
  test_coverage              100.00% 
  fault_coverage              81.09% 
  atpg_effectiveness         100.00% 
-------------------------------------
#test_patterns                   121 
#simulated_patterns              138 
CPU_time (secs)                  2.3 
-------------------------------------

