           Statistics Report          
            Stuck-at Faults           
--------------------------------------
Fault Classes               #faults   
                            (coll.)   
----------------------  --------------
  FU (full)                  15054    
  --------------------  --------------
  UO (unobserved)           2 ( 0.01%)
  DS (det_simulation)   10873 (72.23%)
  UU (unused)               4 ( 0.03%)
  TI (tied)               171 ( 1.14%)
  BL (blocked)           1198 ( 7.96%)
  RE (redundant)         2805 (18.63%)
  AU (atpg_untestable)      1 ( 0.01%)
--------------------------------------
Fault Sub-classes                     
  --------------------                
  UC+UO                               
    AAB  (atpg_abort)       2 ( 0.01%)
--------------------------------------
Coverage                              
  --------------------                
  test_coverage                99.97% 
  fault_coverage               72.23% 
  atpg_effectiveness           99.99% 
--------------------------------------
#test_patterns                    319 
#simulated_patterns               348 
CPU_time (secs)                   6.1 
--------------------------------------

