	*******************************************************
	*                                                     *
	*          Welcome to atalanta (version 2.0)          *
	*                                                     *
	*               Dong S. Ha (ha@vt.edu)                *
	*            Web: http://www.ee.vt.edu/ha             *
	*  Virginia Polytechnic Institute & State University  *
	*                                                     *
	*******************************************************

******   SUMMARY OF TEST PATTERN GENERATION RESULTS   ******
1. Circuit structure
   Name of the circuit                       : combinational_logic_example_"c1908"
   Number of primary inputs                  : 33
   Number of primary outputs                 : 25
   Number of gates                           : 880
   Level of the circuit                      : 40

2. ATPG parameters
   Test pattern generation mode              : RPT + DTPG + TC
   Limit of random patterns (packets)        : 16
   Backtrack limit                           : 10
   Initial random number generator seed      : 1556616518
   Test pattern compaction mode              : REVERSE + SHUFFLE 
   Limit of suffling compaction              : 2
   Number of shuffles                        : 7

3. Test pattern generation results
   Number of test patterns before compaction : 70
   Number of test patterns after compaction  : 37
   Fault coverage                            : 50.506 %
   Number of collapsed faults                : 1879
   Number of identified redundant faults     : 697
   Number of aborted faults                  : 233
   Total number of backtrackings             : 3542

4. Memory used                               : 18055 Kbytes

5. CPU time
   Initialization                            : 0.000 secs
   Fault simulation                          : 0.000 secs
   FAN                                       : 0.200 secs
   Total                                     : 0.200 secs
