// | ------------------------------------------------------------------------------------------------------------------ |
// |                                                                                                                    |
// |          Current split capture setting:     Off (optimal)                                                          |
// |                                                                                                                    |
// |   Current clock off simulation setting:     Off (optimal)                                                          |
// | ------------------------------------------------------------------------------------------------------------------ |
//  ------------------------------------------------------------------------
//  Simulation performed for #gates = 3733  #faults = 8469
//  Run fault simulation without storing patterns.  pattern source = 140 external patterns
//  ------------------------------------------------------------------------
//  #patterns  test      #faults  #faults    # eff.    # test         process 
//  simulated  coverage  in list  detected   patterns  patterns       CPU time
//   64         79.06%     1773      6696       64         0          0.04 sec
//   128        83.58%     1391       382       59         0          0.05 sec
//   140        83.99%     1356        35        8         0          0.05 sec
