// | ------------------------------------------------------------------------------------------------------------------ |
// |                                                                                                                    |
// |          Current split capture setting:     Off (optimal)                                                          |
// |                                                                                                                    |
// |   Current clock off simulation setting:     Off (optimal)                                                          |
// | ------------------------------------------------------------------------------------------------------------------ |
//  ------------------------------------------------------------------------
//  Simulation performed for #gates = 3733  #faults = 8482
//  Run fault simulation without storing patterns.  pattern source = 134 external patterns
//  ------------------------------------------------------------------------
//  #patterns  test      #faults  #faults    # eff.    # test         process 
//  simulated  coverage  in list  detected   patterns  patterns       CPU time
//   64         78.79%     1799      6683       64         0          0.04 sec
//   128        82.45%     1489       310       60         0          0.05 sec
//   134        82.65%     1472        17        4         0          0.05 sec
