// | ------------------------------------------------------------------------------------------------------------------ |
// |                                                                                                                    |
// |          Current split capture setting:     Off (optimal)                                                          |
// |                                                                                                                    |
// |   Current clock off simulation setting:     Off (optimal)                                                          |
// | ------------------------------------------------------------------------------------------------------------------ |
//  ------------------------------------------------------------------------
//  Simulation performed for #gates = 3733  #faults = 8441
//  Run fault simulation without storing patterns.  pattern source = 172 external patterns
//  ------------------------------------------------------------------------
//  #patterns  test      #faults  #faults    # eff.    # test         process 
//  simulated  coverage  in list  detected   patterns  patterns       CPU time
//   64         78.73%     1795      6646       64         0          0.04 sec
//   128        84.13%     1340       455       62         0          0.05 sec
//   172        85.71%     1206       134       36         0          0.05 sec
