// | ------------------------------------------------------------------------------------------------------------------ |
// |                                                                                                                    |
// |          Current split capture setting:     Off (optimal)                                                          |
// |                                                                                                                    |
// |   Current clock off simulation setting:     Off (optimal)                                                          |
// | ------------------------------------------------------------------------------------------------------------------ |
//  ------------------------------------------------------------------------
//  Simulation performed for #gates = 3733  #faults = 8472
//  Run fault simulation without storing patterns.  pattern source = 142 external patterns
//  ------------------------------------------------------------------------
//  #patterns  test      #faults  #faults    # eff.    # test         process 
//  simulated  coverage  in list  detected   patterns  patterns       CPU time
//   64         79.90%     1703      6769       64         0          0.04 sec
//   128        83.58%     1391       312       58         0          0.05 sec
//   142        83.78%     1374        17        9         0          0.05 sec
