	*******************************************************
	*                                                     *
	*          Welcome to atalanta (version 2.0)          *
	*                                                     *
	*               Dong S. Ha (ha@vt.edu)                *
	*            Web: http://www.ee.vt.edu/ha             *
	*  Virginia Polytechnic Institute & State University  *
	*                                                     *
	*******************************************************

******   SUMMARY OF TEST PATTERN GENERATION RESULTS   ******
1. Circuit structure
   Name of the circuit                       : combinational_logic_example_"c880"
   Number of primary inputs                  : 60
   Number of primary outputs                 : 26
   Number of gates                           : 383
   Level of the circuit                      : 24

2. ATPG parameters
   Test pattern generation mode              : RPT + DTPG + TC
   Limit of random patterns (packets)        : 16
   Backtrack limit                           : 10
   Initial random number generator seed      : 1556017603
   Test pattern compaction mode              : REVERSE + SHUFFLE 
   Limit of suffling compaction              : 2
   Number of shuffles                        : 8

3. Test pattern generation results
   Number of test patterns before compaction : 141
   Number of test patterns after compaction  : 77
   Fault coverage                            : 69.427 %
   Number of collapsed faults                : 942
   Number of identified redundant faults     : 244
   Number of aborted faults                  : 44
   Total number of backtrackings             : 875

4. Memory used                               : 30760 Kbytes

5. CPU time
   Initialization                            : 0.000 secs
   Fault simulation                          : 0.000 secs
   FAN                                       : 0.017 secs
   Total                                     : 0.017 secs
