          Statistics Report          
           Stuck-at Faults           
-------------------------------------
Fault Classes              #faults   
                           (coll.)   
---------------------  --------------
  FU (full)                  514     
  -------------------  --------------
  DS (det_simulation)    422 (82.10%)
  TI (tied)               12 ( 2.33%)
  BL (blocked)            23 ( 4.47%)
  RE (redundant)          57 (11.09%)
-------------------------------------
Coverage                             
  -------------------                
  test_coverage              100.00% 
  fault_coverage              82.10% 
  atpg_effectiveness         100.00% 
-------------------------------------
#test_patterns                    37 
#simulated_patterns               38 
CPU_time (secs)                  1.5 
-------------------------------------

