// | ------------------------------------------------------------------------------------------------------------------ |
// |                                                                                                                    |
// |          Current split capture setting:     Off (optimal)                                                          |
// |                                                                                                                    |
// |   Current clock off simulation setting:     Off (optimal)                                                          |
// | ------------------------------------------------------------------------------------------------------------------ |
//  ------------------------------------------------------------------------
//  Simulation performed for #gates = 1698  #faults = 3555
//  Run fault simulation without storing patterns.  pattern source = 132 external patterns
//  ------------------------------------------------------------------------
//  #patterns  test      #faults  #faults    # eff.    # test         process 
//  simulated  coverage  in list  detected   patterns  patterns       CPU time
//   64         44.59%     1970      1585       42         0          0.01 sec
//   128        52.88%     1675       295       23         0          0.01 sec
//   132        53.00%     1671         4        2         0          0.02 sec
