          Statistics Report          
           Stuck-at Faults           
-------------------------------------
Fault Classes              #faults   
                           (coll.)   
---------------------  --------------
  FU (full)                 8504     
  -------------------  --------------
  DS (det_simulation)   7507 (88.28%)
  TI (tied)               25 ( 0.29%)
  BL (blocked)             6 ( 0.07%)
  RE (redundant)         966 (11.36%)
-------------------------------------
Coverage                             
  -------------------                
  test_coverage              100.00% 
  fault_coverage              88.28% 
  atpg_effectiveness         100.00% 
-------------------------------------
#test_patterns                   134 
#simulated_patterns              139 
CPU_time (secs)                  2.3 
-------------------------------------

