//  command: set_current_design s1494
//  Warning: 1 case: Unused net in DFT library model
//  Note: Issue set_current_design with the -show_elaboration_warnings option to see more details about previous warnings
//  command: set_system_mode analysis
//  Flattening process completed,  design_cells=658  leaf_cells=658  library_primitives=658  sim_gates=714  PIs=14  POs=25  CPU time=0.00 sec.
//  ---------------------------------------------------------------------------
//  Begin circuit learning analyses.
//  --------------------------------
//  Learning completed, CPU time=0.00 sec.
//  ---------------------------------------------------------------------------
//  Begin scan chain identification process, memory elements = 0.
//  ---------------------------------------------------------------------------
//  Circuit has no memory elements.
//  command: add_faults -all
//  command: set_fault_mode collapsed
//  command: set_fault_type stuck
//  command: read_patterns /home/animesh/currentResearch/ISI/atpg_structural/code/dumpData/tessent/iscas89/s1494_synth/seventyPercent/s1494_synth_seventyPercent_30.spf
//  Reading STIL input file "/home/animesh/currentResearch/ISI/atpg_structural/code/dumpData/tessent/iscas89/s1494_synth/seventyPercent/s1494_synth_seventyPercent_30.spf"
//  command: simulate_patterns > /home/animesh/currentResearch/ISI/atpg_structural/code/dumpData/tessent/iscas89/s1494_synth/bin_3/simulateLogFile_s1494_synth_seventyPercent_12_s1494_synth_seventyPercent_30.atpg.result
//  command: exit 
