          Statistics Report          
           Stuck-at Faults           
-------------------------------------
Fault Classes              #faults   
                           (coll.)   
---------------------  --------------
  FU (full)                 25984    
  -------------------  --------------
  DS (det_simulation)   8010 (30.83%)
  RE (redundant)       17974 (69.17%)
-------------------------------------
Coverage                             
  -------------------                
  test_coverage              100.00% 
  fault_coverage              30.83% 
  atpg_effectiveness         100.00% 
-------------------------------------
#test_patterns                   596 
#simulated_patterns              661 
CPU_time (secs)                  3.9 
-------------------------------------

