// | ------------------------------------------------------------------------------------------------------------------ |
// |                                                                                                                    |
// |          Current split capture setting:     Off (optimal)                                                          |
// |                                                                                                                    |
// |   Current clock off simulation setting:     Off (optimal)                                                          |
// | ------------------------------------------------------------------------------------------------------------------ |
//  ------------------------------------------------------------------------
//  Simulation performed for #gates = 760  #faults = 1700
//  Run fault simulation without storing patterns.  pattern source = 201 external patterns
//  ------------------------------------------------------------------------
//  #patterns  test      #faults  #faults    # eff.    # test         process 
//  simulated  coverage  in list  detected   patterns  patterns       CPU time
//   64         45.88%      920       780       55         0          0.01 sec
//   128        56.35%      742       178       37         0          0.01 sec
//   192        63.53%      620       122       35         0          0.01 sec
//   201        64.82%      598        22        5         0          0.01 sec
