           Statistics Report          
            Stuck-at Faults           
--------------------------------------
Fault Classes               #faults   
                            (coll.)   
----------------------  --------------
  FU (full)                  13716    
  --------------------  --------------
  UC (uncontrolled)        12 ( 0.09%)
  UO (unobserved)         448 ( 3.27%)
  DS (det_simulation)    6796 (49.55%)
  TI (tied)               219 ( 1.60%)
  BL (blocked)            252 ( 1.84%)
  RE (redundant)         5799 (42.28%)
  AU (atpg_untestable)    190 ( 1.39%)
--------------------------------------
Fault Sub-classes                     
  --------------------                
  UC+UO                               
    AAB  (atpg_abort)     460 ( 3.35%)
--------------------------------------
Coverage                              
  --------------------                
  test_coverage                91.27% 
  fault_coverage               49.55% 
  atpg_effectiveness           96.65% 
--------------------------------------
#test_patterns                    127 
#simulated_patterns               171 
CPU_time (secs)                 181.4 
--------------------------------------

