//  command: set_current_design b15_C 
//  Warning: 1 case: Unused net in DFT library model
//  Note: Issue set_current_design with the -show_elaboration_warnings option to see more details about previous warnings
//  command: set_system_mode analysis
//  Flattening process completed,  design_cells=8010  leaf_cells=8010  library_primitives=8010  sim_gates=9044  PIs=485  POs=449  CPU time=0.04 sec.
//  ---------------------------------------------------------------------------
//  Begin circuit learning analyses.
//  --------------------------------
//  Learning completed, CPU time=0.04 sec.
//  ---------------------------------------------------------------------------
//  Begin scan chain identification process, memory elements = 0.
//  ---------------------------------------------------------------------------
//  Circuit has no memory elements.
//  command: add_faults -all
//  command: set_fault_mode collapsed
//  command: set_fault_type stuck
//  command: create_patterns 
// | ------------------------------------------------------------------------------------------------------------------ |
// |                                             Analyzing the design                                                   |
// |                                                                                                                    |
// |      Current clock restriction setting:     Domain_clock (edge interaction)                                        |
// |                                             (optimal)                                                              |
// |                                                                                                                    |
// |          Current split capture setting:     Off (optimal)                                                          |
// |                                                                                                                    |
// |   Current clock off simulation setting:     Off (optimal)                                                          |
// |                                                                                                                    |
// |            Current abort limit setting:     30                                                                     |
// |                                Calling:     set_abort_limit 300 100                                                |
// | ------------------------------------------------------------------------------------------------------------------ |
// |                                                                                                                    |
// |               Current sequential depth:     0 (optimal)                                                            |
// |                                                                                                                    |
// | ------------------------------------------------------------------------------------------------------------------ |
//  ------------------------------------------------------------------------
//  Simulation performed for #gates = 9044  #faults = 20344
//  system mode = analysis    pattern source = internal patterns
//  ------------------------------------------------------------------------
//  #patterns  test      #faults  #faults    # eff.    # test         process      RE/AU/AAB
//  simulated  coverage  in list  detected   patterns  patterns       CPU time
//  deterministic ATPG invoked with comb/seq abort limit = 300/100
//   ---        ------      ---       ---      ---       ---          1.40 sec     187/0/1
//   64         60.99%     7863     12294       64        64          1.62 sec
//   ---        ------      ---       ---      ---       ---          4.08 sec     1947/0/3
//   128        74.33%     4723      1380       64       128          4.10 sec
//   ---        ------      ---       ---      ---       ---          6.31 sec     4017/1/6
//   192        86.87%     2142       510       63       191          6.32 sec
//   ---        ------      ---       ---      ---       ---          8.09 sec     5760/2/10
//   256        99.02%      141       257       59       250          8.09 sec
//   ---        ------      ---       ---      ---       ---          8.12 sec     5760/2/10
//   320        99.75%       35       106       55       305          8.12 sec
//   ---        ------      ---       ---      ---       ---          8.12 sec     5760/2/10
//   340        99.92%       10        25       19       324          8.12 sec
//  -----------------------------------------------------------------------
//  Performing redundant fault identification for 10 faults
//  -----------------------------------------------------------------------
//  deterministic ATPG invoked with abort limit = 300
//  # red.    # non-red.   # abort     # remn.   progress   test        process
//  faults      faults      faults      faults              coverage    CPU time
//       2           0          8            0   100.00%    99.93%       0.36 sec
// | ------------------------------------------------------------------------------------------------------------------ |
// |                                                                                                                    |
// |                   Next step suggestion:     (optional)                                                             |
// |              If truncating pattern set:     Use command 'order_patterns 3'                                         |
// |                                                                                                                    |
// | ------------------------------------------------------------------------------------------------------------------ |
           Statistics Report          
            Stuck-at Faults           
--------------------------------------
Fault Classes               #faults   
                            (coll.)   
----------------------  --------------
  FU (full)                  20876    
  --------------------  --------------
  UO (unobserved)           8 ( 0.04%)
  DS (det_simulation)   14572 (69.80%)
  TI (tied)               176 ( 0.84%)
  BL (blocked)            356 ( 1.71%)
  RE (redundant)         5762 (27.60%)
  AU (atpg_untestable)      2 ( 0.01%)
--------------------------------------
Fault Sub-classes                     
  --------------------                
  UC+UO                               
    AAB  (atpg_abort)       8 ( 0.04%)
--------------------------------------
Coverage                              
  --------------------                
  test_coverage                99.93% 
  fault_coverage               69.80% 
  atpg_effectiveness           99.96% 
--------------------------------------
#test_patterns                    324 
#simulated_patterns               340 
CPU_time (secs)                  10.2 
--------------------------------------

//  command: write_patterns /home/animesh/currentResearch/ISI/atpg_structural/code/dumpData/tessent/itc99/b15_synth/fiftyPercent/b15_synth_fiftyPercent_33.spf -stil -rep
//  command: report_statistics > /home/animesh/currentResearch/ISI/atpg_structural/code/dumpData/tessent/itc99/b15_synth/fiftyPercent/b15_synth_fiftyPercent_33.atpg.result
//  command: exit 
