           Statistics Report          
            Stuck-at Faults           
--------------------------------------
Fault Classes               #faults   
                            (coll.)   
----------------------  --------------
  FU (full)                  59756    
  --------------------  --------------
  UO (unobserved)          16 ( 0.03%)
  DS (det_simulation)   52641 (88.09%)
  TI (tied)               659 ( 1.10%)
  BL (blocked)            240 ( 0.40%)
  RE (redundant)         6163 (10.31%)
  AU (atpg_untestable)     37 ( 0.06%)
--------------------------------------
Fault Sub-classes                     
  --------------------                
  UC+UO                               
    AAB  (atpg_abort)      16 ( 0.03%)
--------------------------------------
Coverage                              
  --------------------                
  test_coverage                99.90% 
  fault_coverage               88.09% 
  atpg_effectiveness           99.97% 
--------------------------------------
#test_patterns                    258 
#simulated_patterns               282 
CPU_time (secs)                  39.5 
--------------------------------------

