	*******************************************************
	*                                                     *
	*          Welcome to atalanta (version 2.0)          *
	*                                                     *
	*               Dong S. Ha (ha@vt.edu)                *
	*            Web: http://www.ee.vt.edu/ha             *
	*  Virginia Polytechnic Institute & State University  *
	*                                                     *
	*******************************************************

******   SUMMARY OF TEST PATTERN GENERATION RESULTS   ******
1. Circuit structure
   Name of the circuit                       : s953
   Number of primary inputs                  : 45
   Number of primary outputs                 : 52
   Number of gates                           : 395
   Level of the circuit                      : 16

2. ATPG parameters
   Test pattern generation mode              : RPT + DTPG + TC
   Limit of random patterns (packets)        : 16
   Backtrack limit                           : 10
   Initial random number generator seed      : 1556031534
   Test pattern compaction mode              : REVERSE + SHUFFLE 
   Limit of suffling compaction              : 2
   Number of shuffles                        : 6

3. Test pattern generation results
   Number of test patterns before compaction : 145
   Number of test patterns after compaction  : 77
   Fault coverage                            : 80.538 %
   Number of collapsed faults                : 1079
   Number of identified redundant faults     : 210
   Number of aborted faults                  : 0
   Total number of backtrackings             : 217

4. Memory used                               : 41050 Kbytes

5. CPU time
   Initialization                            : 0.000 secs
   Fault simulation                          : 0.000 secs
   FAN                                       : 0.000 secs
   Total                                     : 0.000 secs
