	*******************************************************
	*                                                     *
	*            Welcome to HOPE (version 2.0)            *
	*                                                     *
	*               Dong S. Ha (ha@vt.edu)                *
	*            Web: http://www.ee.vt.edu/ha             *
	*  Virginia Polytechnic Institute & State University  *
	*                                                     *
	*******************************************************

******   SUMMARY OF SIMULATION RESULTS   ******
1. Circuit structure
   Name of circuit                           : combinational_logic_example_"c1355"
   Number of primary inputs                  : 41
   Number of primary outputs                 : 32
   Number of flip-flops                      : 0
   Number of gates                           : 546
   Level of the circuit                      : 24

2. Simulator input parameters
   Simulation mode                           : file (/home/animesh/currentResearch/ISI/atpg_structural/code/testData/atalanta/tests/iscas85/c1355.test)

3. Simulation results
   Number of test patterns applied           : 84
   Fault coverage                            : 52.732 %
   Number of collapsed faults                : 1574
   Number of detected faults                 : 830
   Number of undetected faults               : 744

4. Memory used                               : 17502 Kbytes

5. CPU time
   Initialization                            : 0.000 secs
   Fault simulation                          : 0.000 secs
   Total                                     : 0.000 secs
