          Statistics Report          
           Stuck-at Faults           
-------------------------------------
Fault Classes              #faults   
                           (coll.)   
---------------------  --------------
  FU (full)                 8504     
  -------------------  --------------
  DS (det_simulation)   4995 (58.74%)
  TI (tied)              121 ( 1.42%)
  BL (blocked)           198 ( 2.33%)
  RE (redundant)        3190 (37.51%)
-------------------------------------
Coverage                             
  -------------------                
  test_coverage              100.00% 
  fault_coverage              58.74% 
  atpg_effectiveness         100.00% 
-------------------------------------
#test_patterns                   196 
#simulated_patterns              199 
CPU_time (secs)                  2.7 
-------------------------------------

