	*******************************************************
	*                                                     *
	*            Welcome to HOPE (version 2.0)            *
	*                                                     *
	*               Dong S. Ha (ha@vt.edu)                *
	*            Web: http://www.ee.vt.edu/ha             *
	*  Virginia Polytechnic Institute & State University  *
	*                                                     *
	*******************************************************

******   SUMMARY OF SIMULATION RESULTS   ******
1. Circuit structure
   Name of circuit                           : combinational_logic_example_"c880"
   Number of primary inputs                  : 60
   Number of primary outputs                 : 26
   Number of flip-flops                      : 0
   Number of gates                           : 383
   Level of the circuit                      : 24

2. Simulator input parameters
   Simulation mode                           : file (/home/animesh/currentResearch/ISI/atpg_structural/code/testData/atalanta/tests/iscas85/c880.test)

3. Simulation results
   Number of test patterns applied           : 48
   Fault coverage                            : 42.357 %
   Number of collapsed faults                : 942
   Number of detected faults                 : 399
   Number of undetected faults               : 543

4. Memory used                               : 35209 Kbytes

5. CPU time
   Initialization                            : 0.000 secs
   Fault simulation                          : 0.000 secs
   Total                                     : 0.000 secs
