	*******************************************************
	*                                                     *
	*          Welcome to atalanta (version 2.0)          *
	*                                                     *
	*               Dong S. Ha (ha@vt.edu)                *
	*            Web: http://www.ee.vt.edu/ha             *
	*  Virginia Polytechnic Institute & State University  *
	*                                                     *
	*******************************************************

******   SUMMARY OF TEST PATTERN GENERATION RESULTS   ******
1. Circuit structure
   Name of the circuit                       : combinational_logic_example_"c3540"
   Number of primary inputs                  : 50
   Number of primary outputs                 : 22
   Number of gates                           : 1669
   Level of the circuit                      : 47

2. ATPG parameters
   Test pattern generation mode              : RPT + DTPG + TC
   Limit of random patterns (packets)        : 16
   Backtrack limit                           : 10
   Initial random number generator seed      : 1556018006
   Test pattern compaction mode              : REVERSE + SHUFFLE 
   Limit of suffling compaction              : 2
   Number of shuffles                        : 10

3. Test pattern generation results
   Number of test patterns before compaction : 251
   Number of test patterns after compaction  : 158
   Fault coverage                            : 96.004 %
   Number of collapsed faults                : 3428
   Number of identified redundant faults     : 137
   Number of aborted faults                  : 0
   Total number of backtrackings             : 131

4. Memory used                               : 36716 Kbytes

5. CPU time
   Initialization                            : 0.000 secs
   Fault simulation                          : 0.067 secs
   FAN                                       : 0.017 secs
   Total                                     : 0.083 secs
