	*******************************************************
	*                                                     *
	*            Welcome to HOPE (version 2.0)            *
	*                                                     *
	*               Dong S. Ha (ha@vt.edu)                *
	*            Web: http://www.ee.vt.edu/ha             *
	*  Virginia Polytechnic Institute & State University  *
	*                                                     *
	*******************************************************

******   SUMMARY OF SIMULATION RESULTS   ******
1. Circuit structure
   Name of circuit                           : combinational_logic_example_"c5315"
   Number of primary inputs                  : 178
   Number of primary outputs                 : 123
   Number of flip-flops                      : 0
   Number of gates                           : 2307
   Level of the circuit                      : 49

2. Simulator input parameters
   Simulation mode                           : file (/home/animesh/currentResearch/ISI/atpg_structural/code/testData/atalanta/tests/iscas85/c5315.test)

3. Simulation results
   Number of test patterns applied           : 120
   Fault coverage                            : 46.654 %
   Number of collapsed faults                : 5350
   Number of detected faults                 : 2496
   Number of undetected faults               : 2854

4. Memory used                               : 21458 Kbytes

5. CPU time
   Initialization                            : 0.000 secs
   Fault simulation                          : 0.033 secs
   Total                                     : 0.033 secs
