// | ------------------------------------------------------------------------------------------------------------------ |
// |                                                                                                                    |
// |          Current split capture setting:     Off (optimal)                                                          |
// |                                                                                                                    |
// |   Current clock off simulation setting:     Off (optimal)                                                          |
// | ------------------------------------------------------------------------------------------------------------------ |
//  ------------------------------------------------------------------------
//  Simulation performed for #gates = 1698  #faults = 3473
//  Run fault simulation without storing patterns.  pattern source = 133 external patterns
//  ------------------------------------------------------------------------
//  #patterns  test      #faults  #faults    # eff.    # test         process 
//  simulated  coverage  in list  detected   patterns  patterns       CPU time
//   64         67.03%     1145      2328       62         0          0.01 sec
//   128        73.16%      932       213       49         0          0.01 sec
//   133        73.42%      923         9        3         0          0.02 sec
