	*******************************************************
	*                                                     *
	*          Welcome to atalanta (version 2.0)          *
	*                                                     *
	*               Dong S. Ha (ha@vt.edu)                *
	*            Web: http://www.ee.vt.edu/ha             *
	*  Virginia Polytechnic Institute & State University  *
	*                                                     *
	*******************************************************

******   SUMMARY OF TEST PATTERN GENERATION RESULTS   ******
1. Circuit structure
   Name of the circuit                       : combinational_logic_example_"c5315"
   Number of primary inputs                  : 178
   Number of primary outputs                 : 123
   Number of gates                           : 2307
   Level of the circuit                      : 49

2. ATPG parameters
   Test pattern generation mode              : RPT + DTPG + TC
   Limit of random patterns (packets)        : 16
   Backtrack limit                           : 10
   Initial random number generator seed      : 1556618521
   Test pattern compaction mode              : REVERSE + SHUFFLE 
   Limit of suffling compaction              : 2
   Number of shuffles                        : 11

3. Test pattern generation results
   Number of test patterns before compaction : 214
   Number of test patterns after compaction  : 113
   Fault coverage                            : 56.112 %
   Number of collapsed faults                : 5350
   Number of identified redundant faults     : 1524
   Number of aborted faults                  : 824
   Total number of backtrackings             : 11484

4. Memory used                               : 42872 Kbytes

5. CPU time
   Initialization                            : 0.000 secs
   Fault simulation                          : 0.067 secs
   FAN                                       : 1.000 secs
   Total                                     : 1.067 secs
