// | ------------------------------------------------------------------------------------------------------------------ |
// |                                                                                                                    |
// |          Current split capture setting:     Off (optimal)                                                          |
// |                                                                                                                    |
// |   Current clock off simulation setting:     Off (optimal)                                                          |
// | ------------------------------------------------------------------------------------------------------------------ |
//  ------------------------------------------------------------------------
//  Simulation performed for #gates = 20871  #faults = 58127
//  Run fault simulation without storing patterns.  pattern source = 298 external patterns
//  ------------------------------------------------------------------------
//  #patterns  test      #faults  #faults    # eff.    # test         process 
//  simulated  coverage  in list  detected   patterns  patterns       CPU time
//   64         83.13%     9806     48321       64         0          1.45 sec
//   128        85.08%     8672      1134       64         0          1.49 sec
//   192        85.91%     8189       483       62         0          1.51 sec
//   256        86.28%     7975       214       55         0          1.54 sec
//   298        86.37%     7922        53       25         0          1.56 sec
