// | ------------------------------------------------------------------------------------------------------------------ |
// |                                                                                                                    |
// |          Current split capture setting:     Off (optimal)                                                          |
// |                                                                                                                    |
// |   Current clock off simulation setting:     Off (optimal)                                                          |
// | ------------------------------------------------------------------------------------------------------------------ |
//  ------------------------------------------------------------------------
//  Simulation performed for #gates = 20871  #faults = 58264
//  Run fault simulation without storing patterns.  pattern source = 283 external patterns
//  ------------------------------------------------------------------------
//  #patterns  test      #faults  #faults    # eff.    # test         process 
//  simulated  coverage  in list  detected   patterns  patterns       CPU time
//   64         82.52%    10183     48081       64         0          1.42 sec
//   128        84.93%     8779      1404       64         0          1.46 sec
//   192        85.70%     8334       445       62         0          1.49 sec
//   256        86.09%     8106       228       56         0          1.51 sec
//   283        86.23%     8023        83       22         0          1.53 sec
