// | ------------------------------------------------------------------------------------------------------------------ |
// |                                                                                                                    |
// |          Current split capture setting:     Off (optimal)                                                          |
// |                                                                                                                    |
// |   Current clock off simulation setting:     Off (optimal)                                                          |
// | ------------------------------------------------------------------------------------------------------------------ |
//  ------------------------------------------------------------------------
//  Simulation performed for #gates = 20871  #faults = 58321
//  Run fault simulation without storing patterns.  pattern source = 306 external patterns
//  ------------------------------------------------------------------------
//  #patterns  test      #faults  #faults    # eff.    # test         process 
//  simulated  coverage  in list  detected   patterns  patterns       CPU time
//   64         83.96%     9353     48968       64         0          1.48 sec
//   128        86.28%     8002      1351       64         0          1.52 sec
//   192        87.06%     7544       458       64         0          1.55 sec
//   256        87.42%     7335       209       64         0          1.57 sec
//   306        87.56%     7256        79       50         0          1.59 sec
