// | ------------------------------------------------------------------------------------------------------------------ |
// |                                                                                                                    |
// |          Current split capture setting:     Off (optimal)                                                          |
// |                                                                                                                    |
// |   Current clock off simulation setting:     Off (optimal)                                                          |
// | ------------------------------------------------------------------------------------------------------------------ |
//  ------------------------------------------------------------------------
//  Simulation performed for #gates = 20871  #faults = 57950
//  Run fault simulation without storing patterns.  pattern source = 278 external patterns
//  ------------------------------------------------------------------------
//  #patterns  test      #faults  #faults    # eff.    # test         process 
//  simulated  coverage  in list  detected   patterns  patterns       CPU time
//   64         83.42%     9606     48344       64         0          1.42 sec
//   128        85.64%     8319      1287       64         0          1.46 sec
//   192        86.33%     7920       399       62         0          1.49 sec
//   256        86.66%     7733       187       49         0          1.51 sec
//   278        86.72%     7696        37       15         0          1.53 sec
