// | ------------------------------------------------------------------------------------------------------------------ |
// |                                                                                                                    |
// |          Current split capture setting:     Off (optimal)                                                          |
// |                                                                                                                    |
// |   Current clock off simulation setting:     Off (optimal)                                                          |
// | ------------------------------------------------------------------------------------------------------------------ |
//  ------------------------------------------------------------------------
//  Simulation performed for #gates = 20871  #faults = 58192
//  Run fault simulation without storing patterns.  pattern source = 292 external patterns
//  ------------------------------------------------------------------------
//  #patterns  test      #faults  #faults    # eff.    # test         process 
//  simulated  coverage  in list  detected   patterns  patterns       CPU time
//   64         82.82%     9997     48195       64         0          1.38 sec
//   128        84.99%     8734      1263       64         0          1.42 sec
//   192        85.77%     8279       455       63         0          1.44 sec
//   256        86.11%     8080       199       52         0          1.47 sec
//   292        86.20%     8033        47       25         0          1.49 sec
