// | ------------------------------------------------------------------------------------------------------------------ |
// |                                                                                                                    |
// |          Current split capture setting:     Off (optimal)                                                          |
// |                                                                                                                    |
// |   Current clock off simulation setting:     Off (optimal)                                                          |
// | ------------------------------------------------------------------------------------------------------------------ |
//  ------------------------------------------------------------------------
//  Simulation performed for #gates = 20871  #faults = 58277
//  Run fault simulation without storing patterns.  pattern source = 290 external patterns
//  ------------------------------------------------------------------------
//  #patterns  test      #faults  #faults    # eff.    # test         process 
//  simulated  coverage  in list  detected   patterns  patterns       CPU time
//   64         82.77%    10043     48234       64         0          1.44 sec
//   128        85.06%     8708      1335       64         0          1.49 sec
//   192        85.85%     8246       462       61         0          1.52 sec
//   256        86.22%     8033       213       56         0          1.54 sec
//   290        86.33%     7968        65       23         0          1.56 sec
