// | ------------------------------------------------------------------------------------------------------------------ |
// |                                                                                                                    |
// |          Current split capture setting:     Off (optimal)                                                          |
// |                                                                                                                    |
// |   Current clock off simulation setting:     Off (optimal)                                                          |
// | ------------------------------------------------------------------------------------------------------------------ |
//  ------------------------------------------------------------------------
//  Simulation performed for #gates = 20871  #faults = 57924
//  Run fault simulation without storing patterns.  pattern source = 308 external patterns
//  ------------------------------------------------------------------------
//  #patterns  test      #faults  #faults    # eff.    # test         process 
//  simulated  coverage  in list  detected   patterns  patterns       CPU time
//   64         83.01%     9843     48081       64         0          1.41 sec
//   128        85.37%     8475      1368       64         0          1.46 sec
//   192        86.03%     8090       385       62         0          1.48 sec
//   256        86.37%     7894       196       56         0          1.51 sec
//   308        86.53%     7802        92       38         0          1.53 sec
