// | ------------------------------------------------------------------------------------------------------------------ |
// |                                                                                                                    |
// |          Current split capture setting:     Off (optimal)                                                          |
// |                                                                                                                    |
// |   Current clock off simulation setting:     Off (optimal)                                                          |
// | ------------------------------------------------------------------------------------------------------------------ |
//  ------------------------------------------------------------------------
//  Simulation performed for #gates = 20871  #faults = 57942
//  Run fault simulation without storing patterns.  pattern source = 289 external patterns
//  ------------------------------------------------------------------------
//  #patterns  test      #faults  #faults    # eff.    # test         process 
//  simulated  coverage  in list  detected   patterns  patterns       CPU time
//   64         82.10%    10371     47571       64         0          1.41 sec
//   128        84.18%     9166      1205       64         0          1.46 sec
//   192        84.97%     8711       455       64         0          1.48 sec
//   256        85.29%     8521       190       50         0          1.51 sec
//   289        85.38%     8471        50       16         0          1.53 sec
