// | ------------------------------------------------------------------------------------------------------------------ |
// |                                                                                                                    |
// |          Current split capture setting:     Off (optimal)                                                          |
// |                                                                                                                    |
// |   Current clock off simulation setting:     Off (optimal)                                                          |
// | ------------------------------------------------------------------------------------------------------------------ |
//  ------------------------------------------------------------------------
//  Simulation performed for #gates = 20871  #faults = 58194
//  Run fault simulation without storing patterns.  pattern source = 293 external patterns
//  ------------------------------------------------------------------------
//  #patterns  test      #faults  #faults    # eff.    # test         process 
//  simulated  coverage  in list  detected   patterns  patterns       CPU time
//   64         82.79%    10015     48179       64         0          1.46 sec
//   128        84.97%     8749      1266       64         0          1.50 sec
//   192        85.75%     8290       459       59         0          1.52 sec
//   256        86.14%     8068       222       56         0          1.55 sec
//   293        86.27%     7989        79       25         0          1.57 sec
