// | ------------------------------------------------------------------------------------------------------------------ |
// |                                                                                                                    |
// |          Current split capture setting:     Off (optimal)                                                          |
// |                                                                                                                    |
// |   Current clock off simulation setting:     Off (optimal)                                                          |
// | ------------------------------------------------------------------------------------------------------------------ |
//  ------------------------------------------------------------------------
//  Simulation performed for #gates = 20871  #faults = 58208
//  Run fault simulation without storing patterns.  pattern source = 270 external patterns
//  ------------------------------------------------------------------------
//  #patterns  test      #faults  #faults    # eff.    # test         process 
//  simulated  coverage  in list  detected   patterns  patterns       CPU time
//   64         82.75%    10042     48166       64         0          1.42 sec
//   128        85.03%     8713      1329       64         0          1.46 sec
//   192        85.85%     8235       478       62         0          1.49 sec
//   256        86.18%     8044       191       54         0          1.51 sec
//   270        86.23%     8013        31       13         0          1.53 sec
