// | ------------------------------------------------------------------------------------------------------------------ |
// |                                                                                                                    |
// |          Current split capture setting:     Off (optimal)                                                          |
// |                                                                                                                    |
// |   Current clock off simulation setting:     Off (optimal)                                                          |
// | ------------------------------------------------------------------------------------------------------------------ |
//  ------------------------------------------------------------------------
//  Simulation performed for #gates = 20871  #faults = 58321
//  Run fault simulation without storing patterns.  pattern source = 297 external patterns
//  ------------------------------------------------------------------------
//  #patterns  test      #faults  #faults    # eff.    # test         process 
//  simulated  coverage  in list  detected   patterns  patterns       CPU time
//   64         83.66%     9528     48793       64         0          1.45 sec
//   128        85.82%     8270      1258       64         0          1.49 sec
//   192        86.58%     7828       442       61         0          1.52 sec
//   256        86.89%     7646       182       52         0          1.54 sec
//   297        87.01%     7577        69       28         0          1.56 sec
