// | ------------------------------------------------------------------------------------------------------------------ |
// |                                                                                                                    |
// |          Current split capture setting:     Off (optimal)                                                          |
// |                                                                                                                    |
// |   Current clock off simulation setting:     Off (optimal)                                                          |
// | ------------------------------------------------------------------------------------------------------------------ |
//  ------------------------------------------------------------------------
//  Simulation performed for #gates = 20871  #faults = 58202
//  Run fault simulation without storing patterns.  pattern source = 270 external patterns
//  ------------------------------------------------------------------------
//  #patterns  test      #faults  #faults    # eff.    # test         process 
//  simulated  coverage  in list  detected   patterns  patterns       CPU time
//   64         83.24%     9757     48445       64         0          1.46 sec
//   128        85.38%     8510      1247       64         0          1.50 sec
//   192        86.14%     8068       442       63         0          1.53 sec
//   256        86.47%     7875       193       55         0          1.55 sec
//   270        86.52%     7843        32       11         0          1.57 sec
