// | ------------------------------------------------------------------------------------------------------------------ |
// |                                                                                                                    |
// |          Current split capture setting:     Off (optimal)                                                          |
// |                                                                                                                    |
// |   Current clock off simulation setting:     Off (optimal)                                                          |
// | ------------------------------------------------------------------------------------------------------------------ |
//  ------------------------------------------------------------------------
//  Simulation performed for #gates = 20871  #faults = 58151
//  Run fault simulation without storing patterns.  pattern source = 293 external patterns
//  ------------------------------------------------------------------------
//  #patterns  test      #faults  #faults    # eff.    # test         process 
//  simulated  coverage  in list  detected   patterns  patterns       CPU time
//   64         82.76%    10028     48123       64         0          1.38 sec
//   128        84.82%     8827      1201       64         0          1.42 sec
//   192        85.59%     8380       447       62         0          1.44 sec
//   256        86.02%     8129       251       54         0          1.47 sec
//   293        86.13%     8063        66       28         0          1.49 sec
