// | ------------------------------------------------------------------------------------------------------------------ |
// |                                                                                                                    |
// |          Current split capture setting:     Off (optimal)                                                          |
// |                                                                                                                    |
// |   Current clock off simulation setting:     Off (optimal)                                                          |
// | ------------------------------------------------------------------------------------------------------------------ |
//  ------------------------------------------------------------------------
//  Simulation performed for #gates = 20871  #faults = 58395
//  Run fault simulation without storing patterns.  pattern source = 303 external patterns
//  ------------------------------------------------------------------------
//  #patterns  test      #faults  #faults    # eff.    # test         process 
//  simulated  coverage  in list  detected   patterns  patterns       CPU time
//   64         83.29%     9759     48636       64         0          1.45 sec
//   128        85.45%     8497      1262       64         0          1.49 sec
//   192        86.14%     8093       404       60         0          1.52 sec
//   256        86.48%     7895       198       57         0          1.54 sec
//   303        86.60%     7826        69       31         0          1.56 sec
