// | ------------------------------------------------------------------------------------------------------------------ |
// |                                                                                                                    |
// |          Current split capture setting:     Off (optimal)                                                          |
// |                                                                                                                    |
// |   Current clock off simulation setting:     Off (optimal)                                                          |
// | ------------------------------------------------------------------------------------------------------------------ |
//  ------------------------------------------------------------------------
//  Simulation performed for #gates = 20871  #faults = 58164
//  Run fault simulation without storing patterns.  pattern source = 269 external patterns
//  ------------------------------------------------------------------------
//  #patterns  test      #faults  #faults    # eff.    # test         process 
//  simulated  coverage  in list  detected   patterns  patterns       CPU time
//   64         82.82%     9993     48171       64         0          1.43 sec
//   128        84.93%     8766      1227       64         0          1.47 sec
//   192        85.78%     8269       497       61         0          1.49 sec
//   256        86.16%     8047       222       55         0          1.52 sec
//   269        86.21%     8018        29       10         0          1.54 sec
