// | ------------------------------------------------------------------------------------------------------------------ |
// |                                                                                                                    |
// |          Current split capture setting:     Off (optimal)                                                          |
// |                                                                                                                    |
// |   Current clock off simulation setting:     Off (optimal)                                                          |
// | ------------------------------------------------------------------------------------------------------------------ |
//  ------------------------------------------------------------------------
//  Simulation performed for #gates = 20871  #faults = 58433
//  Run fault simulation without storing patterns.  pattern source = 286 external patterns
//  ------------------------------------------------------------------------
//  #patterns  test      #faults  #faults    # eff.    # test         process 
//  simulated  coverage  in list  detected   patterns  patterns       CPU time
//   64         83.40%     9698     48735       64         0          1.42 sec
//   128        85.79%     8305      1393       64         0          1.46 sec
//   192        86.66%     7793       512       62         0          1.49 sec
//   256        87.07%     7553       240       58         0          1.51 sec
//   286        87.15%     7508        45       21         0          1.53 sec
