// | ------------------------------------------------------------------------------------------------------------------ |
// |                                                                                                                    |
// |          Current split capture setting:     Off (optimal)                                                          |
// |                                                                                                                    |
// |   Current clock off simulation setting:     Off (optimal)                                                          |
// | ------------------------------------------------------------------------------------------------------------------ |
//  ------------------------------------------------------------------------
//  Simulation performed for #gates = 20871  #faults = 58097
//  Run fault simulation without storing patterns.  pattern source = 292 external patterns
//  ------------------------------------------------------------------------
//  #patterns  test      #faults  #faults    # eff.    # test         process 
//  simulated  coverage  in list  detected   patterns  patterns       CPU time
//   64         83.18%     9774     48323       64         0          1.41 sec
//   128        85.32%     8528      1246       64         0          1.45 sec
//   192        86.07%     8091       437       59         0          1.48 sec
//   256        86.40%     7903       188       53         0          1.50 sec
//   292        86.52%     7833        70       27         0          1.53 sec
