// | ------------------------------------------------------------------------------------------------------------------ |
// |                                                                                                                    |
// |          Current split capture setting:     Off (optimal)                                                          |
// |                                                                                                                    |
// |   Current clock off simulation setting:     Off (optimal)                                                          |
// | ------------------------------------------------------------------------------------------------------------------ |
//  ------------------------------------------------------------------------
//  Simulation performed for #gates = 20871  #faults = 58208
//  Run fault simulation without storing patterns.  pattern source = 268 external patterns
//  ------------------------------------------------------------------------
//  #patterns  test      #faults  #faults    # eff.    # test         process 
//  simulated  coverage  in list  detected   patterns  patterns       CPU time
//   64         82.72%    10060     48148       64         0          1.43 sec
//   128        84.95%     8759      1301       64         0          1.47 sec
//   192        85.73%     8307       452       61         0          1.50 sec
//   256        86.11%     8083       224       60         0          1.52 sec
//   268        86.18%     8042        41       11         0          1.54 sec
