// | ------------------------------------------------------------------------------------------------------------------ |
// |                                                                                                                    |
// |          Current split capture setting:     Off (optimal)                                                          |
// |                                                                                                                    |
// |   Current clock off simulation setting:     Off (optimal)                                                          |
// | ------------------------------------------------------------------------------------------------------------------ |
//  ------------------------------------------------------------------------
//  Simulation performed for #gates = 20871  #faults = 58280
//  Run fault simulation without storing patterns.  pattern source = 283 external patterns
//  ------------------------------------------------------------------------
//  #patterns  test      #faults  #faults    # eff.    # test         process 
//  simulated  coverage  in list  detected   patterns  patterns       CPU time
//   64         82.64%    10117     48163       64         0          1.41 sec
//   128        84.92%     8788      1329       64         0          1.46 sec
//   192        85.72%     8323       465       62         0          1.48 sec
//   256        86.04%     8135       188       52         0          1.51 sec
//   283        86.12%     8087        48       19         0          1.53 sec
