// | ------------------------------------------------------------------------------------------------------------------ |
// |                                                                                                                    |
// |          Current split capture setting:     Off (optimal)                                                          |
// |                                                                                                                    |
// |   Current clock off simulation setting:     Off (optimal)                                                          |
// | ------------------------------------------------------------------------------------------------------------------ |
//  ------------------------------------------------------------------------
//  Simulation performed for #gates = 20871  #faults = 58164
//  Run fault simulation without storing patterns.  pattern source = 294 external patterns
//  ------------------------------------------------------------------------
//  #patterns  test      #faults  #faults    # eff.    # test         process 
//  simulated  coverage  in list  detected   patterns  patterns       CPU time
//   64         82.71%    10054     48110       64         0          1.43 sec
//   128        84.93%     8767      1287       64         0          1.47 sec
//   192        85.76%     8282       485       63         0          1.50 sec
//   256        86.17%     8046       236       58         0          1.52 sec
//   294        86.31%     7961        85       27         0          1.54 sec
