// | ------------------------------------------------------------------------------------------------------------------ |
// |                                                                                                                    |
// |          Current split capture setting:     Off (optimal)                                                          |
// |                                                                                                                    |
// |   Current clock off simulation setting:     Off (optimal)                                                          |
// | ------------------------------------------------------------------------------------------------------------------ |
//  ------------------------------------------------------------------------
//  Simulation performed for #gates = 20871  #faults = 58097
//  Run fault simulation without storing patterns.  pattern source = 308 external patterns
//  ------------------------------------------------------------------------
//  #patterns  test      #faults  #faults    # eff.    # test         process 
//  simulated  coverage  in list  detected   patterns  patterns       CPU time
//   64         83.36%     9669     48428       64         0          1.42 sec
//   128        85.43%     8464      1205       64         0          1.46 sec
//   192        86.08%     8088       376       60         0          1.49 sec
//   256        86.41%     7898       190       52         0          1.51 sec
//   308        86.56%     7809        89       33         0          1.53 sec
