// | ------------------------------------------------------------------------------------------------------------------ |
// |                                                                                                                    |
// |          Current split capture setting:     Off (optimal)                                                          |
// |                                                                                                                    |
// |   Current clock off simulation setting:     Off (optimal)                                                          |
// | ------------------------------------------------------------------------------------------------------------------ |
//  ------------------------------------------------------------------------
//  Simulation performed for #gates = 20871  #faults = 58235
//  Run fault simulation without storing patterns.  pattern source = 309 external patterns
//  ------------------------------------------------------------------------
//  #patterns  test      #faults  #faults    # eff.    # test         process 
//  simulated  coverage  in list  detected   patterns  patterns       CPU time
//   64         83.29%     9732     48503       64         0          1.44 sec
//   128        85.66%     8353      1379       64         0          1.49 sec
//   192        86.35%     7951       402       61         0          1.52 sec
//   256        86.70%     7746       205       52         0          1.54 sec
//   309        86.86%     7654        92       40         0          1.56 sec
