// | ------------------------------------------------------------------------------------------------------------------ |
// |                                                                                                                    |
// |          Current split capture setting:     Off (optimal)                                                          |
// |                                                                                                                    |
// |   Current clock off simulation setting:     Off (optimal)                                                          |
// | ------------------------------------------------------------------------------------------------------------------ |
//  ------------------------------------------------------------------------
//  Simulation performed for #gates = 20871  #faults = 57950
//  Run fault simulation without storing patterns.  pattern source = 278 external patterns
//  ------------------------------------------------------------------------
//  #patterns  test      #faults  #faults    # eff.    # test         process 
//  simulated  coverage  in list  detected   patterns  patterns       CPU time
//   64         83.25%     9709     48241       64         0          1.41 sec
//   128        85.58%     8356      1353       64         0          1.45 sec
//   192        86.33%     7919       437       63         0          1.48 sec
//   256        86.69%     7714       205       52         0          1.50 sec
//   278        86.75%     7676        38       18         0          1.52 sec
