          Statistics Report          
           Stuck-at Faults           
-------------------------------------
Fault Classes              #faults   
                           (coll.)   
---------------------  --------------
  FU (full)                 3574     
  -------------------  --------------
  DS (det_simulation)   3183 (89.06%)
  TI (tied)               16 ( 0.45%)
  BL (blocked)             7 ( 0.20%)
  RE (redundant)         368 (10.30%)
-------------------------------------
Coverage                             
  -------------------                
  test_coverage              100.00% 
  fault_coverage              89.06% 
  atpg_effectiveness         100.00% 
-------------------------------------
#test_patterns                   136 
#simulated_patterns              140 
CPU_time (secs)                  1.9 
-------------------------------------

