// | ------------------------------------------------------------------------------------------------------------------ |
// |                                                                                                                    |
// |          Current split capture setting:     Off (optimal)                                                          |
// |                                                                                                                    |
// |   Current clock off simulation setting:     Off (optimal)                                                          |
// | ------------------------------------------------------------------------------------------------------------------ |
//  ------------------------------------------------------------------------
//  Simulation performed for #gates = 20077  #faults = 37201
//  Run fault simulation without storing patterns.  pattern source = 213 external patterns
//  ------------------------------------------------------------------------
//  #patterns  test      #faults  #faults    # eff.    # test         process 
//  simulated  coverage  in list  detected   patterns  patterns       CPU time
//   64         45.70%    20199     17002       64         0          0.32 sec
//   128        48.90%    19011      1188       64         0          0.40 sec
//   192        50.63%    18366       645       60         0          0.47 sec
//   213        51.12%    18182       184       16         0          0.54 sec
