// | ------------------------------------------------------------------------------------------------------------------ |
// |                                                                                                                    |
// |          Current split capture setting:     Off (optimal)                                                          |
// |                                                                                                                    |
// |   Current clock off simulation setting:     Off (optimal)                                                          |
// | ------------------------------------------------------------------------------------------------------------------ |
//  ------------------------------------------------------------------------
//  Simulation performed for #gates = 20077  #faults = 36582
//  Run fault simulation without storing patterns.  pattern source = 235 external patterns
//  ------------------------------------------------------------------------
//  #patterns  test      #faults  #faults    # eff.    # test         process 
//  simulated  coverage  in list  detected   patterns  patterns       CPU time
//   64         43.94%    20509     16073       64         0          0.33 sec
//   128        47.07%    19364      1145       62         0          0.42 sec
//   192        48.51%    18837       527       59         0          0.50 sec
//   235        48.96%    18672       165       30         0          0.57 sec
