// | ------------------------------------------------------------------------------------------------------------------ |
// |                                                                                                                    |
// |          Current split capture setting:     Off (optimal)                                                          |
// |                                                                                                                    |
// |   Current clock off simulation setting:     Off (optimal)                                                          |
// | ------------------------------------------------------------------------------------------------------------------ |
//  ------------------------------------------------------------------------
//  Simulation performed for #gates = 20077  #faults = 34912
//  Run fault simulation without storing patterns.  pattern source = 217 external patterns
//  ------------------------------------------------------------------------
//  #patterns  test      #faults  #faults    # eff.    # test         process 
//  simulated  coverage  in list  detected   patterns  patterns       CPU time
//   64         48.56%    17960     16952       64         0          0.35 sec
//   128        51.92%    16787      1173       61         0          0.42 sec
//   192        54.05%    16043       744       58         0          0.49 sec
//   217        54.63%    15839       204       22         0          0.56 sec
