// | ------------------------------------------------------------------------------------------------------------------ |
// |                                                                                                                    |
// |          Current split capture setting:     Off (optimal)                                                          |
// |                                                                                                                    |
// |   Current clock off simulation setting:     Off (optimal)                                                          |
// | ------------------------------------------------------------------------------------------------------------------ |
//  ------------------------------------------------------------------------
//  Simulation performed for #gates = 20077  #faults = 34071
//  Run fault simulation without storing patterns.  pattern source = 240 external patterns
//  ------------------------------------------------------------------------
//  #patterns  test      #faults  #faults    # eff.    # test         process 
//  simulated  coverage  in list  detected   patterns  patterns       CPU time
//   64         45.46%    18582     15489       64         0          0.28 sec
//   128        48.62%    17506      1076       59         0          0.36 sec
//   192        50.51%    16861       645       56         0          0.43 sec
//   240        51.96%    16369       492       42         0          0.50 sec
