// | ------------------------------------------------------------------------------------------------------------------ |
// |                                                                                                                    |
// |          Current split capture setting:     Off (optimal)                                                          |
// |                                                                                                                    |
// |   Current clock off simulation setting:     Off (optimal)                                                          |
// | ------------------------------------------------------------------------------------------------------------------ |
//  ------------------------------------------------------------------------
//  Simulation performed for #gates = 20077  #faults = 35634
//  Run fault simulation without storing patterns.  pattern source = 258 external patterns
//  ------------------------------------------------------------------------
//  #patterns  test      #faults  #faults    # eff.    # test         process 
//  simulated  coverage  in list  detected   patterns  patterns       CPU time
//   64         46.61%    19026     16608       64         0          0.32 sec
//   128        50.15%    17765      1261       64         0          0.40 sec
//   192        52.25%    17017       748       55         0          0.47 sec
//   256        53.96%    16406       611       55         0          0.55 sec
//   258        53.97%    16404         2        1         0          0.60 sec
