// | ------------------------------------------------------------------------------------------------------------------ |
// |                                                                                                                    |
// |          Current split capture setting:     Off (optimal)                                                          |
// |                                                                                                                    |
// |   Current clock off simulation setting:     Off (optimal)                                                          |
// | ------------------------------------------------------------------------------------------------------------------ |
//  ------------------------------------------------------------------------
//  Simulation performed for #gates = 20077  #faults = 37393
//  Run fault simulation without storing patterns.  pattern source = 235 external patterns
//  ------------------------------------------------------------------------
//  #patterns  test      #faults  #faults    # eff.    # test         process 
//  simulated  coverage  in list  detected   patterns  patterns       CPU time
//   64         50.04%    18683     18710       64         0          0.37 sec
//   128        53.41%    17423      1260       64         0          0.45 sec
//   192        54.96%    16840       583       55         0          0.52 sec
//   235        55.74%    16549       291       38         0          0.58 sec
