// | ------------------------------------------------------------------------------------------------------------------ |
// |                                                                                                                    |
// |          Current split capture setting:     Off (optimal)                                                          |
// |                                                                                                                    |
// |   Current clock off simulation setting:     Off (optimal)                                                          |
// | ------------------------------------------------------------------------------------------------------------------ |
//  ------------------------------------------------------------------------
//  Simulation performed for #gates = 20077  #faults = 35689
//  Run fault simulation without storing patterns.  pattern source = 242 external patterns
//  ------------------------------------------------------------------------
//  #patterns  test      #faults  #faults    # eff.    # test         process 
//  simulated  coverage  in list  detected   patterns  patterns       CPU time
//   64         45.69%    19383     16306       64         0          0.31 sec
//   128        49.23%    18119      1264       64         0          0.39 sec
//   192        51.33%    17370       749       55         0          0.47 sec
//   242        52.53%    16940       430       43         0          0.54 sec
