// | ------------------------------------------------------------------------------------------------------------------ |
// |                                                                                                                    |
// |          Current split capture setting:     Off (optimal)                                                          |
// |                                                                                                                    |
// |   Current clock off simulation setting:     Off (optimal)                                                          |
// | ------------------------------------------------------------------------------------------------------------------ |
//  ------------------------------------------------------------------------
//  Simulation performed for #gates = 20077  #faults = 37546
//  Run fault simulation without storing patterns.  pattern source = 221 external patterns
//  ------------------------------------------------------------------------
//  #patterns  test      #faults  #faults    # eff.    # test         process 
//  simulated  coverage  in list  detected   patterns  patterns       CPU time
//   64         44.55%    20820     16726       64         0          0.35 sec
//   128        48.34%    19396      1424       63         0          0.44 sec
//   192        49.45%    18980       416       56         0          0.52 sec
//   221        49.87%    18821       159       24         0          0.59 sec
