// | ------------------------------------------------------------------------------------------------------------------ |
// |                                                                                                                    |
// |          Current split capture setting:     Off (optimal)                                                          |
// |                                                                                                                    |
// |   Current clock off simulation setting:     Off (optimal)                                                          |
// | ------------------------------------------------------------------------------------------------------------------ |
//  ------------------------------------------------------------------------
//  Simulation performed for #gates = 20077  #faults = 35595
//  Run fault simulation without storing patterns.  pattern source = 246 external patterns
//  ------------------------------------------------------------------------
//  #patterns  test      #faults  #faults    # eff.    # test         process 
//  simulated  coverage  in list  detected   patterns  patterns       CPU time
//   64         47.09%    18835     16760       64         0          0.30 sec
//   128        50.00%    17798      1037       64         0          0.38 sec
//   192        51.38%    17306       492       55         0          0.45 sec
//   246        52.38%    16952       354       43         0          0.52 sec
