// | ------------------------------------------------------------------------------------------------------------------ |
// |                                                                                                                    |
// |          Current split capture setting:     Off (optimal)                                                          |
// |                                                                                                                    |
// |   Current clock off simulation setting:     Off (optimal)                                                          |
// | ------------------------------------------------------------------------------------------------------------------ |
//  ------------------------------------------------------------------------
//  Simulation performed for #gates = 20077  #faults = 37546
//  Run fault simulation without storing patterns.  pattern source = 217 external patterns
//  ------------------------------------------------------------------------
//  #patterns  test      #faults  #faults    # eff.    # test         process 
//  simulated  coverage  in list  detected   patterns  patterns       CPU time
//   64         38.66%    23029     14517       64         0          0.29 sec
//   128        40.59%    22307       722       62         0          0.39 sec
//   192        42.35%    21646       661       57         0          0.48 sec
//   217        42.76%    21491       155       22         0          0.56 sec
