// | ------------------------------------------------------------------------------------------------------------------ |
// |                                                                                                                    |
// |          Current split capture setting:     Off (optimal)                                                          |
// |                                                                                                                    |
// |   Current clock off simulation setting:     Off (optimal)                                                          |
// | ------------------------------------------------------------------------------------------------------------------ |
//  ------------------------------------------------------------------------
//  Simulation performed for #gates = 20077  #faults = 35634
//  Run fault simulation without storing patterns.  pattern source = 246 external patterns
//  ------------------------------------------------------------------------
//  #patterns  test      #faults  #faults    # eff.    # test         process 
//  simulated  coverage  in list  detected   patterns  patterns       CPU time
//   64         47.29%    18784     16850       64         0          0.34 sec
//   128        51.10%    17426      1358       63         0          0.42 sec
//   192        52.83%    16809       617       60         0          0.49 sec
//   246        54.10%    16356       453       48         0          0.56 sec
