// | ------------------------------------------------------------------------------------------------------------------ |
// |                                                                                                                    |
// |          Current split capture setting:     Off (optimal)                                                          |
// |                                                                                                                    |
// |   Current clock off simulation setting:     Off (optimal)                                                          |
// | ------------------------------------------------------------------------------------------------------------------ |
//  ------------------------------------------------------------------------
//  Simulation performed for #gates = 20077  #faults = 33546
//  Run fault simulation without storing patterns.  pattern source = 212 external patterns
//  ------------------------------------------------------------------------
//  #patterns  test      #faults  #faults    # eff.    # test         process 
//  simulated  coverage  in list  detected   patterns  patterns       CPU time
//   64         49.88%    16814     16732       64         0          0.32 sec
//   128        53.88%    15470      1344       64         0          0.39 sec
//   192        55.73%    14850       620       60         0          0.46 sec
//   212        56.21%    14691       159       15         0          0.51 sec
