// | ------------------------------------------------------------------------------------------------------------------ |
// |                                                                                                                    |
// |          Current split capture setting:     Off (optimal)                                                          |
// |                                                                                                                    |
// |   Current clock off simulation setting:     Off (optimal)                                                          |
// | ------------------------------------------------------------------------------------------------------------------ |
//  ------------------------------------------------------------------------
//  Simulation performed for #gates = 20077  #faults = 37393
//  Run fault simulation without storing patterns.  pattern source = 209 external patterns
//  ------------------------------------------------------------------------
//  #patterns  test      #faults  #faults    # eff.    # test         process 
//  simulated  coverage  in list  detected   patterns  patterns       CPU time
//   64         48.30%    19333     18060       64         0          0.33 sec
//   128        51.28%    18217      1116       62         0          0.41 sec
//   192        53.63%    17338       879       62         0          0.48 sec
//   209        53.95%    17218       120       16         0          0.54 sec
