// | ------------------------------------------------------------------------------------------------------------------ |
// |                                                                                                                    |
// |          Current split capture setting:     Off (optimal)                                                          |
// |                                                                                                                    |
// |   Current clock off simulation setting:     Off (optimal)                                                          |
// | ------------------------------------------------------------------------------------------------------------------ |
//  ------------------------------------------------------------------------
//  Simulation performed for #gates = 20077  #faults = 36110
//  Run fault simulation without storing patterns.  pattern source = 204 external patterns
//  ------------------------------------------------------------------------
//  #patterns  test      #faults  #faults    # eff.    # test         process 
//  simulated  coverage  in list  detected   patterns  patterns       CPU time
//   64         48.15%    18723     17387       64         0          0.33 sec
//   128        51.76%    17419      1304       63         0          0.41 sec
//   192        53.96%    16625       794       59         0          0.48 sec
//   204        54.12%    16566        59       10         0          0.54 sec
