// | ------------------------------------------------------------------------------------------------------------------ |
// |                                                                                                                    |
// |          Current split capture setting:     Off (optimal)                                                          |
// |                                                                                                                    |
// |   Current clock off simulation setting:     Off (optimal)                                                          |
// | ------------------------------------------------------------------------------------------------------------------ |
//  ------------------------------------------------------------------------
//  Simulation performed for #gates = 20077  #faults = 35259
//  Run fault simulation without storing patterns.  pattern source = 213 external patterns
//  ------------------------------------------------------------------------
//  #patterns  test      #faults  #faults    # eff.    # test         process 
//  simulated  coverage  in list  detected   patterns  patterns       CPU time
//   64         45.21%    19318     15941       64         0          0.32 sec
//   128        48.12%    18294      1024       61         0          0.40 sec
//   192        49.57%    17781       513       58         0          0.47 sec
//   213        49.84%    17686        95       20         0          0.53 sec
