// | ------------------------------------------------------------------------------------------------------------------ |
// |                                                                                                                    |
// |          Current split capture setting:     Off (optimal)                                                          |
// |                                                                                                                    |
// |   Current clock off simulation setting:     Off (optimal)                                                          |
// | ------------------------------------------------------------------------------------------------------------------ |
//  ------------------------------------------------------------------------
//  Simulation performed for #gates = 20077  #faults = 36970
//  Run fault simulation without storing patterns.  pattern source = 222 external patterns
//  ------------------------------------------------------------------------
//  #patterns  test      #faults  #faults    # eff.    # test         process 
//  simulated  coverage  in list  detected   patterns  patterns       CPU time
//   64         41.50%    21626     15344       64         0          0.28 sec
//   128        43.67%    20825       801       55         0          0.36 sec
//   192        45.32%    20214       611       46         0          0.44 sec
//   222        45.78%    20046       168       23         0          0.52 sec
