// | ------------------------------------------------------------------------------------------------------------------ |
// |                                                                                                                    |
// |          Current split capture setting:     Off (optimal)                                                          |
// |                                                                                                                    |
// |   Current clock off simulation setting:     Off (optimal)                                                          |
// | ------------------------------------------------------------------------------------------------------------------ |
//  ------------------------------------------------------------------------
//  Simulation performed for #gates = 20077  #faults = 35145
//  Run fault simulation without storing patterns.  pattern source = 198 external patterns
//  ------------------------------------------------------------------------
//  #patterns  test      #faults  #faults    # eff.    # test         process 
//  simulated  coverage  in list  detected   patterns  patterns       CPU time
//   64         43.22%    19956     15189       64         0          0.28 sec
//   128        45.41%    19187       769       57         0          0.36 sec
//   192        47.14%    18578       609       48         0          0.44 sec
//   198        47.24%    18544        34        3         0          0.50 sec
