// | ------------------------------------------------------------------------------------------------------------------ |
// |                                                                                                                    |
// |          Current split capture setting:     Off (optimal)                                                          |
// |                                                                                                                    |
// |   Current clock off simulation setting:     Off (optimal)                                                          |
// | ------------------------------------------------------------------------------------------------------------------ |
//  ------------------------------------------------------------------------
//  Simulation performed for #gates = 20077  #faults = 35081
//  Run fault simulation without storing patterns.  pattern source = 210 external patterns
//  ------------------------------------------------------------------------
//  #patterns  test      #faults  #faults    # eff.    # test         process 
//  simulated  coverage  in list  detected   patterns  patterns       CPU time
//   64         52.42%    16692     18389       64         0          0.32 sec
//   128        55.63%    15566      1126       61         0          0.39 sec
//   192        57.64%    14859       707       59         0          0.46 sec
//   210        58.08%    14706       153       15         0          0.52 sec
