// | ------------------------------------------------------------------------------------------------------------------ |
// |                                                                                                                    |
// |          Current split capture setting:     Off (optimal)                                                          |
// |                                                                                                                    |
// |   Current clock off simulation setting:     Off (optimal)                                                          |
// | ------------------------------------------------------------------------------------------------------------------ |
//  ------------------------------------------------------------------------
//  Simulation performed for #gates = 20077  #faults = 36826
//  Run fault simulation without storing patterns.  pattern source = 212 external patterns
//  ------------------------------------------------------------------------
//  #patterns  test      #faults  #faults    # eff.    # test         process 
//  simulated  coverage  in list  detected   patterns  patterns       CPU time
//   64         49.27%    18681     18145       64         0          0.35 sec
//   128        53.33%    17185      1496       64         0          0.43 sec
//   192        55.20%    16499       686       58         0          0.50 sec
//   212        55.51%    16385       114       19         0          0.56 sec
