// | ------------------------------------------------------------------------------------------------------------------ |
// |                                                                                                                    |
// |          Current split capture setting:     Off (optimal)                                                          |
// |                                                                                                                    |
// |   Current clock off simulation setting:     Off (optimal)                                                          |
// | ------------------------------------------------------------------------------------------------------------------ |
//  ------------------------------------------------------------------------
//  Simulation performed for #gates = 20077  #faults = 33932
//  Run fault simulation without storing patterns.  pattern source = 210 external patterns
//  ------------------------------------------------------------------------
//  #patterns  test      #faults  #faults    # eff.    # test         process 
//  simulated  coverage  in list  detected   patterns  patterns       CPU time
//   64         50.35%    16847     17085       64         0          0.33 sec
//   128        54.39%    15477      1370       63         0          0.41 sec
//   192        56.07%    14907       570       60         0          0.47 sec
//   210        56.36%    14808        99       15         0          0.53 sec
