// | ------------------------------------------------------------------------------------------------------------------ |
// |                                                                                                                    |
// |          Current split capture setting:     Off (optimal)                                                          |
// |                                                                                                                    |
// |   Current clock off simulation setting:     Off (optimal)                                                          |
// | ------------------------------------------------------------------------------------------------------------------ |
//  ------------------------------------------------------------------------
//  Simulation performed for #gates = 20077  #faults = 31999
//  Run fault simulation without storing patterns.  pattern source = 226 external patterns
//  ------------------------------------------------------------------------
//  #patterns  test      #faults  #faults    # eff.    # test         process 
//  simulated  coverage  in list  detected   patterns  patterns       CPU time
//   64         54.03%    14710     17289       64         0          0.31 sec
//   128        58.00%    13438      1272       63         0          0.38 sec
//   192        59.82%    12856       582       55         0          0.43 sec
//   226        60.58%    12614       242       33         0          0.48 sec
