// | ------------------------------------------------------------------------------------------------------------------ |
// |                                                                                                                    |
// |          Current split capture setting:     Off (optimal)                                                          |
// |                                                                                                                    |
// |   Current clock off simulation setting:     Off (optimal)                                                          |
// | ------------------------------------------------------------------------------------------------------------------ |
//  ------------------------------------------------------------------------
//  Simulation performed for #gates = 20077  #faults = 37792
//  Run fault simulation without storing patterns.  pattern source = 213 external patterns
//  ------------------------------------------------------------------------
//  #patterns  test      #faults  #faults    # eff.    # test         process 
//  simulated  coverage  in list  detected   patterns  patterns       CPU time
//   64         43.46%    21368     16424       64         0          0.31 sec
//   128        45.99%    20412       956       60         0          0.39 sec
//   192        47.93%    19680       732       49         0          0.47 sec
//   213        48.29%    19544       136       19         0          0.54 sec
