// | ------------------------------------------------------------------------------------------------------------------ |
// |                                                                                                                    |
// |          Current split capture setting:     Off (optimal)                                                          |
// |                                                                                                                    |
// |   Current clock off simulation setting:     Off (optimal)                                                          |
// | ------------------------------------------------------------------------------------------------------------------ |
//  ------------------------------------------------------------------------
//  Simulation performed for #gates = 20077  #faults = 35542
//  Run fault simulation without storing patterns.  pattern source = 223 external patterns
//  ------------------------------------------------------------------------
//  #patterns  test      #faults  #faults    # eff.    # test         process 
//  simulated  coverage  in list  detected   patterns  patterns       CPU time
//   64         42.27%    20519     15023       64         0          0.29 sec
//   128        45.52%    19362      1157       64         0          0.38 sec
//   192        47.06%    18817       545       54         0          0.45 sec
//   223        47.65%    18608       209       25         0          0.52 sec
