// | ------------------------------------------------------------------------------------------------------------------ |
// |                                                                                                                    |
// |          Current split capture setting:     Off (optimal)                                                          |
// |                                                                                                                    |
// |   Current clock off simulation setting:     Off (optimal)                                                          |
// | ------------------------------------------------------------------------------------------------------------------ |
//  ------------------------------------------------------------------------
//  Simulation performed for #gates = 20077  #faults = 33932
//  Run fault simulation without storing patterns.  pattern source = 224 external patterns
//  ------------------------------------------------------------------------
//  #patterns  test      #faults  #faults    # eff.    # test         process 
//  simulated  coverage  in list  detected   patterns  patterns       CPU time
//   64         49.47%    17146     16786       64         0          0.32 sec
//   128        53.61%    15742      1404       62         0          0.40 sec
//   192        55.62%    15058       684       54         0          0.46 sec
//   224        56.27%    14839       219       30         0          0.52 sec
