// | ------------------------------------------------------------------------------------------------------------------ |
// |                                                                                                                    |
// |          Current split capture setting:     Off (optimal)                                                          |
// |                                                                                                                    |
// |   Current clock off simulation setting:     Off (optimal)                                                          |
// | ------------------------------------------------------------------------------------------------------------------ |
//  ------------------------------------------------------------------------
//  Simulation performed for #gates = 20077  #faults = 36511
//  Run fault simulation without storing patterns.  pattern source = 234 external patterns
//  ------------------------------------------------------------------------
//  #patterns  test      #faults  #faults    # eff.    # test         process 
//  simulated  coverage  in list  detected   patterns  patterns       CPU time
//   64         51.29%    17785     18726       64         0          0.36 sec
//   128        55.58%    16218      1567       62         0          0.44 sec
//   192        57.23%    15616       602       60         0          0.50 sec
//   234        58.02%    15327       289       38         0          0.56 sec
