// | ------------------------------------------------------------------------------------------------------------------ |
// |                                                                                                                    |
// |          Current split capture setting:     Off (optimal)                                                          |
// |                                                                                                                    |
// |   Current clock off simulation setting:     Off (optimal)                                                          |
// | ------------------------------------------------------------------------------------------------------------------ |
//  ------------------------------------------------------------------------
//  Simulation performed for #gates = 20077  #faults = 33932
//  Run fault simulation without storing patterns.  pattern source = 241 external patterns
//  ------------------------------------------------------------------------
//  #patterns  test      #faults  #faults    # eff.    # test         process 
//  simulated  coverage  in list  detected   patterns  patterns       CPU time
//   64         47.33%    17872     16060       64         0          0.29 sec
//   128        51.48%    16465      1407       59         0          0.37 sec
//   192        52.80%    16015       450       54         0          0.43 sec
//   241        54.56%    15418       597       42         0          0.50 sec
