// | ------------------------------------------------------------------------------------------------------------------ |
// |                                                                                                                    |
// |          Current split capture setting:     Off (optimal)                                                          |
// |                                                                                                                    |
// |   Current clock off simulation setting:     Off (optimal)                                                          |
// | ------------------------------------------------------------------------------------------------------------------ |
//  ------------------------------------------------------------------------
//  Simulation performed for #gates = 20077  #faults = 37139
//  Run fault simulation without storing patterns.  pattern source = 221 external patterns
//  ------------------------------------------------------------------------
//  #patterns  test      #faults  #faults    # eff.    # test         process 
//  simulated  coverage  in list  detected   patterns  patterns       CPU time
//   64         43.30%    21057     16082       64         0          0.30 sec
//   128        46.31%    19939      1118       61         0          0.39 sec
//   192        48.05%    19294       645       58         0          0.47 sec
//   221        48.52%    19120       174       21         0          0.54 sec
