// | ------------------------------------------------------------------------------------------------------------------ |
// |                                                                                                                    |
// |          Current split capture setting:     Off (optimal)                                                          |
// |                                                                                                                    |
// |   Current clock off simulation setting:     Off (optimal)                                                          |
// | ------------------------------------------------------------------------------------------------------------------ |
//  ------------------------------------------------------------------------
//  Simulation performed for #gates = 20077  #faults = 33119
//  Run fault simulation without storing patterns.  pattern source = 258 external patterns
//  ------------------------------------------------------------------------
//  #patterns  test      #faults  #faults    # eff.    # test         process 
//  simulated  coverage  in list  detected   patterns  patterns       CPU time
//   64         51.95%    15915     17204       64         0          0.29 sec
//   128        55.37%    14781      1134       64         0          0.36 sec
//   192        57.15%    14191       590       59         0          0.42 sec
//   256        58.84%    13631       560       57         0          0.48 sec
//   258        58.88%    13618        13        1         0          0.52 sec
