// | ------------------------------------------------------------------------------------------------------------------ |
// |                                                                                                                    |
// |          Current split capture setting:     Off (optimal)                                                          |
// |                                                                                                                    |
// |   Current clock off simulation setting:     Off (optimal)                                                          |
// | ------------------------------------------------------------------------------------------------------------------ |
//  ------------------------------------------------------------------------
//  Simulation performed for #gates = 20077  #faults = 38399
//  Run fault simulation without storing patterns.  pattern source = 219 external patterns
//  ------------------------------------------------------------------------
//  #patterns  test      #faults  #faults    # eff.    # test         process 
//  simulated  coverage  in list  detected   patterns  patterns       CPU time
//   64         47.04%    20336     18063       64         0          0.36 sec
//   128        50.20%    19121      1215       64         0          0.44 sec
//   192        51.64%    18569       552       57         0          0.52 sec
//   219        52.06%    18408       161       24         0          0.58 sec
