// | ------------------------------------------------------------------------------------------------------------------ |
// |                                                                                                                    |
// |          Current split capture setting:     Off (optimal)                                                          |
// |                                                                                                                    |
// |   Current clock off simulation setting:     Off (optimal)                                                          |
// | ------------------------------------------------------------------------------------------------------------------ |
//  ------------------------------------------------------------------------
//  Simulation performed for #gates = 20077  #faults = 35689
//  Run fault simulation without storing patterns.  pattern source = 204 external patterns
//  ------------------------------------------------------------------------
//  #patterns  test      #faults  #faults    # eff.    # test         process 
//  simulated  coverage  in list  detected   patterns  patterns       CPU time
//   64         44.98%    19637     16052       64         0          0.31 sec
//   128        48.42%    18408      1229       63         0          0.39 sec
//   192        49.91%    17878       530       56         0          0.46 sec
//   204        50.07%    17818        60       11         0          0.52 sec
