// | ------------------------------------------------------------------------------------------------------------------ |
// |                                                                                                                    |
// |          Current split capture setting:     Off (optimal)                                                          |
// |                                                                                                                    |
// |   Current clock off simulation setting:     Off (optimal)                                                          |
// | ------------------------------------------------------------------------------------------------------------------ |
//  ------------------------------------------------------------------------
//  Simulation performed for #gates = 20077  #faults = 39882
//  Run fault simulation without storing patterns.  pattern source = 255 external patterns
//  ------------------------------------------------------------------------
//  #patterns  test      #faults  #faults    # eff.    # test         process 
//  simulated  coverage  in list  detected   patterns  patterns       CPU time
//   64         44.66%    22071     17811       64         0          0.38 sec
//   128        47.76%    20836      1235       64         0          0.48 sec
//   192        49.11%    20297       539       56         0          0.56 sec
//   255        49.90%    19980       317       50         0          0.64 sec
