// | ------------------------------------------------------------------------------------------------------------------ |
// |                                                                                                                    |
// |          Current split capture setting:     Off (optimal)                                                          |
// |                                                                                                                    |
// |   Current clock off simulation setting:     Off (optimal)                                                          |
// | ------------------------------------------------------------------------------------------------------------------ |
//  ------------------------------------------------------------------------
//  Simulation performed for #gates = 20077  #faults = 37393
//  Run fault simulation without storing patterns.  pattern source = 204 external patterns
//  ------------------------------------------------------------------------
//  #patterns  test      #faults  #faults    # eff.    # test         process 
//  simulated  coverage  in list  detected   patterns  patterns       CPU time
//   64         47.68%    19563     17830       64         0          0.34 sec
//   128        51.29%    18213      1350       61         0          0.42 sec
//   192        53.45%    17406       807       61         0          0.50 sec
//   204        53.71%    17308        98       11         0          0.56 sec
