// | ------------------------------------------------------------------------------------------------------------------ |
// |                                                                                                                    |
// |          Current split capture setting:     Off (optimal)                                                          |
// |                                                                                                                    |
// |   Current clock off simulation setting:     Off (optimal)                                                          |
// | ------------------------------------------------------------------------------------------------------------------ |
//  ------------------------------------------------------------------------
//  Simulation performed for #gates = 20077  #faults = 35823
//  Run fault simulation without storing patterns.  pattern source = 216 external patterns
//  ------------------------------------------------------------------------
//  #patterns  test      #faults  #faults    # eff.    # test         process 
//  simulated  coverage  in list  detected   patterns  patterns       CPU time
//   64         48.08%    18600     17223       64         0          0.32 sec
//   128        51.91%    17229      1371       63         0          0.40 sec
//   192        53.75%    16567       662       61         0          0.47 sec
//   216        54.26%    16385       182       24         0          0.53 sec
