// | ------------------------------------------------------------------------------------------------------------------ |
// |                                                                                                                    |
// |          Current split capture setting:     Off (optimal)                                                          |
// |                                                                                                                    |
// |   Current clock off simulation setting:     Off (optimal)                                                          |
// | ------------------------------------------------------------------------------------------------------------------ |
//  ------------------------------------------------------------------------
//  Simulation performed for #gates = 20077  #faults = 31999
//  Run fault simulation without storing patterns.  pattern source = 202 external patterns
//  ------------------------------------------------------------------------
//  #patterns  test      #faults  #faults    # eff.    # test         process 
//  simulated  coverage  in list  detected   patterns  patterns       CPU time
//   64         53.55%    14865     17134       64         0          0.29 sec
//   128        56.71%    13853      1012       63         0          0.35 sec
//   192        58.68%    13222       631       58         0          0.41 sec
//   202        58.94%    13140        82       10         0          0.45 sec
