// | ------------------------------------------------------------------------------------------------------------------ |
// |                                                                                                                    |
// |          Current split capture setting:     Off (optimal)                                                          |
// |                                                                                                                    |
// |   Current clock off simulation setting:     Off (optimal)                                                          |
// | ------------------------------------------------------------------------------------------------------------------ |
//  ------------------------------------------------------------------------
//  Simulation performed for #gates = 20077  #faults = 34314
//  Run fault simulation without storing patterns.  pattern source = 237 external patterns
//  ------------------------------------------------------------------------
//  #patterns  test      #faults  #faults    # eff.    # test         process 
//  simulated  coverage  in list  detected   patterns  patterns       CPU time
//   64         47.95%    17861     16453       64         0          0.29 sec
//   128        51.61%    16606      1255       63         0          0.37 sec
//   192        53.08%    16100       506       57         0          0.43 sec
//   237        54.12%    15743       357       39         0          0.50 sec
