// | ------------------------------------------------------------------------------------------------------------------ |
// |                                                                                                                    |
// |          Current split capture setting:     Off (optimal)                                                          |
// |                                                                                                                    |
// |   Current clock off simulation setting:     Off (optimal)                                                          |
// | ------------------------------------------------------------------------------------------------------------------ |
//  ------------------------------------------------------------------------
//  Simulation performed for #gates = 20077  #faults = 38103
//  Run fault simulation without storing patterns.  pattern source = 210 external patterns
//  ------------------------------------------------------------------------
//  #patterns  test      #faults  #faults    # eff.    # test         process 
//  simulated  coverage  in list  detected   patterns  patterns       CPU time
//   64         46.68%    20316     17787       64         0          0.33 sec
//   128        49.45%    19261      1055       63         0          0.42 sec
//   192        50.71%    18782       479       59         0          0.49 sec
//   210        50.94%    18692        90       14         0          0.56 sec
