// | ------------------------------------------------------------------------------------------------------------------ |
// |                                                                                                                    |
// |          Current split capture setting:     Off (optimal)                                                          |
// |                                                                                                                    |
// |   Current clock off simulation setting:     Off (optimal)                                                          |
// | ------------------------------------------------------------------------------------------------------------------ |
//  ------------------------------------------------------------------------
//  Simulation performed for #gates = 20077  #faults = 38489
//  Run fault simulation without storing patterns.  pattern source = 210 external patterns
//  ------------------------------------------------------------------------
//  #patterns  test      #faults  #faults    # eff.    # test         process 
//  simulated  coverage  in list  detected   patterns  patterns       CPU time
//   64         44.66%    21301     17188       64         0          0.35 sec
//   128        47.68%    20137      1164       60         0          0.44 sec
//   192        49.42%    19467       670       61         0          0.52 sec
//   210        49.67%    19370        97       13         0          0.59 sec
