// | ------------------------------------------------------------------------------------------------------------------ |
// |                                                                                                                    |
// |          Current split capture setting:     Off (optimal)                                                          |
// |                                                                                                                    |
// |   Current clock off simulation setting:     Off (optimal)                                                          |
// | ------------------------------------------------------------------------------------------------------------------ |
//  ------------------------------------------------------------------------
//  Simulation performed for #gates = 20077  #faults = 35738
//  Run fault simulation without storing patterns.  pattern source = 229 external patterns
//  ------------------------------------------------------------------------
//  #patterns  test      #faults  #faults    # eff.    # test         process 
//  simulated  coverage  in list  detected   patterns  patterns       CPU time
//   64         55.39%    15941     19797       64         0          0.37 sec
//   128        60.24%    14208      1733       64         0          0.44 sec
//   192        61.51%    13755       453       64         0          0.49 sec
//   229        61.76%    13667        88       37         0          0.54 sec
