// | ------------------------------------------------------------------------------------------------------------------ |
// |                                                                                                                    |
// |          Current split capture setting:     Off (optimal)                                                          |
// |                                                                                                                    |
// |   Current clock off simulation setting:     Off (optimal)                                                          |
// | ------------------------------------------------------------------------------------------------------------------ |
//  ------------------------------------------------------------------------
//  Simulation performed for #gates = 20077  #faults = 34071
//  Run fault simulation without storing patterns.  pattern source = 216 external patterns
//  ------------------------------------------------------------------------
//  #patterns  test      #faults  #faults    # eff.    # test         process 
//  simulated  coverage  in list  detected   patterns  patterns       CPU time
//   64         46.07%    18376     15695       64         0          0.28 sec
//   128        48.94%    17396       980       62         0          0.36 sec
//   192        50.40%    16899       497       57         0          0.43 sec
//   216        51.02%    16689       210       21         0          0.50 sec
