// | ------------------------------------------------------------------------------------------------------------------ |
// |                                                                                                                    |
// |          Current split capture setting:     Off (optimal)                                                          |
// |                                                                                                                    |
// |   Current clock off simulation setting:     Off (optimal)                                                          |
// | ------------------------------------------------------------------------------------------------------------------ |
//  ------------------------------------------------------------------------
//  Simulation performed for #gates = 20077  #faults = 34094
//  Run fault simulation without storing patterns.  pattern source = 212 external patterns
//  ------------------------------------------------------------------------
//  #patterns  test      #faults  #faults    # eff.    # test         process 
//  simulated  coverage  in list  detected   patterns  patterns       CPU time
//   64         51.62%    16493     17601       64         0          0.36 sec
//   128        54.96%    15356      1137       63         0          0.43 sec
//   192        56.46%    14846       510       56         0          0.50 sec
//   212        56.72%    14756        90       17         0          0.55 sec
