// | ------------------------------------------------------------------------------------------------------------------ |
// |                                                                                                                    |
// |          Current split capture setting:     Off (optimal)                                                          |
// |                                                                                                                    |
// |   Current clock off simulation setting:     Off (optimal)                                                          |
// | ------------------------------------------------------------------------------------------------------------------ |
//  ------------------------------------------------------------------------
//  Simulation performed for #gates = 20077  #faults = 40284
//  Run fault simulation without storing patterns.  pattern source = 244 external patterns
//  ------------------------------------------------------------------------
//  #patterns  test      #faults  #faults    # eff.    # test         process 
//  simulated  coverage  in list  detected   patterns  patterns       CPU time
//   64         43.62%    22713     17571       64         0          0.36 sec
//   128        47.25%    21249      1464       63         0          0.45 sec
//   192        49.32%    20414       835       56         0          0.53 sec
//   244        50.18%    20070       344       43         0          0.61 sec
