// | ------------------------------------------------------------------------------------------------------------------ |
// |                                                                                                                    |
// |          Current split capture setting:     Off (optimal)                                                          |
// |                                                                                                                    |
// |   Current clock off simulation setting:     Off (optimal)                                                          |
// | ------------------------------------------------------------------------------------------------------------------ |
//  ------------------------------------------------------------------------
//  Simulation performed for #gates = 20077  #faults = 43893
//  Run fault simulation without storing patterns.  pattern source = 275 external patterns
//  ------------------------------------------------------------------------
//  #patterns  test      #faults  #faults    # eff.    # test         process 
//  simulated  coverage  in list  detected   patterns  patterns       CPU time
//   64         40.15%    26271     17622       64         0          0.39 sec
//   128        43.84%    24652      1619       57         0          0.50 sec
//   192        45.48%    23931       721       55         0          0.61 sec
//   256        46.51%    23480       451       54         0          0.71 sec
//   275        46.98%    23271       209       16         0          0.80 sec
