// | ------------------------------------------------------------------------------------------------------------------ |
// |                                                                                                                    |
// |          Current split capture setting:     Off (optimal)                                                          |
// |                                                                                                                    |
// |   Current clock off simulation setting:     Off (optimal)                                                          |
// | ------------------------------------------------------------------------------------------------------------------ |
//  ------------------------------------------------------------------------
//  Simulation performed for #gates = 20077  #faults = 41787
//  Run fault simulation without storing patterns.  pattern source = 252 external patterns
//  ------------------------------------------------------------------------
//  #patterns  test      #faults  #faults    # eff.    # test         process 
//  simulated  coverage  in list  detected   patterns  patterns       CPU time
//   64         50.95%    20498     21289       64         0          0.47 sec
//   128        54.84%    18869      1629       61         0          0.57 sec
//   192        56.51%    18173       696       58         0          0.66 sec
//   252        58.00%    17550       623       47         0          0.73 sec
