// | ------------------------------------------------------------------------------------------------------------------ |
// |                                                                                                                    |
// |          Current split capture setting:     Off (optimal)                                                          |
// |                                                                                                                    |
// |   Current clock off simulation setting:     Off (optimal)                                                          |
// | ------------------------------------------------------------------------------------------------------------------ |
//  ------------------------------------------------------------------------
//  Simulation performed for #gates = 20077  #faults = 41809
//  Run fault simulation without storing patterns.  pattern source = 285 external patterns
//  ------------------------------------------------------------------------
//  #patterns  test      #faults  #faults    # eff.    # test         process 
//  simulated  coverage  in list  detected   patterns  patterns       CPU time
//   64         52.35%    19923     21886       64         0          0.46 sec
//   128        57.06%    17951      1972       60         0          0.55 sec
//   192        60.23%    16629      1322       64         0          0.63 sec
//   256        61.40%    16138       491       58         0          0.70 sec
//   285        62.00%    15887       251       25         0          0.76 sec
