// | ------------------------------------------------------------------------------------------------------------------ |
// |                                                                                                                    |
// |          Current split capture setting:     Off (optimal)                                                          |
// |                                                                                                                    |
// |   Current clock off simulation setting:     Off (optimal)                                                          |
// | ------------------------------------------------------------------------------------------------------------------ |
//  ------------------------------------------------------------------------
//  Simulation performed for #gates = 20077  #faults = 42019
//  Run fault simulation without storing patterns.  pattern source = 292 external patterns
//  ------------------------------------------------------------------------
//  #patterns  test      #faults  #faults    # eff.    # test         process 
//  simulated  coverage  in list  detected   patterns  patterns       CPU time
//   64         50.10%    20969     21050       64         0          0.39 sec
//   128        54.38%    19170      1799       64         0          0.49 sec
//   192        56.39%    18326       844       60         0          0.57 sec
//   256        58.20%    17565       761       53         0          0.64 sec
//   292        59.10%    17186       379       30         0          0.71 sec
