// | ------------------------------------------------------------------------------------------------------------------ |
// |                                                                                                                    |
// |          Current split capture setting:     Off (optimal)                                                          |
// |                                                                                                                    |
// |   Current clock off simulation setting:     Off (optimal)                                                          |
// | ------------------------------------------------------------------------------------------------------------------ |
//  ------------------------------------------------------------------------
//  Simulation performed for #gates = 20077  #faults = 44159
//  Run fault simulation without storing patterns.  pattern source = 337 external patterns
//  ------------------------------------------------------------------------
//  #patterns  test      #faults  #faults    # eff.    # test         process 
//  simulated  coverage  in list  detected   patterns  patterns       CPU time
//   64         48.06%    22936     21223       64         0          0.39 sec
//   128        50.21%    21987       949       56         0          0.49 sec
//   192        52.01%    21191       796       59         0          0.57 sec
//   256        54.42%    20128      1063       53         0          0.66 sec
//   320        55.72%    19552       576       45         0          0.74 sec
//   337        55.90%    19475        77       10         0          0.81 sec
