// | ------------------------------------------------------------------------------------------------------------------ |
// |                                                                                                                    |
// |          Current split capture setting:     Off (optimal)                                                          |
// |                                                                                                                    |
// |   Current clock off simulation setting:     Off (optimal)                                                          |
// | ------------------------------------------------------------------------------------------------------------------ |
//  ------------------------------------------------------------------------
//  Simulation performed for #gates = 20077  #faults = 43662
//  Run fault simulation without storing patterns.  pattern source = 343 external patterns
//  ------------------------------------------------------------------------
//  #patterns  test      #faults  #faults    # eff.    # test         process 
//  simulated  coverage  in list  detected   patterns  patterns       CPU time
//   64         49.43%    22081     21581       64         0          0.50 sec
//   128        53.81%    20169      1912       61         0          0.59 sec
//   192        56.55%    18969      1200       56         0          0.68 sec
//   256        57.92%    18374       595       52         0          0.75 sec
//   320        58.86%    17964       410       54         0          0.83 sec
//   343        59.32%    17763       201       16         0          0.89 sec
