// | ------------------------------------------------------------------------------------------------------------------ |
// |                                                                                                                    |
// |          Current split capture setting:     Off (optimal)                                                          |
// |                                                                                                                    |
// |   Current clock off simulation setting:     Off (optimal)                                                          |
// | ------------------------------------------------------------------------------------------------------------------ |
//  ------------------------------------------------------------------------
//  Simulation performed for #gates = 20077  #faults = 43662
//  Run fault simulation without storing patterns.  pattern source = 281 external patterns
//  ------------------------------------------------------------------------
//  #patterns  test      #faults  #faults    # eff.    # test         process 
//  simulated  coverage  in list  detected   patterns  patterns       CPU time
//   64         48.71%    22396     21266       64         0          0.46 sec
//   128        52.37%    20795      1601       64         0          0.56 sec
//   192        54.94%    19676      1119       56         0          0.65 sec
//   256        56.19%    19128       548       52         0          0.73 sec
//   281        56.44%    19018       110       21         0          0.80 sec
