// | ------------------------------------------------------------------------------------------------------------------ |
// |                                                                                                                    |
// |          Current split capture setting:     Off (optimal)                                                          |
// |                                                                                                                    |
// |   Current clock off simulation setting:     Off (optimal)                                                          |
// | ------------------------------------------------------------------------------------------------------------------ |
//  ------------------------------------------------------------------------
//  Simulation performed for #gates = 20077  #faults = 43662
//  Run fault simulation without storing patterns.  pattern source = 324 external patterns
//  ------------------------------------------------------------------------
//  #patterns  test      #faults  #faults    # eff.    # test         process 
//  simulated  coverage  in list  detected   patterns  patterns       CPU time
//   64         47.60%    22881     20781       64         0          0.49 sec
//   128        51.07%    21364      1517       63         0          0.59 sec
//   192        53.04%    20505       859       59         0          0.69 sec
//   256        54.76%    19754       751       53         0          0.78 sec
//   320        55.60%    19388       366       45         0          0.85 sec
//   324        55.64%    19369        19        3         0          0.92 sec
