// | ------------------------------------------------------------------------------------------------------------------ |
// |                                                                                                                    |
// |          Current split capture setting:     Off (optimal)                                                          |
// |                                                                                                                    |
// |   Current clock off simulation setting:     Off (optimal)                                                          |
// | ------------------------------------------------------------------------------------------------------------------ |
//  ------------------------------------------------------------------------
//  Simulation performed for #gates = 20077  #faults = 41719
//  Run fault simulation without storing patterns.  pattern source = 337 external patterns
//  ------------------------------------------------------------------------
//  #patterns  test      #faults  #faults    # eff.    # test         process 
//  simulated  coverage  in list  detected   patterns  patterns       CPU time
//   64         48.87%    21333     20386       64         0          0.44 sec
//   128        52.18%    19950      1383       63         0          0.53 sec
//   192        54.84%    18839      1111       60         0          0.62 sec
//   256        56.66%    18080       759       52         0          0.71 sec
//   320        57.12%    17890       190       43         0          0.78 sec
//   337        57.33%    17802        88       10         0          0.85 sec
