// | ------------------------------------------------------------------------------------------------------------------ |
// |                                                                                                                    |
// |          Current split capture setting:     Off (optimal)                                                          |
// |                                                                                                                    |
// |   Current clock off simulation setting:     Off (optimal)                                                          |
// | ------------------------------------------------------------------------------------------------------------------ |
//  ------------------------------------------------------------------------
//  Simulation performed for #gates = 20077  #faults = 37657
//  Run fault simulation without storing patterns.  pattern source = 278 external patterns
//  ------------------------------------------------------------------------
//  #patterns  test      #faults  #faults    # eff.    # test         process 
//  simulated  coverage  in list  detected   patterns  patterns       CPU time
//   64         58.20%    15742     21915       64         0          0.43 sec
//   128        63.97%    13567      2175       64         0          0.50 sec
//   192        66.35%    12670       897       61         0          0.57 sec
//   256        68.38%    11907       763       60         0          0.62 sec
//   278        68.65%    11805       102       20         0          0.67 sec
