// | ------------------------------------------------------------------------------------------------------------------ |
// |                                                                                                                    |
// |          Current split capture setting:     Off (optimal)                                                          |
// |                                                                                                                    |
// |   Current clock off simulation setting:     Off (optimal)                                                          |
// | ------------------------------------------------------------------------------------------------------------------ |
//  ------------------------------------------------------------------------
//  Simulation performed for #gates = 20077  #faults = 41935
//  Run fault simulation without storing patterns.  pattern source = 275 external patterns
//  ------------------------------------------------------------------------
//  #patterns  test      #faults  #faults    # eff.    # test         process 
//  simulated  coverage  in list  detected   patterns  patterns       CPU time
//   64         46.07%    22614     19321       64         0          0.41 sec
//   128        49.78%    21058      1556       60         0          0.52 sec
//   192        53.44%    19524      1534       58         0          0.61 sec
//   256        55.73%    18566       958       53         0          0.69 sec
//   275        56.38%    18293       273       18         0          0.76 sec
