// | ------------------------------------------------------------------------------------------------------------------ |
// |                                                                                                                    |
// |          Current split capture setting:     Off (optimal)                                                          |
// |                                                                                                                    |
// |   Current clock off simulation setting:     Off (optimal)                                                          |
// | ------------------------------------------------------------------------------------------------------------------ |
//  ------------------------------------------------------------------------
//  Simulation performed for #gates = 20077  #faults = 43183
//  Run fault simulation without storing patterns.  pattern source = 256 external patterns
//  ------------------------------------------------------------------------
//  #patterns  test      #faults  #faults    # eff.    # test         process 
//  simulated  coverage  in list  detected   patterns  patterns       CPU time
//   64         43.99%    24186     18997       64         0          0.41 sec
//   128        46.97%    22902      1284       62         0          0.52 sec
//   192        48.04%    22439       463       53         0          0.62 sec
//   256        50.10%    21547       892       53         0          0.71 sec
