// | ------------------------------------------------------------------------------------------------------------------ |
// |                                                                                                                    |
// |          Current split capture setting:     Off (optimal)                                                          |
// |                                                                                                                    |
// |   Current clock off simulation setting:     Off (optimal)                                                          |
// | ------------------------------------------------------------------------------------------------------------------ |
//  ------------------------------------------------------------------------
//  Simulation performed for #gates = 20077  #faults = 40995
//  Run fault simulation without storing patterns.  pattern source = 254 external patterns
//  ------------------------------------------------------------------------
//  #patterns  test      #faults  #faults    # eff.    # test         process 
//  simulated  coverage  in list  detected   patterns  patterns       CPU time
//   64         50.25%    20397     20598       64         0          0.43 sec
//   128        55.08%    18414      1983       62         0          0.53 sec
//   192        56.69%    17755       659       61         0          0.61 sec
//   254        58.01%    17214       541       57         0          0.69 sec
