           Statistics Report          
            Stuck-at Faults           
--------------------------------------
Fault Classes               #faults   
                            (coll.)   
----------------------  --------------
  FU (full)                  8388     
  --------------------  --------------
  UO (unobserved)           3 ( 0.04%)
  DS (det_simulation)    4050 (48.28%)
  TI (tied)                69 ( 0.82%)
  BL (blocked)            461 ( 5.50%)
  RE (redundant)         3803 (45.34%)
  AU (atpg_untestable)      2 ( 0.02%)
--------------------------------------
Fault Sub-classes                     
  --------------------                
  UC+UO                               
    AAB  (atpg_abort)       3 ( 0.04%)
--------------------------------------
Coverage                              
  --------------------                
  test_coverage                99.88% 
  fault_coverage               48.28% 
  atpg_effectiveness           99.96% 
--------------------------------------
#test_patterns                    121 
#simulated_patterns               148 
CPU_time (secs)                   4.6 
--------------------------------------

