          Statistics Report          
           Stuck-at Faults           
-------------------------------------
Fault Classes              #faults   
                           (coll.)   
---------------------  --------------
  FU (full)                 8388     
  -------------------  --------------
  DS (det_simulation)   3914 (46.66%)
  TI (tied)               93 ( 1.11%)
  BL (blocked)            45 ( 0.54%)
  RE (redundant)        4336 (51.69%)
-------------------------------------
Coverage                             
  -------------------                
  test_coverage              100.00% 
  fault_coverage              46.66% 
  atpg_effectiveness         100.00% 
-------------------------------------
#test_patterns                    88 
#simulated_patterns              132 
CPU_time (secs)                  4.3 
-------------------------------------

