	*******************************************************
	*                                                     *
	*            Welcome to HOPE (version 2.0)            *
	*                                                     *
	*               Dong S. Ha (ha@vt.edu)                *
	*            Web: http://www.ee.vt.edu/ha             *
	*  Virginia Polytechnic Institute & State University  *
	*                                                     *
	*******************************************************

******   SUMMARY OF SIMULATION RESULTS   ******
1. Circuit structure
   Name of circuit                           : s953
   Number of primary inputs                  : 45
   Number of primary outputs                 : 52
   Number of flip-flops                      : 0
   Number of gates                           : 395
   Level of the circuit                      : 16

2. Simulator input parameters
   Simulation mode                           : file (/home/animesh/currentResearch/ISI/atpg_structural/code/testData/atalanta/tests/iscas89/s953.test)

3. Simulation results
   Number of test patterns applied           : 87
   Fault coverage                            : 63.299 %
   Number of collapsed faults                : 1079
   Number of detected faults                 : 683
   Number of undetected faults               : 396

4. Memory used                               : 37769 Kbytes

5. CPU time
   Initialization                            : 0.000 secs
   Fault simulation                          : 0.000 secs
   Total                                     : 0.000 secs
