//  command: set_current_design s15850
//  Warning: 1 case: Unused net in DFT library model
//  Note: Issue set_current_design with the -show_elaboration_warnings option to see more details about previous warnings
//  command: set_system_mode analysis
//  Flattening process completed,  design_cells=3170  leaf_cells=3170  library_primitives=3166  sim_gates=4493  PIs=611  POs=673  CPU time=0.02 sec.
//  ---------------------------------------------------------------------------
//  Begin circuit learning analyses.
//  --------------------------------
//  Learning completed, CPU time=0.01 sec.
//  ---------------------------------------------------------------------------
//  Begin scan chain identification process, memory elements = 0.
//  ---------------------------------------------------------------------------
//  Circuit has no memory elements.
//  command: add_faults -all
//  command: set_fault_mode collapsed
//  command: set_fault_type stuck
//  command: read_patterns /home/animesh/currentResearch/ISI/atpg_structural/code/dumpData/tessent/iscas89/s15850_synth/thirtyPercent/s15850_synth_thirtyPercent_17.spf
//  Reading STIL input file "/home/animesh/currentResearch/ISI/atpg_structural/code/dumpData/tessent/iscas89/s15850_synth/thirtyPercent/s15850_synth_thirtyPercent_17.spf"
//  command: simulate_patterns > /home/animesh/currentResearch/ISI/atpg_structural/code/dumpData/tessent/iscas89/s15850_synth/bin_3/simulateLogFile_s15850_synth_fiftyPercent_3_s15850_synth_thirtyPercent_17.atpg.result
//  command: exit 
