          Statistics Report          
           Stuck-at Faults           
-------------------------------------
Fault Classes              #faults   
                           (coll.)   
---------------------  --------------
  FU (full)                  596     
  -------------------  --------------
  DS (det_simulation)    316 (53.02%)
  TI (tied)                8 ( 1.34%)
  RE (redundant)         272 (45.64%)
-------------------------------------
Coverage                             
  -------------------                
  test_coverage              100.00% 
  fault_coverage              53.02% 
  atpg_effectiveness         100.00% 
-------------------------------------
#test_patterns                    61 
#simulated_patterns               71 
CPU_time (secs)                  1.5 
-------------------------------------

