//  command: set_current_design top 
//  Warning: 1 case: Unused net in DFT library model
//  Note: Issue set_current_design with the -show_elaboration_warnings option to see more details about previous warnings
//  command: set_system_mode analysis
//  Flattening process completed,  design_cells=250  leaf_cells=250  library_primitives=250  sim_gates=270  PIs=11  POs=7  CPU time=0.00 sec.
//  ---------------------------------------------------------------------------
//  Begin circuit learning analyses.
//  --------------------------------
//  Learning completed, CPU time=0.00 sec.
//  ---------------------------------------------------------------------------
//  Begin scan chain identification process, memory elements = 0.
//  ---------------------------------------------------------------------------
//  Circuit has no memory elements.
//  command: add_faults -all
//  command: set_fault_mode collapsed
//  command: set_fault_type stuck
//  command: create_patterns 
// | ------------------------------------------------------------------------------------------------------------------ |
// |                                             Analyzing the design                                                   |
// |                                                                                                                    |
// |      Current clock restriction setting:     Domain_clock (edge interaction)                                        |
// |                                             (optimal)                                                              |
// |                                                                                                                    |
// |          Current split capture setting:     Off (optimal)                                                          |
// |                                                                                                                    |
// |   Current clock off simulation setting:     Off (optimal)                                                          |
// |                                                                                                                    |
// |            Current abort limit setting:     30                                                                     |
// |                                Calling:     set_abort_limit 300 100                                                |
// | ------------------------------------------------------------------------------------------------------------------ |
// |                                                                                                                    |
// |               Current sequential depth:     0 (optimal)                                                            |
// |                                                                                                                    |
// | ------------------------------------------------------------------------------------------------------------------ |
//  ------------------------------------------------------------------------
//  Simulation performed for #gates = 270  #faults = 546
//  system mode = analysis    pattern source = internal patterns
//  ------------------------------------------------------------------------
//  #patterns  test      #faults  #faults    # eff.    # test         process      RE/AU/AAB
//  simulated  coverage  in list  detected   patterns  patterns       CPU time
//  deterministic ATPG invoked with comb/seq abort limit = 300/100
//   ---        ------      ---       ---      ---       ---          0.02 sec     257/0/0
//   34         85.81%       41       248       29        29          0.02 sec
//   ---        ------      ---       ---      ---       ---          0.02 sec     257/0/0
//   64        100.00%        0        41       28        57          0.02 sec
// | ------------------------------------------------------------------------------------------------------------------ |
// |                                                                                                                    |
// |                   Next step suggestion:     (optional)                                                             |
// |              If truncating pattern set:     Use command 'order_patterns 3'                                         |
// |                                                                                                                    |
// | ------------------------------------------------------------------------------------------------------------------ |
          Statistics Report          
           Stuck-at Faults           
-------------------------------------
Fault Classes              #faults   
                           (coll.)   
---------------------  --------------
  FU (full)                  596     
  -------------------  --------------
  DS (det_simulation)    289 (48.49%)
  TI (tied)                7 ( 1.17%)
  BL (blocked)            43 ( 7.21%)
  RE (redundant)         257 (43.12%)
-------------------------------------
Coverage                             
  -------------------                
  test_coverage              100.00% 
  fault_coverage              48.49% 
  atpg_effectiveness         100.00% 
-------------------------------------
#test_patterns                    57 
#simulated_patterns               64 
CPU_time (secs)                  1.4 
-------------------------------------

//  command: write_patterns /home/animesh/currentResearch/ISI/atpg_structural/code/dumpData/tessent/epfl/random_control/int2float_synth/thirtyPercent/int2float_synth_thirtyPercent_15.spf -stil -rep
//  command: report_statistics > /home/animesh/currentResearch/ISI/atpg_structural/code/dumpData/tessent/epfl/random_control/int2float_synth/thirtyPercent/int2float_synth_thirtyPercent_15.atpg.result
//  command: exit 
