          Statistics Report          
           Stuck-at Faults           
-------------------------------------
Fault Classes              #faults   
                           (coll.)   
---------------------  --------------
  FU (full)                 8388     
  -------------------  --------------
  DS (det_simulation)   3941 (46.98%)
  TI (tied)              114 ( 1.36%)
  BL (blocked)            62 ( 0.74%)
  RE (redundant)        4271 (50.92%)
-------------------------------------
Coverage                             
  -------------------                
  test_coverage              100.00% 
  fault_coverage              46.98% 
  atpg_effectiveness         100.00% 
-------------------------------------
#test_patterns                   127 
#simulated_patterns              166 
CPU_time (secs)                  5.1 
-------------------------------------

