          Statistics Report          
           Stuck-at Faults           
-------------------------------------
Fault Classes              #faults   
                           (coll.)   
---------------------  --------------
  FU (full)                  884     
  -------------------  --------------
  DS (det_simulation)    790 (89.37%)
  TI (tied)                2 ( 0.23%)
  RE (redundant)          92 (10.41%)
-------------------------------------
Coverage                             
  -------------------                
  test_coverage              100.00% 
  fault_coverage              89.37% 
  atpg_effectiveness         100.00% 
-------------------------------------
#test_patterns                    97 
#simulated_patterns              109 
CPU_time (secs)                  1.5 
-------------------------------------

