          Statistics Report          
           Stuck-at Faults           
-------------------------------------
Fault Classes              #faults   
                           (coll.)   
---------------------  --------------
  FU (full)                  866     
  -------------------  --------------
  DS (det_simulation)    848 (97.92%)
  TI (tied)                9 ( 1.04%)
  RE (redundant)           9 ( 1.04%)
-------------------------------------
Coverage                             
  -------------------                
  test_coverage              100.00% 
  fault_coverage              97.92% 
  atpg_effectiveness         100.00% 
-------------------------------------
#test_patterns                    48 
#simulated_patterns               75 
CPU_time (secs)                  1.8 
-------------------------------------

