          Statistics Report          
           Stuck-at Faults           
-------------------------------------
Fault Classes              #faults   
                           (coll.)   
---------------------  --------------
  FU (full)                 25984    
  -------------------  --------------
  DS (det_simulation)   7312 (28.14%)
  RE (redundant)       18672 (71.86%)
-------------------------------------
Coverage                             
  -------------------                
  test_coverage              100.00% 
  fault_coverage              28.14% 
  atpg_effectiveness         100.00% 
-------------------------------------
#test_patterns                   472 
#simulated_patterns              519 
CPU_time (secs)                  4.0 
-------------------------------------

