          Statistics Report          
           Stuck-at Faults           
-------------------------------------
Fault Classes              #faults   
                           (coll.)   
---------------------  --------------
  FU (full)                 1010     
  -------------------  --------------
  DS (det_simulation)    817 (80.89%)
  TI (tied)               34 ( 3.37%)
  BL (blocked)            51 ( 5.05%)
  RE (redundant)         108 (10.69%)
-------------------------------------
Coverage                             
  -------------------                
  test_coverage              100.00% 
  fault_coverage              80.89% 
  atpg_effectiveness         100.00% 
-------------------------------------
#test_patterns                    61 
#simulated_patterns               83 
CPU_time (secs)                  1.7 
-------------------------------------

