// | ------------------------------------------------------------------------------------------------------------------ |
// |                                                                                                                    |
// |          Current split capture setting:     Off (optimal)                                                          |
// |                                                                                                                    |
// |   Current clock off simulation setting:     Off (optimal)                                                          |
// | ------------------------------------------------------------------------------------------------------------------ |
//  ------------------------------------------------------------------------
//  Simulation performed for #gates = 714  #faults = 1480
//  Run fault simulation without storing patterns.  pattern source = 105 external patterns
//  ------------------------------------------------------------------------
//  #patterns  test      #faults  #faults    # eff.    # test         process 
//  simulated  coverage  in list  detected   patterns  patterns       CPU time
//   64         61.69%      567       913       60         0          0.00 sec
//   105        68.31%      469        98       29         0          0.01 sec
