// | ------------------------------------------------------------------------------------------------------------------ |
// |                                                                                                                    |
// |          Current split capture setting:     Off (optimal)                                                          |
// |                                                                                                                    |
// |   Current clock off simulation setting:     Off (optimal)                                                          |
// | ------------------------------------------------------------------------------------------------------------------ |
//  ------------------------------------------------------------------------
//  Simulation performed for #gates = 399  #faults = 877
//  Run fault simulation without storing patterns.  pattern source = 71 external patterns
//  ------------------------------------------------------------------------
//  #patterns  test      #faults  #faults    # eff.    # test         process 
//  simulated  coverage  in list  detected   patterns  patterns       CPU time
//   64         47.21%      463       414       41         0          0.00 sec
//   71         48.46%      452        11        3         0          0.00 sec
