	*******************************************************
	*                                                     *
	*            Welcome to HOPE (version 2.0)            *
	*                                                     *
	*               Dong S. Ha (ha@vt.edu)                *
	*            Web: http://www.ee.vt.edu/ha             *
	*  Virginia Polytechnic Institute & State University  *
	*                                                     *
	*******************************************************

******   SUMMARY OF SIMULATION RESULTS   ******
1. Circuit structure
   Name of circuit                           : s1423
   Number of primary inputs                  : 91
   Number of primary outputs                 : 79
   Number of flip-flops                      : 0
   Number of gates                           : 657
   Level of the circuit                      : 59

2. Simulator input parameters
   Simulation mode                           : file (/home/animesh/currentResearch/ISI/atpg_structural/code/testData/atalanta/tests/iscas89/s1423.test)

3. Simulation results
   Number of test patterns applied           : 66
   Fault coverage                            : 55.710 %
   Number of collapsed faults                : 1515
   Number of detected faults                 : 844
   Number of undetected faults               : 671

4. Memory used                               : 10268 Kbytes

5. CPU time
   Initialization                            : 0.000 secs
   Fault simulation                          : 0.000 secs
   Total                                     : 0.000 secs
