          Statistics Report          
           Stuck-at Faults           
-------------------------------------
Fault Classes              #faults   
                           (coll.)   
---------------------  --------------
  FU (full)                  582     
  -------------------  --------------
  DS (det_simulation)    525 (90.21%)
  TI (tied)                7 ( 1.20%)
  BL (blocked)             2 ( 0.34%)
  RE (redundant)          48 ( 8.25%)
-------------------------------------
Coverage                             
  -------------------                
  test_coverage              100.00% 
  fault_coverage              90.21% 
  atpg_effectiveness         100.00% 
-------------------------------------
#test_patterns                    45 
#simulated_patterns               55 
CPU_time (secs)                  1.6 
-------------------------------------

