          Statistics Report          
           Stuck-at Faults           
-------------------------------------
Fault Classes              #faults   
                           (coll.)   
---------------------  --------------
  FU (full)                  582     
  -------------------  --------------
  DS (det_simulation)    509 (87.46%)
  TI (tied)                3 ( 0.52%)
  RE (redundant)          70 (12.03%)
-------------------------------------
Coverage                             
  -------------------                
  test_coverage              100.00% 
  fault_coverage              87.46% 
  atpg_effectiveness         100.00% 
-------------------------------------
#test_patterns                    47 
#simulated_patterns               52 
CPU_time (secs)                  1.5 
-------------------------------------

