          Statistics Report          
           Stuck-at Faults           
-------------------------------------
Fault Classes              #faults   
                           (coll.)   
---------------------  --------------
  FU (full)                 1556     
  -------------------  --------------
  DS (det_simulation)    908 (58.35%)
  TI (tied)                6 ( 0.39%)
  BL (blocked)            69 ( 4.43%)
  RE (redundant)         573 (36.83%)
-------------------------------------
Coverage                             
  -------------------                
  test_coverage              100.00% 
  fault_coverage              58.35% 
  atpg_effectiveness         100.00% 
-------------------------------------
#test_patterns                   112 
#simulated_patterns              122 
CPU_time (secs)                  1.6 
-------------------------------------

