	*******************************************************
	*                                                     *
	*            Welcome to HOPE (version 2.0)            *
	*                                                     *
	*               Dong S. Ha (ha@vt.edu)                *
	*            Web: http://www.ee.vt.edu/ha             *
	*  Virginia Polytechnic Institute & State University  *
	*                                                     *
	*******************************************************

******   SUMMARY OF SIMULATION RESULTS   ******
1. Circuit structure
   Name of circuit                           : s820
   Number of primary inputs                  : 23
   Number of primary outputs                 : 24
   Number of flip-flops                      : 0
   Number of gates                           : 289
   Level of the circuit                      : 10

2. Simulator input parameters
   Simulation mode                           : file (/home/animesh/currentResearch/ISI/atpg_structural/code/testData/atalanta/tests/iscas89/s820.test)

3. Simulation results
   Number of test patterns applied           : 114
   Fault coverage                            : 42.118 %
   Number of collapsed faults                : 850
   Number of detected faults                 : 358
   Number of undetected faults               : 492

4. Memory used                               : 18022 Kbytes

5. CPU time
   Initialization                            : 0.000 secs
   Fault simulation                          : 0.000 secs
   Total                                     : 0.000 secs
