// | ------------------------------------------------------------------------------------------------------------------ |
// |                                                                                                                    |
// |          Current split capture setting:     Off (optimal)                                                          |
// |                                                                                                                    |
// |   Current clock off simulation setting:     Off (optimal)                                                          |
// | ------------------------------------------------------------------------------------------------------------------ |
//  ------------------------------------------------------------------------
//  Simulation performed for #gates = 760  #faults = 1694
//  Run fault simulation without storing patterns.  pattern source = 197 external patterns
//  ------------------------------------------------------------------------
//  #patterns  test      #faults  #faults    # eff.    # test         process 
//  simulated  coverage  in list  detected   patterns  patterns       CPU time
//   64         46.10%      913       781       51         0          0.01 sec
//   128        54.72%      767       146       35         0          0.01 sec
//   192        59.68%      683        84       25         0          0.01 sec
//   197        60.04%      677         6        2         0          0.01 sec
