// | ------------------------------------------------------------------------------------------------------------------ |
// |                                                                                                                    |
// |          Current split capture setting:     Off (optimal)                                                          |
// |                                                                                                                    |
// |   Current clock off simulation setting:     Off (optimal)                                                          |
// | ------------------------------------------------------------------------------------------------------------------ |
//  ------------------------------------------------------------------------
//  Simulation performed for #gates = 760  #faults = 1692
//  Run fault simulation without storing patterns.  pattern source = 206 external patterns
//  ------------------------------------------------------------------------
//  #patterns  test      #faults  #faults    # eff.    # test         process 
//  simulated  coverage  in list  detected   patterns  patterns       CPU time
//   64         22.58%     1310       382       27         0          0.01 sec
//   128        28.96%     1202       108       14         0          0.01 sec
//   192        30.50%     1176        26        8         0          0.01 sec
//   206        30.85%     1170         6        1         0          0.01 sec
