// | ------------------------------------------------------------------------------------------------------------------ |
// |                                                                                                                    |
// |          Current split capture setting:     Off (optimal)                                                          |
// |                                                                                                                    |
// |   Current clock off simulation setting:     Off (optimal)                                                          |
// | ------------------------------------------------------------------------------------------------------------------ |
//  ------------------------------------------------------------------------
//  Simulation performed for #gates = 760  #faults = 1700
//  Run fault simulation without storing patterns.  pattern source = 218 external patterns
//  ------------------------------------------------------------------------
//  #patterns  test      #faults  #faults    # eff.    # test         process 
//  simulated  coverage  in list  detected   patterns  patterns       CPU time
//   64         44.76%      939       761       52         0          0.01 sec
//   128        57.12%      729       210       40         0          0.01 sec
//   192        62.00%      646        83       25         0          0.01 sec
//   218        63.29%      624        22        9         0          0.01 sec
