// | ------------------------------------------------------------------------------------------------------------------ |
// |                                                                                                                    |
// |          Current split capture setting:     Off (optimal)                                                          |
// |                                                                                                                    |
// |   Current clock off simulation setting:     Off (optimal)                                                          |
// | ------------------------------------------------------------------------------------------------------------------ |
//  ------------------------------------------------------------------------
//  Simulation performed for #gates = 760  #faults = 1703
//  Run fault simulation without storing patterns.  pattern source = 193 external patterns
//  ------------------------------------------------------------------------
//  #patterns  test      #faults  #faults    # eff.    # test         process 
//  simulated  coverage  in list  detected   patterns  patterns       CPU time
//   64         51.03%      834       869       64         0          0.01 sec
//   128        66.76%      566       268       63         0          0.01 sec
//   192        73.46%      452       114       64         0          0.01 sec
//   193        73.58%      450         2        1         0          0.01 sec
