// | ------------------------------------------------------------------------------------------------------------------ |
// |                                                                                                                    |
// |          Current split capture setting:     Off (optimal)                                                          |
// |                                                                                                                    |
// |   Current clock off simulation setting:     Off (optimal)                                                          |
// | ------------------------------------------------------------------------------------------------------------------ |
//  ------------------------------------------------------------------------
//  Simulation performed for #gates = 760  #faults = 1701
//  Run fault simulation without storing patterns.  pattern source = 205 external patterns
//  ------------------------------------------------------------------------
//  #patterns  test      #faults  #faults    # eff.    # test         process 
//  simulated  coverage  in list  detected   patterns  patterns       CPU time
//   64         40.62%     1010       691       55         0          0.01 sec
//   128        52.91%      801       209       40         0          0.01 sec
//   192        58.26%      710        91       30         0          0.01 sec
//   205        59.44%      690        20        8         0          0.01 sec
