           Statistics Report          
            Stuck-at Faults           
--------------------------------------
Fault Classes               #faults   
                            (coll.)   
----------------------  --------------
  FU (full)                  47162    
  --------------------  --------------
  UO (unobserved)          17 ( 0.04%)
  DS (det_simulation)   31277 (66.32%)
  TI (tied)              1252 ( 2.65%)
  BL (blocked)           3975 ( 8.43%)
  RE (redundant)        10631 (22.54%)
  AU (atpg_untestable)     10 ( 0.02%)
--------------------------------------
Fault Sub-classes                     
  --------------------                
  UC+UO                               
    AAB  (atpg_abort)      17 ( 0.04%)
--------------------------------------
Coverage                              
  --------------------                
  test_coverage                99.91% 
  fault_coverage               66.32% 
  atpg_effectiveness           99.96% 
--------------------------------------
#test_patterns                    254 
#simulated_patterns               257 
CPU_time (secs)                  14.9 
--------------------------------------

