// | ------------------------------------------------------------------------------------------------------------------ |
// |                                                                                                                    |
// |          Current split capture setting:     Off (optimal)                                                          |
// |                                                                                                                    |
// |   Current clock off simulation setting:     Off (optimal)                                                          |
// | ------------------------------------------------------------------------------------------------------------------ |
//  ------------------------------------------------------------------------
//  Simulation performed for #gates = 20871  #faults = 58699
//  Run fault simulation without storing patterns.  pattern source = 284 external patterns
//  ------------------------------------------------------------------------
//  #patterns  test      #faults  #faults    # eff.    # test         process 
//  simulated  coverage  in list  detected   patterns  patterns       CPU time
//   64         85.60%     8453     50246       64         0          1.62 sec
//   128        87.60%     7278      1175       64         0          1.66 sec
//   192        88.38%     6821       457       61         0          1.69 sec
//   256        88.73%     6613       208       54         0          1.71 sec
//   284        88.82%     6565        48       21         0          1.72 sec
