// | ------------------------------------------------------------------------------------------------------------------ |
// |                                                                                                                    |
// |          Current split capture setting:     Off (optimal)                                                          |
// |                                                                                                                    |
// |   Current clock off simulation setting:     Off (optimal)                                                          |
// | ------------------------------------------------------------------------------------------------------------------ |
//  ------------------------------------------------------------------------
//  Simulation performed for #gates = 20871  #faults = 58864
//  Run fault simulation without storing patterns.  pattern source = 258 external patterns
//  ------------------------------------------------------------------------
//  #patterns  test      #faults  #faults    # eff.    # test         process 
//  simulated  coverage  in list  detected   patterns  patterns       CPU time
//   64         86.45%     7975     50889       64         0          1.64 sec
//   128        88.13%     6986       989       63         0          1.67 sec
//   192        88.67%     6671       315       58         0          1.70 sec
//   256        88.93%     6517       154       49         0          1.72 sec
//   258        88.94%     6513         4        1         0          1.73 sec
