// | ------------------------------------------------------------------------------------------------------------------ |
// |                                                                                                                    |
// |          Current split capture setting:     Off (optimal)                                                          |
// |                                                                                                                    |
// |   Current clock off simulation setting:     Off (optimal)                                                          |
// | ------------------------------------------------------------------------------------------------------------------ |
//  ------------------------------------------------------------------------
//  Simulation performed for #gates = 20871  #faults = 57975
//  Run fault simulation without storing patterns.  pattern source = 260 external patterns
//  ------------------------------------------------------------------------
//  #patterns  test      #faults  #faults    # eff.    # test         process 
//  simulated  coverage  in list  detected   patterns  patterns       CPU time
//   64         85.54%     8385     49590       64         0          1.43 sec
//   128        87.58%     7202      1183       63         0          1.47 sec
//   192        88.17%     6857       345       60         0          1.50 sec
//   256        88.45%     6694       163       53         0          1.52 sec
//   260        88.46%     6690         4        3         0          1.53 sec
