// | ------------------------------------------------------------------------------------------------------------------ |
// |                                                                                                                    |
// |          Current split capture setting:     Off (optimal)                                                          |
// |                                                                                                                    |
// |   Current clock off simulation setting:     Off (optimal)                                                          |
// | ------------------------------------------------------------------------------------------------------------------ |
//  ------------------------------------------------------------------------
//  Simulation performed for #gates = 20871  #faults = 58137
//  Run fault simulation without storing patterns.  pattern source = 279 external patterns
//  ------------------------------------------------------------------------
//  #patterns  test      #faults  #faults    # eff.    # test         process 
//  simulated  coverage  in list  detected   patterns  patterns       CPU time
//   64         85.53%     8415     49722       64         0          1.48 sec
//   128        87.75%     7124      1291       64         0          1.52 sec
//   192        88.44%     6722       402       61         0          1.55 sec
//   256        88.78%     6522       200       54         0          1.57 sec
//   279        88.90%     6456        66       19         0          1.58 sec
