// | ------------------------------------------------------------------------------------------------------------------ |
// |                                                                                                                    |
// |          Current split capture setting:     Off (optimal)                                                          |
// |                                                                                                                    |
// |   Current clock off simulation setting:     Off (optimal)                                                          |
// | ------------------------------------------------------------------------------------------------------------------ |
//  ------------------------------------------------------------------------
//  Simulation performed for #gates = 20871  #faults = 58156
//  Run fault simulation without storing patterns.  pattern source = 267 external patterns
//  ------------------------------------------------------------------------
//  #patterns  test      #faults  #faults    # eff.    # test         process 
//  simulated  coverage  in list  detected   patterns  patterns       CPU time
//   64         86.24%     8003     50153       64         0          1.52 sec
//   128        88.25%     6835      1168       64         0          1.56 sec
//   192        88.88%     6465       370       57         0          1.58 sec
//   256        89.12%     6327       138       48         0          1.60 sec
//   267        89.15%     6309        18        7         0          1.61 sec
