// | ------------------------------------------------------------------------------------------------------------------ |
// |                                                                                                                    |
// |          Current split capture setting:     Off (optimal)                                                          |
// |                                                                                                                    |
// |   Current clock off simulation setting:     Off (optimal)                                                          |
// | ------------------------------------------------------------------------------------------------------------------ |
//  ------------------------------------------------------------------------
//  Simulation performed for #gates = 20871  #faults = 58089
//  Run fault simulation without storing patterns.  pattern source = 275 external patterns
//  ------------------------------------------------------------------------
//  #patterns  test      #faults  #faults    # eff.    # test         process 
//  simulated  coverage  in list  detected   patterns  patterns       CPU time
//   64         86.18%     8026     50063       64         0          1.51 sec
//   128        88.15%     6882      1144       64         0          1.55 sec
//   192        88.69%     6571       311       62         0          1.57 sec
//   256        88.93%     6432       139       53         0          1.59 sec
//   275        88.99%     6398        34       14         0          1.61 sec
