// | ------------------------------------------------------------------------------------------------------------------ |
// |                                                                                                                    |
// |          Current split capture setting:     Off (optimal)                                                          |
// |                                                                                                                    |
// |   Current clock off simulation setting:     Off (optimal)                                                          |
// | ------------------------------------------------------------------------------------------------------------------ |
//  ------------------------------------------------------------------------
//  Simulation performed for #gates = 20871  #faults = 58250
//  Run fault simulation without storing patterns.  pattern source = 271 external patterns
//  ------------------------------------------------------------------------
//  #patterns  test      #faults  #faults    # eff.    # test         process 
//  simulated  coverage  in list  detected   patterns  patterns       CPU time
//   64         86.48%     7874     50376       64         0          1.56 sec
//   128        88.50%     6700      1174       64         0          1.60 sec
//   192        89.10%     6349       351       60         0          1.62 sec
//   256        89.37%     6190       159       51         0          1.63 sec
//   271        89.41%     6171        19        9         0          1.65 sec
