// | ------------------------------------------------------------------------------------------------------------------ |
// |                                                                                                                    |
// |          Current split capture setting:     Off (optimal)                                                          |
// |                                                                                                                    |
// |   Current clock off simulation setting:     Off (optimal)                                                          |
// | ------------------------------------------------------------------------------------------------------------------ |
//  ------------------------------------------------------------------------
//  Simulation performed for #gates = 20871  #faults = 58218
//  Run fault simulation without storing patterns.  pattern source = 267 external patterns
//  ------------------------------------------------------------------------
//  #patterns  test      #faults  #faults    # eff.    # test         process 
//  simulated  coverage  in list  detected   patterns  patterns       CPU time
//   64         85.51%     8438     49780       64         0          1.45 sec
//   128        87.73%     7146      1292       64         0          1.49 sec
//   192        88.38%     6765       381       59         0          1.51 sec
//   256        88.68%     6593       172       53         0          1.53 sec
//   267        88.73%     6564        29       10         0          1.55 sec
