// | ------------------------------------------------------------------------------------------------------------------ |
// |                                                                                                                    |
// |          Current split capture setting:     Off (optimal)                                                          |
// |                                                                                                                    |
// |   Current clock off simulation setting:     Off (optimal)                                                          |
// | ------------------------------------------------------------------------------------------------------------------ |
//  ------------------------------------------------------------------------
//  Simulation performed for #gates = 20871  #faults = 57990
//  Run fault simulation without storing patterns.  pattern source = 272 external patterns
//  ------------------------------------------------------------------------
//  #patterns  test      #faults  #faults    # eff.    # test         process 
//  simulated  coverage  in list  detected   patterns  patterns       CPU time
//   64         85.98%     8129     49861       64         0          1.45 sec
//   128        88.26%     6810      1319       64         0          1.49 sec
//   192        89.02%     6368       442       62         0          1.51 sec
//   256        89.39%     6150       218       52         0          1.53 sec
//   272        89.45%     6118        32       12         0          1.54 sec
