// | ------------------------------------------------------------------------------------------------------------------ |
// |                                                                                                                    |
// |          Current split capture setting:     Off (optimal)                                                          |
// |                                                                                                                    |
// |   Current clock off simulation setting:     Off (optimal)                                                          |
// | ------------------------------------------------------------------------------------------------------------------ |
//  ------------------------------------------------------------------------
//  Simulation performed for #gates = 20871  #faults = 58886
//  Run fault simulation without storing patterns.  pattern source = 271 external patterns
//  ------------------------------------------------------------------------
//  #patterns  test      #faults  #faults    # eff.    # test         process 
//  simulated  coverage  in list  detected   patterns  patterns       CPU time
//   64         85.69%     8424     50462       64         0          1.61 sec
//   128        87.75%     7211      1213       64         0          1.65 sec
//   192        88.40%     6829       382       62         0          1.68 sec
//   256        88.64%     6689       140       45         0          1.70 sec
//   271        88.67%     6671        18        8         0          1.71 sec
