// | ------------------------------------------------------------------------------------------------------------------ |
// |                                                                                                                    |
// |          Current split capture setting:     Off (optimal)                                                          |
// |                                                                                                                    |
// |   Current clock off simulation setting:     Off (optimal)                                                          |
// | ------------------------------------------------------------------------------------------------------------------ |
//  ------------------------------------------------------------------------
//  Simulation performed for #gates = 20871  #faults = 58743
//  Run fault simulation without storing patterns.  pattern source = 283 external patterns
//  ------------------------------------------------------------------------
//  #patterns  test      #faults  #faults    # eff.    # test         process 
//  simulated  coverage  in list  detected   patterns  patterns       CPU time
//   64         85.77%     8359     50384       64         0          1.63 sec
//   128        87.79%     7171      1188       64         0          1.67 sec
//   192        88.52%     6745       426       62         0          1.69 sec
//   256        88.83%     6560       185       53         0          1.71 sec
//   283        88.90%     6523        37       16         0          1.73 sec
