// | ------------------------------------------------------------------------------------------------------------------ |
// |                                                                                                                    |
// |          Current split capture setting:     Off (optimal)                                                          |
// |                                                                                                                    |
// |   Current clock off simulation setting:     Off (optimal)                                                          |
// | ------------------------------------------------------------------------------------------------------------------ |
//  ------------------------------------------------------------------------
//  Simulation performed for #gates = 20871  #faults = 57844
//  Run fault simulation without storing patterns.  pattern source = 268 external patterns
//  ------------------------------------------------------------------------
//  #patterns  test      #faults  #faults    # eff.    # test         process 
//  simulated  coverage  in list  detected   patterns  patterns       CPU time
//   64         85.38%     8454     49390       64         0          1.51 sec
//   128        87.47%     7250      1204       64         0          1.54 sec
//   192        88.23%     6811       439       63         0          1.57 sec
//   256        88.57%     6609       202       53         0          1.59 sec
//   268        88.61%     6590        19        8         0          1.60 sec
