// | ------------------------------------------------------------------------------------------------------------------ |
// |                                                                                                                    |
// |          Current split capture setting:     Off (optimal)                                                          |
// |                                                                                                                    |
// |   Current clock off simulation setting:     Off (optimal)                                                          |
// | ------------------------------------------------------------------------------------------------------------------ |
//  ------------------------------------------------------------------------
//  Simulation performed for #gates = 20871  #faults = 58801
//  Run fault simulation without storing patterns.  pattern source = 258 external patterns
//  ------------------------------------------------------------------------
//  #patterns  test      #faults  #faults    # eff.    # test         process 
//  simulated  coverage  in list  detected   patterns  patterns       CPU time
//   64         85.56%     8488     50313       64         0          1.61 sec
//   128        87.48%     7361      1127       64         0          1.65 sec
//   192        88.10%     6999       362       61         0          1.67 sec
//   256        88.41%     6813       186       55         0          1.69 sec
//   258        88.42%     6809         4        2         0          1.71 sec
