// | ------------------------------------------------------------------------------------------------------------------ |
// |                                                                                                                    |
// |          Current split capture setting:     Off (optimal)                                                          |
// |                                                                                                                    |
// |   Current clock off simulation setting:     Off (optimal)                                                          |
// | ------------------------------------------------------------------------------------------------------------------ |
//  ------------------------------------------------------------------------
//  Simulation performed for #gates = 20871  #faults = 58153
//  Run fault simulation without storing patterns.  pattern source = 271 external patterns
//  ------------------------------------------------------------------------
//  #patterns  test      #faults  #faults    # eff.    # test         process 
//  simulated  coverage  in list  detected   patterns  patterns       CPU time
//   64         86.30%     7966     50187       64         0          1.52 sec
//   128        88.60%     6629      1337       64         0          1.55 sec
//   192        89.25%     6249       380       62         0          1.57 sec
//   256        89.55%     6079       170       50         0          1.59 sec
//   271        89.58%     6061        18        9         0          1.61 sec
