// | ------------------------------------------------------------------------------------------------------------------ |
// |                                                                                                                    |
// |          Current split capture setting:     Off (optimal)                                                          |
// |                                                                                                                    |
// |   Current clock off simulation setting:     Off (optimal)                                                          |
// | ------------------------------------------------------------------------------------------------------------------ |
//  ------------------------------------------------------------------------
//  Simulation performed for #gates = 20871  #faults = 58096
//  Run fault simulation without storing patterns.  pattern source = 260 external patterns
//  ------------------------------------------------------------------------
//  #patterns  test      #faults  #faults    # eff.    # test         process 
//  simulated  coverage  in list  detected   patterns  patterns       CPU time
//   64         86.06%     8099     49997       64         0          1.47 sec
//   128        88.12%     6903      1196       64         0          1.51 sec
//   192        88.74%     6544       359       61         0          1.53 sec
//   256        89.09%     6340       204       51         0          1.55 sec
//   260        89.09%     6336         4        2         0          1.56 sec
