// | ------------------------------------------------------------------------------------------------------------------ |
// |                                                                                                                    |
// |          Current split capture setting:     Off (optimal)                                                          |
// |                                                                                                                    |
// |   Current clock off simulation setting:     Off (optimal)                                                          |
// | ------------------------------------------------------------------------------------------------------------------ |
//  ------------------------------------------------------------------------
//  Simulation performed for #gates = 20871  #faults = 58107
//  Run fault simulation without storing patterns.  pattern source = 263 external patterns
//  ------------------------------------------------------------------------
//  #patterns  test      #faults  #faults    # eff.    # test         process 
//  simulated  coverage  in list  detected   patterns  patterns       CPU time
//   64         86.18%     8026     50081       64         0          1.52 sec
//   128        88.38%     6747      1279       64         0          1.56 sec
//   192        89.07%     6346       401       63         0          1.58 sec
//   256        89.36%     6180       166       53         0          1.60 sec
//   263        89.39%     6162        18        7         0          1.61 sec
