// | ------------------------------------------------------------------------------------------------------------------ |
// |                                                                                                                    |
// |          Current split capture setting:     Off (optimal)                                                          |
// |                                                                                                                    |
// |   Current clock off simulation setting:     Off (optimal)                                                          |
// | ------------------------------------------------------------------------------------------------------------------ |
//  ------------------------------------------------------------------------
//  Simulation performed for #gates = 20871  #faults = 58028
//  Run fault simulation without storing patterns.  pattern source = 260 external patterns
//  ------------------------------------------------------------------------
//  #patterns  test      #faults  #faults    # eff.    # test         process 
//  simulated  coverage  in list  detected   patterns  patterns       CPU time
//   64         85.93%     8164     49864       64         0          1.47 sec
//   128        87.83%     7063      1101       64         0          1.50 sec
//   192        88.47%     6692       371       64         0          1.52 sec
//   256        88.84%     6474       218       52         0          1.54 sec
//   260        88.85%     6471         3        3         0          1.56 sec
