// | ------------------------------------------------------------------------------------------------------------------ |
// |                                                                                                                    |
// |          Current split capture setting:     Off (optimal)                                                          |
// |                                                                                                                    |
// |   Current clock off simulation setting:     Off (optimal)                                                          |
// | ------------------------------------------------------------------------------------------------------------------ |
//  ------------------------------------------------------------------------
//  Simulation performed for #gates = 20871  #faults = 58839
//  Run fault simulation without storing patterns.  pattern source = 262 external patterns
//  ------------------------------------------------------------------------
//  #patterns  test      #faults  #faults    # eff.    # test         process 
//  simulated  coverage  in list  detected   patterns  patterns       CPU time
//   64         85.86%     8317     50522       64         0          1.64 sec
//   128        87.76%     7200      1117       62         0          1.67 sec
//   192        88.42%     6812       388       60         0          1.70 sec
//   256        88.70%     6648       164       50         0          1.72 sec
//   262        88.72%     6637        11        4         0          1.73 sec
