// | ------------------------------------------------------------------------------------------------------------------ |
// |                                                                                                                    |
// |          Current split capture setting:     Off (optimal)                                                          |
// |                                                                                                                    |
// |   Current clock off simulation setting:     Off (optimal)                                                          |
// | ------------------------------------------------------------------------------------------------------------------ |
//  ------------------------------------------------------------------------
//  Simulation performed for #gates = 20871  #faults = 58075
//  Run fault simulation without storing patterns.  pattern source = 267 external patterns
//  ------------------------------------------------------------------------
//  #patterns  test      #faults  #faults    # eff.    # test         process 
//  simulated  coverage  in list  detected   patterns  patterns       CPU time
//   64         86.53%     7824     50251       64         0          1.53 sec
//   128        88.41%     6731      1093       64         0          1.57 sec
//   192        89.06%     6353       378       62         0          1.59 sec
//   256        89.38%     6168       185       53         0          1.61 sec
//   267        89.41%     6150        18        9         0          1.62 sec
