// | ------------------------------------------------------------------------------------------------------------------ |
// |                                                                                                                    |
// |          Current split capture setting:     Off (optimal)                                                          |
// |                                                                                                                    |
// |   Current clock off simulation setting:     Off (optimal)                                                          |
// | ------------------------------------------------------------------------------------------------------------------ |
//  ------------------------------------------------------------------------
//  Simulation performed for #gates = 20871  #faults = 58075
//  Run fault simulation without storing patterns.  pattern source = 266 external patterns
//  ------------------------------------------------------------------------
//  #patterns  test      #faults  #faults    # eff.    # test         process 
//  simulated  coverage  in list  detected   patterns  patterns       CPU time
//   64         86.19%     8019     50056       64         0          1.52 sec
//   128        88.23%     6836      1183       64         0          1.56 sec
//   192        88.96%     6409       427       63         0          1.58 sec
//   256        89.22%     6262       147       45         0          1.60 sec
//   266        89.26%     6239        23        9         0          1.61 sec
