// | ------------------------------------------------------------------------------------------------------------------ |
// |                                                                                                                    |
// |          Current split capture setting:     Off (optimal)                                                          |
// |                                                                                                                    |
// |   Current clock off simulation setting:     Off (optimal)                                                          |
// | ------------------------------------------------------------------------------------------------------------------ |
//  ------------------------------------------------------------------------
//  Simulation performed for #gates = 20871  #faults = 58903
//  Run fault simulation without storing patterns.  pattern source = 261 external patterns
//  ------------------------------------------------------------------------
//  #patterns  test      #faults  #faults    # eff.    # test         process 
//  simulated  coverage  in list  detected   patterns  patterns       CPU time
//   64         85.15%     8746     50157       64         0          1.58 sec
//   128        87.31%     7476      1270       64         0          1.62 sec
//   192        88.18%     6961       515       63         0          1.65 sec
//   256        88.54%     6752       209       56         0          1.67 sec
//   261        88.56%     6738        14        4         0          1.68 sec
