// | ------------------------------------------------------------------------------------------------------------------ |
// |                                                                                                                    |
// |          Current split capture setting:     Off (optimal)                                                          |
// |                                                                                                                    |
// |   Current clock off simulation setting:     Off (optimal)                                                          |
// | ------------------------------------------------------------------------------------------------------------------ |
//  ------------------------------------------------------------------------
//  Simulation performed for #gates = 20871  #faults = 57975
//  Run fault simulation without storing patterns.  pattern source = 266 external patterns
//  ------------------------------------------------------------------------
//  #patterns  test      #faults  #faults    # eff.    # test         process 
//  simulated  coverage  in list  detected   patterns  patterns       CPU time
//   64         85.35%     8495     49480       64         0          1.44 sec
//   128        87.62%     7179      1316       64         0          1.48 sec
//   192        88.23%     6825       354       62         0          1.50 sec
//   256        88.49%     6674       151       48         0          1.52 sec
//   266        88.52%     6656        18        9         0          1.53 sec
