// | ------------------------------------------------------------------------------------------------------------------ |
// |                                                                                                                    |
// |          Current split capture setting:     Off (optimal)                                                          |
// |                                                                                                                    |
// |   Current clock off simulation setting:     Off (optimal)                                                          |
// | ------------------------------------------------------------------------------------------------------------------ |
//  ------------------------------------------------------------------------
//  Simulation performed for #gates = 20871  #faults = 58798
//  Run fault simulation without storing patterns.  pattern source = 269 external patterns
//  ------------------------------------------------------------------------
//  #patterns  test      #faults  #faults    # eff.    # test         process 
//  simulated  coverage  in list  detected   patterns  patterns       CPU time
//   64         85.24%     8680     50118       64         0          1.63 sec
//   128        87.32%     7454      1226       64         0          1.67 sec
//   192        87.98%     7068       386       61         0          1.69 sec
//   256        88.32%     6867       201       53         0          1.72 sec
//   269        88.36%     6847        20        8         0          1.73 sec
