// | ------------------------------------------------------------------------------------------------------------------ |
// |                                                                                                                    |
// |          Current split capture setting:     Off (optimal)                                                          |
// |                                                                                                                    |
// |   Current clock off simulation setting:     Off (optimal)                                                          |
// | ------------------------------------------------------------------------------------------------------------------ |
//  ------------------------------------------------------------------------
//  Simulation performed for #gates = 20871  #faults = 58093
//  Run fault simulation without storing patterns.  pattern source = 260 external patterns
//  ------------------------------------------------------------------------
//  #patterns  test      #faults  #faults    # eff.    # test         process 
//  simulated  coverage  in list  detected   patterns  patterns       CPU time
//   64         85.74%     8286     49807       64         0          1.50 sec
//   128        87.69%     7154      1132       64         0          1.53 sec
//   192        88.36%     6763       391       61         0          1.56 sec
//   256        88.64%     6602       161       49         0          1.57 sec
//   260        88.66%     6589        13        4         0          1.59 sec
