// | ------------------------------------------------------------------------------------------------------------------ |
// |                                                                                                                    |
// |          Current split capture setting:     Off (optimal)                                                          |
// |                                                                                                                    |
// |   Current clock off simulation setting:     Off (optimal)                                                          |
// | ------------------------------------------------------------------------------------------------------------------ |
//  ------------------------------------------------------------------------
//  Simulation performed for #gates = 20871  #faults = 57990
//  Run fault simulation without storing patterns.  pattern source = 262 external patterns
//  ------------------------------------------------------------------------
//  #patterns  test      #faults  #faults    # eff.    # test         process 
//  simulated  coverage  in list  detected   patterns  patterns       CPU time
//   64         86.05%     8088     49902       64         0          1.46 sec
//   128        88.29%     6788      1300       64         0          1.50 sec
//   192        88.99%     6386       402       60         0          1.52 sec
//   256        89.33%     6189       197       56         0          1.54 sec
//   262        89.34%     6179        10        5         0          1.55 sec
