// | ------------------------------------------------------------------------------------------------------------------ |
// |                                                                                                                    |
// |          Current split capture setting:     Off (optimal)                                                          |
// |                                                                                                                    |
// |   Current clock off simulation setting:     Off (optimal)                                                          |
// | ------------------------------------------------------------------------------------------------------------------ |
//  ------------------------------------------------------------------------
//  Simulation performed for #gates = 20871  #faults = 58152
//  Run fault simulation without storing patterns.  pattern source = 283 external patterns
//  ------------------------------------------------------------------------
//  #patterns  test      #faults  #faults    # eff.    # test         process 
//  simulated  coverage  in list  detected   patterns  patterns       CPU time
//   64         86.05%     8110     50042       64         0          1.51 sec
//   128        87.86%     7057      1053       63         0          1.55 sec
//   192        88.40%     6744       313       62         0          1.57 sec
//   256        88.65%     6600       144       51         0          1.59 sec
//   283        88.71%     6564        36       17         0          1.60 sec
