// | ------------------------------------------------------------------------------------------------------------------ |
// |                                                                                                                    |
// |          Current split capture setting:     Off (optimal)                                                          |
// |                                                                                                                    |
// |   Current clock off simulation setting:     Off (optimal)                                                          |
// | ------------------------------------------------------------------------------------------------------------------ |
//  ------------------------------------------------------------------------
//  Simulation performed for #gates = 20871  #faults = 59032
//  Run fault simulation without storing patterns.  pattern source = 258 external patterns
//  ------------------------------------------------------------------------
//  #patterns  test      #faults  #faults    # eff.    # test         process 
//  simulated  coverage  in list  detected   patterns  patterns       CPU time
//   64         85.46%     8584     50448       64         0          1.66 sec
//   128        87.50%     7379      1205       64         0          1.70 sec
//   192        88.21%     6958       421       58         0          1.73 sec
//   256        88.51%     6781       177       49         0          1.75 sec
//   258        88.51%     6780         1        1         0          1.76 sec
