// | ------------------------------------------------------------------------------------------------------------------ |
// |                                                                                                                    |
// |          Current split capture setting:     Off (optimal)                                                          |
// |                                                                                                                    |
// |   Current clock off simulation setting:     Off (optimal)                                                          |
// | ------------------------------------------------------------------------------------------------------------------ |
//  ------------------------------------------------------------------------
//  Simulation performed for #gates = 20871  #faults = 58376
//  Run fault simulation without storing patterns.  pattern source = 262 external patterns
//  ------------------------------------------------------------------------
//  #patterns  test      #faults  #faults    # eff.    # test         process 
//  simulated  coverage  in list  detected   patterns  patterns       CPU time
//   64         85.87%     8251     50125       64         0          1.52 sec
//   128        88.13%     6929      1322       64         0          1.56 sec
//   192        88.82%     6527       402       63         0          1.58 sec
//   256        89.14%     6339       188       54         0          1.60 sec
//   262        89.16%     6326        13        5         0          1.62 sec
