// | ------------------------------------------------------------------------------------------------------------------ |
// |                                                                                                                    |
// |          Current split capture setting:     Off (optimal)                                                          |
// |                                                                                                                    |
// |   Current clock off simulation setting:     Off (optimal)                                                          |
// | ------------------------------------------------------------------------------------------------------------------ |
//  ------------------------------------------------------------------------
//  Simulation performed for #gates = 20871  #faults = 58677
//  Run fault simulation without storing patterns.  pattern source = 260 external patterns
//  ------------------------------------------------------------------------
//  #patterns  test      #faults  #faults    # eff.    # test         process 
//  simulated  coverage  in list  detected   patterns  patterns       CPU time
//   64         85.80%     8333     50344       64         0          1.62 sec
//   128        87.60%     7274      1059       64         0          1.66 sec
//   192        88.14%     6959       315       62         0          1.69 sec
//   256        88.43%     6789       170       52         0          1.71 sec
//   260        88.44%     6781         8        4         0          1.72 sec
