// | ------------------------------------------------------------------------------------------------------------------ |
// |                                                                                                                    |
// |          Current split capture setting:     Off (optimal)                                                          |
// |                                                                                                                    |
// |   Current clock off simulation setting:     Off (optimal)                                                          |
// | ------------------------------------------------------------------------------------------------------------------ |
//  ------------------------------------------------------------------------
//  Simulation performed for #gates = 20871  #faults = 58932
//  Run fault simulation without storing patterns.  pattern source = 260 external patterns
//  ------------------------------------------------------------------------
//  #patterns  test      #faults  #faults    # eff.    # test         process 
//  simulated  coverage  in list  detected   patterns  patterns       CPU time
//   64         85.86%     8332     50600       64         0          1.66 sec
//   128        87.83%     7172      1160       64         0          1.70 sec
//   192        88.49%     6781       391       60         0          1.72 sec
//   256        88.75%     6627       154       51         0          1.74 sec
//   260        88.77%     6621         6        3         0          1.75 sec
