// | ------------------------------------------------------------------------------------------------------------------ |
// |                                                                                                                    |
// |          Current split capture setting:     Off (optimal)                                                          |
// |                                                                                                                    |
// |   Current clock off simulation setting:     Off (optimal)                                                          |
// | ------------------------------------------------------------------------------------------------------------------ |
//  ------------------------------------------------------------------------
//  Simulation performed for #gates = 20871  #faults = 57990
//  Run fault simulation without storing patterns.  pattern source = 262 external patterns
//  ------------------------------------------------------------------------
//  #patterns  test      #faults  #faults    # eff.    # test         process 
//  simulated  coverage  in list  detected   patterns  patterns       CPU time
//   64         86.62%     7760     50230       64         0          1.48 sec
//   128        88.44%     6701      1059       64         0          1.51 sec
//   192        89.08%     6335       366       62         0          1.53 sec
//   256        89.32%     6192       143       49         0          1.55 sec
//   262        89.35%     6177        15        5         0          1.57 sec
