// | ------------------------------------------------------------------------------------------------------------------ |
// |                                                                                                                    |
// |          Current split capture setting:     Off (optimal)                                                          |
// |                                                                                                                    |
// |   Current clock off simulation setting:     Off (optimal)                                                          |
// | ------------------------------------------------------------------------------------------------------------------ |
//  ------------------------------------------------------------------------
//  Simulation performed for #gates = 20871  #faults = 58188
//  Run fault simulation without storing patterns.  pattern source = 251 external patterns
//  ------------------------------------------------------------------------
//  #patterns  test      #faults  #faults    # eff.    # test         process 
//  simulated  coverage  in list  detected   patterns  patterns       CPU time
//   64         85.74%     8296     49892       64         0          1.47 sec
//   128        87.78%     7109      1187       64         0          1.51 sec
//   192        88.42%     6737       372       63         0          1.54 sec
//   251        88.76%     6542       195       52         0          1.56 sec
