// | ------------------------------------------------------------------------------------------------------------------ |
// |                                                                                                                    |
// |          Current split capture setting:     Off (optimal)                                                          |
// |                                                                                                                    |
// |   Current clock off simulation setting:     Off (optimal)                                                          |
// | ------------------------------------------------------------------------------------------------------------------ |
//  ------------------------------------------------------------------------
//  Simulation performed for #gates = 20871  #faults = 58015
//  Run fault simulation without storing patterns.  pattern source = 289 external patterns
//  ------------------------------------------------------------------------
//  #patterns  test      #faults  #faults    # eff.    # test         process 
//  simulated  coverage  in list  detected   patterns  patterns       CPU time
//   64         86.04%     8100     49915       64         0          1.54 sec
//   128        87.94%     6996      1104       64         0          1.58 sec
//   192        88.55%     6642       354       59         0          1.60 sec
//   256        88.79%     6504       138       47         0          1.62 sec
//   289        88.90%     6438        66       26         0          1.64 sec
