// | ------------------------------------------------------------------------------------------------------------------ |
// |                                                                                                                    |
// |          Current split capture setting:     Off (optimal)                                                          |
// |                                                                                                                    |
// |   Current clock off simulation setting:     Off (optimal)                                                          |
// | ------------------------------------------------------------------------------------------------------------------ |
//  ------------------------------------------------------------------------
//  Simulation performed for #gates = 20871  #faults = 57990
//  Run fault simulation without storing patterns.  pattern source = 271 external patterns
//  ------------------------------------------------------------------------
//  #patterns  test      #faults  #faults    # eff.    # test         process 
//  simulated  coverage  in list  detected   patterns  patterns       CPU time
//   64         86.15%     8034     49956       64         0          1.48 sec
//   128        88.33%     6765      1269       64         0          1.51 sec
//   192        89.03%     6359       406       61         0          1.54 sec
//   256        89.32%     6195       164       51         0          1.56 sec
//   271        89.38%     6160        35       12         0          1.57 sec
