// | ------------------------------------------------------------------------------------------------------------------ |
// |                                                                                                                    |
// |          Current split capture setting:     Off (optimal)                                                          |
// |                                                                                                                    |
// |   Current clock off simulation setting:     Off (optimal)                                                          |
// | ------------------------------------------------------------------------------------------------------------------ |
//  ------------------------------------------------------------------------
//  Simulation performed for #gates = 20871  #faults = 57975
//  Run fault simulation without storing patterns.  pattern source = 276 external patterns
//  ------------------------------------------------------------------------
//  #patterns  test      #faults  #faults    # eff.    # test         process 
//  simulated  coverage  in list  detected   patterns  patterns       CPU time
//   64         85.49%     8415     49560       64         0          1.46 sec
//   128        87.45%     7274      1141       64         0          1.49 sec
//   192        88.14%     6877       397       59         0          1.51 sec
//   256        88.47%     6686       191       53         0          1.53 sec
//   276        88.53%     6652        34       14         0          1.55 sec
