// | ------------------------------------------------------------------------------------------------------------------ |
// |                                                                                                                    |
// |          Current split capture setting:     Off (optimal)                                                          |
// |                                                                                                                    |
// |   Current clock off simulation setting:     Off (optimal)                                                          |
// | ------------------------------------------------------------------------------------------------------------------ |
//  ------------------------------------------------------------------------
//  Simulation performed for #gates = 20871  #faults = 58218
//  Run fault simulation without storing patterns.  pattern source = 268 external patterns
//  ------------------------------------------------------------------------
//  #patterns  test      #faults  #faults    # eff.    # test         process 
//  simulated  coverage  in list  detected   patterns  patterns       CPU time
//   64         85.50%     8439     49779       64         0          1.44 sec
//   128        87.85%     7072      1367       64         0          1.48 sec
//   192        88.56%     6662       410       61         0          1.51 sec
//   256        88.82%     6509       153       46         0          1.53 sec
//   268        88.85%     6489        20        8         0          1.54 sec
