// | ------------------------------------------------------------------------------------------------------------------ |
// |                                                                                                                    |
// |          Current split capture setting:     Off (optimal)                                                          |
// |                                                                                                                    |
// |   Current clock off simulation setting:     Off (optimal)                                                          |
// | ------------------------------------------------------------------------------------------------------------------ |
//  ------------------------------------------------------------------------
//  Simulation performed for #gates = 20871  #faults = 58168
//  Run fault simulation without storing patterns.  pattern source = 259 external patterns
//  ------------------------------------------------------------------------
//  #patterns  test      #faults  #faults    # eff.    # test         process 
//  simulated  coverage  in list  detected   patterns  patterns       CPU time
//   64         85.15%     8640     49528       64         0          1.44 sec
//   128        87.44%     7305      1335       64         0          1.48 sec
//   192        88.25%     6834       471       61         0          1.50 sec
//   256        88.59%     6635       199       56         0          1.52 sec
//   259        88.60%     6631         4        3         0          1.54 sec
