// | ------------------------------------------------------------------------------------------------------------------ |
// |                                                                                                                    |
// |          Current split capture setting:     Off (optimal)                                                          |
// |                                                                                                                    |
// |   Current clock off simulation setting:     Off (optimal)                                                          |
// | ------------------------------------------------------------------------------------------------------------------ |
//  ------------------------------------------------------------------------
//  Simulation performed for #gates = 20871  #faults = 58932
//  Run fault simulation without storing patterns.  pattern source = 263 external patterns
//  ------------------------------------------------------------------------
//  #patterns  test      #faults  #faults    # eff.    # test         process 
//  simulated  coverage  in list  detected   patterns  patterns       CPU time
//   64         85.83%     8350     50582       64         0          1.63 sec
//   128        87.87%     7146      1204       64         0          1.67 sec
//   192        88.51%     6770       376       57         0          1.70 sec
//   256        88.75%     6632       138       48         0          1.71 sec
//   263        88.77%     6618        14        6         0          1.73 sec
