// | ------------------------------------------------------------------------------------------------------------------ |
// |                                                                                                                    |
// |          Current split capture setting:     Off (optimal)                                                          |
// |                                                                                                                    |
// |   Current clock off simulation setting:     Off (optimal)                                                          |
// | ------------------------------------------------------------------------------------------------------------------ |
//  ------------------------------------------------------------------------
//  Simulation performed for #gates = 20871  #faults = 58130
//  Run fault simulation without storing patterns.  pattern source = 273 external patterns
//  ------------------------------------------------------------------------
//  #patterns  test      #faults  #faults    # eff.    # test         process 
//  simulated  coverage  in list  detected   patterns  patterns       CPU time
//   64         85.83%     8239     49891       64         0          1.48 sec
//   128        87.80%     7094      1145       64         0          1.51 sec
//   192        88.51%     6679       415       62         0          1.54 sec
//   256        88.85%     6480       199       54         0          1.56 sec
//   273        88.92%     6442        38       15         0          1.58 sec
