// | ------------------------------------------------------------------------------------------------------------------ |
// |                                                                                                                    |
// |          Current split capture setting:     Off (optimal)                                                          |
// |                                                                                                                    |
// |   Current clock off simulation setting:     Off (optimal)                                                          |
// | ------------------------------------------------------------------------------------------------------------------ |
//  ------------------------------------------------------------------------
//  Simulation performed for #gates = 20871  #faults = 58743
//  Run fault simulation without storing patterns.  pattern source = 244 external patterns
//  ------------------------------------------------------------------------
//  #patterns  test      #faults  #faults    # eff.    # test         process 
//  simulated  coverage  in list  detected   patterns  patterns       CPU time
//   64         85.71%     8397     50346       64         0          1.62 sec
//   128        87.69%     7230      1167       64         0          1.66 sec
//   192        88.47%     6776       454       60         0          1.69 sec
//   244        88.72%     6629       147       44         0          1.71 sec
