// | ------------------------------------------------------------------------------------------------------------------ |
// |                                                                                                                    |
// |          Current split capture setting:     Off (optimal)                                                          |
// |                                                                                                                    |
// |   Current clock off simulation setting:     Off (optimal)                                                          |
// | ------------------------------------------------------------------------------------------------------------------ |
//  ------------------------------------------------------------------------
//  Simulation performed for #gates = 20871  #faults = 58903
//  Run fault simulation without storing patterns.  pattern source = 279 external patterns
//  ------------------------------------------------------------------------
//  #patterns  test      #faults  #faults    # eff.    # test         process 
//  simulated  coverage  in list  detected   patterns  patterns       CPU time
//   64         85.32%     8646     50257       64         0          1.60 sec
//   128        87.48%     7374      1272       64         0          1.64 sec
//   192        88.13%     6994       380       60         0          1.66 sec
//   256        88.49%     6780       214       58         0          1.68 sec
//   279        88.55%     6742        38       17         0          1.70 sec
