// | ------------------------------------------------------------------------------------------------------------------ |
// |                                                                                                                    |
// |          Current split capture setting:     Off (optimal)                                                          |
// |                                                                                                                    |
// |   Current clock off simulation setting:     Off (optimal)                                                          |
// | ------------------------------------------------------------------------------------------------------------------ |
//  ------------------------------------------------------------------------
//  Simulation performed for #gates = 20871  #faults = 58107
//  Run fault simulation without storing patterns.  pattern source = 268 external patterns
//  ------------------------------------------------------------------------
//  #patterns  test      #faults  #faults    # eff.    # test         process 
//  simulated  coverage  in list  detected   patterns  patterns       CPU time
//   64         86.10%     8073     50034       64         0          1.54 sec
//   128        88.28%     6808      1265       63         0          1.57 sec
//   192        88.98%     6397       411       63         0          1.60 sec
//   256        89.30%     6211       186       52         0          1.62 sec
//   268        89.33%     6197        14        8         0          1.63 sec
