// | ------------------------------------------------------------------------------------------------------------------ |
// |                                                                                                                    |
// |          Current split capture setting:     Off (optimal)                                                          |
// |                                                                                                                    |
// |   Current clock off simulation setting:     Off (optimal)                                                          |
// | ------------------------------------------------------------------------------------------------------------------ |
//  ------------------------------------------------------------------------
//  Simulation performed for #gates = 20871  #faults = 58137
//  Run fault simulation without storing patterns.  pattern source = 297 external patterns
//  ------------------------------------------------------------------------
//  #patterns  test      #faults  #faults    # eff.    # test         process 
//  simulated  coverage  in list  detected   patterns  patterns       CPU time
//   64         85.74%     8289     49848       64         0          1.50 sec
//   128        87.93%     7016      1273       64         0          1.54 sec
//   192        88.56%     6651       365       61         0          1.56 sec
//   256        88.87%     6472       179       50         0          1.58 sec
//   297        88.99%     6399        73       29         0          1.60 sec
