// | ------------------------------------------------------------------------------------------------------------------ |
// |                                                                                                                    |
// |          Current split capture setting:     Off (optimal)                                                          |
// |                                                                                                                    |
// |   Current clock off simulation setting:     Off (optimal)                                                          |
// | ------------------------------------------------------------------------------------------------------------------ |
//  ------------------------------------------------------------------------
//  Simulation performed for #gates = 20871  #faults = 59032
//  Run fault simulation without storing patterns.  pattern source = 266 external patterns
//  ------------------------------------------------------------------------
//  #patterns  test      #faults  #faults    # eff.    # test         process 
//  simulated  coverage  in list  detected   patterns  patterns       CPU time
//   64         85.71%     8435     50597       64         0          1.67 sec
//   128        87.58%     7329      1106       64         0          1.71 sec
//   192        88.25%     6936       393       60         0          1.73 sec
//   256        88.47%     6804       132       45         0          1.75 sec
//   266        88.50%     6788        16        5         0          1.77 sec
