// | ------------------------------------------------------------------------------------------------------------------ |
// |                                                                                                                    |
// |          Current split capture setting:     Off (optimal)                                                          |
// |                                                                                                                    |
// |   Current clock off simulation setting:     Off (optimal)                                                          |
// | ------------------------------------------------------------------------------------------------------------------ |
//  ------------------------------------------------------------------------
//  Simulation performed for #gates = 20871  #faults = 58153
//  Run fault simulation without storing patterns.  pattern source = 297 external patterns
//  ------------------------------------------------------------------------
//  #patterns  test      #faults  #faults    # eff.    # test         process 
//  simulated  coverage  in list  detected   patterns  patterns       CPU time
//   64         86.91%     7615     50538       64         0          1.56 sec
//   128        88.90%     6455      1160       64         0          1.60 sec
//   192        89.59%     6052       403       64         0          1.62 sec
//   256        89.93%     5856       196       64         0          1.64 sec
//   297        90.04%     5793        63       41         0          1.65 sec
