// | ------------------------------------------------------------------------------------------------------------------ |
// |                                                                                                                    |
// |          Current split capture setting:     Off (optimal)                                                          |
// |                                                                                                                    |
// |   Current clock off simulation setting:     Off (optimal)                                                          |
// | ------------------------------------------------------------------------------------------------------------------ |
//  ------------------------------------------------------------------------
//  Simulation performed for #gates = 20871  #faults = 58718
//  Run fault simulation without storing patterns.  pattern source = 273 external patterns
//  ------------------------------------------------------------------------
//  #patterns  test      #faults  #faults    # eff.    # test         process 
//  simulated  coverage  in list  detected   patterns  patterns       CPU time
//   64         85.87%     8295     50423       64         0          1.62 sec
//   128        87.91%     7100      1195       64         0          1.66 sec
//   192        88.62%     6681       419       61         0          1.69 sec
//   256        88.94%     6494       187       55         0          1.70 sec
//   273        89.00%     6459        35       14         0          1.72 sec
