// | ------------------------------------------------------------------------------------------------------------------ |
// |                                                                                                                    |
// |          Current split capture setting:     Off (optimal)                                                          |
// |                                                                                                                    |
// |   Current clock off simulation setting:     Off (optimal)                                                          |
// | ------------------------------------------------------------------------------------------------------------------ |
//  ------------------------------------------------------------------------
//  Simulation performed for #gates = 20871  #faults = 58218
//  Run fault simulation without storing patterns.  pattern source = 276 external patterns
//  ------------------------------------------------------------------------
//  #patterns  test      #faults  #faults    # eff.    # test         process 
//  simulated  coverage  in list  detected   patterns  patterns       CPU time
//   64         85.80%     8268     49950       64         0          1.45 sec
//   128        87.81%     7098      1170       64         0          1.49 sec
//   192        88.47%     6710       388       57         0          1.51 sec
//   256        88.77%     6535       175       55         0          1.53 sec
//   276        88.81%     6515        20       11         0          1.55 sec
