// | ------------------------------------------------------------------------------------------------------------------ |
// |                                                                                                                    |
// |          Current split capture setting:     Off (optimal)                                                          |
// |                                                                                                                    |
// |   Current clock off simulation setting:     Off (optimal)                                                          |
// | ------------------------------------------------------------------------------------------------------------------ |
//  ------------------------------------------------------------------------
//  Simulation performed for #gates = 20871  #faults = 58743
//  Run fault simulation without storing patterns.  pattern source = 306 external patterns
//  ------------------------------------------------------------------------
//  #patterns  test      #faults  #faults    # eff.    # test         process 
//  simulated  coverage  in list  detected   patterns  patterns       CPU time
//   64         85.71%     8395     50348       64         0          1.61 sec
//   128        87.81%     7158      1237       64         0          1.64 sec
//   192        88.52%     6743       415       62         0          1.67 sec
//   256        88.83%     6559       184       56         0          1.68 sec
//   306        88.95%     6490        69       32         0          1.70 sec
