// | ------------------------------------------------------------------------------------------------------------------ |
// |                                                                                                                    |
// |          Current split capture setting:     Off (optimal)                                                          |
// |                                                                                                                    |
// |   Current clock off simulation setting:     Off (optimal)                                                          |
// | ------------------------------------------------------------------------------------------------------------------ |
//  ------------------------------------------------------------------------
//  Simulation performed for #gates = 20871  #faults = 58075
//  Run fault simulation without storing patterns.  pattern source = 261 external patterns
//  ------------------------------------------------------------------------
//  #patterns  test      #faults  #faults    # eff.    # test         process 
//  simulated  coverage  in list  detected   patterns  patterns       CPU time
//   64         86.64%     7756     50319       64         0          1.49 sec
//   128        88.47%     6695      1061       64         0          1.53 sec
//   192        89.16%     6296       399       60         0          1.55 sec
//   256        89.44%     6134       162       51         0          1.57 sec
//   261        89.45%     6128         6        3         0          1.58 sec
