// | ------------------------------------------------------------------------------------------------------------------ |
// |                                                                                                                    |
// |          Current split capture setting:     Off (optimal)                                                          |
// |                                                                                                                    |
// |   Current clock off simulation setting:     Off (optimal)                                                          |
// | ------------------------------------------------------------------------------------------------------------------ |
//  ------------------------------------------------------------------------
//  Simulation performed for #gates = 20871  #faults = 58188
//  Run fault simulation without storing patterns.  pattern source = 289 external patterns
//  ------------------------------------------------------------------------
//  #patterns  test      #faults  #faults    # eff.    # test         process 
//  simulated  coverage  in list  detected   patterns  patterns       CPU time
//   64         85.69%     8325     49863       64         0          1.50 sec
//   128        87.83%     7084      1241       64         0          1.54 sec
//   192        88.51%     6684       400       63         0          1.57 sec
//   256        88.82%     6508       176       50         0          1.59 sec
//   289        88.89%     6467        41       21         0          1.61 sec
