// | ------------------------------------------------------------------------------------------------------------------ |
// |                                                                                                                    |
// |          Current split capture setting:     Off (optimal)                                                          |
// |                                                                                                                    |
// |   Current clock off simulation setting:     Off (optimal)                                                          |
// | ------------------------------------------------------------------------------------------------------------------ |
//  ------------------------------------------------------------------------
//  Simulation performed for #gates = 20871  #faults = 58305
//  Run fault simulation without storing patterns.  pattern source = 258 external patterns
//  ------------------------------------------------------------------------
//  #patterns  test      #faults  #faults    # eff.    # test         process 
//  simulated  coverage  in list  detected   patterns  patterns       CPU time
//   64         86.12%     8090     50215       64         0          1.50 sec
//   128        88.07%     6958      1132       64         0          1.53 sec
//   192        88.74%     6563       395       62         0          1.56 sec
//   256        89.03%     6398       165       50         0          1.57 sec
//   258        89.03%     6396         2        2         0          1.59 sec
