	*******************************************************
	*                                                     *
	*            Welcome to HOPE (version 2.0)            *
	*                                                     *
	*               Dong S. Ha (ha@vt.edu)                *
	*            Web: http://www.ee.vt.edu/ha             *
	*  Virginia Polytechnic Institute & State University  *
	*                                                     *
	*******************************************************

******   SUMMARY OF SIMULATION RESULTS   ******
1. Circuit structure
   Name of circuit                           : s510
   Number of primary inputs                  : 25
   Number of primary outputs                 : 13
   Number of flip-flops                      : 0
   Number of gates                           : 211
   Level of the circuit                      : 12

2. Simulator input parameters
   Simulation mode                           : file (/home/animesh/currentResearch/ISI/atpg_structural/code/testData/atalanta/tests/iscas89/s510.test)

3. Simulation results
   Number of test patterns applied           : 62
   Fault coverage                            : 72.872 %
   Number of collapsed faults                : 564
   Number of detected faults                 : 411
   Number of undetected faults               : 153

4. Memory used                               : 30638 Kbytes

5. CPU time
   Initialization                            : 0.000 secs
   Fault simulation                          : 0.000 secs
   Total                                     : 0.000 secs
