	*******************************************************
	*                                                     *
	*            Welcome to HOPE (version 2.0)            *
	*                                                     *
	*               Dong S. Ha (ha@vt.edu)                *
	*            Web: http://www.ee.vt.edu/ha             *
	*  Virginia Polytechnic Institute & State University  *
	*                                                     *
	*******************************************************

******   SUMMARY OF SIMULATION RESULTS   ******
1. Circuit structure
   Name of circuit                           : s35932
   Number of primary inputs                  : 1763
   Number of primary outputs                 : 2048
   Number of flip-flops                      : 0
   Number of gates                           : 16385
   Level of the circuit                      : 29

2. Simulator input parameters
   Simulation mode                           : file (/home/animesh/currentResearch/ISI/atpg_structural/code/testData/atalanta/tests/iscas89/s35932.test)

3. Simulation results
   Number of test patterns applied           : 65
   Fault coverage                            : 44.782 %
   Number of collapsed faults                : 39094
   Number of detected faults                 : 17507
   Number of undetected faults               : 21587

4. Memory used                               : 47865 Kbytes

5. CPU time
   Initialization                            : 0.033 secs
   Fault simulation                          : 0.183 secs
   Total                                     : 0.217 secs
