// | ------------------------------------------------------------------------------------------------------------------ |
// |                                                                                                                    |
// |          Current split capture setting:     Off (optimal)                                                          |
// |                                                                                                                    |
// |   Current clock off simulation setting:     Off (optimal)                                                          |
// | ------------------------------------------------------------------------------------------------------------------ |
//  ------------------------------------------------------------------------
//  Simulation performed for #gates = 12864  #faults = 25984
//  Run fault simulation without storing patterns.  pattern source = 819 external patterns
//  ------------------------------------------------------------------------
//  #patterns  test      #faults  #faults    # eff.    # test         process 
//  simulated  coverage  in list  detected   patterns  patterns       CPU time
//   64         13.62%    22445      3539       64         0          0.11 sec
//   128        14.90%    22112       333       54         0          0.18 sec
//   192        15.80%    21878       234       47         0          0.24 sec
//   256        16.18%    21780        98       36         0          0.30 sec
//   320        16.47%    21705        75       31         0          0.36 sec
//   384        16.95%    21579       126       37         0          0.42 sec
//   448        17.23%    21506        73       27         0          0.48 sec
//   512        17.46%    21446        60       26         0          0.53 sec
//   576        17.61%    21407        39       24         0          0.59 sec
//   640        17.74%    21374        33       19         0          0.65 sec
//   704        17.82%    21354        20       11         0          0.71 sec
//   768        17.92%    21327        27       16         0          0.76 sec
//   819        17.98%    21311        16        8         0          0.82 sec
