// | ------------------------------------------------------------------------------------------------------------------ |
// |                                                                                                                    |
// |          Current split capture setting:     Off (optimal)                                                          |
// |                                                                                                                    |
// |   Current clock off simulation setting:     Off (optimal)                                                          |
// | ------------------------------------------------------------------------------------------------------------------ |
//  ------------------------------------------------------------------------
//  Simulation performed for #gates = 12864  #faults = 25984
//  Run fault simulation without storing patterns.  pattern source = 768 external patterns
//  ------------------------------------------------------------------------
//  #patterns  test      #faults  #faults    # eff.    # test         process 
//  simulated  coverage  in list  detected   patterns  patterns       CPU time
//   64         13.31%    22526      3458       64         0          0.11 sec
//   128        14.96%    22098       428       51         0          0.17 sec
//   192        15.83%    21870       228       42         0          0.23 sec
//   256        16.38%    21727       143       47         0          0.29 sec
//   320        16.73%    21638        89       31         0          0.35 sec
//   384        17.05%    21553        85       34         0          0.40 sec
//   448        17.26%    21499        54       23         0          0.46 sec
//   512        17.49%    21440        59       26         0          0.51 sec
//   576        17.69%    21388        52       21         0          0.57 sec
//   640        17.83%    21352        36       18         0          0.62 sec
//   704        17.90%    21334        18       11         0          0.67 sec
//   768        18.02%    21302        32       14         0          0.73 sec
