// | ------------------------------------------------------------------------------------------------------------------ |
// |                                                                                                                    |
// |          Current split capture setting:     Off (optimal)                                                          |
// |                                                                                                                    |
// |   Current clock off simulation setting:     Off (optimal)                                                          |
// | ------------------------------------------------------------------------------------------------------------------ |
//  ------------------------------------------------------------------------
//  Simulation performed for #gates = 12864  #faults = 25984
//  Run fault simulation without storing patterns.  pattern source = 768 external patterns
//  ------------------------------------------------------------------------
//  #patterns  test      #faults  #faults    # eff.    # test         process 
//  simulated  coverage  in list  detected   patterns  patterns       CPU time
//   64         21.25%    20463      5521       64         0          0.14 sec
//   128        24.74%    19556       907       64         0          0.20 sec
//   192        26.84%    19009       547       64         0          0.25 sec
//   256        28.24%    18645       364       64         0          0.30 sec
//   320        29.31%    18368       277       64         0          0.35 sec
//   384        30.14%    18153       215       64         0          0.40 sec
//   448        30.90%    17954       199       64         0          0.45 sec
//   512        31.44%    17815       139       64         0          0.49 sec
//   576        31.85%    17709       106       64         0          0.54 sec
//   640        32.22%    17612        97       64         0          0.58 sec
//   704        32.69%    17491       121       64         0          0.63 sec
//   768        33.04%    17398        93       64         0          0.67 sec
