// | ------------------------------------------------------------------------------------------------------------------ |
// |                                                                                                                    |
// |          Current split capture setting:     Off (optimal)                                                          |
// |                                                                                                                    |
// |   Current clock off simulation setting:     Off (optimal)                                                          |
// | ------------------------------------------------------------------------------------------------------------------ |
//  ------------------------------------------------------------------------
//  Simulation performed for #gates = 12864  #faults = 25984
//  Run fault simulation without storing patterns.  pattern source = 825 external patterns
//  ------------------------------------------------------------------------
//  #patterns  test      #faults  #faults    # eff.    # test         process 
//  simulated  coverage  in list  detected   patterns  patterns       CPU time
//   64         14.96%    22098      3886       64         0          0.13 sec
//   128        17.00%    21566       532       57         0          0.20 sec
//   192        17.91%    21329       237       52         0          0.26 sec
//   256        18.41%    21201       128       43         0          0.32 sec
//   320        18.85%    21087       114       33         0          0.37 sec
//   384        19.15%    21009        78       32         0          0.43 sec
//   448        19.41%    20940        69       30         0          0.48 sec
//   512        19.53%    20910        30       19         0          0.54 sec
//   576        19.69%    20867        43       18         0          0.59 sec
//   640        19.86%    20823        44       26         0          0.65 sec
//   704        20.00%    20788        35       18         0          0.70 sec
//   768        20.10%    20762        26       14         0          0.76 sec
//   825        20.15%    20747        15        7         0          0.81 sec
