// | ------------------------------------------------------------------------------------------------------------------ |
// |                                                                                                                    |
// |          Current split capture setting:     Off (optimal)                                                          |
// |                                                                                                                    |
// |   Current clock off simulation setting:     Off (optimal)                                                          |
// | ------------------------------------------------------------------------------------------------------------------ |
//  ------------------------------------------------------------------------
//  Simulation performed for #gates = 12864  #faults = 25984
//  Run fault simulation without storing patterns.  pattern source = 657 external patterns
//  ------------------------------------------------------------------------
//  #patterns  test      #faults  #faults    # eff.    # test         process 
//  simulated  coverage  in list  detected   patterns  patterns       CPU time
//   64         14.51%    22213      3771       64         0          0.12 sec
//   128        16.30%    21748       465       60         0          0.19 sec
//   192        17.14%    21530       218       50         0          0.25 sec
//   256        17.65%    21397       133       40         0          0.31 sec
//   320        18.00%    21308        89       36         0          0.37 sec
//   384        18.32%    21224        84       30         0          0.43 sec
//   448        18.58%    21155        69       25         0          0.48 sec
//   512        18.77%    21107        48       22         0          0.54 sec
//   576        18.95%    21061        46       19         0          0.59 sec
//   640        19.07%    21028        33       19         0          0.65 sec
//   657        19.10%    21022         6        4         0          0.70 sec
