// | ------------------------------------------------------------------------------------------------------------------ |
// |                                                                                                                    |
// |          Current split capture setting:     Off (optimal)                                                          |
// |                                                                                                                    |
// |   Current clock off simulation setting:     Off (optimal)                                                          |
// | ------------------------------------------------------------------------------------------------------------------ |
//  ------------------------------------------------------------------------
//  Simulation performed for #gates = 12864  #faults = 25984
//  Run fault simulation without storing patterns.  pattern source = 907 external patterns
//  ------------------------------------------------------------------------
//  #patterns  test      #faults  #faults    # eff.    # test         process 
//  simulated  coverage  in list  detected   patterns  patterns       CPU time
//   64         13.87%    22381      3603       62         0          0.12 sec
//   128        15.63%    21923       458       53         0          0.19 sec
//   192        16.31%    21746       177       42         0          0.25 sec
//   256        17.01%    21563       183       46         0          0.31 sec
//   320        17.38%    21468        95       34         0          0.37 sec
//   384        17.68%    21391        77       30         0          0.43 sec
//   448        17.86%    21342        49       23         0          0.48 sec
//   512        18.06%    21290        52       25         0          0.54 sec
//   576        18.23%    21248        42       17         0          0.59 sec
//   640        18.43%    21194        54       23         0          0.65 sec
//   704        18.63%    21143        51       22         0          0.70 sec
//   768        18.78%    21104        39       25         0          0.76 sec
//   832        18.93%    21066        38       22         0          0.82 sec
//   896        19.05%    21035        31       11         0          0.87 sec
//   907        19.08%    21026         9        2         0          0.92 sec
