// | ------------------------------------------------------------------------------------------------------------------ |
// |                                                                                                                    |
// |          Current split capture setting:     Off (optimal)                                                          |
// |                                                                                                                    |
// |   Current clock off simulation setting:     Off (optimal)                                                          |
// | ------------------------------------------------------------------------------------------------------------------ |
//  ------------------------------------------------------------------------
//  Simulation performed for #gates = 12864  #faults = 25984
//  Run fault simulation without storing patterns.  pattern source = 804 external patterns
//  ------------------------------------------------------------------------
//  #patterns  test      #faults  #faults    # eff.    # test         process 
//  simulated  coverage  in list  detected   patterns  patterns       CPU time
//   64         12.96%    22616      3368       62         0          0.11 sec
//   128        14.42%    22236       380       50         0          0.17 sec
//   192        15.25%    22022       214       47         0          0.24 sec
//   256        15.86%    21864       158       42         0          0.30 sec
//   320        16.23%    21766        98       37         0          0.35 sec
//   384        16.51%    21693        73       30         0          0.41 sec
//   448        16.78%    21623        70       26         0          0.47 sec
//   512        17.02%    21562        61       24         0          0.52 sec
//   576        17.24%    21505        57       26         0          0.58 sec
//   640        17.40%    21463        42       23         0          0.63 sec
//   704        17.49%    21439        24       11         0          0.69 sec
//   768        17.55%    21423        16       10         0          0.74 sec
//   804        17.58%    21417         6        3         0          0.79 sec
