// | ------------------------------------------------------------------------------------------------------------------ |
// |                                                                                                                    |
// |          Current split capture setting:     Off (optimal)                                                          |
// |                                                                                                                    |
// |   Current clock off simulation setting:     Off (optimal)                                                          |
// | ------------------------------------------------------------------------------------------------------------------ |
//  ------------------------------------------------------------------------
//  Simulation performed for #gates = 12864  #faults = 25984
//  Run fault simulation without storing patterns.  pattern source = 857 external patterns
//  ------------------------------------------------------------------------
//  #patterns  test      #faults  #faults    # eff.    # test         process 
//  simulated  coverage  in list  detected   patterns  patterns       CPU time
//   64         14.09%    22323      3661       63         0          0.13 sec
//   128        15.84%    21869       454       57         0          0.19 sec
//   192        16.70%    21644       225       50         0          0.26 sec
//   256        17.12%    21535       109       41         0          0.32 sec
//   320        17.51%    21435       100       35         0          0.38 sec
//   384        17.83%    21350        85       28         0          0.44 sec
//   448        18.05%    21294        56       27         0          0.50 sec
//   512        18.23%    21246        48       21         0          0.56 sec
//   576        18.39%    21205        41       24         0          0.61 sec
//   640        18.52%    21171        34       15         0          0.67 sec
//   704        18.64%    21141        30       20         0          0.73 sec
//   768        18.73%    21116        25       12         0          0.79 sec
//   832        18.84%    21089        27       13         0          0.84 sec
