// | ------------------------------------------------------------------------------------------------------------------ |
// |                                                                                                                    |
// |          Current split capture setting:     Off (optimal)                                                          |
// |                                                                                                                    |
// |   Current clock off simulation setting:     Off (optimal)                                                          |
// | ------------------------------------------------------------------------------------------------------------------ |
//  ------------------------------------------------------------------------
//  Simulation performed for #gates = 12864  #faults = 25984
//  Run fault simulation without storing patterns.  pattern source = 922 external patterns
//  ------------------------------------------------------------------------
//  #patterns  test      #faults  #faults    # eff.    # test         process 
//  simulated  coverage  in list  detected   patterns  patterns       CPU time
//   64         11.98%    22871      3113       63         0          0.10 sec
//   128        13.47%    22485       386       53         0          0.17 sec
//   192        14.25%    22281       204       41         0          0.23 sec
//   256        14.73%    22156       125       37         0          0.29 sec
//   320        15.22%    22030       126       34         0          0.35 sec
//   384        15.49%    21960        70       28         0          0.41 sec
//   448        15.76%    21889        71       29         0          0.47 sec
//   512        16.04%    21815        74       29         0          0.53 sec
//   576        16.42%    21718        97       32         0          0.58 sec
//   640        16.64%    21661        57       28         0          0.64 sec
//   704        16.89%    21596        65       21         0          0.69 sec
//   768        17.09%    21544        52       16         0          0.75 sec
//   832        17.16%    21524        20        8         0          0.80 sec
//   896        17.22%    21509        15        8         0          0.86 sec
//   922        17.26%    21500         9        7         0          0.91 sec
