// | ------------------------------------------------------------------------------------------------------------------ |
// |                                                                                                                    |
// |          Current split capture setting:     Off (optimal)                                                          |
// |                                                                                                                    |
// |   Current clock off simulation setting:     Off (optimal)                                                          |
// | ------------------------------------------------------------------------------------------------------------------ |
//  ------------------------------------------------------------------------
//  Simulation performed for #gates = 12864  #faults = 25984
//  Run fault simulation without storing patterns.  pattern source = 876 external patterns
//  ------------------------------------------------------------------------
//  #patterns  test      #faults  #faults    # eff.    # test         process 
//  simulated  coverage  in list  detected   patterns  patterns       CPU time
//   64         14.77%    22146      3838       64         0          0.12 sec
//   128        16.36%    21733       413       58         0          0.19 sec
//   192        17.05%    21554       179       44         0          0.25 sec
//   256        17.65%    21398       156       45         0          0.31 sec
//   320        17.93%    21324        74       32         0          0.37 sec
//   384        18.21%    21252        72       30         0          0.43 sec
//   448        18.50%    21176        76       22         0          0.48 sec
//   512        18.70%    21125        51       24         0          0.54 sec
//   576        18.87%    21080        45       20         0          0.59 sec
//   640        19.13%    21014        66       24         0          0.65 sec
//   704        19.26%    20979        35       18         0          0.71 sec
//   768        19.42%    20938        41       17         0          0.76 sec
//   832        19.50%    20917        21       16         0          0.81 sec
//   876        19.54%    20908         9        4         0          0.87 sec
