// | ------------------------------------------------------------------------------------------------------------------ |
// |                                                                                                                    |
// |          Current split capture setting:     Off (optimal)                                                          |
// |                                                                                                                    |
// |   Current clock off simulation setting:     Off (optimal)                                                          |
// | ------------------------------------------------------------------------------------------------------------------ |
//  ------------------------------------------------------------------------
//  Simulation performed for #gates = 12864  #faults = 25984
//  Run fault simulation without storing patterns.  pattern source = 614 external patterns
//  ------------------------------------------------------------------------
//  #patterns  test      #faults  #faults    # eff.    # test         process 
//  simulated  coverage  in list  detected   patterns  patterns       CPU time
//   64         14.71%    22162      3822       64         0          0.12 sec
//   128        16.28%    21754       408       58         0          0.19 sec
//   192        17.02%    21562       192       49         0          0.25 sec
//   256        17.46%    21447       115       39         0          0.31 sec
//   320        17.80%    21360        87       34         0          0.37 sec
//   384        18.14%    21270        90       32         0          0.43 sec
//   448        18.42%    21199        71       29         0          0.48 sec
//   512        18.65%    21137        62       26         0          0.54 sec
//   576        18.82%    21095        42       19         0          0.60 sec
//   614        18.97%    21055        40       18         0          0.65 sec
