// | ------------------------------------------------------------------------------------------------------------------ |
// |                                                                                                                    |
// |          Current split capture setting:     Off (optimal)                                                          |
// |                                                                                                                    |
// |   Current clock off simulation setting:     Off (optimal)                                                          |
// | ------------------------------------------------------------------------------------------------------------------ |
//  ------------------------------------------------------------------------
//  Simulation performed for #gates = 12864  #faults = 25984
//  Run fault simulation without storing patterns.  pattern source = 629 external patterns
//  ------------------------------------------------------------------------
//  #patterns  test      #faults  #faults    # eff.    # test         process 
//  simulated  coverage  in list  detected   patterns  patterns       CPU time
//   64         14.93%    22104      3880       63         0          0.12 sec
//   128        16.58%    21677       427       60         0          0.19 sec
//   192        17.36%    21472       205       46         0          0.25 sec
//   256        17.80%    21359       113       38         0          0.31 sec
//   320        18.08%    21285        74       32         0          0.37 sec
//   384        18.30%    21229        56       24         0          0.42 sec
//   448        18.48%    21181        48       22         0          0.48 sec
//   512        18.67%    21134        47       26         0          0.54 sec
//   576        18.81%    21097        37       19         0          0.59 sec
//   629        18.90%    21073        24       15         0          0.65 sec
