// | ------------------------------------------------------------------------------------------------------------------ |
// |                                                                                                                    |
// |          Current split capture setting:     Off (optimal)                                                          |
// |                                                                                                                    |
// |   Current clock off simulation setting:     Off (optimal)                                                          |
// | ------------------------------------------------------------------------------------------------------------------ |
//  ------------------------------------------------------------------------
//  Simulation performed for #gates = 12864  #faults = 25984
//  Run fault simulation without storing patterns.  pattern source = 629 external patterns
//  ------------------------------------------------------------------------
//  #patterns  test      #faults  #faults    # eff.    # test         process 
//  simulated  coverage  in list  detected   patterns  patterns       CPU time
//   64         13.51%    22474      3510       64         0          0.11 sec
//   128        14.98%    22092       382       55         0          0.17 sec
//   192        15.63%    21923       169       42         0          0.23 sec
//   256        16.23%    21767       156       44         0          0.28 sec
//   320        16.64%    21661       106       35         0          0.34 sec
//   384        16.98%    21571        90       32         0          0.40 sec
//   448        17.28%    21495        76       30         0          0.45 sec
//   512        17.51%    21433        62       25         0          0.51 sec
//   576        17.64%    21401        32       17         0          0.56 sec
//   629        17.76%    21370        31       15         0          0.62 sec
