// | ------------------------------------------------------------------------------------------------------------------ |
// |                                                                                                                    |
// |          Current split capture setting:     Off (optimal)                                                          |
// |                                                                                                                    |
// |   Current clock off simulation setting:     Off (optimal)                                                          |
// | ------------------------------------------------------------------------------------------------------------------ |
//  ------------------------------------------------------------------------
//  Simulation performed for #gates = 12864  #faults = 25984
//  Run fault simulation without storing patterns.  pattern source = 1551 external patterns
//  ------------------------------------------------------------------------
//  #patterns  test      #faults  #faults    # eff.    # test         process 
//  simulated  coverage  in list  detected   patterns  patterns       CPU time
//   64         21.91%    20292      5692       64         0          0.15 sec
//   128        25.93%    19247      1045       64         0          0.21 sec
//   192        28.24%    18647       600       64         0          0.26 sec
//   256        29.91%    18211       436       64         0          0.31 sec
//   320        31.27%    17860       351       64         0          0.35 sec
//   384        32.45%    17552       308       64         0          0.40 sec
//   448        33.47%    17288       264       64         0          0.45 sec
//   512        34.42%    17041       247       64         0          0.49 sec
//   576        35.33%    16804       237       64         0          0.54 sec
//   640        36.03%    16622       182       64         0          0.58 sec
//   704        36.78%    16428       194       64         0          0.63 sec
//   768        37.54%    16230       198       64         0          0.67 sec
//   832        38.28%    16038       192       64         0          0.72 sec
//   896        38.96%    15861       177       64         0          0.76 sec
//   960        39.52%    15716       145       64         0          0.80 sec
//   1024       40.03%    15583       133       64         0          0.84 sec
//   1088       40.45%    15474       109       64         0          0.88 sec
//   1152       40.86%    15367       107       64         0          0.93 sec
//   1216       41.25%    15266       101       64         0          0.96 sec
//   1280       41.71%    15147       119       64         0          1.00 sec
//   1344       42.14%    15034       113       64         0          1.05 sec
//   1408       42.59%    14917       117       64         0          1.08 sec
//   1472       43.05%    14797       120       64         0          1.12 sec
//   1536       43.45%    14694       103       64         0          1.16 sec
//   1551       43.52%    14675        19       15         0          1.20 sec
