// | ------------------------------------------------------------------------------------------------------------------ |
// |                                                                                                                    |
// |          Current split capture setting:     Off (optimal)                                                          |
// |                                                                                                                    |
// |   Current clock off simulation setting:     Off (optimal)                                                          |
// | ------------------------------------------------------------------------------------------------------------------ |
//  ------------------------------------------------------------------------
//  Simulation performed for #gates = 12864  #faults = 25984
//  Run fault simulation without storing patterns.  pattern source = 607 external patterns
//  ------------------------------------------------------------------------
//  #patterns  test      #faults  #faults    # eff.    # test         process 
//  simulated  coverage  in list  detected   patterns  patterns       CPU time
//   64         14.84%    22129      3855       63         0          0.13 sec
//   128        16.31%    21747       382       54         0          0.20 sec
//   192        17.23%    21508       239       47         0          0.26 sec
//   256        17.81%    21356       152       39         0          0.32 sec
//   320        18.31%    21227       129       44         0          0.38 sec
//   384        18.57%    21159        68       31         0          0.44 sec
//   448        18.93%    21065        94       34         0          0.50 sec
//   512        19.11%    21019        46       23         0          0.56 sec
//   576        19.25%    20981        38       14         0          0.61 sec
//   607        19.29%    20972         9        6         0          0.67 sec
