// | ------------------------------------------------------------------------------------------------------------------ |
// |                                                                                                                    |
// |          Current split capture setting:     Off (optimal)                                                          |
// |                                                                                                                    |
// |   Current clock off simulation setting:     Off (optimal)                                                          |
// | ------------------------------------------------------------------------------------------------------------------ |
//  ------------------------------------------------------------------------
//  Simulation performed for #gates = 12864  #faults = 25984
//  Run fault simulation without storing patterns.  pattern source = 749 external patterns
//  ------------------------------------------------------------------------
//  #patterns  test      #faults  #faults    # eff.    # test         process 
//  simulated  coverage  in list  detected   patterns  patterns       CPU time
//   64         15.27%    22017      3967       63         0          0.14 sec
//   128        17.26%    21498       519       62         0          0.21 sec
//   192        18.02%    21301       197       46         0          0.27 sec
//   256        18.58%    21156       145       45         0          0.33 sec
//   320        19.03%    21040       116       38         0          0.38 sec
//   384        19.22%    20990        50       22         0          0.44 sec
//   448        19.43%    20936        54       26         0          0.50 sec
//   512        19.63%    20883        53       21         0          0.55 sec
//   576        19.82%    20833        50       27         0          0.61 sec
//   640        19.96%    20798        35       18         0          0.67 sec
//   704        20.04%    20776        22       14         0          0.72 sec
//   749        20.14%    20751        25       11         0          0.78 sec
