// | ------------------------------------------------------------------------------------------------------------------ |
// |                                                                                                                    |
// |          Current split capture setting:     Off (optimal)                                                          |
// |                                                                                                                    |
// |   Current clock off simulation setting:     Off (optimal)                                                          |
// | ------------------------------------------------------------------------------------------------------------------ |
//  ------------------------------------------------------------------------
//  Simulation performed for #gates = 12864  #faults = 25984
//  Run fault simulation without storing patterns.  pattern source = 848 external patterns
//  ------------------------------------------------------------------------
//  #patterns  test      #faults  #faults    # eff.    # test         process 
//  simulated  coverage  in list  detected   patterns  patterns       CPU time
//   64         14.77%    22146      3838       63         0          0.12 sec
//   128        16.56%    21682       464       58         0          0.19 sec
//   192        17.29%    21491       191       47         0          0.25 sec
//   256        17.65%    21399        92       36         0          0.31 sec
//   320        18.00%    21306        93       32         0          0.37 sec
//   384        18.28%    21233        73       24         0          0.42 sec
//   448        18.50%    21177        56       22         0          0.48 sec
//   512        18.73%    21118        59       25         0          0.54 sec
//   576        19.00%    21047        71       31         0          0.59 sec
//   640        19.22%    20989        58       26         0          0.65 sec
//   704        19.41%    20941        48       23         0          0.70 sec
//   768        19.50%    20916        25       14         0          0.76 sec
//   832        19.64%    20880        36       22         0          0.81 sec
//   848        19.65%    20878         2        2         0          0.86 sec
