// | ------------------------------------------------------------------------------------------------------------------ |
// |                                                                                                                    |
// |          Current split capture setting:     Off (optimal)                                                          |
// |                                                                                                                    |
// |   Current clock off simulation setting:     Off (optimal)                                                          |
// | ------------------------------------------------------------------------------------------------------------------ |
//  ------------------------------------------------------------------------
//  Simulation performed for #gates = 12864  #faults = 25984
//  Run fault simulation without storing patterns.  pattern source = 770 external patterns
//  ------------------------------------------------------------------------
//  #patterns  test      #faults  #faults    # eff.    # test         process 
//  simulated  coverage  in list  detected   patterns  patterns       CPU time
//   64         14.86%    22124      3860       63         0          0.12 sec
//   128        16.41%    21720       404       60         0          0.19 sec
//   192        17.05%    21553       167       47         0          0.25 sec
//   256        17.57%    21418       135       38         0          0.31 sec
//   320        17.86%    21344        74       29         0          0.36 sec
//   384        18.21%    21253        91       30         0          0.42 sec
//   448        18.40%    21202        51       27         0          0.48 sec
//   512        18.58%    21155        47       25         0          0.53 sec
//   576        18.77%    21108        47       20         0          0.59 sec
//   640        18.94%    21063        45       16         0          0.64 sec
//   704        19.14%    21010        53       20         0          0.70 sec
//   768        19.33%    20962        48       17         0          0.75 sec
