// | ------------------------------------------------------------------------------------------------------------------ |
// |                                                                                                                    |
// |          Current split capture setting:     Off (optimal)                                                          |
// |                                                                                                                    |
// |   Current clock off simulation setting:     Off (optimal)                                                          |
// | ------------------------------------------------------------------------------------------------------------------ |
//  ------------------------------------------------------------------------
//  Simulation performed for #gates = 12864  #faults = 25984
//  Run fault simulation without storing patterns.  pattern source = 916 external patterns
//  ------------------------------------------------------------------------
//  #patterns  test      #faults  #faults    # eff.    # test         process 
//  simulated  coverage  in list  detected   patterns  patterns       CPU time
//   64         15.07%    22069      3915       64         0          0.14 sec
//   128        17.05%    21553       516       63         0          0.21 sec
//   192        17.83%    21350       203       50         0          0.27 sec
//   256        18.26%    21240       110       36         0          0.34 sec
//   320        18.60%    21151        89       39         0          0.40 sec
//   384        18.98%    21053        98       35         0          0.46 sec
//   448        19.28%    20974        79       28         0          0.52 sec
//   512        19.51%    20914        60       26         0          0.58 sec
//   576        19.67%    20874        40       19         0          0.64 sec
//   640        19.83%    20831        43       19         0          0.69 sec
//   704        19.99%    20790        41       22         0          0.75 sec
//   768        20.19%    20738        52       17         0          0.81 sec
//   832        20.30%    20710        28       17         0          0.86 sec
//   896        20.34%    20698        12        8         0          0.92 sec
//   916        20.35%    20695         3        3         0          0.97 sec
