// | ------------------------------------------------------------------------------------------------------------------ |
// |                                                                                                                    |
// |          Current split capture setting:     Off (optimal)                                                          |
// |                                                                                                                    |
// |   Current clock off simulation setting:     Off (optimal)                                                          |
// | ------------------------------------------------------------------------------------------------------------------ |
//  ------------------------------------------------------------------------
//  Simulation performed for #gates = 12864  #faults = 25984
//  Run fault simulation without storing patterns.  pattern source = 679 external patterns
//  ------------------------------------------------------------------------
//  #patterns  test      #faults  #faults    # eff.    # test         process 
//  simulated  coverage  in list  detected   patterns  patterns       CPU time
//   64         15.22%    22028      3956       64         0          0.13 sec
//   128        16.74%    21634       394       60         0          0.20 sec
//   192        17.67%    21392       242       55         0          0.26 sec
//   256        18.22%    21251       141       38         0          0.32 sec
//   320        18.70%    21126       125       36         0          0.37 sec
//   384        18.91%    21071        55       27         0          0.43 sec
//   448        19.10%    21022        49       26         0          0.49 sec
//   512        19.34%    20959        63       25         0          0.54 sec
//   576        19.52%    20911        48       15         0          0.60 sec
//   640        19.62%    20886        25       10         0          0.65 sec
//   679        19.70%    20866        20       11         0          0.71 sec
