// | ------------------------------------------------------------------------------------------------------------------ |
// |                                                                                                                    |
// |          Current split capture setting:     Off (optimal)                                                          |
// |                                                                                                                    |
// |   Current clock off simulation setting:     Off (optimal)                                                          |
// | ------------------------------------------------------------------------------------------------------------------ |
//  ------------------------------------------------------------------------
//  Simulation performed for #gates = 12864  #faults = 25984
//  Run fault simulation without storing patterns.  pattern source = 995 external patterns
//  ------------------------------------------------------------------------
//  #patterns  test      #faults  #faults    # eff.    # test         process 
//  simulated  coverage  in list  detected   patterns  patterns       CPU time
//   64         15.68%    21909      4075       63         0          0.13 sec
//   128        17.56%    21422       487       58         0          0.20 sec
//   192        18.28%    21235       187       44         0          0.26 sec
//   256        18.78%    21104       131       47         0          0.32 sec
//   320        19.19%    20997       107       35         0          0.38 sec
//   384        19.47%    20925        72       32         0          0.43 sec
//   448        19.73%    20857        68       29         0          0.49 sec
//   512        19.97%    20795        62       25         0          0.55 sec
//   576        20.12%    20755        40       20         0          0.60 sec
//   640        20.30%    20709        46       19         0          0.66 sec
//   704        20.45%    20669        40       17         0          0.71 sec
//   768        20.56%    20641        28       13         0          0.77 sec
//   832        20.63%    20624        17       13         0          0.82 sec
//   896        20.71%    20603        21       14         0          0.88 sec
//   960        20.79%    20581        22       11         0          0.93 sec
//   995        20.84%    20570        11        5         0          0.98 sec
