// | ------------------------------------------------------------------------------------------------------------------ |
// |                                                                                                                    |
// |          Current split capture setting:     Off (optimal)                                                          |
// |                                                                                                                    |
// |   Current clock off simulation setting:     Off (optimal)                                                          |
// | ------------------------------------------------------------------------------------------------------------------ |
//  ------------------------------------------------------------------------
//  Simulation performed for #gates = 12864  #faults = 25984
//  Run fault simulation without storing patterns.  pattern source = 757 external patterns
//  ------------------------------------------------------------------------
//  #patterns  test      #faults  #faults    # eff.    # test         process 
//  simulated  coverage  in list  detected   patterns  patterns       CPU time
//   64         15.62%    21925      4059       64         0          0.14 sec
//   128        17.25%    21501       424       60         0          0.21 sec
//   192        18.00%    21306       195       49         0          0.27 sec
//   256        18.58%    21155       151       46         0          0.34 sec
//   320        18.93%    21064        91       28         0          0.39 sec
//   384        19.24%    20984        80       31         0          0.45 sec
//   448        19.41%    20941        43       24         0          0.51 sec
//   512        19.54%    20908        33       21         0          0.57 sec
//   576        19.64%    20882        26       15         0          0.63 sec
//   640        19.79%    20841        41       19         0          0.68 sec
//   704        19.87%    20822        19       10         0          0.74 sec
//   757        19.90%    20814         8        6         0          0.80 sec
