// | ------------------------------------------------------------------------------------------------------------------ |
// |                                                                                                                    |
// |          Current split capture setting:     Off (optimal)                                                          |
// |                                                                                                                    |
// |   Current clock off simulation setting:     Off (optimal)                                                          |
// | ------------------------------------------------------------------------------------------------------------------ |
//  ------------------------------------------------------------------------
//  Simulation performed for #gates = 12864  #faults = 25984
//  Run fault simulation without storing patterns.  pattern source = 919 external patterns
//  ------------------------------------------------------------------------
//  #patterns  test      #faults  #faults    # eff.    # test         process 
//  simulated  coverage  in list  detected   patterns  patterns       CPU time
//   64         12.44%    22751      3233       63         0          0.11 sec
//   128        13.82%    22394       357       49         0          0.18 sec
//   192        14.60%    22191       203       47         0          0.24 sec
//   256        15.23%    22027       164       40         0          0.30 sec
//   320        15.70%    21905       122       32         0          0.36 sec
//   384        16.01%    21823        82       31         0          0.42 sec
//   448        16.32%    21743        80       28         0          0.48 sec
//   512        16.56%    21682        61       21         0          0.53 sec
//   576        16.69%    21646        36       15         0          0.59 sec
//   640        16.95%    21581        65       22         0          0.65 sec
//   704        17.13%    21533        48       18         0          0.71 sec
//   768        17.30%    21490        43       16         0          0.77 sec
//   832        17.37%    21471        19       13         0          0.83 sec
//   896        17.43%    21456        15        8         0          0.88 sec
