// | ------------------------------------------------------------------------------------------------------------------ |
// |                                                                                                                    |
// |          Current split capture setting:     Off (optimal)                                                          |
// |                                                                                                                    |
// |   Current clock off simulation setting:     Off (optimal)                                                          |
// | ------------------------------------------------------------------------------------------------------------------ |
//  ------------------------------------------------------------------------
//  Simulation performed for #gates = 12864  #faults = 25984
//  Run fault simulation without storing patterns.  pattern source = 567 external patterns
//  ------------------------------------------------------------------------
//  #patterns  test      #faults  #faults    # eff.    # test         process 
//  simulated  coverage  in list  detected   patterns  patterns       CPU time
//   64         13.67%    22431      3553       64         0          0.11 sec
//   128        15.14%    22050       381       56         0          0.17 sec
//   192        16.00%    21827       223       46         0          0.23 sec
//   256        16.55%    21683       144       43         0          0.29 sec
//   320        16.97%    21574       109       38         0          0.35 sec
//   384        17.23%    21506        68       28         0          0.41 sec
//   448        17.50%    21438        68       23         0          0.47 sec
//   512        17.74%    21375        63       25         0          0.52 sec
//   567        17.92%    21328        47       18         0          0.58 sec
