// | ------------------------------------------------------------------------------------------------------------------ |
// |                                                                                                                    |
// |          Current split capture setting:     Off (optimal)                                                          |
// |                                                                                                                    |
// |   Current clock off simulation setting:     Off (optimal)                                                          |
// | ------------------------------------------------------------------------------------------------------------------ |
//  ------------------------------------------------------------------------
//  Simulation performed for #gates = 12864  #faults = 25984
//  Run fault simulation without storing patterns.  pattern source = 819 external patterns
//  ------------------------------------------------------------------------
//  #patterns  test      #faults  #faults    # eff.    # test         process 
//  simulated  coverage  in list  detected   patterns  patterns       CPU time
//   64         15.60%    21930      4054       64         0          0.13 sec
//   128        17.53%    21430       500       62         0          0.20 sec
//   192        18.37%    21211       219       46         0          0.26 sec
//   256        18.90%    21074       137       41         0          0.32 sec
//   320        19.44%    20933       141       33         0          0.38 sec
//   384        19.66%    20876        57       28         0          0.43 sec
//   448        19.85%    20826        50       26         0          0.49 sec
//   512        20.04%    20776        50       24         0          0.55 sec
//   576        20.17%    20743        33       14         0          0.60 sec
//   640        20.38%    20689        54       24         0          0.66 sec
//   704        20.55%    20645        44       18         0          0.71 sec
//   768        20.65%    20619        26       15         0          0.76 sec
//   819        20.71%    20603        16        9         0          0.82 sec
