// | ------------------------------------------------------------------------------------------------------------------ |
// |                                                                                                                    |
// |          Current split capture setting:     Off (optimal)                                                          |
// |                                                                                                                    |
// |   Current clock off simulation setting:     Off (optimal)                                                          |
// | ------------------------------------------------------------------------------------------------------------------ |
//  ------------------------------------------------------------------------
//  Simulation performed for #gates = 12864  #faults = 25984
//  Run fault simulation without storing patterns.  pattern source = 760 external patterns
//  ------------------------------------------------------------------------
//  #patterns  test      #faults  #faults    # eff.    # test         process 
//  simulated  coverage  in list  detected   patterns  patterns       CPU time
//   64         14.24%    22285      3699       63         0          0.12 sec
//   128        16.05%    21813       472       58         0          0.19 sec
//   192        17.06%    21552       261       56         0          0.25 sec
//   256        17.72%    21380       172       46         0          0.31 sec
//   320        18.08%    21287        93       36         0          0.37 sec
//   384        18.42%    21197        90       35         0          0.42 sec
//   448        18.62%    21147        50       26         0          0.48 sec
//   512        19.01%    21045       102       30         0          0.53 sec
//   576        19.18%    21001        44       23         0          0.59 sec
//   640        19.34%    20959        42       17         0          0.64 sec
//   704        19.45%    20931        28       14         0          0.70 sec
//   760        19.50%    20916        15        8         0          0.75 sec
