// | ------------------------------------------------------------------------------------------------------------------ |
// |                                                                                                                    |
// |          Current split capture setting:     Off (optimal)                                                          |
// |                                                                                                                    |
// |   Current clock off simulation setting:     Off (optimal)                                                          |
// | ------------------------------------------------------------------------------------------------------------------ |
//  ------------------------------------------------------------------------
//  Simulation performed for #gates = 12864  #faults = 25984
//  Run fault simulation without storing patterns.  pattern source = 749 external patterns
//  ------------------------------------------------------------------------
//  #patterns  test      #faults  #faults    # eff.    # test         process 
//  simulated  coverage  in list  detected   patterns  patterns       CPU time
//   64         12.52%    22732      3252       63         0          0.11 sec
//   128        13.93%    22365       367       52         0          0.18 sec
//   192        14.48%    22222       143       38         0          0.24 sec
//   256        15.00%    22086       136       40         0          0.31 sec
//   320        15.68%    21910       176       37         0          0.37 sec
//   384        16.03%    21820        90       30         0          0.43 sec
//   448        16.50%    21697       123       33         0          0.49 sec
//   512        16.80%    21619        78       28         0          0.55 sec
//   576        16.98%    21572        47       20         0          0.61 sec
//   640        17.15%    21529        43       14         0          0.67 sec
//   704        17.38%    21469        60       20         0          0.72 sec
//   749        17.50%    21438        31       14         0          0.78 sec
