// | ------------------------------------------------------------------------------------------------------------------ |
// |                                                                                                                    |
// |          Current split capture setting:     Off (optimal)                                                          |
// |                                                                                                                    |
// |   Current clock off simulation setting:     Off (optimal)                                                          |
// | ------------------------------------------------------------------------------------------------------------------ |
//  ------------------------------------------------------------------------
//  Simulation performed for #gates = 12864  #faults = 25984
//  Run fault simulation without storing patterns.  pattern source = 995 external patterns
//  ------------------------------------------------------------------------
//  #patterns  test      #faults  #faults    # eff.    # test         process 
//  simulated  coverage  in list  detected   patterns  patterns       CPU time
//   64         14.94%    22103      3881       64         0          0.13 sec
//   128        16.83%    21611       492       59         0          0.20 sec
//   192        17.75%    21372       239       49         0          0.26 sec
//   256        18.30%    21229       143       42         0          0.32 sec
//   320        18.60%    21150        79       35         0          0.38 sec
//   384        18.76%    21110        40       23         0          0.44 sec
//   448        19.03%    21040        70       34         0          0.49 sec
//   512        19.22%    20989        51       24         0          0.55 sec
//   576        19.40%    20944        45       18         0          0.61 sec
//   640        19.58%    20897        47       21         0          0.66 sec
//   704        19.65%    20877        20       14         0          0.72 sec
//   768        19.77%    20846        31       14         0          0.77 sec
//   832        19.87%    20821        25       15         0          0.83 sec
//   896        19.94%    20803        18       14         0          0.89 sec
//   960        20.00%    20787        16       12         0          0.94 sec
//   995        20.02%    20781         6        6         0          1.00 sec
