// | ------------------------------------------------------------------------------------------------------------------ |
// |                                                                                                                    |
// |          Current split capture setting:     Off (optimal)                                                          |
// |                                                                                                                    |
// |   Current clock off simulation setting:     Off (optimal)                                                          |
// | ------------------------------------------------------------------------------------------------------------------ |
//  ------------------------------------------------------------------------
//  Simulation performed for #gates = 12864  #faults = 25984
//  Run fault simulation without storing patterns.  pattern source = 922 external patterns
//  ------------------------------------------------------------------------
//  #patterns  test      #faults  #faults    # eff.    # test         process 
//  simulated  coverage  in list  detected   patterns  patterns       CPU time
//   64         15.98%    21832      4152       64         0          0.14 sec
//   128        17.65%    21398       434       56         0          0.21 sec
//   192        18.51%    21174       224       46         0          0.28 sec
//   256        18.89%    21075        99       36         0          0.34 sec
//   320        19.25%    20983        92       31         0          0.39 sec
//   384        19.49%    20920        63       22         0          0.45 sec
//   448        19.70%    20866        54       23         0          0.51 sec
//   512        19.84%    20830        36       23         0          0.57 sec
//   576        19.96%    20797        33       21         0          0.62 sec
//   640        20.11%    20759        38       20         0          0.68 sec
//   704        20.27%    20717        42       18         0          0.74 sec
//   768        20.34%    20699        18       11         0          0.79 sec
//   832        20.42%    20677        22       14         0          0.85 sec
//   896        20.53%    20649        28       11         0          0.91 sec
//   922        20.57%    20639        10        6         0          0.96 sec
