// | ------------------------------------------------------------------------------------------------------------------ |
// |                                                                                                                    |
// |          Current split capture setting:     Off (optimal)                                                          |
// |                                                                                                                    |
// |   Current clock off simulation setting:     Off (optimal)                                                          |
// | ------------------------------------------------------------------------------------------------------------------ |
//  ------------------------------------------------------------------------
//  Simulation performed for #gates = 12864  #faults = 25984
//  Run fault simulation without storing patterns.  pattern source = 764 external patterns
//  ------------------------------------------------------------------------
//  #patterns  test      #faults  #faults    # eff.    # test         process 
//  simulated  coverage  in list  detected   patterns  patterns       CPU time
//   64         13.06%    22591      3393       61         0          0.11 sec
//   128        14.49%    22219       372       52         0          0.18 sec
//   192        15.31%    22007       212       39         0          0.24 sec
//   256        15.97%    21835       172       36         0          0.30 sec
//   320        16.36%    21733       102       32         0          0.36 sec
//   384        16.66%    21654        79       25         0          0.42 sec
//   448        17.05%    21555        99       40         0          0.48 sec
//   512        17.32%    21483        72       24         0          0.53 sec
//   576        17.55%    21425        58       25         0          0.59 sec
//   640        17.78%    21364        61       22         0          0.65 sec
//   704        18.01%    21304        60       22         0          0.70 sec
//   764        18.08%    21287        17       11         0          0.76 sec
