// | ------------------------------------------------------------------------------------------------------------------ |
// |                                                                                                                    |
// |          Current split capture setting:     Off (optimal)                                                          |
// |                                                                                                                    |
// |   Current clock off simulation setting:     Off (optimal)                                                          |
// | ------------------------------------------------------------------------------------------------------------------ |
//  ------------------------------------------------------------------------
//  Simulation performed for #gates = 12864  #faults = 25984
//  Run fault simulation without storing patterns.  pattern source = 613 external patterns
//  ------------------------------------------------------------------------
//  #patterns  test      #faults  #faults    # eff.    # test         process 
//  simulated  coverage  in list  detected   patterns  patterns       CPU time
//   64         14.60%    22190      3794       64         0          0.12 sec
//   128        16.48%    21702       488       60         0          0.19 sec
//   192        17.36%    21472       230       48         0          0.25 sec
//   256        17.81%    21356       116       39         0          0.31 sec
//   320        18.12%    21275        81       33         0          0.36 sec
//   384        18.37%    21211        64       27         0          0.42 sec
//   448        18.61%    21148        63       22         0          0.47 sec
//   512        18.78%    21103        45       22         0          0.53 sec
//   576        19.00%    21048        55       28         0          0.58 sec
//   613        19.13%    21012        36       14         0          0.64 sec
