// | ------------------------------------------------------------------------------------------------------------------ |
// |                                                                                                                    |
// |          Current split capture setting:     Off (optimal)                                                          |
// |                                                                                                                    |
// |   Current clock off simulation setting:     Off (optimal)                                                          |
// | ------------------------------------------------------------------------------------------------------------------ |
//  ------------------------------------------------------------------------
//  Simulation performed for #gates = 12864  #faults = 25984
//  Run fault simulation without storing patterns.  pattern source = 760 external patterns
//  ------------------------------------------------------------------------
//  #patterns  test      #faults  #faults    # eff.    # test         process 
//  simulated  coverage  in list  detected   patterns  patterns       CPU time
//   64         13.98%    22351      3633       64         0          0.13 sec
//   128        15.72%    21900       451       53         0          0.20 sec
//   192        16.66%    21654       246       53         0          0.26 sec
//   256        17.22%    21510       144       39         0          0.33 sec
//   320        17.62%    21405       105       39         0          0.39 sec
//   384        17.89%    21335        70       29         0          0.45 sec
//   448        18.21%    21253        82       29         0          0.51 sec
//   512        18.52%    21172        81       28         0          0.57 sec
//   576        18.73%    21116        56       29         0          0.63 sec
//   640        18.91%    21071        45       22         0          0.69 sec
//   704        19.07%    21030        41       18         0          0.75 sec
//   760        19.10%    21021         9        5         0          0.80 sec
