// | ------------------------------------------------------------------------------------------------------------------ |
// |                                                                                                                    |
// |          Current split capture setting:     Off (optimal)                                                          |
// |                                                                                                                    |
// |   Current clock off simulation setting:     Off (optimal)                                                          |
// | ------------------------------------------------------------------------------------------------------------------ |
//  ------------------------------------------------------------------------
//  Simulation performed for #gates = 12864  #faults = 25984
//  Run fault simulation without storing patterns.  pattern source = 664 external patterns
//  ------------------------------------------------------------------------
//  #patterns  test      #faults  #faults    # eff.    # test         process 
//  simulated  coverage  in list  detected   patterns  patterns       CPU time
//   64         16.03%    21819      4165       64         0          0.14 sec
//   128        18.18%    21260       559       63         0          0.21 sec
//   192        18.87%    21082       178       49         0          0.27 sec
//   256        19.42%    20938       144       38         0          0.33 sec
//   320        19.81%    20836       102       35         0          0.39 sec
//   384        20.02%    20782        54       33         0          0.45 sec
//   448        20.20%    20735        47       23         0          0.51 sec
//   512        20.35%    20696        39       23         0          0.57 sec
//   576        20.54%    20648        48       24         0          0.63 sec
//   640        20.73%    20597        51       18         0          0.68 sec
//   664        20.75%    20593         4        3         0          0.74 sec
