// | ------------------------------------------------------------------------------------------------------------------ |
// |                                                                                                                    |
// |          Current split capture setting:     Off (optimal)                                                          |
// |                                                                                                                    |
// |   Current clock off simulation setting:     Off (optimal)                                                          |
// | ------------------------------------------------------------------------------------------------------------------ |
//  ------------------------------------------------------------------------
//  Simulation performed for #gates = 12864  #faults = 25984
//  Run fault simulation without storing patterns.  pattern source = 760 external patterns
//  ------------------------------------------------------------------------
//  #patterns  test      #faults  #faults    # eff.    # test         process 
//  simulated  coverage  in list  detected   patterns  patterns       CPU time
//   64         14.30%    22268      3716       64         0          0.12 sec
//   128        15.96%    21836       432       56         0          0.19 sec
//   192        16.77%    21626       210       51         0          0.26 sec
//   256        17.26%    21498       128       42         0          0.32 sec
//   320        17.62%    21406        92       26         0          0.39 sec
//   384        17.83%    21351        55       24         0          0.45 sec
//   448        18.04%    21297        54       25         0          0.51 sec
//   512        18.17%    21263        34       17         0          0.57 sec
//   576        18.42%    21199        64       23         0          0.63 sec
//   640        18.56%    21161        38       16         0          0.69 sec
//   704        18.64%    21141        20       13         0          0.74 sec
//   760        18.67%    21132         9        8         0          0.80 sec
