// | ------------------------------------------------------------------------------------------------------------------ |
// |                                                                                                                    |
// |          Current split capture setting:     Off (optimal)                                                          |
// |                                                                                                                    |
// |   Current clock off simulation setting:     Off (optimal)                                                          |
// | ------------------------------------------------------------------------------------------------------------------ |
//  ------------------------------------------------------------------------
//  Simulation performed for #gates = 12864  #faults = 25984
//  Run fault simulation without storing patterns.  pattern source = 995 external patterns
//  ------------------------------------------------------------------------
//  #patterns  test      #faults  #faults    # eff.    # test         process 
//  simulated  coverage  in list  detected   patterns  patterns       CPU time
//   64         15.34%    21999      3985       64         0          0.13 sec
//   128        17.24%    21505       494       59         0          0.19 sec
//   192        17.98%    21312       193       45         0          0.25 sec
//   256        18.47%    21185       127       33         0          0.31 sec
//   320        18.89%    21075       110       31         0          0.37 sec
//   384        19.11%    21018        57       29         0          0.43 sec
//   448        19.35%    20957        61       27         0          0.48 sec
//   512        19.57%    20898        59       28         0          0.54 sec
//   576        19.75%    20851        47       22         0          0.59 sec
//   640        19.90%    20814        37       16         0          0.65 sec
//   704        20.07%    20770        44       19         0          0.70 sec
//   768        20.14%    20751        19       11         0          0.76 sec
//   832        20.21%    20733        18        9         0          0.81 sec
//   896        20.29%    20712        21       12         0          0.86 sec
//   960        20.35%    20696        16        8         0          0.92 sec
//   995        20.38%    20689         7        6         0          0.97 sec
