// | ------------------------------------------------------------------------------------------------------------------ |
// |                                                                                                                    |
// |          Current split capture setting:     Off (optimal)                                                          |
// |                                                                                                                    |
// |   Current clock off simulation setting:     Off (optimal)                                                          |
// | ------------------------------------------------------------------------------------------------------------------ |
//  ------------------------------------------------------------------------
//  Simulation performed for #gates = 12864  #faults = 25984
//  Run fault simulation without storing patterns.  pattern source = 825 external patterns
//  ------------------------------------------------------------------------
//  #patterns  test      #faults  #faults    # eff.    # test         process 
//  simulated  coverage  in list  detected   patterns  patterns       CPU time
//   64         13.77%    22406      3578       64         0          0.12 sec
//   128        15.21%    22031       375       53         0          0.18 sec
//   192        15.88%    21857       174       43         0          0.24 sec
//   256        16.52%    21692       165       42         0          0.30 sec
//   320        16.91%    21590       102       32         0          0.36 sec
//   384        17.22%    21510        80       29         0          0.42 sec
//   448        17.45%    21449        61       24         0          0.47 sec
//   512        17.59%    21413        36       16         0          0.53 sec
//   576        17.74%    21375        38       14         0          0.58 sec
//   640        17.86%    21344        31       16         0          0.64 sec
//   704        17.99%    21309        35       19         0          0.70 sec
//   768        18.08%    21286        23       10         0          0.75 sec
//   825        18.14%    21271        15        9         0          0.80 sec
