// | ------------------------------------------------------------------------------------------------------------------ |
// |                                                                                                                    |
// |          Current split capture setting:     Off (optimal)                                                          |
// |                                                                                                                    |
// |   Current clock off simulation setting:     Off (optimal)                                                          |
// | ------------------------------------------------------------------------------------------------------------------ |
//  ------------------------------------------------------------------------
//  Simulation performed for #gates = 12864  #faults = 25984
//  Run fault simulation without storing patterns.  pattern source = 747 external patterns
//  ------------------------------------------------------------------------
//  #patterns  test      #faults  #faults    # eff.    # test         process 
//  simulated  coverage  in list  detected   patterns  patterns       CPU time
//   64         15.34%    21999      3985       64         0          0.14 sec
//   128        17.08%    21546       453       59         0          0.21 sec
//   192        18.13%    21274       272       53         0          0.28 sec
//   256        18.72%    21121       153       45         0          0.34 sec
//   320        19.04%    21036        85       31         0          0.40 sec
//   384        19.45%    20929       107       35         0          0.46 sec
//   448        19.69%    20868        61       27         0          0.51 sec
//   512        19.94%    20803        65       26         0          0.57 sec
//   576        20.04%    20776        27       17         0          0.62 sec
//   640        20.12%    20755        21       12         0          0.68 sec
//   704        20.22%    20731        24       12         0          0.73 sec
//   747        20.25%    20723         8        5         0          0.79 sec
