// | ------------------------------------------------------------------------------------------------------------------ |
// |                                                                                                                    |
// |          Current split capture setting:     Off (optimal)                                                          |
// |                                                                                                                    |
// |   Current clock off simulation setting:     Off (optimal)                                                          |
// | ------------------------------------------------------------------------------------------------------------------ |
//  ------------------------------------------------------------------------
//  Simulation performed for #gates = 12864  #faults = 25984
//  Run fault simulation without storing patterns.  pattern source = 836 external patterns
//  ------------------------------------------------------------------------
//  #patterns  test      #faults  #faults    # eff.    # test         process 
//  simulated  coverage  in list  detected   patterns  patterns       CPU time
//   64         15.09%    22062      3922       64         0          0.13 sec
//   128        17.29%    21492       570       59         0          0.20 sec
//   192        18.18%    21259       233       58         0          0.26 sec
//   256        18.83%    21092       167       44         0          0.32 sec
//   320        19.14%    21011        81       38         0          0.37 sec
//   384        19.42%    20939        72       30         0          0.43 sec
//   448        19.74%    20854        85       33         0          0.48 sec
//   512        19.89%    20817        37       20         0          0.54 sec
//   576        20.06%    20772        45       20         0          0.59 sec
//   640        20.14%    20750        22       15         0          0.65 sec
//   704        20.25%    20722        28       18         0          0.70 sec
//   768        20.32%    20705        17        7         0          0.75 sec
//   832        20.38%    20689        16        9         0          0.81 sec
