// | ------------------------------------------------------------------------------------------------------------------ |
// |                                                                                                                    |
// |          Current split capture setting:     Off (optimal)                                                          |
// |                                                                                                                    |
// |   Current clock off simulation setting:     Off (optimal)                                                          |
// | ------------------------------------------------------------------------------------------------------------------ |
//  ------------------------------------------------------------------------
//  Simulation performed for #gates = 12864  #faults = 25984
//  Run fault simulation without storing patterns.  pattern source = 783 external patterns
//  ------------------------------------------------------------------------
//  #patterns  test      #faults  #faults    # eff.    # test         process 
//  simulated  coverage  in list  detected   patterns  patterns       CPU time
//   64         14.39%    22246      3738       63         0          0.12 sec
//   128        15.99%    21830       416       56         0          0.19 sec
//   192        16.71%    21641       189       45         0          0.25 sec
//   256        17.19%    21518       123       42         0          0.31 sec
//   320        17.59%    21413       105       40         0          0.37 sec
//   384        17.99%    21310       103       31         0          0.43 sec
//   448        18.17%    21264        46       20         0          0.49 sec
//   512        18.32%    21225        39       19         0          0.54 sec
//   576        18.51%    21175        50       23         0          0.60 sec
//   640        18.68%    21130        45       21         0          0.66 sec
//   704        18.81%    21096        34       20         0          0.71 sec
//   768        18.90%    21072        24       12         0          0.77 sec
//   783        18.93%    21064         8        4         0          0.82 sec
