// | ------------------------------------------------------------------------------------------------------------------ |
// |                                                                                                                    |
// |          Current split capture setting:     Off (optimal)                                                          |
// |                                                                                                                    |
// |   Current clock off simulation setting:     Off (optimal)                                                          |
// | ------------------------------------------------------------------------------------------------------------------ |
//  ------------------------------------------------------------------------
//  Simulation performed for #gates = 12864  #faults = 25984
//  Run fault simulation without storing patterns.  pattern source = 657 external patterns
//  ------------------------------------------------------------------------
//  #patterns  test      #faults  #faults    # eff.    # test         process 
//  simulated  coverage  in list  detected   patterns  patterns       CPU time
//   64         14.65%    22177      3807       64         0          0.12 sec
//   128        16.39%    21725       452       61         0          0.19 sec
//   192        17.16%    21524       201       47         0          0.25 sec
//   256        17.62%    21405       119       40         0          0.31 sec
//   320        17.95%    21319        86       33         0          0.37 sec
//   384        18.31%    21226        93       35         0          0.43 sec
//   448        18.47%    21186        40       19         0          0.48 sec
//   512        18.60%    21152        34       15         0          0.54 sec
//   576        18.74%    21114        38       21         0          0.59 sec
//   640        18.80%    21100        14       10         0          0.65 sec
//   657        18.80%    21099         1        1         0          0.70 sec
