// | ------------------------------------------------------------------------------------------------------------------ |
// |                                                                                                                    |
// |          Current split capture setting:     Off (optimal)                                                          |
// |                                                                                                                    |
// |   Current clock off simulation setting:     Off (optimal)                                                          |
// | ------------------------------------------------------------------------------------------------------------------ |
//  ------------------------------------------------------------------------
//  Simulation performed for #gates = 12864  #faults = 25984
//  Run fault simulation without storing patterns.  pattern source = 610 external patterns
//  ------------------------------------------------------------------------
//  #patterns  test      #faults  #faults    # eff.    # test         process 
//  simulated  coverage  in list  detected   patterns  patterns       CPU time
//   64         14.07%    22328      3656       64         0          0.12 sec
//   128        15.65%    21918       410       56         0          0.19 sec
//   192        16.83%    21610       308       51         0          0.25 sec
//   256        17.46%    21447       163       41         0          0.31 sec
//   320        17.84%    21348        99       36         0          0.37 sec
//   384        18.14%    21271        77       34         0          0.43 sec
//   448        18.48%    21183        88       32         0          0.49 sec
//   512        18.67%    21133        50       21         0          0.54 sec
//   576        18.88%    21077        56       23         0          0.60 sec
//   610        18.98%    21053        24       16         0          0.66 sec
