// | ------------------------------------------------------------------------------------------------------------------ |
// |                                                                                                                    |
// |          Current split capture setting:     Off (optimal)                                                          |
// |                                                                                                                    |
// |   Current clock off simulation setting:     Off (optimal)                                                          |
// | ------------------------------------------------------------------------------------------------------------------ |
//  ------------------------------------------------------------------------
//  Simulation performed for #gates = 12864  #faults = 25984
//  Run fault simulation without storing patterns.  pattern source = 825 external patterns
//  ------------------------------------------------------------------------
//  #patterns  test      #faults  #faults    # eff.    # test         process 
//  simulated  coverage  in list  detected   patterns  patterns       CPU time
//   64         15.06%    22070      3914       64         0          0.13 sec
//   128        17.13%    21532       538       63         0          0.20 sec
//   192        18.10%    21282       250       52         0          0.26 sec
//   256        18.72%    21120       162       46         0          0.32 sec
//   320        19.17%    21002       118       43         0          0.38 sec
//   384        19.35%    20956        46       27         0          0.44 sec
//   448        19.59%    20894        62       26         0          0.49 sec
//   512        19.77%    20846        48       24         0          0.55 sec
//   576        20.08%    20767        79       31         0          0.60 sec
//   640        20.22%    20731        36       22         0          0.66 sec
//   704        20.35%    20697        34       18         0          0.71 sec
//   768        20.47%    20664        33       20         0          0.77 sec
//   825        20.57%    20640        24       12         0          0.82 sec
