// | ------------------------------------------------------------------------------------------------------------------ |
// |                                                                                                                    |
// |          Current split capture setting:     Off (optimal)                                                          |
// |                                                                                                                    |
// |   Current clock off simulation setting:     Off (optimal)                                                          |
// | ------------------------------------------------------------------------------------------------------------------ |
//  ------------------------------------------------------------------------
//  Simulation performed for #gates = 12864  #faults = 25984
//  Run fault simulation without storing patterns.  pattern source = 596 external patterns
//  ------------------------------------------------------------------------
//  #patterns  test      #faults  #faults    # eff.    # test         process 
//  simulated  coverage  in list  detected   patterns  patterns       CPU time
//   64         15.06%    22072      3912       64         0          0.12 sec
//   128        16.67%    21652       420       59         0          0.19 sec
//   192        17.57%    21418       234       47         0          0.25 sec
//   256        18.08%    21287       131       41         0          0.30 sec
//   320        18.43%    21196        91       36         0          0.36 sec
//   384        18.64%    21140        56       24         0          0.42 sec
//   448        18.82%    21093        47       28         0          0.47 sec
//   512        19.00%    21047        46       25         0          0.53 sec
//   576        19.15%    21009        38       19         0          0.58 sec
//   596        19.18%    21001         8        5         0          0.63 sec
