// | ------------------------------------------------------------------------------------------------------------------ |
// |                                                                                                                    |
// |          Current split capture setting:     Off (optimal)                                                          |
// |                                                                                                                    |
// |   Current clock off simulation setting:     Off (optimal)                                                          |
// | ------------------------------------------------------------------------------------------------------------------ |
//  ------------------------------------------------------------------------
//  Simulation performed for #gates = 12864  #faults = 25984
//  Run fault simulation without storing patterns.  pattern source = 1508 external patterns
//  ------------------------------------------------------------------------
//  #patterns  test      #faults  #faults    # eff.    # test         process 
//  simulated  coverage  in list  detected   patterns  patterns       CPU time
//   64         15.05%    22073      3911       64         0          0.13 sec
//   128        17.18%    21519       554       58         0          0.19 sec
//   192        18.06%    21292       227       49         0          0.25 sec
//   256        18.76%    21110       182       43         0          0.31 sec
//   320        19.24%    20984       126       40         0          0.37 sec
//   384        19.58%    20896        88       35         0          0.43 sec
//   448        19.81%    20837        59       27         0          0.48 sec
//   512        20.04%    20776        61       26         0          0.54 sec
//   576        20.20%    20736        40       21         0          0.59 sec
//   640        20.35%    20695        41       17         0          0.65 sec
//   704        20.51%    20655        40       20         0          0.70 sec
//   768        20.65%    20618        37       14         0          0.76 sec
//   832        20.72%    20599        19       11         0          0.81 sec
//   896        20.77%    20588        11        8         0          0.87 sec
//   960        20.86%    20563        25       12         0          0.92 sec
//   1024       20.94%    20544        19       10         0          0.98 sec
//   1088       21.02%    20522        22       13         0          1.03 sec
//   1152       21.10%    20502        20       11         0          1.08 sec
//   1216       21.14%    20491        11        9         0          1.14 sec
//   1280       21.19%    20478        13        7         0          1.19 sec
//   1344       21.24%    20466        12        7         0          1.24 sec
//   1408       21.29%    20452        14        7         0          1.29 sec
//   1472       21.34%    20438        14        7         0          1.35 sec
//   1508       21.35%    20436         2        2         0          1.40 sec
