// | ------------------------------------------------------------------------------------------------------------------ |
// |                                                                                                                    |
// |          Current split capture setting:     Off (optimal)                                                          |
// |                                                                                                                    |
// |   Current clock off simulation setting:     Off (optimal)                                                          |
// | ------------------------------------------------------------------------------------------------------------------ |
//  ------------------------------------------------------------------------
//  Simulation performed for #gates = 12864  #faults = 25984
//  Run fault simulation without storing patterns.  pattern source = 783 external patterns
//  ------------------------------------------------------------------------
//  #patterns  test      #faults  #faults    # eff.    # test         process 
//  simulated  coverage  in list  detected   patterns  patterns       CPU time
//   64         14.49%    22219      3765       64         0          0.13 sec
//   128        16.16%    21784       435       60         0          0.20 sec
//   192        17.16%    21524       260       51         0          0.26 sec
//   256        17.86%    21344       180       48         0          0.32 sec
//   320        18.21%    21252        92       35         0          0.38 sec
//   384        18.65%    21139       113       37         0          0.44 sec
//   448        19.00%    21048        91       38         0          0.50 sec
//   512        19.25%    20982        66       18         0          0.56 sec
//   576        19.48%    20923        59       30         0          0.62 sec
//   640        19.61%    20889        34       16         0          0.67 sec
//   704        19.72%    20861        28       12         0          0.73 sec
//   768        19.83%    20832        29       14         0          0.78 sec
//   783        19.83%    20831         1        1         0          0.83 sec
