// | ------------------------------------------------------------------------------------------------------------------ |
// |                                                                                                                    |
// |          Current split capture setting:     Off (optimal)                                                          |
// |                                                                                                                    |
// |   Current clock off simulation setting:     Off (optimal)                                                          |
// | ------------------------------------------------------------------------------------------------------------------ |
//  ------------------------------------------------------------------------
//  Simulation performed for #gates = 12864  #faults = 25984
//  Run fault simulation without storing patterns.  pattern source = 629 external patterns
//  ------------------------------------------------------------------------
//  #patterns  test      #faults  #faults    # eff.    # test         process 
//  simulated  coverage  in list  detected   patterns  patterns       CPU time
//   64         13.75%    22410      3574       62         0          0.12 sec
//   128        15.63%    21922       488       59         0          0.19 sec
//   192        16.42%    21718       204       47         0          0.26 sec
//   256        17.12%    21536       182       49         0          0.32 sec
//   320        17.53%    21429       107       31         0          0.38 sec
//   384        17.81%    21357        72       28         0          0.43 sec
//   448        18.11%    21277        80       32         0          0.49 sec
//   512        18.40%    21202        75       29         0          0.55 sec
//   576        18.56%    21162        40       18         0          0.61 sec
//   629        18.65%    21138        24       12         0          0.66 sec
