// | ------------------------------------------------------------------------------------------------------------------ |
// |                                                                                                                    |
// |          Current split capture setting:     Off (optimal)                                                          |
// |                                                                                                                    |
// |   Current clock off simulation setting:     Off (optimal)                                                          |
// | ------------------------------------------------------------------------------------------------------------------ |
//  ------------------------------------------------------------------------
//  Simulation performed for #gates = 12864  #faults = 25984
//  Run fault simulation without storing patterns.  pattern source = 641 external patterns
//  ------------------------------------------------------------------------
//  #patterns  test      #faults  #faults    # eff.    # test         process 
//  simulated  coverage  in list  detected   patterns  patterns       CPU time
//   64         15.13%    22053      3931       64         0          0.13 sec
//   128        17.23%    21506       547       62         0          0.20 sec
//   192        18.24%    21244       262       55         0          0.26 sec
//   256        18.72%    21121       123       44         0          0.32 sec
//   320        19.15%    21008       113       38         0          0.38 sec
//   384        19.39%    20945        63       30         0          0.43 sec
//   448        19.54%    20906        39       19         0          0.49 sec
//   512        19.79%    20843        63       26         0          0.55 sec
//   576        19.98%    20793        50       20         0          0.60 sec
//   640        20.15%    20749        44       21         0          0.66 sec
//   641        20.15%    20747         2        1         0          0.70 sec
