// | ------------------------------------------------------------------------------------------------------------------ |
// |                                                                                                                    |
// |          Current split capture setting:     Off (optimal)                                                          |
// |                                                                                                                    |
// |   Current clock off simulation setting:     Off (optimal)                                                          |
// | ------------------------------------------------------------------------------------------------------------------ |
//  ------------------------------------------------------------------------
//  Simulation performed for #gates = 12864  #faults = 25984
//  Run fault simulation without storing patterns.  pattern source = 641 external patterns
//  ------------------------------------------------------------------------
//  #patterns  test      #faults  #faults    # eff.    # test         process 
//  simulated  coverage  in list  detected   patterns  patterns       CPU time
//   64         15.22%    22028      3956       64         0          0.13 sec
//   128        16.98%    21571       457       56         0          0.19 sec
//   192        18.00%    21307       264       53         0          0.25 sec
//   256        18.53%    21168       139       45         0          0.31 sec
//   320        18.92%    21067       101       35         0          0.37 sec
//   384        19.12%    21016        51       21         0          0.43 sec
//   448        19.43%    20935        81       31         0          0.48 sec
//   512        19.66%    20876        59       27         0          0.54 sec
//   576        19.82%    20834        42       20         0          0.60 sec
//   640        19.92%    20807        27       14         0          0.65 sec
