// | ------------------------------------------------------------------------------------------------------------------ |
// |                                                                                                                    |
// |          Current split capture setting:     Off (optimal)                                                          |
// |                                                                                                                    |
// |   Current clock off simulation setting:     Off (optimal)                                                          |
// | ------------------------------------------------------------------------------------------------------------------ |
//  ------------------------------------------------------------------------
//  Simulation performed for #gates = 12864  #faults = 25984
//  Run fault simulation without storing patterns.  pattern source = 596 external patterns
//  ------------------------------------------------------------------------
//  #patterns  test      #faults  #faults    # eff.    # test         process 
//  simulated  coverage  in list  detected   patterns  patterns       CPU time
//   64         13.67%    22433      3551       64         0          0.12 sec
//   128        15.62%    21924       509       59         0          0.19 sec
//   192        16.56%    21682       242       53         0          0.25 sec
//   256        17.16%    21526       156       46         0          0.31 sec
//   320        17.51%    21433        93       39         0          0.36 sec
//   384        17.81%    21357        76       30         0          0.42 sec
//   448        18.06%    21291        66       22         0          0.48 sec
//   512        18.32%    21225        66       29         0          0.54 sec
//   576        18.57%    21159        66       30         0          0.59 sec
//   596        18.62%    21147        12        2         0          0.64 sec
