// | ------------------------------------------------------------------------------------------------------------------ |
// |                                                                                                                    |
// |          Current split capture setting:     Off (optimal)                                                          |
// |                                                                                                                    |
// |   Current clock off simulation setting:     Off (optimal)                                                          |
// | ------------------------------------------------------------------------------------------------------------------ |
//  ------------------------------------------------------------------------
//  Simulation performed for #gates = 12864  #faults = 25984
//  Run fault simulation without storing patterns.  pattern source = 1013 external patterns
//  ------------------------------------------------------------------------
//  #patterns  test      #faults  #faults    # eff.    # test         process 
//  simulated  coverage  in list  detected   patterns  patterns       CPU time
//   64         13.59%    22453      3531       63         0          0.12 sec
//   128        14.95%    22099       354       57         0          0.18 sec
//   192        15.55%    21944       155       41         0          0.24 sec
//   256        16.04%    21817       127       39         0          0.30 sec
//   320        16.50%    21696       121       34         0          0.36 sec
//   384        16.73%    21637        59       24         0          0.42 sec
//   448        17.03%    21559        78       30         0          0.48 sec
//   512        17.28%    21493        66       22         0          0.54 sec
//   576        17.47%    21445        48       17         0          0.59 sec
//   640        17.68%    21389        56       24         0          0.65 sec
//   704        17.88%    21338        51       23         0          0.71 sec
//   768        18.13%    21272        66       27         0          0.76 sec
//   832        18.32%    21225        47       21         0          0.82 sec
//   896        18.40%    21203        22       11         0          0.87 sec
//   960        18.51%    21174        29       16         0          0.93 sec
//   1013       18.53%    21170         4        3         0          0.98 sec
