// | ------------------------------------------------------------------------------------------------------------------ |
// |                                                                                                                    |
// |          Current split capture setting:     Off (optimal)                                                          |
// |                                                                                                                    |
// |   Current clock off simulation setting:     Off (optimal)                                                          |
// | ------------------------------------------------------------------------------------------------------------------ |
//  ------------------------------------------------------------------------
//  Simulation performed for #gates = 12864  #faults = 25984
//  Run fault simulation without storing patterns.  pattern source = 641 external patterns
//  ------------------------------------------------------------------------
//  #patterns  test      #faults  #faults    # eff.    # test         process 
//  simulated  coverage  in list  detected   patterns  patterns       CPU time
//   64         13.94%    22361      3623       64         0          0.12 sec
//   128        15.92%    21848       513       60         0          0.19 sec
//   192        16.89%    21596       252       54         0          0.26 sec
//   256        17.45%    21451       145       43         0          0.32 sec
//   320        17.82%    21354        97       35         0          0.38 sec
//   384        18.15%    21268        86       32         0          0.44 sec
//   448        18.38%    21209        59       28         0          0.49 sec
//   512        18.57%    21159        50       24         0          0.55 sec
//   576        18.70%    21126        33       18         0          0.61 sec
//   640        18.82%    21093        33       16         0          0.66 sec
