// | ------------------------------------------------------------------------------------------------------------------ |
// |                                                                                                                    |
// |          Current split capture setting:     Off (optimal)                                                          |
// |                                                                                                                    |
// |   Current clock off simulation setting:     Off (optimal)                                                          |
// | ------------------------------------------------------------------------------------------------------------------ |
//  ------------------------------------------------------------------------
//  Simulation performed for #gates = 12864  #faults = 25984
//  Run fault simulation without storing patterns.  pattern source = 613 external patterns
//  ------------------------------------------------------------------------
//  #patterns  test      #faults  #faults    # eff.    # test         process 
//  simulated  coverage  in list  detected   patterns  patterns       CPU time
//   64         14.53%    22208      3776       62         0          0.12 sec
//   128        16.32%    21743       465       58         0          0.18 sec
//   192        17.15%    21528       215       49         0          0.24 sec
//   256        17.58%    21416       112       42         0          0.30 sec
//   320        17.94%    21322        94       36         0          0.36 sec
//   384        18.20%    21256        66       26         0          0.42 sec
//   448        18.44%    21193        63       26         0          0.47 sec
//   512        18.65%    21138        55       18         0          0.53 sec
//   576        18.83%    21091        47       20         0          0.58 sec
//   613        18.87%    21080        11        7         0          0.64 sec
