// | ------------------------------------------------------------------------------------------------------------------ |
// |                                                                                                                    |
// |          Current split capture setting:     Off (optimal)                                                          |
// |                                                                                                                    |
// |   Current clock off simulation setting:     Off (optimal)                                                          |
// | ------------------------------------------------------------------------------------------------------------------ |
//  ------------------------------------------------------------------------
//  Simulation performed for #gates = 12864  #faults = 25984
//  Run fault simulation without storing patterns.  pattern source = 920 external patterns
//  ------------------------------------------------------------------------
//  #patterns  test      #faults  #faults    # eff.    # test         process 
//  simulated  coverage  in list  detected   patterns  patterns       CPU time
//   64         14.00%    22347      3637       63         0          0.12 sec
//   128        15.69%    21908       439       57         0          0.19 sec
//   192        16.53%    21690       218       50         0          0.25 sec
//   256        17.11%    21537       153       40         0          0.31 sec
//   320        17.55%    21425       112       37         0          0.36 sec
//   384        17.98%    21313       112       38         0          0.42 sec
//   448        18.31%    21227        86       29         0          0.48 sec
//   512        18.56%    21161        66       30         0          0.53 sec
//   576        18.80%    21099        62       23         0          0.59 sec
//   640        18.97%    21054        45       17         0          0.65 sec
//   704        19.12%    21017        37       18         0          0.70 sec
//   768        19.18%    21000        17       13         0          0.76 sec
//   832        19.27%    20977        23       12         0          0.82 sec
//   896        19.35%    20957        20       11         0          0.87 sec
//   920        19.35%    20956         1        1         0          0.92 sec
