// | ------------------------------------------------------------------------------------------------------------------ |
// |                                                                                                                    |
// |          Current split capture setting:     Off (optimal)                                                          |
// |                                                                                                                    |
// |   Current clock off simulation setting:     Off (optimal)                                                          |
// | ------------------------------------------------------------------------------------------------------------------ |
//  ------------------------------------------------------------------------
//  Simulation performed for #gates = 12864  #faults = 25984
//  Run fault simulation without storing patterns.  pattern source = 848 external patterns
//  ------------------------------------------------------------------------
//  #patterns  test      #faults  #faults    # eff.    # test         process 
//  simulated  coverage  in list  detected   patterns  patterns       CPU time
//   64         14.41%    22241      3743       64         0          0.12 sec
//   128        16.27%    21757       484       59         0          0.19 sec
//   192        16.94%    21582       175       44         0          0.25 sec
//   256        17.41%    21461       121       42         0          0.31 sec
//   320        17.73%    21377        84       37         0          0.37 sec
//   384        18.02%    21301        76       34         0          0.43 sec
//   448        18.32%    21225        76       29         0          0.48 sec
//   512        18.38%    21207        18       13         0          0.54 sec
//   576        18.63%    21144        63       26         0          0.59 sec
//   640        18.78%    21105        39       15         0          0.65 sec
//   704        18.88%    21078        27       14         0          0.70 sec
//   768        18.96%    21058        20       12         0          0.76 sec
//   832        19.03%    21040        18       10         0          0.81 sec
//   848        19.03%    21038         2        2         0          0.87 sec
