// | ------------------------------------------------------------------------------------------------------------------ |
// |                                                                                                                    |
// |          Current split capture setting:     Off (optimal)                                                          |
// |                                                                                                                    |
// |   Current clock off simulation setting:     Off (optimal)                                                          |
// | ------------------------------------------------------------------------------------------------------------------ |
//  ------------------------------------------------------------------------
//  Simulation performed for #gates = 12864  #faults = 25984
//  Run fault simulation without storing patterns.  pattern source = 757 external patterns
//  ------------------------------------------------------------------------
//  #patterns  test      #faults  #faults    # eff.    # test         process 
//  simulated  coverage  in list  detected   patterns  patterns       CPU time
//   64         15.79%    21881      4103       64         0          0.14 sec
//   128        17.63%    21403       478       60         0          0.20 sec
//   192        18.37%    21211       192       52         0          0.27 sec
//   256        18.85%    21085       126       36         0          0.33 sec
//   320        19.16%    21005        80       32         0          0.39 sec
//   384        19.40%    20944        61       29         0          0.44 sec
//   448        19.60%    20890        54       24         0          0.50 sec
//   512        19.81%    20836        54       25         0          0.56 sec
//   576        19.90%    20812        24       15         0          0.62 sec
//   640        20.02%    20781        31       14         0          0.67 sec
//   704        20.09%    20764        17        9         0          0.73 sec
//   757        20.13%    20753        11        7         0          0.79 sec
