// | ------------------------------------------------------------------------------------------------------------------ |
// |                                                                                                                    |
// |          Current split capture setting:     Off (optimal)                                                          |
// |                                                                                                                    |
// |   Current clock off simulation setting:     Off (optimal)                                                          |
// | ------------------------------------------------------------------------------------------------------------------ |
//  ------------------------------------------------------------------------
//  Simulation performed for #gates = 12864  #faults = 25984
//  Run fault simulation without storing patterns.  pattern source = 865 external patterns
//  ------------------------------------------------------------------------
//  #patterns  test      #faults  #faults    # eff.    # test         process 
//  simulated  coverage  in list  detected   patterns  patterns       CPU time
//   64         15.29%    22010      3974       64         0          0.14 sec
//   128        17.16%    21526       484       59         0          0.20 sec
//   192        18.07%    21289       237       54         0          0.27 sec
//   256        18.60%    21152       137       42         0          0.33 sec
//   320        18.93%    21064        88       36         0          0.39 sec
//   384        19.23%    20986        78       30         0          0.45 sec
//   448        19.48%    20922        64       29         0          0.51 sec
//   512        19.60%    20892        30       15         0          0.57 sec
//   576        19.75%    20852        40       26         0          0.62 sec
//   640        19.88%    20819        33       15         0          0.68 sec
//   704        19.98%    20793        26       13         0          0.74 sec
//   768        20.08%    20767        26       15         0          0.80 sec
//   832        20.17%    20744        23       11         0          0.85 sec
//   865        20.18%    20740         4        3         0          0.91 sec
