// | ------------------------------------------------------------------------------------------------------------------ |
// |                                                                                                                    |
// |          Current split capture setting:     Off (optimal)                                                          |
// |                                                                                                                    |
// |   Current clock off simulation setting:     Off (optimal)                                                          |
// | ------------------------------------------------------------------------------------------------------------------ |
//  ------------------------------------------------------------------------
//  Simulation performed for #gates = 12864  #faults = 25984
//  Run fault simulation without storing patterns.  pattern source = 1019 external patterns
//  ------------------------------------------------------------------------
//  #patterns  test      #faults  #faults    # eff.    # test         process 
//  simulated  coverage  in list  detected   patterns  patterns       CPU time
//   64         12.09%    22843      3141       63         0          0.10 sec
//   128        13.59%    22454       389       52         0          0.17 sec
//   192        14.09%    22322       132       38         0          0.23 sec
//   256        14.70%    22164       158       37         0          0.29 sec
//   320        15.43%    21975       189       42         0          0.34 sec
//   384        15.82%    21874       101       32         0          0.40 sec
//   448        16.24%    21765       109       36         0          0.46 sec
//   512        16.48%    21703        62       22         0          0.51 sec
//   576        16.81%    21617        86       28         0          0.57 sec
//   640        17.09%    21543        74       26         0          0.63 sec
//   704        17.28%    21493        50       21         0          0.68 sec
//   768        17.49%    21439        54       23         0          0.73 sec
//   832        17.59%    21414        25       13         0          0.79 sec
//   896        17.66%    21394        20        9         0          0.84 sec
//   960        17.78%    21364        30       13         0          0.90 sec
//   1019       17.83%    21350        14        8         0          0.95 sec
