// | ------------------------------------------------------------------------------------------------------------------ |
// |                                                                                                                    |
// |          Current split capture setting:     Off (optimal)                                                          |
// |                                                                                                                    |
// |   Current clock off simulation setting:     Off (optimal)                                                          |
// | ------------------------------------------------------------------------------------------------------------------ |
//  ------------------------------------------------------------------------
//  Simulation performed for #gates = 12864  #faults = 25984
//  Run fault simulation without storing patterns.  pattern source = 607 external patterns
//  ------------------------------------------------------------------------
//  #patterns  test      #faults  #faults    # eff.    # test         process 
//  simulated  coverage  in list  detected   patterns  patterns       CPU time
//   64         15.28%    22014      3970       64         0          0.13 sec
//   128        16.88%    21598       416       59         0          0.20 sec
//   192        17.64%    21401       197       43         0          0.26 sec
//   256        18.14%    21271       130       40         0          0.32 sec
//   320        18.53%    21170       101       37         0          0.38 sec
//   384        18.73%    21116        54       27         0          0.44 sec
//   448        18.97%    21056        60       23         0          0.50 sec
//   512        19.17%    21004        52       23         0          0.55 sec
//   576        19.28%    20973        31       13         0          0.61 sec
//   607        19.37%    20952        21        9         0          0.66 sec
