// | ------------------------------------------------------------------------------------------------------------------ |
// |                                                                                                                    |
// |          Current split capture setting:     Off (optimal)                                                          |
// |                                                                                                                    |
// |   Current clock off simulation setting:     Off (optimal)                                                          |
// | ------------------------------------------------------------------------------------------------------------------ |
//  ------------------------------------------------------------------------
//  Simulation performed for #gates = 12864  #faults = 25984
//  Run fault simulation without storing patterns.  pattern source = 820 external patterns
//  ------------------------------------------------------------------------
//  #patterns  test      #faults  #faults    # eff.    # test         process 
//  simulated  coverage  in list  detected   patterns  patterns       CPU time
//   64         14.12%    22316      3668       64         0          0.12 sec
//   128        15.78%    21884       432       56         0          0.18 sec
//   192        16.66%    21655       229       48         0          0.24 sec
//   256        17.16%    21524       131       45         0          0.30 sec
//   320        17.57%    21419       105       33         0          0.36 sec
//   384        17.85%    21346        73       34         0          0.42 sec
//   448        18.15%    21267        79       23         0          0.47 sec
//   512        18.40%    21203        64       24         0          0.53 sec
//   576        18.62%    21147        56       25         0          0.59 sec
//   640        18.73%    21117        30       17         0          0.64 sec
//   704        18.88%    21079        38       18         0          0.70 sec
//   768        18.98%    21052        27       14         0          0.75 sec
//   820        19.04%    21037        15       11         0          0.80 sec
