// | ------------------------------------------------------------------------------------------------------------------ |
// |                                                                                                                    |
// |          Current split capture setting:     Off (optimal)                                                          |
// |                                                                                                                    |
// |   Current clock off simulation setting:     Off (optimal)                                                          |
// | ------------------------------------------------------------------------------------------------------------------ |
//  ------------------------------------------------------------------------
//  Simulation performed for #gates = 12864  #faults = 25984
//  Run fault simulation without storing patterns.  pattern source = 662 external patterns
//  ------------------------------------------------------------------------
//  #patterns  test      #faults  #faults    # eff.    # test         process 
//  simulated  coverage  in list  detected   patterns  patterns       CPU time
//   64         14.72%    22159      3825       63         0          0.13 sec
//   128        16.38%    21729       430       59         0          0.20 sec
//   192        17.56%    21422       307       54         0          0.26 sec
//   256        18.05%    21295       127       42         0          0.32 sec
//   320        18.52%    21171       124       41         0          0.38 sec
//   384        18.92%    21069       102       34         0          0.44 sec
//   448        19.20%    20994        75       32         0          0.50 sec
//   512        19.47%    20925        69       28         0          0.55 sec
//   576        19.64%    20880        45       22         0          0.61 sec
//   640        19.85%    20827        53       23         0          0.67 sec
//   662        19.85%    20825         2        2         0          0.72 sec
