// | ------------------------------------------------------------------------------------------------------------------ |
// |                                                                                                                    |
// |          Current split capture setting:     Off (optimal)                                                          |
// |                                                                                                                    |
// |   Current clock off simulation setting:     Off (optimal)                                                          |
// | ------------------------------------------------------------------------------------------------------------------ |
//  ------------------------------------------------------------------------
//  Simulation performed for #gates = 12864  #faults = 25984
//  Run fault simulation without storing patterns.  pattern source = 706 external patterns
//  ------------------------------------------------------------------------
//  #patterns  test      #faults  #faults    # eff.    # test         process 
//  simulated  coverage  in list  detected   patterns  patterns       CPU time
//   64         15.11%    22058      3926       64         0          0.13 sec
//   128        17.13%    21532       526       59         0          0.20 sec
//   192        18.00%    21306       226       52         0          0.26 sec
//   256        18.56%    21162       144       42         0          0.32 sec
//   320        18.92%    21068        94       39         0          0.38 sec
//   384        19.12%    21016        52       25         0          0.44 sec
//   448        19.28%    20975        41       21         0          0.49 sec
//   512        19.53%    20910        65       26         0          0.55 sec
//   576        19.76%    20849        61       22         0          0.61 sec
//   640        19.89%    20816        33       18         0          0.66 sec
//   704        19.99%    20791        25       13         0          0.71 sec
