// | ------------------------------------------------------------------------------------------------------------------ |
// |                                                                                                                    |
// |          Current split capture setting:     Off (optimal)                                                          |
// |                                                                                                                    |
// |   Current clock off simulation setting:     Off (optimal)                                                          |
// | ------------------------------------------------------------------------------------------------------------------ |
//  ------------------------------------------------------------------------
//  Simulation performed for #gates = 12864  #faults = 25984
//  Run fault simulation without storing patterns.  pattern source = 613 external patterns
//  ------------------------------------------------------------------------
//  #patterns  test      #faults  #faults    # eff.    # test         process 
//  simulated  coverage  in list  detected   patterns  patterns       CPU time
//   64         15.00%    22086      3898       64         0          0.12 sec
//   128        16.96%    21578       508       59         0          0.19 sec
//   192        17.76%    21368       210       51         0          0.25 sec
//   256        18.34%    21219       149       45         0          0.31 sec
//   320        18.68%    21131        88       35         0          0.37 sec
//   384        18.88%    21077        54       28         0          0.42 sec
//   448        19.07%    21029        48       24         0          0.48 sec
//   512        19.22%    20990        39       20         0          0.53 sec
//   576        19.30%    20969        21       11         0          0.59 sec
//   613        19.38%    20949        20       10         0          0.65 sec
