// | ------------------------------------------------------------------------------------------------------------------ |
// |                                                                                                                    |
// |          Current split capture setting:     Off (optimal)                                                          |
// |                                                                                                                    |
// |   Current clock off simulation setting:     Off (optimal)                                                          |
// | ------------------------------------------------------------------------------------------------------------------ |
//  ------------------------------------------------------------------------
//  Simulation performed for #gates = 12864  #faults = 25984
//  Run fault simulation without storing patterns.  pattern source = 929 external patterns
//  ------------------------------------------------------------------------
//  #patterns  test      #faults  #faults    # eff.    # test         process 
//  simulated  coverage  in list  detected   patterns  patterns       CPU time
//   64         15.56%    21942      4042       64         0          0.13 sec
//   128        17.38%    21467       475       61         0          0.19 sec
//   192        18.21%    21252       215       50         0          0.25 sec
//   256        18.60%    21152       100       38         0          0.31 sec
//   320        18.95%    21060        92       32         0          0.37 sec
//   384        19.19%    20998        62       27         0          0.43 sec
//   448        19.34%    20958        40       22         0          0.48 sec
//   512        19.52%    20913        45       19         0          0.54 sec
//   576        19.68%    20870        43       23         0          0.59 sec
//   640        19.82%    20834        36       20         0          0.65 sec
//   704        19.99%    20790        44       20         0          0.70 sec
//   768        20.12%    20757        33       20         0          0.76 sec
//   832        20.24%    20726        31       11         0          0.81 sec
//   896        20.31%    20707        19       11         0          0.87 sec
//   929        20.34%    20699         8        5         0          0.92 sec
