// | ------------------------------------------------------------------------------------------------------------------ |
// |                                                                                                                    |
// |          Current split capture setting:     Off (optimal)                                                          |
// |                                                                                                                    |
// |   Current clock off simulation setting:     Off (optimal)                                                          |
// | ------------------------------------------------------------------------------------------------------------------ |
//  ------------------------------------------------------------------------
//  Simulation performed for #gates = 12864  #faults = 25984
//  Run fault simulation without storing patterns.  pattern source = 931 external patterns
//  ------------------------------------------------------------------------
//  #patterns  test      #faults  #faults    # eff.    # test         process 
//  simulated  coverage  in list  detected   patterns  patterns       CPU time
//   64         13.40%    22503      3481       63         0          0.12 sec
//   128        15.09%    22063       440       56         0          0.19 sec
//   192        16.13%    21793       270       49         0          0.25 sec
//   256        16.68%    21650       143       40         0          0.31 sec
//   320        17.11%    21538       112       31         0          0.37 sec
//   384        17.41%    21459        79       29         0          0.43 sec
//   448        17.71%    21381        78       31         0          0.49 sec
//   512        18.02%    21301        80       27         0          0.55 sec
//   576        18.25%    21242        59       24         0          0.61 sec
//   640        18.37%    21210        32       12         0          0.67 sec
//   704        18.51%    21174        36       20         0          0.73 sec
//   768        18.63%    21142        32       17         0          0.78 sec
//   832        18.68%    21130        12        8         0          0.84 sec
//   896        18.80%    21099        31       13         0          0.90 sec
