// | ------------------------------------------------------------------------------------------------------------------ |
// |                                                                                                                    |
// |          Current split capture setting:     Off (optimal)                                                          |
// |                                                                                                                    |
// |   Current clock off simulation setting:     Off (optimal)                                                          |
// | ------------------------------------------------------------------------------------------------------------------ |
//  ------------------------------------------------------------------------
//  Simulation performed for #gates = 12864  #faults = 25984
//  Run fault simulation without storing patterns.  pattern source = 909 external patterns
//  ------------------------------------------------------------------------
//  #patterns  test      #faults  #faults    # eff.    # test         process 
//  simulated  coverage  in list  detected   patterns  patterns       CPU time
//   64         13.15%    22566      3418       64         0          0.12 sec
//   128        14.75%    22151       415       48         0          0.18 sec
//   192        15.73%    21897       254       46         0          0.25 sec
//   256        16.21%    21773       124       34         0          0.31 sec
//   320        16.65%    21657       116       37         0          0.37 sec
//   384        16.91%    21590        67       28         0          0.43 sec
//   448        17.23%    21507        83       34         0          0.48 sec
//   512        17.47%    21445        62       14         0          0.54 sec
//   576        17.76%    21370        75       25         0          0.60 sec
//   640        17.91%    21330        40       19         0          0.65 sec
//   704        18.03%    21300        30       17         0          0.71 sec
//   768        18.16%    21265        35       17         0          0.76 sec
//   832        18.24%    21245        20       10         0          0.82 sec
//   896        18.37%    21210        35       15         0          0.87 sec
//   909        18.43%    21195        15        3         0          0.92 sec
