// | ------------------------------------------------------------------------------------------------------------------ |
// |                                                                                                                    |
// |          Current split capture setting:     Off (optimal)                                                          |
// |                                                                                                                    |
// |   Current clock off simulation setting:     Off (optimal)                                                          |
// | ------------------------------------------------------------------------------------------------------------------ |
//  ------------------------------------------------------------------------
//  Simulation performed for #gates = 12864  #faults = 25984
//  Run fault simulation without storing patterns.  pattern source = 727 external patterns
//  ------------------------------------------------------------------------
//  #patterns  test      #faults  #faults    # eff.    # test         process 
//  simulated  coverage  in list  detected   patterns  patterns       CPU time
//   64         15.15%    22048      3936       64         0          0.13 sec
//   128        16.89%    21596       452       64         0          0.20 sec
//   192        17.76%    21370       226       50         0          0.26 sec
//   256        18.27%    21237       133       42         0          0.32 sec
//   320        18.64%    21141        96       32         0          0.38 sec
//   384        18.97%    21056        85       37         0          0.44 sec
//   448        19.17%    21004        52       20         0          0.50 sec
//   512        19.37%    20952        52       27         0          0.55 sec
//   576        19.58%    20897        55       24         0          0.61 sec
//   640        19.69%    20868        29       14         0          0.67 sec
//   704        19.85%    20826        42       20         0          0.73 sec
//   727        19.90%    20812        14        9         0          0.78 sec
