// | ------------------------------------------------------------------------------------------------------------------ |
// |                                                                                                                    |
// |          Current split capture setting:     Off (optimal)                                                          |
// |                                                                                                                    |
// |   Current clock off simulation setting:     Off (optimal)                                                          |
// | ------------------------------------------------------------------------------------------------------------------ |
//  ------------------------------------------------------------------------
//  Simulation performed for #gates = 12864  #faults = 25984
//  Run fault simulation without storing patterns.  pattern source = 703 external patterns
//  ------------------------------------------------------------------------
//  #patterns  test      #faults  #faults    # eff.    # test         process 
//  simulated  coverage  in list  detected   patterns  patterns       CPU time
//   64         13.80%    22399      3585       64         0          0.12 sec
//   128        15.61%    21928       471       58         0          0.19 sec
//   192        16.64%    21661       267       48         0          0.25 sec
//   256        17.21%    21512       149       33         0          0.31 sec
//   320        17.53%    21428        84       33         0          0.37 sec
//   384        17.97%    21315       113       36         0          0.43 sec
//   448        18.31%    21226        89       27         0          0.48 sec
//   512        18.54%    21167        59       25         0          0.54 sec
//   576        18.67%    21132        35       19         0          0.60 sec
//   640        18.80%    21100        32       15         0          0.65 sec
//   703        18.92%    21069        31       17         0          0.71 sec
