// | ------------------------------------------------------------------------------------------------------------------ |
// |                                                                                                                    |
// |          Current split capture setting:     Off (optimal)                                                          |
// |                                                                                                                    |
// |   Current clock off simulation setting:     Off (optimal)                                                          |
// | ------------------------------------------------------------------------------------------------------------------ |
//  ------------------------------------------------------------------------
//  Simulation performed for #gates = 12864  #faults = 25984
//  Run fault simulation without storing patterns.  pattern source = 865 external patterns
//  ------------------------------------------------------------------------
//  #patterns  test      #faults  #faults    # eff.    # test         process 
//  simulated  coverage  in list  detected   patterns  patterns       CPU time
//   64         15.14%    22049      3935       64         0          0.13 sec
//   128        16.71%    21643       406       60         0          0.20 sec
//   192        17.50%    21437       206       52         0          0.26 sec
//   256        17.95%    21320       117       39         0          0.32 sec
//   320        18.49%    21180       140       39         0          0.38 sec
//   384        18.79%    21102        78       32         0          0.43 sec
//   448        19.04%    21036        66       29         0          0.49 sec
//   512        19.24%    20985        51       22         0          0.55 sec
//   576        19.39%    20947        38       23         0          0.60 sec
//   640        19.54%    20906        41       20         0          0.66 sec
//   704        19.72%    20861        45       17         0          0.72 sec
//   768        19.82%    20833        28       16         0          0.77 sec
//   832        19.87%    20821        12       10         0          0.83 sec
//   865        19.88%    20818         3        3         0          0.88 sec
