// | ------------------------------------------------------------------------------------------------------------------ |
// |                                                                                                                    |
// |          Current split capture setting:     Off (optimal)                                                          |
// |                                                                                                                    |
// |   Current clock off simulation setting:     Off (optimal)                                                          |
// | ------------------------------------------------------------------------------------------------------------------ |
//  ------------------------------------------------------------------------
//  Simulation performed for #gates = 12864  #faults = 25984
//  Run fault simulation without storing patterns.  pattern source = 664 external patterns
//  ------------------------------------------------------------------------
//  #patterns  test      #faults  #faults    # eff.    # test         process 
//  simulated  coverage  in list  detected   patterns  patterns       CPU time
//   64         11.71%    22942      3042       59         0          0.10 sec
//   128        13.03%    22598       344       47         0          0.17 sec
//   192        13.76%    22408       190       38         0          0.23 sec
//   256        14.24%    22283       125       36         0          0.29 sec
//   320        14.91%    22111       172       38         0          0.35 sec
//   384        15.55%    21944       167       38         0          0.41 sec
//   448        15.89%    21855        89       21         0          0.46 sec
//   512        16.09%    21803        52       21         0          0.52 sec
//   576        16.35%    21735        68       27         0          0.57 sec
//   640        16.54%    21687        48       15         0          0.63 sec
//   664        16.56%    21680         7        5         0          0.68 sec
