// | ------------------------------------------------------------------------------------------------------------------ |
// |                                                                                                                    |
// |          Current split capture setting:     Off (optimal)                                                          |
// |                                                                                                                    |
// |   Current clock off simulation setting:     Off (optimal)                                                          |
// | ------------------------------------------------------------------------------------------------------------------ |
//  ------------------------------------------------------------------------
//  Simulation performed for #gates = 12864  #faults = 25984
//  Run fault simulation without storing patterns.  pattern source = 809 external patterns
//  ------------------------------------------------------------------------
//  #patterns  test      #faults  #faults    # eff.    # test         process 
//  simulated  coverage  in list  detected   patterns  patterns       CPU time
//   64         12.72%    22679      3305       63         0          0.11 sec
//   128        14.03%    22338       341       56         0          0.17 sec
//   192        14.71%    22161       177       40         0          0.23 sec
//   256        15.35%    21995       166       38         0          0.29 sec
//   320        15.84%    21869       126       36         0          0.35 sec
//   384        16.20%    21775        94       28         0          0.41 sec
//   448        16.41%    21719        56       22         0          0.47 sec
//   512        16.64%    21659        60       25         0          0.53 sec
//   576        16.97%    21574        85       25         0          0.58 sec
//   640        17.20%    21515        59       22         0          0.64 sec
//   704        17.36%    21472        43       19         0          0.70 sec
//   768        17.53%    21430        42       17         0          0.75 sec
//   809        17.61%    21409        21       13         0          0.81 sec
