// | ------------------------------------------------------------------------------------------------------------------ |
// |                                                                                                                    |
// |          Current split capture setting:     Off (optimal)                                                          |
// |                                                                                                                    |
// |   Current clock off simulation setting:     Off (optimal)                                                          |
// | ------------------------------------------------------------------------------------------------------------------ |
//  ------------------------------------------------------------------------
//  Simulation performed for #gates = 12864  #faults = 25984
//  Run fault simulation without storing patterns.  pattern source = 895 external patterns
//  ------------------------------------------------------------------------
//  #patterns  test      #faults  #faults    # eff.    # test         process 
//  simulated  coverage  in list  detected   patterns  patterns       CPU time
//   64         15.23%    22027      3957       64         0          0.13 sec
//   128        16.76%    21628       399       55         0          0.20 sec
//   192        17.58%    21416       212       52         0          0.26 sec
//   256        18.12%    21275       141       42         0          0.32 sec
//   320        18.49%    21179        96       33         0          0.39 sec
//   384        18.74%    21115        64       29         0          0.44 sec
//   448        19.00%    21046        69       30         0          0.50 sec
//   512        19.20%    20994        52       25         0          0.56 sec
//   576        19.29%    20971        23       15         0          0.61 sec
//   640        19.45%    20929        42       26         0          0.67 sec
//   704        19.57%    20899        30       14         0          0.73 sec
//   768        19.63%    20884        15        9         0          0.78 sec
//   832        19.69%    20867        17        9         0          0.84 sec
//   895        19.75%    20853        14        9         0          0.89 sec
