// | ------------------------------------------------------------------------------------------------------------------ |
// |                                                                                                                    |
// |          Current split capture setting:     Off (optimal)                                                          |
// |                                                                                                                    |
// |   Current clock off simulation setting:     Off (optimal)                                                          |
// | ------------------------------------------------------------------------------------------------------------------ |
//  ------------------------------------------------------------------------
//  Simulation performed for #gates = 12864  #faults = 25984
//  Run fault simulation without storing patterns.  pattern source = 929 external patterns
//  ------------------------------------------------------------------------
//  #patterns  test      #faults  #faults    # eff.    # test         process 
//  simulated  coverage  in list  detected   patterns  patterns       CPU time
//   64         13.61%    22448      3536       64         0          0.11 sec
//   128        15.45%    21970       478       57         0          0.18 sec
//   192        16.23%    21767       203       47         0          0.24 sec
//   256        16.73%    21636       131       45         0          0.30 sec
//   320        17.06%    21550        86       32         0          0.36 sec
//   384        17.40%    21464        86       32         0          0.42 sec
//   448        17.69%    21388        76       28         0          0.47 sec
//   512        17.83%    21352        36       17         0          0.53 sec
//   576        18.00%    21307        45       17         0          0.58 sec
//   640        18.16%    21265        42       21         0          0.64 sec
//   704        18.30%    21230        35       18         0          0.69 sec
//   768        18.41%    21201        29       11         0          0.75 sec
//   832        18.55%    21165        36       16         0          0.80 sec
//   896        18.63%    21142        23       15         0          0.86 sec
//   929        18.65%    21138         4        4         0          0.91 sec
