// | ------------------------------------------------------------------------------------------------------------------ |
// |                                                                                                                    |
// |          Current split capture setting:     Off (optimal)                                                          |
// |                                                                                                                    |
// |   Current clock off simulation setting:     Off (optimal)                                                          |
// | ------------------------------------------------------------------------------------------------------------------ |
//  ------------------------------------------------------------------------
//  Simulation performed for #gates = 12864  #faults = 25984
//  Run fault simulation without storing patterns.  pattern source = 629 external patterns
//  ------------------------------------------------------------------------
//  #patterns  test      #faults  #faults    # eff.    # test         process 
//  simulated  coverage  in list  detected   patterns  patterns       CPU time
//   64         14.50%    22216      3768       64         0          0.12 sec
//   128        16.17%    21783       433       59         0          0.18 sec
//   192        16.95%    21580       203       46         0          0.25 sec
//   256        17.57%    21419       161       51         0          0.30 sec
//   320        17.86%    21342        77       26         0          0.36 sec
//   384        18.17%    21263        79       32         0          0.42 sec
//   448        18.38%    21208        55       32         0          0.47 sec
//   512        18.61%    21148        60       24         0          0.53 sec
//   576        18.75%    21112        36       18         0          0.59 sec
//   629        18.91%    21070        42       16         0          0.64 sec
