// | ------------------------------------------------------------------------------------------------------------------ |
// |                                                                                                                    |
// |          Current split capture setting:     Off (optimal)                                                          |
// |                                                                                                                    |
// |   Current clock off simulation setting:     Off (optimal)                                                          |
// | ------------------------------------------------------------------------------------------------------------------ |
//  ------------------------------------------------------------------------
//  Simulation performed for #gates = 12864  #faults = 25984
//  Run fault simulation without storing patterns.  pattern source = 596 external patterns
//  ------------------------------------------------------------------------
//  #patterns  test      #faults  #faults    # eff.    # test         process 
//  simulated  coverage  in list  detected   patterns  patterns       CPU time
//   64         12.45%    22748      3236       63         0          0.11 sec
//   128        14.12%    22314       434       56         0          0.17 sec
//   192        14.99%    22088       226       49         0          0.24 sec
//   256        15.61%    21929       159       43         0          0.30 sec
//   320        15.99%    21830        99       28         0          0.36 sec
//   384        16.36%    21734        96       30         0          0.42 sec
//   448        16.59%    21674        60       22         0          0.47 sec
//   512        16.86%    21604        70       27         0          0.53 sec
//   576        17.14%    21531        73       28         0          0.59 sec
//   596        17.18%    21521        10        5         0          0.64 sec
