// | ------------------------------------------------------------------------------------------------------------------ |
// |                                                                                                                    |
// |          Current split capture setting:     Off (optimal)                                                          |
// |                                                                                                                    |
// |   Current clock off simulation setting:     Off (optimal)                                                          |
// | ------------------------------------------------------------------------------------------------------------------ |
//  ------------------------------------------------------------------------
//  Simulation performed for #gates = 12864  #faults = 25984
//  Run fault simulation without storing patterns.  pattern source = 819 external patterns
//  ------------------------------------------------------------------------
//  #patterns  test      #faults  #faults    # eff.    # test         process 
//  simulated  coverage  in list  detected   patterns  patterns       CPU time
//   64         14.72%    22158      3826       63         0          0.12 sec
//   128        16.59%    21674       484       59         0          0.19 sec
//   192        17.59%    21413       261       50         0          0.25 sec
//   256        18.01%    21304       109       42         0          0.30 sec
//   320        18.39%    21205        99       40         0          0.36 sec
//   384        18.63%    21142        63       30         0          0.42 sec
//   448        18.93%    21066        76       32         0          0.48 sec
//   512        19.12%    21015        51       25         0          0.53 sec
//   576        19.27%    20976        39       18         0          0.58 sec
//   640        19.32%    20965        11        9         0          0.64 sec
//   704        19.44%    20934        31       17         0          0.70 sec
//   768        19.47%    20926         8        4         0          0.75 sec
//   819        19.52%    20913        13        7         0          0.80 sec
