// | ------------------------------------------------------------------------------------------------------------------ |
// |                                                                                                                    |
// |          Current split capture setting:     Off (optimal)                                                          |
// |                                                                                                                    |
// |   Current clock off simulation setting:     Off (optimal)                                                          |
// | ------------------------------------------------------------------------------------------------------------------ |
//  ------------------------------------------------------------------------
//  Simulation performed for #gates = 12864  #faults = 25984
//  Run fault simulation without storing patterns.  pattern source = 809 external patterns
//  ------------------------------------------------------------------------
//  #patterns  test      #faults  #faults    # eff.    # test         process 
//  simulated  coverage  in list  detected   patterns  patterns       CPU time
//   64         15.63%    21923      4061       64         0          0.15 sec
//   128        17.51%    21434       489       61         0          0.22 sec
//   192        18.18%    21259       175       46         0          0.28 sec
//   256        18.56%    21161        98       40         0          0.35 sec
//   320        18.95%    21060       101       35         0          0.41 sec
//   384        19.18%    21000        60       29         0          0.47 sec
//   448        19.35%    20957        43       22         0          0.53 sec
//   512        19.48%    20922        35       21         0          0.59 sec
//   576        19.58%    20896        26       17         0          0.65 sec
//   640        19.75%    20851        45       21         0          0.71 sec
//   704        19.84%    20829        22       11         0          0.77 sec
//   768        19.90%    20812        17       12         0          0.82 sec
//   809        19.92%    20808         4        3         0          0.88 sec
