// | ------------------------------------------------------------------------------------------------------------------ |
// |                                                                                                                    |
// |          Current split capture setting:     Off (optimal)                                                          |
// |                                                                                                                    |
// |   Current clock off simulation setting:     Off (optimal)                                                          |
// | ------------------------------------------------------------------------------------------------------------------ |
//  ------------------------------------------------------------------------
//  Simulation performed for #gates = 12864  #faults = 25984
//  Run fault simulation without storing patterns.  pattern source = 627 external patterns
//  ------------------------------------------------------------------------
//  #patterns  test      #faults  #faults    # eff.    # test         process 
//  simulated  coverage  in list  detected   patterns  patterns       CPU time
//   64         14.61%    22188      3796       64         0          0.12 sec
//   128        16.32%    21743       445       59         0          0.19 sec
//   192        17.02%    21562       181       47         0          0.25 sec
//   256        17.59%    21414       148       39         0          0.31 sec
//   320        18.08%    21287       127       37         0          0.37 sec
//   384        18.27%    21237        50       23         0          0.43 sec
//   448        18.45%    21189        48       24         0          0.49 sec
//   512        18.69%    21127        62       31         0          0.54 sec
//   576        18.95%    21059        68       26         0          0.60 sec
//   627        19.08%    21026        33       16         0          0.65 sec
