// | ------------------------------------------------------------------------------------------------------------------ |
// |                                                                                                                    |
// |          Current split capture setting:     Off (optimal)                                                          |
// |                                                                                                                    |
// |   Current clock off simulation setting:     Off (optimal)                                                          |
// | ------------------------------------------------------------------------------------------------------------------ |
//  ------------------------------------------------------------------------
//  Simulation performed for #gates = 12864  #faults = 25984
//  Run fault simulation without storing patterns.  pattern source = 922 external patterns
//  ------------------------------------------------------------------------
//  #patterns  test      #faults  #faults    # eff.    # test         process 
//  simulated  coverage  in list  detected   patterns  patterns       CPU time
//   64         15.62%    21925      4059       64         0          0.14 sec
//   128        17.53%    21428       497       59         0          0.21 sec
//   192        18.42%    21199       229       52         0          0.28 sec
//   256        18.92%    21069       130       45         0          0.34 sec
//   320        19.29%    20971        98       33         0          0.40 sec
//   384        19.55%    20904        67       29         0          0.45 sec
//   448        19.72%    20861        43       20         0          0.51 sec
//   512        19.94%    20802        59       23         0          0.57 sec
//   576        20.04%    20777        25       15         0          0.62 sec
//   640        20.15%    20749        28       14         0          0.68 sec
//   704        20.29%    20712        37       21         0          0.73 sec
//   768        20.36%    20694        18       11         0          0.79 sec
//   832        20.43%    20675        19        8         0          0.84 sec
//   896        20.48%    20663        12        7         0          0.90 sec
//   922        20.50%    20658         5        3         0          0.95 sec
