// | ------------------------------------------------------------------------------------------------------------------ |
// |                                                                                                                    |
// |          Current split capture setting:     Off (optimal)                                                          |
// |                                                                                                                    |
// |   Current clock off simulation setting:     Off (optimal)                                                          |
// | ------------------------------------------------------------------------------------------------------------------ |
//  ------------------------------------------------------------------------
//  Simulation performed for #gates = 12864  #faults = 25984
//  Run fault simulation without storing patterns.  pattern source = 920 external patterns
//  ------------------------------------------------------------------------
//  #patterns  test      #faults  #faults    # eff.    # test         process 
//  simulated  coverage  in list  detected   patterns  patterns       CPU time
//   64         14.66%    22176      3808       63         0          0.12 sec
//   128        16.05%    21813       363       57         0          0.19 sec
//   192        17.06%    21550       263       53         0          0.25 sec
//   256        17.62%    21406       144       41         0          0.31 sec
//   320        18.06%    21291       115       41         0          0.37 sec
//   384        18.37%    21211        80       34         0          0.43 sec
//   448        18.68%    21131        80       33         0          0.48 sec
//   512        18.92%    21069        62       30         0          0.54 sec
//   576        19.14%    21011        58       23         0          0.60 sec
//   640        19.25%    20983        28       18         0          0.65 sec
//   704        19.43%    20936        47       19         0          0.71 sec
//   768        19.58%    20897        39       23         0          0.76 sec
//   832        19.64%    20880        17       10         0          0.82 sec
//   896        19.71%    20862        18       12         0          0.87 sec
//   920        19.74%    20856         6        3         0          0.92 sec
