// | ------------------------------------------------------------------------------------------------------------------ |
// |                                                                                                                    |
// |          Current split capture setting:     Off (optimal)                                                          |
// |                                                                                                                    |
// |   Current clock off simulation setting:     Off (optimal)                                                          |
// | ------------------------------------------------------------------------------------------------------------------ |
//  ------------------------------------------------------------------------
//  Simulation performed for #gates = 12864  #faults = 25984
//  Run fault simulation without storing patterns.  pattern source = 607 external patterns
//  ------------------------------------------------------------------------
//  #patterns  test      #faults  #faults    # eff.    # test         process 
//  simulated  coverage  in list  detected   patterns  patterns       CPU time
//   64         14.81%    22135      3849       64         0          0.13 sec
//   128        16.69%    21647       488       61         0          0.20 sec
//   192        17.67%    21392       255       55         0          0.26 sec
//   256        18.30%    21229       163       44         0          0.32 sec
//   320        18.74%    21114       115       41         0          0.38 sec
//   384        19.10%    21020        94       32         0          0.44 sec
//   448        19.38%    20949        71       25         0          0.49 sec
//   512        19.54%    20907        42       26         0          0.55 sec
//   576        19.71%    20862        45       21         0          0.61 sec
//   607        19.79%    20842        20        7         0          0.66 sec
