// | ------------------------------------------------------------------------------------------------------------------ |
// |                                                                                                                    |
// |          Current split capture setting:     Off (optimal)                                                          |
// |                                                                                                                    |
// |   Current clock off simulation setting:     Off (optimal)                                                          |
// | ------------------------------------------------------------------------------------------------------------------ |
//  ------------------------------------------------------------------------
//  Simulation performed for #gates = 12864  #faults = 25984
//  Run fault simulation without storing patterns.  pattern source = 662 external patterns
//  ------------------------------------------------------------------------
//  #patterns  test      #faults  #faults    # eff.    # test         process 
//  simulated  coverage  in list  detected   patterns  patterns       CPU time
//   64         13.99%    22348      3636       64         0          0.12 sec
//   128        15.55%    21944       404       55         0          0.19 sec
//   192        16.55%    21684       260       51         0          0.26 sec
//   256        17.17%    21522       162       46         0          0.32 sec
//   320        17.66%    21396       126       39         0          0.38 sec
//   384        17.94%    21323        73       29         0          0.44 sec
//   448        18.17%    21264        59       25         0          0.50 sec
//   512        18.32%    21224        40       22         0          0.55 sec
//   576        18.52%    21173        51       21         0          0.61 sec
//   640        18.62%    21146        27       14         0          0.67 sec
//   662        18.67%    21134        12        5         0          0.72 sec
