// | ------------------------------------------------------------------------------------------------------------------ |
// |                                                                                                                    |
// |          Current split capture setting:     Off (optimal)                                                          |
// |                                                                                                                    |
// |   Current clock off simulation setting:     Off (optimal)                                                          |
// | ------------------------------------------------------------------------------------------------------------------ |
//  ------------------------------------------------------------------------
//  Simulation performed for #gates = 12864  #faults = 25984
//  Run fault simulation without storing patterns.  pattern source = 614 external patterns
//  ------------------------------------------------------------------------
//  #patterns  test      #faults  #faults    # eff.    # test         process 
//  simulated  coverage  in list  detected   patterns  patterns       CPU time
//   64         14.35%    22254      3730       64         0          0.12 sec
//   128        16.04%    21817       437       58         0          0.19 sec
//   192        16.86%    21602       215       51         0          0.25 sec
//   256        17.41%    21459       143       41         0          0.31 sec
//   320        17.83%    21351       108       40         0          0.37 sec
//   384        18.17%    21264        87       37         0          0.42 sec
//   448        18.43%    21195        69       30         0          0.48 sec
//   512        18.65%    21139        56       20         0          0.54 sec
//   576        18.80%    21100        39       18         0          0.59 sec
//   614        18.86%    21083        17       10         0          0.64 sec
