// | ------------------------------------------------------------------------------------------------------------------ |
// |                                                                                                                    |
// |          Current split capture setting:     Off (optimal)                                                          |
// |                                                                                                                    |
// |   Current clock off simulation setting:     Off (optimal)                                                          |
// | ------------------------------------------------------------------------------------------------------------------ |
//  ------------------------------------------------------------------------
//  Simulation performed for #gates = 12864  #faults = 25984
//  Run fault simulation without storing patterns.  pattern source = 804 external patterns
//  ------------------------------------------------------------------------
//  #patterns  test      #faults  #faults    # eff.    # test         process 
//  simulated  coverage  in list  detected   patterns  patterns       CPU time
//   64         15.43%    21975      4009       64         0          0.13 sec
//   128        17.40%    21463       512       60         0          0.20 sec
//   192        18.44%    21193       270       52         0          0.26 sec
//   256        19.04%    21037       156       44         0          0.32 sec
//   320        19.39%    20947        90       30         0          0.38 sec
//   384        19.61%    20888        59       28         0          0.43 sec
//   448        19.82%    20834        54       27         0          0.49 sec
//   512        20.04%    20778        56       25         0          0.54 sec
//   576        20.20%    20736        42       24         0          0.60 sec
//   640        20.32%    20705        31       20         0          0.65 sec
//   704        20.42%    20677        28       14         0          0.71 sec
//   768        20.50%    20657        20       14         0          0.76 sec
//   804        20.53%    20650         7        5         0          0.82 sec
