// | ------------------------------------------------------------------------------------------------------------------ |
// |                                                                                                                    |
// |          Current split capture setting:     Off (optimal)                                                          |
// |                                                                                                                    |
// |   Current clock off simulation setting:     Off (optimal)                                                          |
// | ------------------------------------------------------------------------------------------------------------------ |
//  ------------------------------------------------------------------------
//  Simulation performed for #gates = 12864  #faults = 25984
//  Run fault simulation without storing patterns.  pattern source = 1006 external patterns
//  ------------------------------------------------------------------------
//  #patterns  test      #faults  #faults    # eff.    # test         process 
//  simulated  coverage  in list  detected   patterns  patterns       CPU time
//   64         13.50%    22476      3508       64         0          0.11 sec
//   128        15.05%    22073       403       58         0          0.18 sec
//   192        16.00%    21827       246       45         0          0.24 sec
//   256        16.43%    21715       112       32         0          0.30 sec
//   320        16.92%    21587       128       36         0          0.36 sec
//   384        17.31%    21486       101       33         0          0.42 sec
//   448        17.63%    21404        82       30         0          0.47 sec
//   512        18.04%    21297       107       27         0          0.53 sec
//   576        18.17%    21262        35       20         0          0.59 sec
//   640        18.31%    21226        36       13         0          0.64 sec
//   704        18.47%    21184        42       23         0          0.70 sec
//   768        18.61%    21148        36       16         0          0.75 sec
//   832        18.78%    21104        44       23         0          0.81 sec
//   896        18.93%    21066        38       18         0          0.86 sec
//   960        19.03%    21039        27       15         0          0.91 sec
//   1006       19.09%    21024        15        7         0          0.97 sec
