// | ------------------------------------------------------------------------------------------------------------------ |
// |                                                                                                                    |
// |          Current split capture setting:     Off (optimal)                                                          |
// |                                                                                                                    |
// |   Current clock off simulation setting:     Off (optimal)                                                          |
// | ------------------------------------------------------------------------------------------------------------------ |
//  ------------------------------------------------------------------------
//  Simulation performed for #gates = 4839  #faults = 13457
//  Run fault simulation without storing patterns.  pattern source = 206 external patterns
//  ------------------------------------------------------------------------
//  #patterns  test      #faults  #faults    # eff.    # test         process 
//  simulated  coverage  in list  detected   patterns  patterns       CPU time
//   64         65.71%     4614      8843       64         0          0.45 sec
//   128        68.54%     4234       380       38         0          0.46 sec
//   192        69.13%     4154        80       25         0          0.47 sec
//   206        69.15%     4151         3        3         0          0.48 sec
