// | ------------------------------------------------------------------------------------------------------------------ |
// |                                                                                                                    |
// |          Current split capture setting:     Off (optimal)                                                          |
// |                                                                                                                    |
// |   Current clock off simulation setting:     Off (optimal)                                                          |
// | ------------------------------------------------------------------------------------------------------------------ |
//  ------------------------------------------------------------------------
//  Simulation performed for #gates = 4839  #faults = 13495
//  Run fault simulation without storing patterns.  pattern source = 221 external patterns
//  ------------------------------------------------------------------------
//  #patterns  test      #faults  #faults    # eff.    # test         process 
//  simulated  coverage  in list  detected   patterns  patterns       CPU time
//   64         62.19%     5102      8393       61         0          0.36 sec
//   128        64.68%     4766       336       45         0          0.38 sec
//   192        66.53%     4517       249       25         0          0.40 sec
//   221        66.91%     4466        51       11         0          0.41 sec
