// | ------------------------------------------------------------------------------------------------------------------ |
// |                                                                                                                    |
// |          Current split capture setting:     Off (optimal)                                                          |
// |                                                                                                                    |
// |   Current clock off simulation setting:     Off (optimal)                                                          |
// | ------------------------------------------------------------------------------------------------------------------ |
//  ------------------------------------------------------------------------
//  Simulation performed for #gates = 4839  #faults = 13633
//  Run fault simulation without storing patterns.  pattern source = 209 external patterns
//  ------------------------------------------------------------------------
//  #patterns  test      #faults  #faults    # eff.    # test         process 
//  simulated  coverage  in list  detected   patterns  patterns       CPU time
//   64         64.57%     4830      8803       64         0          0.47 sec
//   128        67.13%     4481       349       37         0          0.49 sec
//   192        69.19%     4201       280       27         0          0.51 sec
//   209        69.36%     4177        24        6         0          0.52 sec
