// | ------------------------------------------------------------------------------------------------------------------ |
// |                                                                                                                    |
// |          Current split capture setting:     Off (optimal)                                                          |
// |                                                                                                                    |
// |   Current clock off simulation setting:     Off (optimal)                                                          |
// | ------------------------------------------------------------------------------------------------------------------ |
//  ------------------------------------------------------------------------
//  Simulation performed for #gates = 4839  #faults = 13393
//  Run fault simulation without storing patterns.  pattern source = 195 external patterns
//  ------------------------------------------------------------------------
//  #patterns  test      #faults  #faults    # eff.    # test         process 
//  simulated  coverage  in list  detected   patterns  patterns       CPU time
//   64         62.73%     4991      8402       62         0          0.42 sec
//   128        65.90%     4567       424       47         0          0.45 sec
//   192        67.98%     4289       278       38         0          0.46 sec
//   195        67.99%     4287         2        2         0          0.47 sec
