// | ------------------------------------------------------------------------------------------------------------------ |
// |                                                                                                                    |
// |          Current split capture setting:     Off (optimal)                                                          |
// |                                                                                                                    |
// |   Current clock off simulation setting:     Off (optimal)                                                          |
// | ------------------------------------------------------------------------------------------------------------------ |
//  ------------------------------------------------------------------------
//  Simulation performed for #gates = 4839  #faults = 13572
//  Run fault simulation without storing patterns.  pattern source = 228 external patterns
//  ------------------------------------------------------------------------
//  #patterns  test      #faults  #faults    # eff.    # test         process 
//  simulated  coverage  in list  detected   patterns  patterns       CPU time
//   64         65.41%     4695      8877       62         0          0.45 sec
//   128        67.90%     4356       339       44         0          0.47 sec
//   192        69.05%     4201       155       33         0          0.49 sec
//   228        69.57%     4130        71       14         0          0.49 sec
