// | ------------------------------------------------------------------------------------------------------------------ |
// |                                                                                                                    |
// |          Current split capture setting:     Off (optimal)                                                          |
// |                                                                                                                    |
// |   Current clock off simulation setting:     Off (optimal)                                                          |
// | ------------------------------------------------------------------------------------------------------------------ |
//  ------------------------------------------------------------------------
//  Simulation performed for #gates = 6497  #faults = 10902
//  Run fault simulation without storing patterns.  pattern source = 195 external patterns
//  ------------------------------------------------------------------------
//  #patterns  test      #faults  #faults    # eff.    # test         process 
//  simulated  coverage  in list  detected   patterns  patterns       CPU time
//   64         43.34%     6177      4725       61         0          0.09 sec
//   128        47.61%     5712       465       42         0          0.12 sec
//   192        50.02%     5449       263       31         0          0.14 sec
//   195        50.28%     5421        28        2         0          0.15 sec
