// | ------------------------------------------------------------------------------------------------------------------ |
// |                                                                                                                    |
// |          Current split capture setting:     Off (optimal)                                                          |
// |                                                                                                                    |
// |   Current clock off simulation setting:     Off (optimal)                                                          |
// | ------------------------------------------------------------------------------------------------------------------ |
//  ------------------------------------------------------------------------
//  Simulation performed for #gates = 6497  #faults = 10034
//  Run fault simulation without storing patterns.  pattern source = 152 external patterns
//  ------------------------------------------------------------------------
//  #patterns  test      #faults  #faults    # eff.    # test         process 
//  simulated  coverage  in list  detected   patterns  patterns       CPU time
//   64         50.07%     5010      5024       63         0          0.08 sec
//   128        54.72%     4543       467       43         0          0.09 sec
//   152        56.43%     4372       171       15         0          0.10 sec
