// | ------------------------------------------------------------------------------------------------------------------ |
// |                                                                                                                    |
// |          Current split capture setting:     Off (optimal)                                                          |
// |                                                                                                                    |
// |   Current clock off simulation setting:     Off (optimal)                                                          |
// | ------------------------------------------------------------------------------------------------------------------ |
//  ------------------------------------------------------------------------
//  Simulation performed for #gates = 6497  #faults = 10034
//  Run fault simulation without storing patterns.  pattern source = 200 external patterns
//  ------------------------------------------------------------------------
//  #patterns  test      #faults  #faults    # eff.    # test         process 
//  simulated  coverage  in list  detected   patterns  patterns       CPU time
//   64         53.90%     4626      5408       58         0          0.09 sec
//   128        56.10%     4405       221       41         0          0.10 sec
//   192        57.93%     4221       184       32         0          0.11 sec
//   200        58.05%     4209        12        2         0          0.12 sec
