// | ------------------------------------------------------------------------------------------------------------------ |
// |                                                                                                                    |
// |          Current split capture setting:     Off (optimal)                                                          |
// |                                                                                                                    |
// |   Current clock off simulation setting:     Off (optimal)                                                          |
// | ------------------------------------------------------------------------------------------------------------------ |
//  ------------------------------------------------------------------------
//  Simulation performed for #gates = 6497  #faults = 12095
//  Run fault simulation without storing patterns.  pattern source = 151 external patterns
//  ------------------------------------------------------------------------
//  #patterns  test      #faults  #faults    # eff.    # test         process 
//  simulated  coverage  in list  detected   patterns  patterns       CPU time
//   64         40.61%     7183      4912       62         0          0.10 sec
//   128        44.62%     6698       485       49         0          0.13 sec
//   151        45.08%     6643        55       11         0          0.14 sec
