	*******************************************************
	*                                                     *
	*          Welcome to atalanta (version 2.0)          *
	*                                                     *
	*               Dong S. Ha (ha@vt.edu)                *
	*            Web: http://www.ee.vt.edu/ha             *
	*  Virginia Polytechnic Institute & State University  *
	*                                                     *
	*******************************************************

******   SUMMARY OF TEST PATTERN GENERATION RESULTS   ******
1. Circuit structure
   Name of the circuit                       : s1423
   Number of primary inputs                  : 91
   Number of primary outputs                 : 79
   Number of gates                           : 657
   Level of the circuit                      : 59

2. ATPG parameters
   Test pattern generation mode              : RPT + DTPG + TC
   Limit of random patterns (packets)        : 16
   Backtrack limit                           : 10
   Initial random number generator seed      : 1556031587
   Test pattern compaction mode              : REVERSE + SHUFFLE 
   Limit of suffling compaction              : 2
   Number of shuffles                        : 6

3. Test pattern generation results
   Number of test patterns before compaction : 80
   Number of test patterns after compaction  : 48
   Fault coverage                            : 69.043 %
   Number of collapsed faults                : 1515
   Number of identified redundant faults     : 444
   Number of aborted faults                  : 25
   Total number of backtrackings             : 769

4. Memory used                               : 15589 Kbytes

5. CPU time
   Initialization                            : 0.000 secs
   Fault simulation                          : 0.000 secs
   FAN                                       : 0.000 secs
   Total                                     : 0.000 secs
