	*******************************************************
	*                                                     *
	*            Welcome to HOPE (version 2.0)            *
	*                                                     *
	*               Dong S. Ha (ha@vt.edu)                *
	*            Web: http://www.ee.vt.edu/ha             *
	*  Virginia Polytechnic Institute & State University  *
	*                                                     *
	*******************************************************

******   SUMMARY OF SIMULATION RESULTS   ******
1. Circuit structure
   Name of circuit                           : s344
   Number of primary inputs                  : 24
   Number of primary outputs                 : 26
   Number of flip-flops                      : 0
   Number of gates                           : 169
   Level of the circuit                      : 20

2. Simulator input parameters
   Simulation mode                           : file (/home/animesh/currentResearch/ISI/atpg_structural/code/testData/atalanta/tests/iscas89/s344.test)

3. Simulation results
   Number of test patterns applied           : 21
   Fault coverage                            : 81.579 %
   Number of collapsed faults                : 342
   Number of detected faults                 : 279
   Number of undetected faults               : 63

4. Memory used                               : 21794 Kbytes

5. CPU time
   Initialization                            : 0.000 secs
   Fault simulation                          : 0.000 secs
   Total                                     : 0.000 secs
