          Statistics Report          
           Stuck-at Faults           
-------------------------------------
Fault Classes              #faults   
                           (coll.)   
---------------------  --------------
  FU (full)                 8388     
  -------------------  --------------
  DS (det_simulation)   2754 (32.83%)
  TI (tied)              143 ( 1.70%)
  BL (blocked)           786 ( 9.37%)
  RE (redundant)        4705 (56.09%)
-------------------------------------
Coverage                             
  -------------------                
  test_coverage              100.00% 
  fault_coverage              32.83% 
  atpg_effectiveness         100.00% 
-------------------------------------
#test_patterns                   118 
#simulated_patterns              155 
CPU_time (secs)                  4.8 
-------------------------------------

