	*******************************************************
	*                                                     *
	*            Welcome to HOPE (version 2.0)            *
	*                                                     *
	*               Dong S. Ha (ha@vt.edu)                *
	*            Web: http://www.ee.vt.edu/ha             *
	*  Virginia Polytechnic Institute & State University  *
	*                                                     *
	*******************************************************

******   SUMMARY OF SIMULATION RESULTS   ******
1. Circuit structure
   Name of circuit                           : combinational_logic_example_"c6288"
   Number of primary inputs                  : 32
   Number of primary outputs                 : 32
   Number of flip-flops                      : 0
   Number of gates                           : 2416
   Level of the circuit                      : 124

2. Simulator input parameters
   Simulation mode                           : file (/home/animesh/currentResearch/ISI/atpg_structural/code/testData/atalanta/tests/iscas85/c6288.test)

3. Simulation results
   Number of test patterns applied           : 32
   Fault coverage                            : 10.589 %
   Number of collapsed faults                : 7744
   Number of detected faults                 : 820
   Number of undetected faults               : 6924

4. Memory used                               : 28303 Kbytes

5. CPU time
   Initialization                            : 0.000 secs
   Fault simulation                          : 0.050 secs
   Total                                     : 0.050 secs
