	*******************************************************
	*                                                     *
	*            Welcome to HOPE (version 2.0)            *
	*                                                     *
	*               Dong S. Ha (ha@vt.edu)                *
	*            Web: http://www.ee.vt.edu/ha             *
	*  Virginia Polytechnic Institute & State University  *
	*                                                     *
	*******************************************************

******   SUMMARY OF SIMULATION RESULTS   ******
1. Circuit structure
   Name of circuit                           : combinational_logic_example_"c2670"
   Number of primary inputs                  : 233
   Number of primary outputs                 : 140
   Number of flip-flops                      : 0
   Number of gates                           : 1193
   Level of the circuit                      : 32

2. Simulator input parameters
   Simulation mode                           : file (/home/animesh/currentResearch/ISI/atpg_structural/code/testData/atalanta/tests/iscas85/c2670.test)

3. Simulation results
   Number of test patterns applied           : 108
   Fault coverage                            : 20.167 %
   Number of collapsed faults                : 2747
   Number of detected faults                 : 554
   Number of undetected faults               : 2193

4. Memory used                               : 16707 Kbytes

5. CPU time
   Initialization                            : 0.000 secs
   Fault simulation                          : 0.033 secs
   Total                                     : 0.033 secs
