           Statistics Report          
            Stuck-at Faults           
--------------------------------------
Fault Classes               #faults   
                            (coll.)   
----------------------  --------------
  FU (full)                  2648     
  --------------------  --------------
  UO (unobserved)          72 ( 2.72%)
  DS (det_simulation)    1039 (39.24%)
  TI (tied)               174 ( 6.57%)
  BL (blocked)            141 ( 5.32%)
  RE (redundant)         1198 (45.24%)
  AU (atpg_untestable)     24 ( 0.91%)
--------------------------------------
Fault Sub-classes                     
  --------------------                
  UC+UO                               
    AAB  (atpg_abort)      72 ( 2.72%)
--------------------------------------
Coverage                              
  --------------------                
  test_coverage                91.54% 
  fault_coverage               39.24% 
  atpg_effectiveness           97.28% 
--------------------------------------
#test_patterns                     91 
#simulated_patterns               129 
CPU_time (secs)                   8.8 
--------------------------------------

