// | ------------------------------------------------------------------------------------------------------------------ |
// |                                                                                                                    |
// |          Current split capture setting:     Off (optimal)                                                          |
// |                                                                                                                    |
// |   Current clock off simulation setting:     Off (optimal)                                                          |
// | ------------------------------------------------------------------------------------------------------------------ |
//  ------------------------------------------------------------------------
//  Simulation performed for #gates = 6497  #faults = 14313
//  Run fault simulation without storing patterns.  pattern source = 208 external patterns
//  ------------------------------------------------------------------------
//  #patterns  test      #faults  #faults    # eff.    # test         process 
//  simulated  coverage  in list  detected   patterns  patterns       CPU time
//   64         38.91%     8744      5569       61         0          0.10 sec
//   128        42.53%     8225       519       43         0          0.12 sec
//   192        45.57%     7791       434       39         0          0.15 sec
//   208        45.73%     7768        23        7         0          0.17 sec
