// | ------------------------------------------------------------------------------------------------------------------ |
// |                                                                                                                    |
// |          Current split capture setting:     Off (optimal)                                                          |
// |                                                                                                                    |
// |   Current clock off simulation setting:     Off (optimal)                                                          |
// | ------------------------------------------------------------------------------------------------------------------ |
//  ------------------------------------------------------------------------
//  Simulation performed for #gates = 6497  #faults = 13506
//  Run fault simulation without storing patterns.  pattern source = 236 external patterns
//  ------------------------------------------------------------------------
//  #patterns  test      #faults  #faults    # eff.    # test         process 
//  simulated  coverage  in list  detected   patterns  patterns       CPU time
//   64         36.78%     8539      4967       62         0          0.10 sec
//   128        40.73%     8005       534       40         0          0.13 sec
//   192        42.23%     7803       202       36         0          0.15 sec
//   236        42.61%     7751        52       16         0          0.17 sec
