	*******************************************************
	*                                                     *
	*          Welcome to atalanta (version 2.0)          *
	*                                                     *
	*               Dong S. Ha (ha@vt.edu)                *
	*            Web: http://www.ee.vt.edu/ha             *
	*  Virginia Polytechnic Institute & State University  *
	*                                                     *
	*******************************************************

******   SUMMARY OF TEST PATTERN GENERATION RESULTS   ******
1. Circuit structure
   Name of the circuit                       : s15850.1
   Number of primary inputs                  : 611
   Number of primary outputs                 : 684
   Number of gates                           : 9775
   Level of the circuit                      : 82

2. ATPG parameters
   Test pattern generation mode              : RPT + DTPG + TC
   Limit of random patterns (packets)        : 16
   Backtrack limit                           : 10
   Initial random number generator seed      : 1554982156
   Test pattern compaction mode              : REVERSE + SHUFFLE 
   Limit of suffling compaction              : 2
   Number of shuffles                        : 12

3. Test pattern generation results
   Number of test patterns before compaction : 359
   Number of test patterns after compaction  : 201
   Fault coverage                            : 62.644 %
   Number of collapsed faults                : 11725
   Number of identified redundant faults     : 4167
   Number of aborted faults                  : 213
   Total number of backtrackings             : 7222

4. Memory used                               : 44171 Kbytes

5. CPU time
   Initialization                            : 0.017 secs
   Fault simulation                          : 0.367 secs
   FAN                                       : 2.767 secs
   Total                                     : 3.150 secs
