          Statistics Report          
           Stuck-at Faults           
-------------------------------------
Fault Classes              #faults   
                           (coll.)   
---------------------  --------------
  FU (full)                 25984    
  -------------------  --------------
  DS (det_simulation)  10268 (39.52%)
  RE (redundant)       15716 (60.48%)
-------------------------------------
Coverage                             
  -------------------                
  test_coverage              100.00% 
  fault_coverage              39.52% 
  atpg_effectiveness         100.00% 
-------------------------------------
#test_patterns                  1321 
#simulated_patterns             1445 
CPU_time (secs)                  4.4 
-------------------------------------

