          Statistics Report          
           Stuck-at Faults           
-------------------------------------
Fault Classes              #faults   
                           (coll.)   
---------------------  --------------
  FU (full)                 25984    
  -------------------  --------------
  DS (det_simulation)   8973 (34.53%)
  RE (redundant)       17011 (65.47%)
-------------------------------------
Coverage                             
  -------------------                
  test_coverage              100.00% 
  fault_coverage              34.53% 
  atpg_effectiveness         100.00% 
-------------------------------------
#test_patterns                   857 
#simulated_patterns              991 
CPU_time (secs)                  4.1 
-------------------------------------

