	*******************************************************
	*                                                     *
	*          Welcome to atalanta (version 2.0)          *
	*                                                     *
	*               Dong S. Ha (ha@vt.edu)                *
	*            Web: http://www.ee.vt.edu/ha             *
	*  Virginia Polytechnic Institute & State University  *
	*                                                     *
	*******************************************************

******   SUMMARY OF TEST PATTERN GENERATION RESULTS   ******
1. Circuit structure
   Name of the circuit                       : s298
   Number of primary inputs                  : 17
   Number of primary outputs                 : 20
   Number of gates                           : 119
   Level of the circuit                      : 9

2. ATPG parameters
   Test pattern generation mode              : RPT + DTPG + TC
   Limit of random patterns (packets)        : 16
   Backtrack limit                           : 10
   Initial random number generator seed      : 1554980296
   Test pattern compaction mode              : REVERSE + SHUFFLE 
   Limit of suffling compaction              : 2
   Number of shuffles                        : 9

3. Test pattern generation results
   Number of test patterns before compaction : 49
   Number of test patterns after compaction  : 29
   Fault coverage                            : 91.234 %
   Number of collapsed faults                : 308
   Number of identified redundant faults     : 27
   Number of aborted faults                  : 0
   Total number of backtrackings             : 27

4. Memory used                               : 36794 Kbytes

5. CPU time
   Initialization                            : 0.000 secs
   Fault simulation                          : 0.000 secs
   FAN                                       : 0.000 secs
   Total                                     : 0.000 secs
