          Statistics Report          
           Stuck-at Faults           
-------------------------------------
Fault Classes              #faults   
                           (coll.)   
---------------------  --------------
  FU (full)                  914     
  -------------------  --------------
  DS (det_simulation)    556 (60.83%)
  TI (tied)                7 ( 0.77%)
  RE (redundant)         351 (38.40%)
-------------------------------------
Coverage                             
  -------------------                
  test_coverage              100.00% 
  fault_coverage              60.83% 
  atpg_effectiveness         100.00% 
-------------------------------------
#test_patterns                    31 
#simulated_patterns               31 
CPU_time (secs)                  1.5 
-------------------------------------

