	*******************************************************
	*                                                     *
	*            Welcome to HOPE (version 2.0)            *
	*                                                     *
	*               Dong S. Ha (ha@vt.edu)                *
	*            Web: http://www.ee.vt.edu/ha             *
	*  Virginia Polytechnic Institute & State University  *
	*                                                     *
	*******************************************************

******   SUMMARY OF SIMULATION RESULTS   ******
1. Circuit structure
   Name of circuit                           : s298
   Number of primary inputs                  : 17
   Number of primary outputs                 : 20
   Number of flip-flops                      : 0
   Number of gates                           : 119
   Level of the circuit                      : 9

2. Simulator input parameters
   Simulation mode                           : file (/home/animesh/currentResearch/ISI/atpg_structural/code/testData/atalanta/tests/iscas89/s298.test)

3. Simulation results
   Number of test patterns applied           : 33
   Fault coverage                            : 52.273 %
   Number of collapsed faults                : 308
   Number of detected faults                 : 161
   Number of undetected faults               : 147

4. Memory used                               : 27561 Kbytes

5. CPU time
   Initialization                            : 0.000 secs
   Fault simulation                          : 0.000 secs
   Total                                     : 0.000 secs
