           Statistics Report          
            Stuck-at Faults           
--------------------------------------
Fault Classes               #faults   
                            (coll.)   
----------------------  --------------
  FU (full)                  40696    
  --------------------  --------------
  UC (uncontrolled)      1069 ( 2.63%)
  UO (unobserved)        1268 ( 3.12%)
  DS (det_simulation)       1 ( 0.00%)
  TI (tied)              4822 (11.85%)
  BL (blocked)           4973 (12.22%)
  RE (redundant)        10958 (26.93%)
  AU (atpg_untestable)  17605 (43.26%)
--------------------------------------
Fault Sub-classes                     
  --------------------                
  UC+UO                               
    AAB  (atpg_abort)    2337 ( 5.74%)
--------------------------------------
Coverage                              
  --------------------                
  test_coverage                 0.01% 
  fault_coverage                0.00% 
  atpg_effectiveness           94.26% 
--------------------------------------
#test_patterns                      1 
#simulated_patterns                 1 
CPU_time (secs)                2127.6 
--------------------------------------

