//  command: set_current_design top 
//  Warning: 1 case: Unused net in DFT library model
//  Note: Issue set_current_design with the -show_elaboration_warnings option to see more details about previous warnings
//  command: set_system_mode analysis
//  Flattening process completed,  design_cells=13711  leaf_cells=13711  library_primitives=13711  sim_gates=14713  PIs=1001  POs=1  CPU time=0.05 sec.
//  ---------------------------------------------------------------------------
//  Begin circuit learning analyses.
//  --------------------------------
//  Learning completed, CPU time=0.05 sec.
//  ---------------------------------------------------------------------------
//  Begin scan chain identification process, memory elements = 0.
//  ---------------------------------------------------------------------------
//  Circuit has no memory elements.
//  command: add_faults -all
//  command: set_fault_mode collapsed
//  command: set_fault_type stuck
//  command: create_patterns 
// | ------------------------------------------------------------------------------------------------------------------ |
// |                                             Analyzing the design                                                   |
// |                                                                                                                    |
// |      Current clock restriction setting:     Domain_clock (edge interaction)                                        |
// |                                             (optimal)                                                              |
// |                                                                                                                    |
// |          Current split capture setting:     Off (optimal)                                                          |
// |                                                                                                                    |
// |   Current clock off simulation setting:     Off (optimal)                                                          |
// |                                                                                                                    |
// |            Current abort limit setting:     30                                                                     |
// |                                Calling:     set_abort_limit 300 100                                                |
// | ------------------------------------------------------------------------------------------------------------------ |
// |                                                                                                                    |
// |               Current sequential depth:     0 (optimal)                                                            |
// |                                                                                                                    |
// | ------------------------------------------------------------------------------------------------------------------ |
//  ------------------------------------------------------------------------
//  Simulation performed for #gates = 14713  #faults = 31597
//  system mode = analysis    pattern source = internal patterns
//  ------------------------------------------------------------------------
//  #patterns  test      #faults  #faults    # eff.    # test         process      RE/AU/AAB
//  simulated  coverage  in list  detected   patterns  patterns       CPU time
//  deterministic ATPG invoked with comb/seq abort limit = 300/100
//   ---        ------      ---       ---      ---       ---         15.84 sec     178/1/115
//   64         54.43%    14318     17100       62        62         16.41 sec
//   ---        ------      ---       ---      ---       ---         30.78 sec     2240/57/348
//   128        64.73%    10296      1904       62       124         30.89 sec
//   ---        ------      ---       ---      ---       ---         49.50 sec     6843/140/676
//   192        78.83%     5100       510       53       177         49.54 sec
//   ---        ------      ---       ---      ---       ---         65.68 sec     10874/186/1000
//   256        95.89%      666       357       58       235         65.69 sec
//   ---        ------      ---       ---      ---       ---         67.06 sec     10874/186/1000
//   320        96.85%      467       199       56       291         67.07 sec
//   ---        ------      ---       ---      ---       ---         67.18 sec     10874/186/1000
//   384        97.34%      365       102       52       343         67.19 sec
//   ---        ------      ---       ---      ---       ---         67.19 sec     10874/186/1000
//   389        97.39%      354        11        5       348         67.19 sec
//  -----------------------------------------------------------------------
//  Performing redundant fault identification for 353 faults
//  -----------------------------------------------------------------------
//  deterministic ATPG invoked with abort limit = 300
//  # red.    # non-red.   # abort     # remn.   progress   test        process
//  faults      faults      faults      faults              coverage    CPU time
//       6          71        276            0   100.00%    97.42%       6.31 sec
// | ------------------------------------------------------------------------------------------------------------------ |
// |                                                                                                                    |
// |                   Next step suggestion:     (optional)                                                             |
// |              If truncating pattern set:     Use command 'order_patterns 3'                                         |
// |                                                                                                                    |
// | ------------------------------------------------------------------------------------------------------------------ |
           Statistics Report          
            Stuck-at Faults           
--------------------------------------
Fault Classes               #faults   
                            (coll.)   
----------------------  --------------
  FU (full)                  40696    
  --------------------  --------------
  UO (unobserved)         348 ( 0.86%)
  DS (det_simulation)   20183 (49.59%)
  TI (tied)              4774 (11.73%)
  BL (blocked)           4325 (10.63%)
  RE (redundant)        10880 (26.73%)
  AU (atpg_untestable)    186 ( 0.46%)
--------------------------------------
Fault Sub-classes                     
  --------------------                
  UC+UO                               
    AAB  (atpg_abort)     347 ( 0.85%)
    UNS  (unsuccess)        1 ( 0.00%)
--------------------------------------
Coverage                              
  --------------------                
  test_coverage                97.42% 
  fault_coverage               49.59% 
  atpg_effectiveness           99.14% 
--------------------------------------
#test_patterns                    348 
#simulated_patterns               389 
CPU_time (secs)                  75.3 
--------------------------------------

//  command: write_patterns /home/animesh/currentResearch/ISI/atpg_structural/code/dumpData/tessent/epfl/random_control/voter_synth/fiftyPercent/voter_synth_fiftyPercent_10.spf -stil -rep
//  command: report_statistics > /home/animesh/currentResearch/ISI/atpg_structural/code/dumpData/tessent/epfl/random_control/voter_synth/fiftyPercent/voter_synth_fiftyPercent_10.atpg.result
//  command: exit 
