//  command: set_current_design top 
//  Warning: 1 case: Unused net in DFT library model
//  Note: Issue set_current_design with the -show_elaboration_warnings option to see more details about previous warnings
//  command: set_system_mode analysis
//  Flattening process completed,  design_cells=13711  leaf_cells=13711  library_primitives=13711  sim_gates=14713  PIs=1001  POs=1  CPU time=0.05 sec.
//  ---------------------------------------------------------------------------
//  Begin circuit learning analyses.
//  --------------------------------
//  Learning completed, CPU time=0.05 sec.
//  ---------------------------------------------------------------------------
//  Begin scan chain identification process, memory elements = 0.
//  ---------------------------------------------------------------------------
//  Circuit has no memory elements.
//  command: add_faults -all
//  command: set_fault_mode collapsed
//  command: set_fault_type stuck
//  command: create_patterns 
// | ------------------------------------------------------------------------------------------------------------------ |
// |                                             Analyzing the design                                                   |
// |                                                                                                                    |
// |      Current clock restriction setting:     Domain_clock (edge interaction)                                        |
// |                                             (optimal)                                                              |
// |                                                                                                                    |
// |          Current split capture setting:     Off (optimal)                                                          |
// |                                                                                                                    |
// |   Current clock off simulation setting:     Off (optimal)                                                          |
// |                                                                                                                    |
// |            Current abort limit setting:     30                                                                     |
// |                                Calling:     set_abort_limit 300 100                                                |
// | ------------------------------------------------------------------------------------------------------------------ |
// |                                                                                                                    |
// |               Current sequential depth:     0 (optimal)                                                            |
// |                                                                                                                    |
// | ------------------------------------------------------------------------------------------------------------------ |
//  ------------------------------------------------------------------------
//  Simulation performed for #gates = 14713  #faults = 31828
//  system mode = analysis    pattern source = internal patterns
//  ------------------------------------------------------------------------
//  #patterns  test      #faults  #faults    # eff.    # test         process      RE/AU/AAB
//  simulated  coverage  in list  detected   patterns  patterns       CPU time
//  deterministic ATPG invoked with comb/seq abort limit = 300/100
//   ---        ------      ---       ---      ---       ---        397.40 sec     13781/1095/16935
//   5           0.09%    16935        17        1         1        397.62 sec
// | ------------------------------------------------------------------------------------------------------------------ |
// |                                                                                                                    |
// |                   Aborted faults check:     There are 16935 undetected aborted faults.                             |
// |                                                                                                                    |
// | ------------------------------------------------------------------------------------------------------------------ |
// | ------------------------------------------------------------------------------------------------------------------ |
// |                                                                                                                    |
// |                                Calling:     set_abort_limit 3000 1000                                              |
// |                                                                                                                    |
// | ------------------------------------------------------------------------------------------------------------------ |
//  ------------------------------------------------------------------------
//  Simulation performed for #gates = 14713  #faults = 16935
//  system mode = analysis    pattern source = internal patterns
//  ------------------------------------------------------------------------
//  #patterns  test      #faults  #faults    # eff.    # test         process      RE/AU/AAB
//  simulated  coverage  in list  detected   patterns  patterns       CPU time
//  deterministic ATPG invoked with comb/seq abort limit = 3000/1000
//   ---        ------      ---       ---      ---       ---       1084.53 sec     16643/1863/3814
// | ------------------------------------------------------------------------------------------------------------------ |
// |                                                                                                                    |
// |                                Warning:     Pattern creation aborted.                                              |
// |                                 Reason:     Too many faults still abort.                                           |
// |                                                                                                                    |
// | ------------------------------------------------------------------------------------------------------------------ |
//  -----------------------------------------------------------------------
//  Performing redundant fault identification for 13305 faults
//  -----------------------------------------------------------------------
//  deterministic ATPG invoked with abort limit = 30
//  # red.    # non-red.   # abort     # remn.   progress   test        process
//  faults      faults      faults      faults              coverage    CPU time
//       0           0      13305            0   100.00%     0.11%      53.33 sec
// | ------------------------------------------------------------------------------------------------------------------ |
// |                                                                                                                    |
// |                   Next step suggestion:     (optional)                                                             |
// |              If truncating pattern set:     Use command 'order_patterns 3'                                         |
// |                                                                                                                    |
// | ------------------------------------------------------------------------------------------------------------------ |
           Statistics Report          
            Stuck-at Faults           
--------------------------------------
Fault Classes               #faults   
                            (coll.)   
----------------------  --------------
  FU (full)                  40696    
  --------------------  --------------
  UC (uncontrolled)       790 ( 1.94%)
  UO (unobserved)       12515 (30.75%)
  DS (det_simulation)      17 ( 0.04%)
  TI (tied)              4756 (11.69%)
  BL (blocked)           4112 (10.10%)
  RE (redundant)        16643 (40.90%)
  AU (atpg_untestable)   1863 ( 4.58%)
--------------------------------------
Fault Sub-classes                     
  --------------------                
  UC+UO                               
    AAB  (atpg_abort)   13305 (32.69%)
--------------------------------------
Coverage                              
  --------------------                
  test_coverage                 0.11% 
  fault_coverage                0.04% 
  atpg_effectiveness           67.31% 
--------------------------------------
#test_patterns                      1 
#simulated_patterns                 5 
CPU_time (secs)                1537.3 
--------------------------------------

//  command: write_patterns /home/animesh/currentResearch/ISI/atpg_structural/code/dumpData/tessent/epfl/random_control/voter_synth/fiftyPercent/voter_synth_fiftyPercent_4.spf -stil -rep
//  command: report_statistics > /home/animesh/currentResearch/ISI/atpg_structural/code/dumpData/tessent/epfl/random_control/voter_synth/fiftyPercent/voter_synth_fiftyPercent_4.atpg.result
//  command: exit 
