          Statistics Report          
           Stuck-at Faults           
-------------------------------------
Fault Classes              #faults   
                           (coll.)   
---------------------  --------------
  FU (full)                  866     
  -------------------  --------------
  DS (det_simulation)    843 (97.34%)
  TI (tied)                4 ( 0.46%)
  RE (redundant)          19 ( 2.19%)
-------------------------------------
Coverage                             
  -------------------                
  test_coverage              100.00% 
  fault_coverage              97.34% 
  atpg_effectiveness         100.00% 
-------------------------------------
#test_patterns                    39 
#simulated_patterns               66 
CPU_time (secs)                  1.9 
-------------------------------------

