          Statistics Report          
           Stuck-at Faults           
-------------------------------------
Fault Classes              #faults   
                           (coll.)   
---------------------  --------------
  FU (full)                  596     
  -------------------  --------------
  DS (det_simulation)    386 (64.77%)
  TI (tied)                7 ( 1.17%)
  BL (blocked)             1 ( 0.17%)
  RE (redundant)         202 (33.89%)
-------------------------------------
Coverage                             
  -------------------                
  test_coverage              100.00% 
  fault_coverage              64.77% 
  atpg_effectiveness         100.00% 
-------------------------------------
#test_patterns                    68 
#simulated_patterns               87 
CPU_time (secs)                  1.5 
-------------------------------------

