// | ------------------------------------------------------------------------------------------------------------------ |
// |                                                                                                                    |
// |          Current split capture setting:     Off (optimal)                                                          |
// |                                                                                                                    |
// |   Current clock off simulation setting:     Off (optimal)                                                          |
// | ------------------------------------------------------------------------------------------------------------------ |
//  ------------------------------------------------------------------------
//  Simulation performed for #gates = 4839  #faults = 13388
//  Run fault simulation without storing patterns.  pattern source = 252 external patterns
//  ------------------------------------------------------------------------
//  #patterns  test      #faults  #faults    # eff.    # test         process 
//  simulated  coverage  in list  detected   patterns  patterns       CPU time
//   64         66.75%     4451      8937       64         0          0.47 sec
//   128        71.57%     3806       645       46         0          0.50 sec
//   192        73.24%     3583       223       32         0          0.52 sec
//   252        75.39%     3295       288       23         0          0.53 sec
