// | ------------------------------------------------------------------------------------------------------------------ |
// |                                                                                                                    |
// |          Current split capture setting:     Off (optimal)                                                          |
// |                                                                                                                    |
// |   Current clock off simulation setting:     Off (optimal)                                                          |
// | ------------------------------------------------------------------------------------------------------------------ |
//  ------------------------------------------------------------------------
//  Simulation performed for #gates = 4839  #faults = 13522
//  Run fault simulation without storing patterns.  pattern source = 265 external patterns
//  ------------------------------------------------------------------------
//  #patterns  test      #faults  #faults    # eff.    # test         process 
//  simulated  coverage  in list  detected   patterns  patterns       CPU time
//   64         69.96%     4062      9460       61         0          0.48 sec
//   128        73.52%     3580       482       48         0          0.50 sec
//   192        75.98%     3248       332       31         0          0.52 sec
//   256        76.97%     3114       134       25         0          0.53 sec
//   265        77.19%     3084        30        4         0          0.53 sec
