// | ------------------------------------------------------------------------------------------------------------------ |
// |                                                                                                                    |
// |          Current split capture setting:     Off (optimal)                                                          |
// |                                                                                                                    |
// |   Current clock off simulation setting:     Off (optimal)                                                          |
// | ------------------------------------------------------------------------------------------------------------------ |
//  ------------------------------------------------------------------------
//  Simulation performed for #gates = 4839  #faults = 13397
//  Run fault simulation without storing patterns.  pattern source = 246 external patterns
//  ------------------------------------------------------------------------
//  #patterns  test      #faults  #faults    # eff.    # test         process 
//  simulated  coverage  in list  detected   patterns  patterns       CPU time
//   64         63.69%     4864      8533       60         0          0.44 sec
//   128        68.43%     4230       634       44         0          0.47 sec
//   192        70.54%     3947       283       31         0          0.49 sec
//   246        71.18%     3861        86       17         0          0.50 sec
