// | ------------------------------------------------------------------------------------------------------------------ |
// |                                                                                                                    |
// |          Current split capture setting:     Off (optimal)                                                          |
// |                                                                                                                    |
// |   Current clock off simulation setting:     Off (optimal)                                                          |
// | ------------------------------------------------------------------------------------------------------------------ |
//  ------------------------------------------------------------------------
//  Simulation performed for #gates = 4839  #faults = 13473
//  Run fault simulation without storing patterns.  pattern source = 243 external patterns
//  ------------------------------------------------------------------------
//  #patterns  test      #faults  #faults    # eff.    # test         process 
//  simulated  coverage  in list  detected   patterns  patterns       CPU time
//   64         66.80%     4473      9000       63         0          0.45 sec
//   128        69.82%     4066       407       45         0          0.47 sec
//   192        71.25%     3873       193       37         0          0.49 sec
//   243        72.06%     3765       108       22         0          0.50 sec
