// | ------------------------------------------------------------------------------------------------------------------ |
// |                                                                                                                    |
// |          Current split capture setting:     Off (optimal)                                                          |
// |                                                                                                                    |
// |   Current clock off simulation setting:     Off (optimal)                                                          |
// | ------------------------------------------------------------------------------------------------------------------ |
//  ------------------------------------------------------------------------
//  Simulation performed for #gates = 4839  #faults = 13633
//  Run fault simulation without storing patterns.  pattern source = 238 external patterns
//  ------------------------------------------------------------------------
//  #patterns  test      #faults  #faults    # eff.    # test         process 
//  simulated  coverage  in list  detected   patterns  patterns       CPU time
//   64         68.66%     4272      9361       61         0          0.47 sec
//   128        73.52%     3610       662       52         0          0.50 sec
//   192        75.04%     3403       207       39         0          0.51 sec
//   238        75.98%     3274       129       23         0          0.52 sec
