// | ------------------------------------------------------------------------------------------------------------------ |
// |                                                                                                                    |
// |          Current split capture setting:     Off (optimal)                                                          |
// |                                                                                                                    |
// |   Current clock off simulation setting:     Off (optimal)                                                          |
// | ------------------------------------------------------------------------------------------------------------------ |
//  ------------------------------------------------------------------------
//  Simulation performed for #gates = 4839  #faults = 13554
//  Run fault simulation without storing patterns.  pattern source = 243 external patterns
//  ------------------------------------------------------------------------
//  #patterns  test      #faults  #faults    # eff.    # test         process 
//  simulated  coverage  in list  detected   patterns  patterns       CPU time
//   64         64.53%     4807      8747       62         0          0.44 sec
//   128        66.75%     4507       300       44         0          0.45 sec
//   192        67.90%     4351       156       29         0          0.47 sec
//   243        68.52%     4267        84       12         0          0.48 sec
