// | ------------------------------------------------------------------------------------------------------------------ |
// |                                                                                                                    |
// |          Current split capture setting:     Off (optimal)                                                          |
// |                                                                                                                    |
// |   Current clock off simulation setting:     Off (optimal)                                                          |
// | ------------------------------------------------------------------------------------------------------------------ |
//  ------------------------------------------------------------------------
//  Simulation performed for #gates = 4839  #faults = 13388
//  Run fault simulation without storing patterns.  pattern source = 226 external patterns
//  ------------------------------------------------------------------------
//  #patterns  test      #faults  #faults    # eff.    # test         process 
//  simulated  coverage  in list  detected   patterns  patterns       CPU time
//   64         69.43%     4093      9295       63         0          0.49 sec
//   128        73.60%     3534       559       52         0          0.52 sec
//   192        75.26%     3312       222       42         0          0.53 sec
//   226        75.81%     3239        73       15         0          0.54 sec
