// | ------------------------------------------------------------------------------------------------------------------ |
// |                                                                                                                    |
// |          Current split capture setting:     Off (optimal)                                                          |
// |                                                                                                                    |
// |   Current clock off simulation setting:     Off (optimal)                                                          |
// | ------------------------------------------------------------------------------------------------------------------ |
//  ------------------------------------------------------------------------
//  Simulation performed for #gates = 4839  #faults = 13424
//  Run fault simulation without storing patterns.  pattern source = 238 external patterns
//  ------------------------------------------------------------------------
//  #patterns  test      #faults  #faults    # eff.    # test         process 
//  simulated  coverage  in list  detected   patterns  patterns       CPU time
//   64         70.16%     4006      9418       64         0          0.52 sec
//   128        73.17%     3602       404       47         0          0.55 sec
//   192        74.06%     3482       120       31         0          0.56 sec
//   238        74.40%     3436        46       14         0          0.57 sec
