// | ------------------------------------------------------------------------------------------------------------------ |
// |                                                                                                                    |
// |          Current split capture setting:     Off (optimal)                                                          |
// |                                                                                                                    |
// |   Current clock off simulation setting:     Off (optimal)                                                          |
// | ------------------------------------------------------------------------------------------------------------------ |
//  ------------------------------------------------------------------------
//  Simulation performed for #gates = 4839  #faults = 13473
//  Run fault simulation without storing patterns.  pattern source = 283 external patterns
//  ------------------------------------------------------------------------
//  #patterns  test      #faults  #faults    # eff.    # test         process 
//  simulated  coverage  in list  detected   patterns  patterns       CPU time
//   64         64.89%     4730      8743       62         0          0.44 sec
//   128        69.22%     4147       583       46         0          0.47 sec
//   192        70.73%     3943       204       33         0          0.48 sec
//   256        72.60%     3691       252       29         0          0.50 sec
//   283        72.96%     3643        48       11         0          0.51 sec
