// | ------------------------------------------------------------------------------------------------------------------ |
// |                                                                                                                    |
// |          Current split capture setting:     Off (optimal)                                                          |
// |                                                                                                                    |
// |   Current clock off simulation setting:     Off (optimal)                                                          |
// | ------------------------------------------------------------------------------------------------------------------ |
//  ------------------------------------------------------------------------
//  Simulation performed for #gates = 4839  #faults = 13572
//  Run fault simulation without storing patterns.  pattern source = 260 external patterns
//  ------------------------------------------------------------------------
//  #patterns  test      #faults  #faults    # eff.    # test         process 
//  simulated  coverage  in list  detected   patterns  patterns       CPU time
//   64         69.18%     4183      9389       63         0          0.44 sec
//   128        72.22%     3770       413       44         0          0.46 sec
//   192        72.77%     3695        75       25         0          0.47 sec
//   256        73.34%     3618        77       28         0          0.48 sec
//   260        73.36%     3615         3        1         0          0.49 sec
