// | ------------------------------------------------------------------------------------------------------------------ |
// |                                                                                                                    |
// |          Current split capture setting:     Off (optimal)                                                          |
// |                                                                                                                    |
// |   Current clock off simulation setting:     Off (optimal)                                                          |
// | ------------------------------------------------------------------------------------------------------------------ |
//  ------------------------------------------------------------------------
//  Simulation performed for #gates = 4839  #faults = 13397
//  Run fault simulation without storing patterns.  pattern source = 265 external patterns
//  ------------------------------------------------------------------------
//  #patterns  test      #faults  #faults    # eff.    # test         process 
//  simulated  coverage  in list  detected   patterns  patterns       CPU time
//   64         64.32%     4780      8617       64         0          0.45 sec
//   128        68.79%     4181       599       43         0          0.48 sec
//   192        69.86%     4038       143       24         0          0.49 sec
//   256        70.61%     3938       100       21         0          0.50 sec
//   265        70.66%     3931         7        2         0          0.51 sec
