// | ------------------------------------------------------------------------------------------------------------------ |
// |                                                                                                                    |
// |          Current split capture setting:     Off (optimal)                                                          |
// |                                                                                                                    |
// |   Current clock off simulation setting:     Off (optimal)                                                          |
// | ------------------------------------------------------------------------------------------------------------------ |
//  ------------------------------------------------------------------------
//  Simulation performed for #gates = 4839  #faults = 13574
//  Run fault simulation without storing patterns.  pattern source = 252 external patterns
//  ------------------------------------------------------------------------
//  #patterns  test      #faults  #faults    # eff.    # test         process 
//  simulated  coverage  in list  detected   patterns  patterns       CPU time
//   64         71.12%     3920      9654       64         0          0.53 sec
//   128        73.50%     3597       323       50         0          0.55 sec
//   192        75.40%     3339       258       31         0          0.56 sec
//   252        76.29%     3219       120       20         0          0.57 sec
