          Statistics Report          
           Stuck-at Faults           
-------------------------------------
Fault Classes              #faults   
                           (coll.)   
---------------------  --------------
  FU (full)                 5106     
  -------------------  --------------
  DS (det_simulation)   3322 (65.06%)
  TI (tied)              105 ( 2.06%)
  BL (blocked)           222 ( 4.35%)
  RE (redundant)        1457 (28.54%)
-------------------------------------
Coverage                             
  -------------------                
  test_coverage              100.00% 
  fault_coverage              65.06% 
  atpg_effectiveness         100.00% 
-------------------------------------
#test_patterns                    95 
#simulated_patterns              108 
CPU_time (secs)                  2.3 
-------------------------------------

