//  command: set_current_design top 
//  Warning: 1 case: Unused net in DFT library model
//  Note: Issue set_current_design with the -show_elaboration_warnings option to see more details about previous warnings
//  command: set_system_mode analysis
//  Flattening process completed,  design_cells=19948  leaf_cells=19948  library_primitives=19948  sim_gates=20871  PIs=128  POs=128  CPU time=0.09 sec.
//  ---------------------------------------------------------------------------
//  Begin circuit learning analyses.
//  --------------------------------
//  Learning completed, CPU time=0.14 sec.
//  ---------------------------------------------------------------------------
//  Begin scan chain identification process, memory elements = 0.
//  ---------------------------------------------------------------------------
//  Circuit has no memory elements.
//  command: add_faults -all
//  command: set_fault_mode collapsed
//  command: set_fault_type stuck
//  command: create_patterns 
// | ------------------------------------------------------------------------------------------------------------------ |
// |                                             Analyzing the design                                                   |
// |                                                                                                                    |
// |      Current clock restriction setting:     Domain_clock (edge interaction)                                        |
// |                                             (optimal)                                                              |
// |                                                                                                                    |
// |          Current split capture setting:     Off (optimal)                                                          |
// |                                                                                                                    |
// |   Current clock off simulation setting:     Off (optimal)                                                          |
// |                                                                                                                    |
// |            Current abort limit setting:     30                                                                     |
// |                                Calling:     set_abort_limit 300 100                                                |
// | ------------------------------------------------------------------------------------------------------------------ |
// |                                                                                                                    |
// |               Current sequential depth:     0 (optimal)                                                            |
// |                                                                                                                    |
// | ------------------------------------------------------------------------------------------------------------------ |
//  ------------------------------------------------------------------------
//  Simulation performed for #gates = 20871  #faults = 59416
//  system mode = analysis    pattern source = internal patterns
//  ------------------------------------------------------------------------
//  #patterns  test      #faults  #faults    # eff.    # test         process      RE/AU/AAB
//  simulated  coverage  in list  detected   patterns  patterns       CPU time
//  deterministic ATPG invoked with comb/seq abort limit = 300/100
//   ---        ------      ---       ---      ---       ---          8.48 sec     0/0/7
//   64         94.20%     3447     55969       64        64         10.59 sec
//   ---        ------      ---       ---      ---       ---         20.81 sec     998/2/25
//   128        96.81%     1863       584       63       127         20.83 sec
//   ---        ------      ---       ---      ---       ---         28.12 sec     2722/3/29
//   192        99.98%        7       131       52       179         28.13 sec
//   ---        ------      ---       ---      ---       ---         28.13 sec     2722/3/29
//   197        99.99%        2         5        5       184         28.13 sec
//  -----------------------------------------------------------------------
//  Performing redundant fault identification for 2 faults
//  -----------------------------------------------------------------------
//  deterministic ATPG invoked with abort limit = 300
//  # red.    # non-red.   # abort     # remn.   progress   test        process
//  faults      faults      faults      faults              coverage    CPU time
//       0           1          1            0   100.00%    99.99%       0.15 sec
// | ------------------------------------------------------------------------------------------------------------------ |
// |                                                                                                                    |
// |                   Next step suggestion:     (optional)                                                             |
// |              If truncating pattern set:     Use command 'order_patterns 3'                                         |
// |                                                                                                                    |
// | ------------------------------------------------------------------------------------------------------------------ |
           Statistics Report          
            Stuck-at Faults           
--------------------------------------
Fault Classes               #faults   
                            (coll.)   
----------------------  --------------
  FU (full)                  59756    
  --------------------  --------------
  UO (unobserved)           2 ( 0.00%)
  DS (det_simulation)   56689 (94.87%)
  TI (tied)               289 ( 0.48%)
  BL (blocked)             51 ( 0.09%)
  RE (redundant)         2722 ( 4.56%)
  AU (atpg_untestable)      3 ( 0.01%)
--------------------------------------
Fault Sub-classes                     
  --------------------                
  UC+UO                               
    AAB  (atpg_abort)       2 ( 0.00%)
--------------------------------------
Coverage                              
  --------------------                
  test_coverage                99.99% 
  fault_coverage               94.87% 
  atpg_effectiveness          100.00% 
--------------------------------------
#test_patterns                    184 
#simulated_patterns               197 
CPU_time (secs)                  30.3 
--------------------------------------

//  command: write_patterns /home/animesh/currentResearch/ISI/atpg_structural/code/dumpData/tessent/epfl/arithmetic/multiplier_synth/ninetyPercent/multiplier_synth_ninetyPercent_3.spf -stil -rep
//  command: report_statistics > /home/animesh/currentResearch/ISI/atpg_structural/code/dumpData/tessent/epfl/arithmetic/multiplier_synth/ninetyPercent/multiplier_synth_ninetyPercent_3.atpg.result
//  command: exit 
