	*******************************************************
	*                                                     *
	*          Welcome to atalanta (version 2.0)          *
	*                                                     *
	*               Dong S. Ha (ha@vt.edu)                *
	*            Web: http://www.ee.vt.edu/ha             *
	*  Virginia Polytechnic Institute & State University  *
	*                                                     *
	*******************************************************

******   SUMMARY OF TEST PATTERN GENERATION RESULTS   ******
1. Circuit structure
   Name of the circuit                       : s420
   Number of primary inputs                  : 35
   Number of primary outputs                 : 18
   Number of gates                           : 196
   Level of the circuit                      : 28

2. ATPG parameters
   Test pattern generation mode              : RPT + DTPG + TC
   Limit of random patterns (packets)        : 16
   Backtrack limit                           : 10
   Initial random number generator seed      : 1556031467
   Test pattern compaction mode              : REVERSE + SHUFFLE 
   Limit of suffling compaction              : 2
   Number of shuffles                        : 6

3. Test pattern generation results
   Number of test patterns before compaction : 67
   Number of test patterns after compaction  : 43
   Fault coverage                            : 84.884 %
   Number of collapsed faults                : 430
   Number of identified redundant faults     : 65
   Number of aborted faults                  : 0
   Total number of backtrackings             : 65

4. Memory used                               : 34131 Kbytes

5. CPU time
   Initialization                            : 0.000 secs
   Fault simulation                          : 0.000 secs
   FAN                                       : 0.000 secs
   Total                                     : 0.000 secs
