           Statistics Report          
            Stuck-at Faults           
--------------------------------------
Fault Classes              #faults    
                           (coll.)    
---------------------  ---------------
  FU (full)                  1240     
  -------------------  ---------------
  DS (det_simulation)   1240 (100.00%)
--------------------------------------
Coverage                              
  -------------------                 
  test_coverage               100.00% 
  fault_coverage              100.00% 
  atpg_effectiveness          100.00% 
--------------------------------------
#test_patterns                    174 
#simulated_patterns               176 
CPU_time (secs)                   1.6 
--------------------------------------

