          Statistics Report          
           Stuck-at Faults           
-------------------------------------
Fault Classes              #faults   
                           (coll.)   
---------------------  --------------
  FU (full)                  582     
  -------------------  --------------
  DS (det_simulation)    540 (92.78%)
  TI (tied)                9 ( 1.55%)
  BL (blocked)             7 ( 1.20%)
  RE (redundant)          26 ( 4.47%)
-------------------------------------
Coverage                             
  -------------------                
  test_coverage              100.00% 
  fault_coverage              92.78% 
  atpg_effectiveness         100.00% 
-------------------------------------
#test_patterns                    65 
#simulated_patterns               91 
CPU_time (secs)                  1.5 
-------------------------------------

