	*******************************************************
	*                                                     *
	*            Welcome to HOPE (version 2.0)            *
	*                                                     *
	*               Dong S. Ha (ha@vt.edu)                *
	*            Web: http://www.ee.vt.edu/ha             *
	*  Virginia Polytechnic Institute & State University  *
	*                                                     *
	*******************************************************

******   SUMMARY OF SIMULATION RESULTS   ******
1. Circuit structure
   Name of circuit                           : combinational_logic_example__"c499"
   Number of primary inputs                  : 41
   Number of primary outputs                 : 32
   Number of flip-flops                      : 0
   Number of gates                           : 202
   Level of the circuit                      : 11

2. Simulator input parameters
   Simulation mode                           : file (/home/animesh/currentResearch/ISI/atpg_structural/code/testData/atalanta/tests/iscas85/c499.test)

3. Simulation results
   Number of test patterns applied           : 51
   Fault coverage                            : 88.786 %
   Number of collapsed faults                : 758
   Number of detected faults                 : 673
   Number of undetected faults               : 85

4. Memory used                               : 39890 Kbytes

5. CPU time
   Initialization                            : 0.000 secs
   Fault simulation                          : 0.000 secs
   Total                                     : 0.000 secs
