	*******************************************************
	*                                                     *
	*            Welcome to HOPE (version 2.0)            *
	*                                                     *
	*               Dong S. Ha (ha@vt.edu)                *
	*            Web: http://www.ee.vt.edu/ha             *
	*  Virginia Polytechnic Institute & State University  *
	*                                                     *
	*******************************************************

******   SUMMARY OF SIMULATION RESULTS   ******
1. Circuit structure
   Name of circuit                           : s526
   Number of primary inputs                  : 24
   Number of primary outputs                 : 27
   Number of flip-flops                      : 0
   Number of gates                           : 193
   Level of the circuit                      : 9

2. Simulator input parameters
   Simulation mode                           : file (/home/animesh/currentResearch/ISI/atpg_structural/code/testData/atalanta/tests/iscas89/s526.test)

3. Simulation results
   Number of test patterns applied           : 63
   Fault coverage                            : 38.559 %
   Number of collapsed faults                : 555
   Number of detected faults                 : 214
   Number of undetected faults               : 341

4. Memory used                               : 19861 Kbytes

5. CPU time
   Initialization                            : 0.000 secs
   Fault simulation                          : 0.000 secs
   Total                                     : 0.000 secs
