          Statistics Report          
           Stuck-at Faults           
-------------------------------------
Fault Classes              #faults   
                           (coll.)   
---------------------  --------------
  FU (full)                  834     
  -------------------  --------------
  DS (det_simulation)    482 (57.79%)
  TI (tied)               30 ( 3.60%)
  RE (redundant)         322 (38.61%)
-------------------------------------
Coverage                             
  -------------------                
  test_coverage              100.00% 
  fault_coverage              57.79% 
  atpg_effectiveness         100.00% 
-------------------------------------
#test_patterns                    62 
#simulated_patterns              122 
CPU_time (secs)                  1.6 
-------------------------------------

