          Statistics Report          
           Stuck-at Faults           
-------------------------------------
Fault Classes              #faults   
                           (coll.)   
---------------------  --------------
  FU (full)                  834     
  -------------------  --------------
  DS (det_simulation)    334 (40.05%)
  TI (tied)               30 ( 3.60%)
  BL (blocked)             7 ( 0.84%)
  RE (redundant)         463 (55.52%)
-------------------------------------
Coverage                             
  -------------------                
  test_coverage              100.00% 
  fault_coverage              40.05% 
  atpg_effectiveness         100.00% 
-------------------------------------
#test_patterns                    43 
#simulated_patterns               74 
CPU_time (secs)                  2.0 
-------------------------------------

