          Statistics Report          
           Stuck-at Faults           
-------------------------------------
Fault Classes              #faults   
                           (coll.)   
---------------------  --------------
  FU (full)                  582     
  -------------------  --------------
  DS (det_simulation)    510 (87.63%)
  TI (tied)                3 ( 0.52%)
  RE (redundant)          69 (11.86%)
-------------------------------------
Coverage                             
  -------------------                
  test_coverage              100.00% 
  fault_coverage              87.63% 
  atpg_effectiveness         100.00% 
-------------------------------------
#test_patterns                    65 
#simulated_patterns               95 
CPU_time (secs)                  1.5 
-------------------------------------

