           Statistics Report          
            Stuck-at Faults           
--------------------------------------
Fault Classes               #faults   
                            (coll.)   
----------------------  --------------
  FU (full)                  15054    
  --------------------  --------------
  UO (unobserved)           3 ( 0.02%)
  DS (det_simulation)    6411 (42.59%)
  UU (unused)               4 ( 0.03%)
  TI (tied)               878 ( 5.83%)
  BL (blocked)           2077 (13.80%)
  RE (redundant)         5636 (37.44%)
  AU (atpg_untestable)     45 ( 0.30%)
--------------------------------------
Fault Sub-classes                     
  --------------------                
  UC+UO                               
    AAB  (atpg_abort)       3 ( 0.02%)
--------------------------------------
Coverage                              
  --------------------                
  test_coverage                99.26% 
  fault_coverage               42.59% 
  atpg_effectiveness           99.98% 
--------------------------------------
#test_patterns                    166 
#simulated_patterns               192 
CPU_time (secs)                   7.3 
--------------------------------------

