          Statistics Report          
           Stuck-at Faults           
-------------------------------------
Fault Classes              #faults   
                           (coll.)   
---------------------  --------------
  FU (full)                 2586     
  -------------------  --------------
  DS (det_simulation)   1397 (54.02%)
  TI (tied)              145 ( 5.61%)
  BL (blocked)           150 ( 5.80%)
  RE (redundant)         894 (34.57%)
-------------------------------------
Coverage                             
  -------------------                
  test_coverage              100.00% 
  fault_coverage              54.02% 
  atpg_effectiveness         100.00% 
-------------------------------------
#test_patterns                   123 
#simulated_patterns              154 
CPU_time (secs)                  2.1 
-------------------------------------

