          Statistics Report          
           Stuck-at Faults           
-------------------------------------
Fault Classes              #faults   
                           (coll.)   
---------------------  --------------
  FU (full)                 2586     
  -------------------  --------------
  DS (det_simulation)   1709 (66.09%)
  TI (tied)              106 ( 4.10%)
  BL (blocked)           160 ( 6.19%)
  RE (redundant)         611 (23.63%)
-------------------------------------
Coverage                             
  -------------------                
  test_coverage              100.00% 
  fault_coverage              66.09% 
  atpg_effectiveness         100.00% 
-------------------------------------
#test_patterns                   166 
#simulated_patterns              198 
CPU_time (secs)                  2.0 
-------------------------------------

