	*******************************************************
	*                                                     *
	*          Welcome to atalanta (version 2.0)          *
	*                                                     *
	*               Dong S. Ha (ha@vt.edu)                *
	*            Web: http://www.ee.vt.edu/ha             *
	*  Virginia Polytechnic Institute & State University  *
	*                                                     *
	*******************************************************

******   SUMMARY OF TEST PATTERN GENERATION RESULTS   ******
1. Circuit structure
   Name of the circuit                       : s1494
   Number of primary inputs                  : 14
   Number of primary outputs                 : 25
   Number of gates                           : 647
   Level of the circuit                      : 17

2. ATPG parameters
   Test pattern generation mode              : RPT + DTPG + TC
   Limit of random patterns (packets)        : 16
   Backtrack limit                           : 10
   Initial random number generator seed      : 1554980449
   Test pattern compaction mode              : REVERSE + SHUFFLE 
   Limit of suffling compaction              : 2
   Number of shuffles                        : 8

3. Test pattern generation results
   Number of test patterns before compaction : 144
   Number of test patterns after compaction  : 86
   Fault coverage                            : 39.243 %
   Number of collapsed faults                : 1506
   Number of identified redundant faults     : 915
   Number of aborted faults                  : 0
   Total number of backtrackings             : 937

4. Memory used                               : 15523 Kbytes

5. CPU time
   Initialization                            : 0.000 secs
   Fault simulation                          : 0.000 secs
   FAN                                       : 0.017 secs
   Total                                     : 0.017 secs
