	*******************************************************
	*                                                     *
	*          Welcome to atalanta (version 2.0)          *
	*                                                     *
	*               Dong S. Ha (ha@vt.edu)                *
	*            Web: http://www.ee.vt.edu/ha             *
	*  Virginia Polytechnic Institute & State University  *
	*                                                     *
	*******************************************************

******   SUMMARY OF TEST PATTERN GENERATION RESULTS   ******
1. Circuit structure
   Name of the circuit                       : s38417
   Number of primary inputs                  : 1664
   Number of primary outputs                 : 1742
   Number of gates                           : 22257
   Level of the circuit                      : 47

2. ATPG parameters
   Test pattern generation mode              : RPT + DTPG + TC
   Limit of random patterns (packets)        : 16
   Backtrack limit                           : 10
   Initial random number generator seed      : 1556542010
   Test pattern compaction mode              : REVERSE + SHUFFLE 
   Limit of suffling compaction              : 2
   Number of shuffles                        : 10

3. Test pattern generation results
   Number of test patterns before compaction : 1131
   Number of test patterns after compaction  : 612
   Fault coverage                            : 77.784 %
   Number of collapsed faults                : 31180
   Number of identified redundant faults     : 6055
   Number of aborted faults                  : 872
   Total number of backtrackings             : 17408

4. Memory used                               : 44470 Kbytes

5. CPU time
   Initialization                            : 0.050 secs
   Fault simulation                          : 2.600 secs
   FAN                                       : 15.833 secs
   Total                                     : 18.483 secs
