	*******************************************************
	*                                                     *
	*            Welcome to HOPE (version 2.0)            *
	*                                                     *
	*               Dong S. Ha (ha@vt.edu)                *
	*            Web: http://www.ee.vt.edu/ha             *
	*  Virginia Polytechnic Institute & State University  *
	*                                                     *
	*******************************************************

******   SUMMARY OF SIMULATION RESULTS   ******
1. Circuit structure
   Name of circuit                           : s386
   Number of primary inputs                  : 13
   Number of primary outputs                 : 13
   Number of flip-flops                      : 0
   Number of gates                           : 159
   Level of the circuit                      : 11

2. Simulator input parameters
   Simulation mode                           : file (/home/animesh/currentResearch/ISI/atpg_structural/code/testData/atalanta/tests/iscas89/s386.test)

3. Simulation results
   Number of test patterns applied           : 71
   Fault coverage                            : 42.188 %
   Number of collapsed faults                : 384
   Number of detected faults                 : 162
   Number of undetected faults               : 222

4. Memory used                               : 37568 Kbytes

5. CPU time
   Initialization                            : 0.000 secs
   Fault simulation                          : 0.000 secs
   Total                                     : 0.000 secs
