// | ------------------------------------------------------------------------------------------------------------------ |
// |                                                                                                                    |
// |          Current split capture setting:     Off (optimal)                                                          |
// |                                                                                                                    |
// |   Current clock off simulation setting:     Off (optimal)                                                          |
// | ------------------------------------------------------------------------------------------------------------------ |
//  ------------------------------------------------------------------------
//  Simulation performed for #gates = 12864  #faults = 25984
//  Run fault simulation without storing patterns.  pattern source = 952 external patterns
//  ------------------------------------------------------------------------
//  #patterns  test      #faults  #faults    # eff.    # test         process 
//  simulated  coverage  in list  detected   patterns  patterns       CPU time
//   64         15.17%    22042      3942       64         0          0.13 sec
//   128        16.88%    21598       444       55         0          0.20 sec
//   192        17.88%    21339       259       51         0          0.26 sec
//   256        18.40%    21204       135       41         0          0.32 sec
//   320        18.75%    21113        91       34         0          0.37 sec
//   384        18.97%    21056        57       28         0          0.43 sec
//   448        19.30%    20970        86       33         0          0.48 sec
//   512        19.51%    20915        55       19         0          0.54 sec
//   576        19.67%    20872        43       18         0          0.59 sec
//   640        19.77%    20847        25       12         0          0.65 sec
//   704        19.97%    20794        53       24         0          0.70 sec
//   768        20.05%    20773        21       11         0          0.76 sec
//   832        20.14%    20750        23       13         0          0.81 sec
//   896        20.22%    20731        19       12         0          0.86 sec
//   952        20.27%    20716        15       11         0          0.92 sec
