// | ------------------------------------------------------------------------------------------------------------------ |
// |                                                                                                                    |
// |          Current split capture setting:     Off (optimal)                                                          |
// |                                                                                                                    |
// |   Current clock off simulation setting:     Off (optimal)                                                          |
// | ------------------------------------------------------------------------------------------------------------------ |
//  ------------------------------------------------------------------------
//  Simulation performed for #gates = 12864  #faults = 25984
//  Run fault simulation without storing patterns.  pattern source = 834 external patterns
//  ------------------------------------------------------------------------
//  #patterns  test      #faults  #faults    # eff.    # test         process 
//  simulated  coverage  in list  detected   patterns  patterns       CPU time
//   64         14.04%    22337      3647       64         0          0.12 sec
//   128        15.81%    21876       461       61         0          0.19 sec
//   192        16.74%    21634       242       49         0          0.25 sec
//   256        17.07%    21549        85       32         0          0.31 sec
//   320        17.40%    21462        87       30         0          0.36 sec
//   384        17.79%    21362       100       30         0          0.42 sec
//   448        17.98%    21311        51       27         0          0.48 sec
//   512        18.18%    21261        50       22         0          0.54 sec
//   576        18.40%    21202        59       25         0          0.59 sec
//   640        18.63%    21142        60       25         0          0.65 sec
//   704        18.77%    21106        36       17         0          0.70 sec
//   768        18.88%    21079        27       13         0          0.76 sec
//   832        18.98%    21053        26       11         0          0.81 sec
//   834        18.98%    21052         1        1         0          0.86 sec
