// | ------------------------------------------------------------------------------------------------------------------ |
// |                                                                                                                    |
// |          Current split capture setting:     Off (optimal)                                                          |
// |                                                                                                                    |
// |   Current clock off simulation setting:     Off (optimal)                                                          |
// | ------------------------------------------------------------------------------------------------------------------ |
//  ------------------------------------------------------------------------
//  Simulation performed for #gates = 12864  #faults = 25984
//  Run fault simulation without storing patterns.  pattern source = 952 external patterns
//  ------------------------------------------------------------------------
//  #patterns  test      #faults  #faults    # eff.    # test         process 
//  simulated  coverage  in list  detected   patterns  patterns       CPU time
//   64         14.52%    22212      3772       64         0          0.13 sec
//   128        16.51%    21694       518       59         0          0.20 sec
//   192        17.35%    21475       219       54         0          0.26 sec
//   256        18.02%    21301       174       47         0          0.32 sec
//   320        18.37%    21212        89       32         0          0.38 sec
//   384        18.74%    21115        97       30         0          0.44 sec
//   448        18.95%    21060        55       22         0          0.49 sec
//   512        19.13%    21013        47       20         0          0.55 sec
//   576        19.27%    20977        36       20         0          0.61 sec
//   640        19.35%    20955        22       14         0          0.66 sec
//   704        19.50%    20916        39       24         0          0.72 sec
//   768        19.70%    20864        52       18         0          0.77 sec
//   832        19.85%    20826        38       16         0          0.83 sec
//   896        19.95%    20800        26       12         0          0.88 sec
//   952        20.02%    20783        17        9         0          0.93 sec
