// | ------------------------------------------------------------------------------------------------------------------ |
// |                                                                                                                    |
// |          Current split capture setting:     Off (optimal)                                                          |
// |                                                                                                                    |
// |   Current clock off simulation setting:     Off (optimal)                                                          |
// | ------------------------------------------------------------------------------------------------------------------ |
//  ------------------------------------------------------------------------
//  Simulation performed for #gates = 12864  #faults = 25984
//  Run fault simulation without storing patterns.  pattern source = 1158 external patterns
//  ------------------------------------------------------------------------
//  #patterns  test      #faults  #faults    # eff.    # test         process 
//  simulated  coverage  in list  detected   patterns  patterns       CPU time
//   64         14.05%    22332      3652       64         0          0.12 sec
//   128        16.24%    21764       568       56         0          0.19 sec
//   192        17.11%    21538       226       48         0          0.25 sec
//   256        17.66%    21394       144       42         0          0.31 sec
//   320        18.10%    21280       114       38         0          0.36 sec
//   384        18.45%    21191        89       36         0          0.42 sec
//   448        18.65%    21139        52       26         0          0.48 sec
//   512        18.87%    21081        58       18         0          0.53 sec
//   576        19.04%    21036        45       23         0          0.59 sec
//   640        19.21%    20993        43       22         0          0.65 sec
//   704        19.32%    20963        30       11         0          0.70 sec
//   768        19.45%    20929        34       19         0          0.76 sec
//   832        19.57%    20900        29       14         0          0.81 sec
//   896        19.65%    20879        21       13         0          0.87 sec
//   960        19.72%    20860        19       11         0          0.92 sec
//   1024       19.81%    20836        24       12         0          0.98 sec
//   1088       19.85%    20825        11        5         0          1.03 sec
//   1152       19.89%    20815        10        4         0          1.08 sec
//   1158       19.90%    20814         1        1         0          1.13 sec
