// | ------------------------------------------------------------------------------------------------------------------ |
// |                                                                                                                    |
// |          Current split capture setting:     Off (optimal)                                                          |
// |                                                                                                                    |
// |   Current clock off simulation setting:     Off (optimal)                                                          |
// | ------------------------------------------------------------------------------------------------------------------ |
//  ------------------------------------------------------------------------
//  Simulation performed for #gates = 12864  #faults = 25984
//  Run fault simulation without storing patterns.  pattern source = 941 external patterns
//  ------------------------------------------------------------------------
//  #patterns  test      #faults  #faults    # eff.    # test         process 
//  simulated  coverage  in list  detected   patterns  patterns       CPU time
//   64         14.94%    22102      3882       64         0          0.13 sec
//   128        16.84%    21607       495       62         0          0.19 sec
//   192        17.72%    21380       227       53         0          0.26 sec
//   256        18.26%    21240       140       39         0          0.31 sec
//   320        18.55%    21165        75       34         0          0.37 sec
//   384        18.85%    21087        78       31         0          0.43 sec
//   448        19.04%    21036        51       28         0          0.49 sec
//   512        19.15%    21009        27       14         0          0.54 sec
//   576        19.26%    20980        29       14         0          0.60 sec
//   640        19.39%    20947        33       18         0          0.65 sec
//   704        19.52%    20911        36       14         0          0.71 sec
//   768        19.60%    20891        20       13         0          0.77 sec
//   832        19.65%    20878        13        9         0          0.82 sec
//   896        19.73%    20858        20        9         0          0.88 sec
//   941        19.79%    20841        17        5         0          0.93 sec
