// | ------------------------------------------------------------------------------------------------------------------ |
// |                                                                                                                    |
// |          Current split capture setting:     Off (optimal)                                                          |
// |                                                                                                                    |
// |   Current clock off simulation setting:     Off (optimal)                                                          |
// | ------------------------------------------------------------------------------------------------------------------ |
//  ------------------------------------------------------------------------
//  Simulation performed for #gates = 12864  #faults = 25984
//  Run fault simulation without storing patterns.  pattern source = 916 external patterns
//  ------------------------------------------------------------------------
//  #patterns  test      #faults  #faults    # eff.    # test         process 
//  simulated  coverage  in list  detected   patterns  patterns       CPU time
//   64         12.25%    22802      3182       63         0          0.10 sec
//   128        13.72%    22418       384       51         0          0.17 sec
//   192        14.69%    22168       250       43         0          0.23 sec
//   256        15.45%    21969       199       42         0          0.28 sec
//   320        15.94%    21843       126       34         0          0.34 sec
//   384        16.30%    21748        95       32         0          0.40 sec
//   448        16.64%    21659        89       27         0          0.45 sec
//   512        16.79%    21620        39       18         0          0.51 sec
//   576        16.98%    21572        48       19         0          0.56 sec
//   640        17.18%    21520        52       20         0          0.62 sec
//   704        17.36%    21473        47       22         0          0.67 sec
//   768        17.51%    21433        40       20         0          0.72 sec
//   832        17.61%    21408        25       11         0          0.78 sec
//   896        17.64%    21400         8        5         0          0.83 sec
//   916        17.65%    21397         3        1         0          0.87 sec
