// | ------------------------------------------------------------------------------------------------------------------ |
// |                                                                                                                    |
// |          Current split capture setting:     Off (optimal)                                                          |
// |                                                                                                                    |
// |   Current clock off simulation setting:     Off (optimal)                                                          |
// | ------------------------------------------------------------------------------------------------------------------ |
//  ------------------------------------------------------------------------
//  Simulation performed for #gates = 12864  #faults = 25984
//  Run fault simulation without storing patterns.  pattern source = 836 external patterns
//  ------------------------------------------------------------------------
//  #patterns  test      #faults  #faults    # eff.    # test         process 
//  simulated  coverage  in list  detected   patterns  patterns       CPU time
//   64         14.42%    22236      3748       64         0          0.13 sec
//   128        16.61%    21668       568       60         0          0.20 sec
//   192        17.43%    21456       212       50         0          0.26 sec
//   256        18.01%    21304       152       45         0          0.32 sec
//   320        18.60%    21151       153       43         0          0.38 sec
//   384        18.94%    21062        89       33         0          0.43 sec
//   448        19.17%    21003        59       27         0          0.49 sec
//   512        19.37%    20950        53       20         0          0.55 sec
//   576        19.47%    20924        26       13         0          0.60 sec
//   640        19.61%    20888        36       22         0          0.66 sec
//   704        19.74%    20856        32       17         0          0.71 sec
//   768        19.84%    20828        28       14         0          0.77 sec
//   832        19.91%    20810        18       14         0          0.82 sec
//   836        19.92%    20808         2        1         0          0.86 sec
