// | ------------------------------------------------------------------------------------------------------------------ |
// |                                                                                                                    |
// |          Current split capture setting:     Off (optimal)                                                          |
// |                                                                                                                    |
// |   Current clock off simulation setting:     Off (optimal)                                                          |
// | ------------------------------------------------------------------------------------------------------------------ |
//  ------------------------------------------------------------------------
//  Simulation performed for #gates = 12864  #faults = 25984
//  Run fault simulation without storing patterns.  pattern source = 1056 external patterns
//  ------------------------------------------------------------------------
//  #patterns  test      #faults  #faults    # eff.    # test         process 
//  simulated  coverage  in list  detected   patterns  patterns       CPU time
//   64         15.09%    22063      3921       64         0          0.13 sec
//   128        17.15%    21527       536       58         0          0.20 sec
//   192        18.15%    21267       260       47         0          0.26 sec
//   256        18.69%    21127       140       41         0          0.32 sec
//   320        19.05%    21035        92       34         0          0.38 sec
//   384        19.34%    20959        76       31         0          0.44 sec
//   448        19.61%    20888        71       30         0          0.50 sec
//   512        19.89%    20815        73       30         0          0.56 sec
//   576        20.00%    20788        27       16         0          0.61 sec
//   640        20.09%    20763        25       14         0          0.67 sec
//   704        20.17%    20744        19       13         0          0.72 sec
//   768        20.29%    20712        32       19         0          0.78 sec
//   832        20.33%    20701        11        8         0          0.83 sec
//   896        20.39%    20687        14       10         0          0.89 sec
//   960        20.44%    20673        14       12         0          0.94 sec
//   1024       20.51%    20655        18        9         0          1.00 sec
//   1056       20.54%    20647         8        4         0          1.05 sec
