// | ------------------------------------------------------------------------------------------------------------------ |
// |                                                                                                                    |
// |          Current split capture setting:     Off (optimal)                                                          |
// |                                                                                                                    |
// |   Current clock off simulation setting:     Off (optimal)                                                          |
// | ------------------------------------------------------------------------------------------------------------------ |
//  ------------------------------------------------------------------------
//  Simulation performed for #gates = 12864  #faults = 25984
//  Run fault simulation without storing patterns.  pattern source = 854 external patterns
//  ------------------------------------------------------------------------
//  #patterns  test      #faults  #faults    # eff.    # test         process 
//  simulated  coverage  in list  detected   patterns  patterns       CPU time
//   64         15.21%    22033      3951       64         0          0.13 sec
//   128        17.10%    21542       491       55         0          0.20 sec
//   192        17.91%    21329       213       49         0          0.26 sec
//   256        18.43%    21195       134       48         0          0.32 sec
//   320        18.78%    21105        90       32         0          0.38 sec
//   384        18.98%    21051        54       23         0          0.43 sec
//   448        19.27%    20978        73       28         0          0.49 sec
//   512        19.43%    20935        43       21         0          0.55 sec
//   576        19.60%    20890        45       18         0          0.60 sec
//   640        19.73%    20857        33       23         0          0.66 sec
//   704        19.82%    20835        22       14         0          0.71 sec
//   768        19.90%    20812        23       13         0          0.77 sec
//   832        20.02%    20782        30       15         0          0.82 sec
//   854        20.06%    20772        10        6         0          0.87 sec
