// | ------------------------------------------------------------------------------------------------------------------ |
// |                                                                                                                    |
// |          Current split capture setting:     Off (optimal)                                                          |
// |                                                                                                                    |
// |   Current clock off simulation setting:     Off (optimal)                                                          |
// | ------------------------------------------------------------------------------------------------------------------ |
//  ------------------------------------------------------------------------
//  Simulation performed for #gates = 12864  #faults = 25984
//  Run fault simulation without storing patterns.  pattern source = 876 external patterns
//  ------------------------------------------------------------------------
//  #patterns  test      #faults  #faults    # eff.    # test         process 
//  simulated  coverage  in list  detected   patterns  patterns       CPU time
//   64         13.00%    22606      3378       64         0          0.11 sec
//   128        14.46%    22228       378       54         0          0.17 sec
//   192        15.16%    22045       183       49         0          0.24 sec
//   256        15.86%    21862       183       41         0          0.30 sec
//   320        16.28%    21753       109       38         0          0.35 sec
//   384        16.53%    21689        64       25         0          0.41 sec
//   448        16.71%    21642        47       19         0          0.47 sec
//   512        16.95%    21581        61       19         0          0.52 sec
//   576        17.18%    21520        61       21         0          0.58 sec
//   640        17.38%    21468        52       27         0          0.63 sec
//   704        17.53%    21429        39       12         0          0.69 sec
//   768        17.61%    21409        20       12         0          0.74 sec
//   832        17.67%    21393        16       10         0          0.80 sec
//   876        17.68%    21389         4        3         0          0.85 sec
