// | ------------------------------------------------------------------------------------------------------------------ |
// |                                                                                                                    |
// |          Current split capture setting:     Off (optimal)                                                          |
// |                                                                                                                    |
// |   Current clock off simulation setting:     Off (optimal)                                                          |
// | ------------------------------------------------------------------------------------------------------------------ |
//  ------------------------------------------------------------------------
//  Simulation performed for #gates = 12864  #faults = 25984
//  Run fault simulation without storing patterns.  pattern source = 995 external patterns
//  ------------------------------------------------------------------------
//  #patterns  test      #faults  #faults    # eff.    # test         process 
//  simulated  coverage  in list  detected   patterns  patterns       CPU time
//   64         14.94%    22103      3881       64         0          0.13 sec
//   128        16.48%    21703       400       57         0          0.20 sec
//   192        17.25%    21502       201       53         0          0.26 sec
//   256        17.81%    21355       147       40         0          0.32 sec
//   320        18.14%    21271        84       31         0          0.38 sec
//   384        18.55%    21165       106       37         0          0.44 sec
//   448        18.77%    21106        59       30         0          0.50 sec
//   512        18.95%    21060        46       18         0          0.56 sec
//   576        19.10%    21021        39       18         0          0.62 sec
//   640        19.20%    20995        26       16         0          0.68 sec
//   704        19.32%    20964        31       15         0          0.73 sec
//   768        19.41%    20941        23        7         0          0.79 sec
//   832        19.45%    20931        10        7         0          0.84 sec
//   896        19.54%    20907        24       11         0          0.90 sec
//   960        19.61%    20889        18       10         0          0.96 sec
//   995        19.63%    20884         5        5         0          1.01 sec
