// | ------------------------------------------------------------------------------------------------------------------ |
// |                                                                                                                    |
// |          Current split capture setting:     Off (optimal)                                                          |
// |                                                                                                                    |
// |   Current clock off simulation setting:     Off (optimal)                                                          |
// | ------------------------------------------------------------------------------------------------------------------ |
//  ------------------------------------------------------------------------
//  Simulation performed for #gates = 12864  #faults = 25984
//  Run fault simulation without storing patterns.  pattern source = 848 external patterns
//  ------------------------------------------------------------------------
//  #patterns  test      #faults  #faults    # eff.    # test         process 
//  simulated  coverage  in list  detected   patterns  patterns       CPU time
//   64         14.56%    22200      3784       64         0          0.12 sec
//   128        16.17%    21782       418       56         0          0.19 sec
//   192        17.07%    21548       234       52         0          0.25 sec
//   256        17.58%    21417       131       41         0          0.31 sec
//   320        18.01%    21305       112       35         0          0.36 sec
//   384        18.27%    21237        68       27         0          0.42 sec
//   448        18.43%    21196        41       23         0          0.48 sec
//   512        18.56%    21161        35       17         0          0.53 sec
//   576        18.69%    21127        34       19         0          0.59 sec
//   640        18.80%    21098        29       17         0          0.64 sec
//   704        18.90%    21074        24       16         0          0.69 sec
//   768        18.98%    21052        22       13         0          0.75 sec
//   832        19.04%    21036        16       10         0          0.80 sec
