// | ------------------------------------------------------------------------------------------------------------------ |
// |                                                                                                                    |
// |          Current split capture setting:     Off (optimal)                                                          |
// |                                                                                                                    |
// |   Current clock off simulation setting:     Off (optimal)                                                          |
// | ------------------------------------------------------------------------------------------------------------------ |
//  ------------------------------------------------------------------------
//  Simulation performed for #gates = 12864  #faults = 25984
//  Run fault simulation without storing patterns.  pattern source = 865 external patterns
//  ------------------------------------------------------------------------
//  #patterns  test      #faults  #faults    # eff.    # test         process 
//  simulated  coverage  in list  detected   patterns  patterns       CPU time
//   64         16.16%    21785      4199       64         0          0.13 sec
//   128        17.74%    21374       411       61         0          0.19 sec
//   192        18.67%    21134       240       54         0          0.25 sec
//   256        19.20%    20995       139       51         0          0.31 sec
//   320        19.60%    20892       103       38         0          0.37 sec
//   384        19.88%    20818        74       25         0          0.42 sec
//   448        20.06%    20771        47       27         0          0.48 sec
//   512        20.20%    20734        37       23         0          0.53 sec
//   576        20.35%    20695        39       26         0          0.59 sec
//   640        20.56%    20641        54       19         0          0.64 sec
//   704        20.70%    20606        35       21         0          0.70 sec
//   768        20.79%    20582        24       14         0          0.75 sec
//   832        20.87%    20561        21       10         0          0.80 sec
//   865        20.91%    20552         9        4         0          0.85 sec
