// | ------------------------------------------------------------------------------------------------------------------ |
// |                                                                                                                    |
// |          Current split capture setting:     Off (optimal)                                                          |
// |                                                                                                                    |
// |   Current clock off simulation setting:     Off (optimal)                                                          |
// | ------------------------------------------------------------------------------------------------------------------ |
//  ------------------------------------------------------------------------
//  Simulation performed for #gates = 12864  #faults = 25984
//  Run fault simulation without storing patterns.  pattern source = 933 external patterns
//  ------------------------------------------------------------------------
//  #patterns  test      #faults  #faults    # eff.    # test         process 
//  simulated  coverage  in list  detected   patterns  patterns       CPU time
//   64         14.05%    22332      3652       63         0          0.11 sec
//   128        15.93%    21844       488       56         0          0.18 sec
//   192        16.66%    21654       190       51         0          0.23 sec
//   256        17.24%    21505       149       44         0          0.29 sec
//   320        17.50%    21436        69       29         0          0.35 sec
//   384        17.72%    21380        56       25         0          0.40 sec
//   448        17.93%    21325        55       26         0          0.45 sec
//   512        18.13%    21274        51       24         0          0.51 sec
//   576        18.24%    21244        30       17         0          0.56 sec
//   640        18.35%    21215        29       15         0          0.61 sec
//   704        18.49%    21179        36       20         0          0.67 sec
//   768        18.55%    21163        16       10         0          0.72 sec
//   832        18.64%    21141        22       15         0          0.77 sec
//   896        18.73%    21116        25       10         0          0.82 sec
//   933        18.77%    21106        10        6         0          0.87 sec
