// | ------------------------------------------------------------------------------------------------------------------ |
// |                                                                                                                    |
// |          Current split capture setting:     Off (optimal)                                                          |
// |                                                                                                                    |
// |   Current clock off simulation setting:     Off (optimal)                                                          |
// | ------------------------------------------------------------------------------------------------------------------ |
//  ------------------------------------------------------------------------
//  Simulation performed for #gates = 12864  #faults = 25984
//  Run fault simulation without storing patterns.  pattern source = 834 external patterns
//  ------------------------------------------------------------------------
//  #patterns  test      #faults  #faults    # eff.    # test         process 
//  simulated  coverage  in list  detected   patterns  patterns       CPU time
//   64         14.31%    22265      3719       64         0          0.12 sec
//   128        16.05%    21813       452       58         0          0.19 sec
//   192        16.92%    21588       225       51         0          0.25 sec
//   256        17.44%    21453       135       43         0          0.31 sec
//   320        17.86%    21343       110       32         0          0.36 sec
//   384        18.12%    21276        67       30         0          0.42 sec
//   448        18.42%    21199        77       23         0          0.47 sec
//   512        18.61%    21148        51       22         0          0.53 sec
//   576        18.89%    21075        73       19         0          0.58 sec
//   640        19.08%    21025        50       23         0          0.64 sec
//   704        19.26%    20980        45       18         0          0.69 sec
//   768        19.35%    20956        24       14         0          0.75 sec
//   832        19.41%    20940        16        7         0          0.80 sec
