// | ------------------------------------------------------------------------------------------------------------------ |
// |                                                                                                                    |
// |          Current split capture setting:     Off (optimal)                                                          |
// |                                                                                                                    |
// |   Current clock off simulation setting:     Off (optimal)                                                          |
// | ------------------------------------------------------------------------------------------------------------------ |
//  ------------------------------------------------------------------------
//  Simulation performed for #gates = 12864  #faults = 25984
//  Run fault simulation without storing patterns.  pattern source = 720 external patterns
//  ------------------------------------------------------------------------
//  #patterns  test      #faults  #faults    # eff.    # test         process 
//  simulated  coverage  in list  detected   patterns  patterns       CPU time
//   64         14.56%    22202      3782       63         0          0.12 sec
//   128        16.19%    21777       425       56         0          0.18 sec
//   192        16.99%    21569       208       50         0          0.24 sec
//   256        17.50%    21436       133       43         0          0.30 sec
//   320        17.86%    21343        93       34         0          0.36 sec
//   384        18.18%    21260        83       27         0          0.41 sec
//   448        18.36%    21214        46       19         0          0.47 sec
//   512        18.53%    21169        45       26         0          0.52 sec
//   576        18.70%    21125        44       18         0          0.58 sec
//   640        18.88%    21077        48       18         0          0.63 sec
//   704        18.98%    21053        24       17         0          0.68 sec
//   720        18.98%    21051         2        2         0          0.73 sec
