//  command: set_current_design top 
//  Warning: 1 case: Unused net in DFT library model
//  Note: Issue set_current_design with the -show_elaboration_warnings option to see more details about previous warnings
//  command: set_system_mode analysis
//  Flattening process completed,  design_cells=254  leaf_cells=254  library_primitives=227  sim_gates=344  PIs=60  POs=30  CPU time=0.00 sec.
//  ---------------------------------------------------------------------------
//  Begin circuit learning analyses.
//  --------------------------------
//  Learning completed, CPU time=0.00 sec.
//  ---------------------------------------------------------------------------
//  Begin scan chain identification process, memory elements = 0.
//  ---------------------------------------------------------------------------
//  Circuit has no memory elements.
//  command: add_faults -all
//  command: set_fault_mode collapsed
//  command: set_fault_type stuck
//  command: read_patterns /home/animesh/currentResearch/ISI/atpg_structural/code/dumpData/tessent/epfl/random_control/router_synth/seventyPercent/router_synth_seventyPercent_1.spf
//  Reading STIL input file "/home/animesh/currentResearch/ISI/atpg_structural/code/dumpData/tessent/epfl/random_control/router_synth/seventyPercent/router_synth_seventyPercent_1.spf"
//  command: simulate_patterns > /home/animesh/currentResearch/ISI/atpg_structural/code/dumpData/tessent/epfl/random_control/router_synth/bin_0/simulateLogFile_router_synth_tenPercent_38_router_synth_seventyPercent_1.atpg.result
//  command: exit 
