// | ------------------------------------------------------------------------------------------------------------------ |
// |                                                                                                                    |
// |          Current split capture setting:     Off (optimal)                                                          |
// |                                                                                                                    |
// |   Current clock off simulation setting:     Off (optimal)                                                          |
// | ------------------------------------------------------------------------------------------------------------------ |
//  ------------------------------------------------------------------------
//  Simulation performed for #gates = 9044  #faults = 20843
//  Run fault simulation without storing patterns.  pattern source = 462 external patterns
//  ------------------------------------------------------------------------
//  #patterns  test      #faults  #faults    # eff.    # test         process 
//  simulated  coverage  in list  detected   patterns  patterns       CPU time
//   64         62.82%     7750     13093       64         0          0.22 sec
//   128        68.77%     6510      1240       62         0          0.25 sec
//   192        71.48%     5944       566       61         0          0.27 sec
//   256        73.19%     5587       357       54         0          0.29 sec
//   320        74.63%     5287       300       50         0          0.31 sec
//   384        75.44%     5120       167       44         0          0.33 sec
//   448        75.91%     5022        98       36         0          0.34 sec
//   462        76.08%     4985        37        8         0          0.36 sec
