// | ------------------------------------------------------------------------------------------------------------------ |
// |                                                                                                                    |
// |          Current split capture setting:     Off (optimal)                                                          |
// |                                                                                                                    |
// |   Current clock off simulation setting:     Off (optimal)                                                          |
// | ------------------------------------------------------------------------------------------------------------------ |
//  ------------------------------------------------------------------------
//  Simulation performed for #gates = 9044  #faults = 20494
//  Run fault simulation without storing patterns.  pattern source = 395 external patterns
//  ------------------------------------------------------------------------
//  #patterns  test      #faults  #faults    # eff.    # test         process 
//  simulated  coverage  in list  detected   patterns  patterns       CPU time
//   64         56.51%     8912     11582       64         0          0.18 sec
//   128        63.09%     7565      1347       59         0          0.21 sec
//   192        67.72%     6615       950       60         0          0.24 sec
//   256        69.93%     6163       452       52         0          0.27 sec
//   320        71.61%     5819       344       51         0          0.29 sec
//   384        72.50%     5635       184       42         0          0.30 sec
//   395        72.62%     5611        24        6         0          0.32 sec
