// | ------------------------------------------------------------------------------------------------------------------ |
// |                                                                                                                    |
// |          Current split capture setting:     Off (optimal)                                                          |
// |                                                                                                                    |
// |   Current clock off simulation setting:     Off (optimal)                                                          |
// | ------------------------------------------------------------------------------------------------------------------ |
//  ------------------------------------------------------------------------
//  Simulation performed for #gates = 9044  #faults = 20500
//  Run fault simulation without storing patterns.  pattern source = 449 external patterns
//  ------------------------------------------------------------------------
//  #patterns  test      #faults  #faults    # eff.    # test         process 
//  simulated  coverage  in list  detected   patterns  patterns       CPU time
//   64         61.84%     7822     12678       64         0          0.20 sec
//   128        67.86%     6589      1233       63         0          0.23 sec
//   192        71.34%     5876       713       61         0          0.26 sec
//   256        73.75%     5382       494       53         0          0.28 sec
//   320        75.06%     5113       269       46         0          0.29 sec
//   384        75.93%     4934       179       44         0          0.31 sec
//   448        76.69%     4779       155       40         0          0.33 sec
//   449        76.70%     4777         2        1         0          0.34 sec
