// | ------------------------------------------------------------------------------------------------------------------ |
// |                                                                                                                    |
// |          Current split capture setting:     Off (optimal)                                                          |
// |                                                                                                                    |
// |   Current clock off simulation setting:     Off (optimal)                                                          |
// | ------------------------------------------------------------------------------------------------------------------ |
//  ------------------------------------------------------------------------
//  Simulation performed for #gates = 9044  #faults = 20585
//  Run fault simulation without storing patterns.  pattern source = 474 external patterns
//  ------------------------------------------------------------------------
//  #patterns  test      #faults  #faults    # eff.    # test         process 
//  simulated  coverage  in list  detected   patterns  patterns       CPU time
//   64         59.05%     8429     12156       64         0          0.20 sec
//   128        64.86%     7234      1195       62         0          0.24 sec
//   192        67.77%     6635       599       58         0          0.26 sec
//   256        69.87%     6202       433       54         0          0.29 sec
//   320        71.10%     5950       252       47         0          0.31 sec
//   384        72.34%     5693       257       48         0          0.32 sec
//   448        72.85%     5589       104       30         0          0.34 sec
//   474        73.02%     5553        36       12         0          0.36 sec
