// | ------------------------------------------------------------------------------------------------------------------ |
// |                                                                                                                    |
// |          Current split capture setting:     Off (optimal)                                                          |
// |                                                                                                                    |
// |   Current clock off simulation setting:     Off (optimal)                                                          |
// | ------------------------------------------------------------------------------------------------------------------ |
//  ------------------------------------------------------------------------
//  Simulation performed for #gates = 9044  #faults = 20825
//  Run fault simulation without storing patterns.  pattern source = 462 external patterns
//  ------------------------------------------------------------------------
//  #patterns  test      #faults  #faults    # eff.    # test         process 
//  simulated  coverage  in list  detected   patterns  patterns       CPU time
//   64         60.04%     8321     12504       64         0          0.20 sec
//   128        65.02%     7284      1037       61         0          0.23 sec
//   192        68.16%     6630       654       57         0          0.25 sec
//   256        70.06%     6234       396       52         0          0.28 sec
//   320        71.77%     5879       355       45         0          0.29 sec
//   384        73.12%     5598       281       43         0          0.31 sec
//   448        74.20%     5373       225       38         0          0.33 sec
//   462        74.37%     5337        36        8         0          0.34 sec
