// | ------------------------------------------------------------------------------------------------------------------ |
// |                                                                                                                    |
// |          Current split capture setting:     Off (optimal)                                                          |
// |                                                                                                                    |
// |   Current clock off simulation setting:     Off (optimal)                                                          |
// | ------------------------------------------------------------------------------------------------------------------ |
//  ------------------------------------------------------------------------
//  Simulation performed for #gates = 9044  #faults = 20729
//  Run fault simulation without storing patterns.  pattern source = 395 external patterns
//  ------------------------------------------------------------------------
//  #patterns  test      #faults  #faults    # eff.    # test         process 
//  simulated  coverage  in list  detected   patterns  patterns       CPU time
//   64         62.44%     7786     12943       64         0          0.22 sec
//   128        68.64%     6500      1286       64         0          0.25 sec
//   192        73.11%     5574       926       58         0          0.28 sec
//   256        75.27%     5127       447       53         0          0.29 sec
//   320        76.48%     4876       251       49         0          0.31 sec
//   384        77.42%     4680       196       44         0          0.33 sec
//   395        77.56%     4652        28        7         0          0.34 sec
