// | ------------------------------------------------------------------------------------------------------------------ |
// |                                                                                                                    |
// |          Current split capture setting:     Off (optimal)                                                          |
// |                                                                                                                    |
// |   Current clock off simulation setting:     Off (optimal)                                                          |
// | ------------------------------------------------------------------------------------------------------------------ |
//  ------------------------------------------------------------------------
//  Simulation performed for #gates = 9044  #faults = 20818
//  Run fault simulation without storing patterns.  pattern source = 395 external patterns
//  ------------------------------------------------------------------------
//  #patterns  test      #faults  #faults    # eff.    # test         process 
//  simulated  coverage  in list  detected   patterns  patterns       CPU time
//   64         55.04%     9359     11459       64         0          0.17 sec
//   128        62.11%     7888      1471       63         0          0.21 sec
//   192        66.60%     6953       935       57         0          0.24 sec
//   256        68.68%     6520       433       55         0          0.26 sec
//   320        69.93%     6259       261       44         0          0.28 sec
//   384        70.77%     6086       173       41         0          0.30 sec
//   395        70.82%     6075        11        4         0          0.32 sec
