// | ------------------------------------------------------------------------------------------------------------------ |
// |                                                                                                                    |
// |          Current split capture setting:     Off (optimal)                                                          |
// |                                                                                                                    |
// |   Current clock off simulation setting:     Off (optimal)                                                          |
// | ------------------------------------------------------------------------------------------------------------------ |
//  ------------------------------------------------------------------------
//  Simulation performed for #gates = 9044  #faults = 20625
//  Run fault simulation without storing patterns.  pattern source = 421 external patterns
//  ------------------------------------------------------------------------
//  #patterns  test      #faults  #faults    # eff.    # test         process 
//  simulated  coverage  in list  detected   patterns  patterns       CPU time
//   64         60.14%     8221     12404       64         0          0.20 sec
//   128        63.69%     7489       732       64         0          0.23 sec
//   192        66.46%     6917       572       57         0          0.26 sec
//   256        67.72%     6657       260       51         0          0.28 sec
//   320        68.77%     6442       215       42         0          0.30 sec
//   384        69.54%     6283       159       45         0          0.32 sec
//   421        70.03%     6181       102       27         0          0.34 sec
