// | ------------------------------------------------------------------------------------------------------------------ |
// |                                                                                                                    |
// |          Current split capture setting:     Off (optimal)                                                          |
// |                                                                                                                    |
// |   Current clock off simulation setting:     Off (optimal)                                                          |
// | ------------------------------------------------------------------------------------------------------------------ |
//  ------------------------------------------------------------------------
//  Simulation performed for #gates = 9044  #faults = 20619
//  Run fault simulation without storing patterns.  pattern source = 472 external patterns
//  ------------------------------------------------------------------------
//  #patterns  test      #faults  #faults    # eff.    # test         process 
//  simulated  coverage  in list  detected   patterns  patterns       CPU time
//   64         56.56%     8956     11663       64         0          0.15 sec
//   128        62.21%     7791      1165       64         0          0.19 sec
//   192        64.42%     7337       454       53         0          0.21 sec
//   256        66.10%     6990       347       49         0          0.24 sec
//   320        67.43%     6716       274       46         0          0.26 sec
//   384        68.24%     6548       168       35         0          0.28 sec
//   448        68.63%     6469        79       31         0          0.30 sec
//   472        68.94%     6404        65        7         0          0.32 sec
