// | ------------------------------------------------------------------------------------------------------------------ |
// |                                                                                                                    |
// |          Current split capture setting:     Off (optimal)                                                          |
// |                                                                                                                    |
// |   Current clock off simulation setting:     Off (optimal)                                                          |
// | ------------------------------------------------------------------------------------------------------------------ |
//  ------------------------------------------------------------------------
//  Simulation performed for #gates = 9044  #faults = 20713
//  Run fault simulation without storing patterns.  pattern source = 446 external patterns
//  ------------------------------------------------------------------------
//  #patterns  test      #faults  #faults    # eff.    # test         process 
//  simulated  coverage  in list  detected   patterns  patterns       CPU time
//   64         57.57%     8789     11924       64         0          0.22 sec
//   128        62.21%     7828       961       57         0          0.25 sec
//   192        66.27%     6986       842       54         0          0.28 sec
//   256        68.82%     6458       528       45         0          0.30 sec
//   320        69.91%     6232       226       44         0          0.32 sec
//   384        71.16%     5973       259       42         0          0.34 sec
//   446        72.23%     5751       222       35         0          0.36 sec
