// | ------------------------------------------------------------------------------------------------------------------ |
// |                                                                                                                    |
// |          Current split capture setting:     Off (optimal)                                                          |
// |                                                                                                                    |
// |   Current clock off simulation setting:     Off (optimal)                                                          |
// | ------------------------------------------------------------------------------------------------------------------ |
//  ------------------------------------------------------------------------
//  Simulation performed for #gates = 9044  #faults = 20494
//  Run fault simulation without storing patterns.  pattern source = 383 external patterns
//  ------------------------------------------------------------------------
//  #patterns  test      #faults  #faults    # eff.    # test         process 
//  simulated  coverage  in list  detected   patterns  patterns       CPU time
//   64         57.99%     8610     11884       64         0          0.17 sec
//   128        61.72%     7846       764       59         0          0.20 sec
//   192        64.73%     7228       618       61         0          0.23 sec
//   256        66.59%     6847       381       51         0          0.25 sec
//   320        68.04%     6550       297       43         0          0.28 sec
//   383        68.47%     6462        88       30         0          0.30 sec
