// | ------------------------------------------------------------------------------------------------------------------ |
// |                                                                                                                    |
// |          Current split capture setting:     Off (optimal)                                                          |
// |                                                                                                                    |
// |   Current clock off simulation setting:     Off (optimal)                                                          |
// | ------------------------------------------------------------------------------------------------------------------ |
//  ------------------------------------------------------------------------
//  Simulation performed for #gates = 9044  #faults = 20625
//  Run fault simulation without storing patterns.  pattern source = 419 external patterns
//  ------------------------------------------------------------------------
//  #patterns  test      #faults  #faults    # eff.    # test         process 
//  simulated  coverage  in list  detected   patterns  patterns       CPU time
//   64         60.62%     8122     12503       64         0          0.21 sec
//   128        67.01%     6805      1317       64         0          0.24 sec
//   192        69.56%     6279       526       58         0          0.26 sec
//   256        71.46%     5886       393       55         0          0.29 sec
//   320        72.39%     5694       192       44         0          0.30 sec
//   384        73.49%     5467       227       47         0          0.32 sec
//   419        73.85%     5393        74       24         0          0.34 sec
