// | ------------------------------------------------------------------------------------------------------------------ |
// |                                                                                                                    |
// |          Current split capture setting:     Off (optimal)                                                          |
// |                                                                                                                    |
// |   Current clock off simulation setting:     Off (optimal)                                                          |
// | ------------------------------------------------------------------------------------------------------------------ |
//  ------------------------------------------------------------------------
//  Simulation performed for #gates = 9044  #faults = 20643
//  Run fault simulation without storing patterns.  pattern source = 395 external patterns
//  ------------------------------------------------------------------------
//  #patterns  test      #faults  #faults    # eff.    # test         process 
//  simulated  coverage  in list  detected   patterns  patterns       CPU time
//   64         56.96%     8885     11758       64         0          0.20 sec
//   128        62.29%     7784      1101       62         0          0.24 sec
//   192        66.21%     6975       809       58         0          0.26 sec
//   256        67.94%     6619       356       54         0          0.29 sec
//   320        69.34%     6330       289       46         0          0.31 sec
//   384        69.90%     6213       117       35         0          0.33 sec
//   395        69.98%     6197        16        7         0          0.35 sec
