// | ------------------------------------------------------------------------------------------------------------------ |
// |                                                                                                                    |
// |          Current split capture setting:     Off (optimal)                                                          |
// |                                                                                                                    |
// |   Current clock off simulation setting:     Off (optimal)                                                          |
// | ------------------------------------------------------------------------------------------------------------------ |
//  ------------------------------------------------------------------------
//  Simulation performed for #gates = 9044  #faults = 20592
//  Run fault simulation without storing patterns.  pattern source = 438 external patterns
//  ------------------------------------------------------------------------
//  #patterns  test      #faults  #faults    # eff.    # test         process 
//  simulated  coverage  in list  detected   patterns  patterns       CPU time
//   64         54.99%     9268     11324       64         0          0.17 sec
//   128        60.12%     8212      1056       59         0          0.20 sec
//   192        62.04%     7817       395       50         0          0.23 sec
//   256        63.51%     7514       303       43         0          0.26 sec
//   320        65.06%     7194       320       46         0          0.28 sec
//   384        66.06%     6988       206       38         0          0.31 sec
//   438        67.43%     6707       281       35         0          0.33 sec
