// | ------------------------------------------------------------------------------------------------------------------ |
// |                                                                                                                    |
// |          Current split capture setting:     Off (optimal)                                                          |
// |                                                                                                                    |
// |   Current clock off simulation setting:     Off (optimal)                                                          |
// | ------------------------------------------------------------------------------------------------------------------ |
//  ------------------------------------------------------------------------
//  Simulation performed for #gates = 9044  #faults = 20743
//  Run fault simulation without storing patterns.  pattern source = 429 external patterns
//  ------------------------------------------------------------------------
//  #patterns  test      #faults  #faults    # eff.    # test         process 
//  simulated  coverage  in list  detected   patterns  patterns       CPU time
//   64         57.40%     8837     11906       64         0          0.21 sec
//   128        62.07%     7867       970       60         0          0.25 sec
//   192        64.56%     7352       515       57         0          0.28 sec
//   256        66.74%     6900       452       53         0          0.31 sec
//   320        68.41%     6553       347       53         0          0.33 sec
//   384        69.74%     6276       277       44         0          0.35 sec
//   429        70.27%     6167       109       25         0          0.37 sec
