// | ------------------------------------------------------------------------------------------------------------------ |
// |                                                                                                                    |
// |          Current split capture setting:     Off (optimal)                                                          |
// |                                                                                                                    |
// |   Current clock off simulation setting:     Off (optimal)                                                          |
// | ------------------------------------------------------------------------------------------------------------------ |
//  ------------------------------------------------------------------------
//  Simulation performed for #gates = 9044  #faults = 20643
//  Run fault simulation without storing patterns.  pattern source = 449 external patterns
//  ------------------------------------------------------------------------
//  #patterns  test      #faults  #faults    # eff.    # test         process 
//  simulated  coverage  in list  detected   patterns  patterns       CPU time
//   64         59.66%     8327     12316       64         0          0.21 sec
//   128        65.47%     7129      1198       61         0          0.24 sec
//   192        68.22%     6560       569       58         0          0.27 sec
//   256        69.83%     6227       333       50         0          0.29 sec
//   320        70.94%     5998       229       50         0          0.31 sec
//   384        72.03%     5774       224       42         0          0.33 sec
//   448        72.86%     5602       172       34         0          0.35 sec
//   449        72.87%     5601         1        1         0          0.36 sec
