// | ------------------------------------------------------------------------------------------------------------------ |
// |                                                                                                                    |
// |          Current split capture setting:     Off (optimal)                                                          |
// |                                                                                                                    |
// |   Current clock off simulation setting:     Off (optimal)                                                          |
// | ------------------------------------------------------------------------------------------------------------------ |
//  ------------------------------------------------------------------------
//  Simulation performed for #gates = 9044  #faults = 20834
//  Run fault simulation without storing patterns.  pattern source = 443 external patterns
//  ------------------------------------------------------------------------
//  #patterns  test      #faults  #faults    # eff.    # test         process 
//  simulated  coverage  in list  detected   patterns  patterns       CPU time
//   64         55.35%     9302     11532       64         0          0.16 sec
//   128        58.94%     8554       748       59         0          0.19 sec
//   192        61.99%     7920       634       56         0          0.22 sec
//   256        63.74%     7554       366       49         0          0.25 sec
//   320        65.59%     7168       386       46         0          0.27 sec
//   384        67.28%     6816       352       50         0          0.30 sec
//   443        68.26%     6612       204       38         0          0.32 sec
