// | ------------------------------------------------------------------------------------------------------------------ |
// |                                                                                                                    |
// |          Current split capture setting:     Off (optimal)                                                          |
// |                                                                                                                    |
// |   Current clock off simulation setting:     Off (optimal)                                                          |
// | ------------------------------------------------------------------------------------------------------------------ |
//  ------------------------------------------------------------------------
//  Simulation performed for #gates = 9044  #faults = 20721
//  Run fault simulation without storing patterns.  pattern source = 446 external patterns
//  ------------------------------------------------------------------------
//  #patterns  test      #faults  #faults    # eff.    # test         process 
//  simulated  coverage  in list  detected   patterns  patterns       CPU time
//   64         55.24%     9274     11447       64         0          0.17 sec
//   128        58.97%     8502       772       58         0          0.21 sec
//   192        61.14%     8053       449       55         0          0.24 sec
//   256        62.31%     7810       243       46         0          0.26 sec
//   320        63.35%     7594       216       39         0          0.29 sec
//   384        64.08%     7443       151       38         0          0.32 sec
//   446        64.98%     7256       187       35         0          0.34 sec
