// | ------------------------------------------------------------------------------------------------------------------ |
// |                                                                                                                    |
// |          Current split capture setting:     Off (optimal)                                                          |
// |                                                                                                                    |
// |   Current clock off simulation setting:     Off (optimal)                                                          |
// | ------------------------------------------------------------------------------------------------------------------ |
//  ------------------------------------------------------------------------
//  Simulation performed for #gates = 9044  #faults = 20500
//  Run fault simulation without storing patterns.  pattern source = 474 external patterns
//  ------------------------------------------------------------------------
//  #patterns  test      #faults  #faults    # eff.    # test         process 
//  simulated  coverage  in list  detected   patterns  patterns       CPU time
//   64         62.69%     7648     12852       64         0          0.20 sec
//   128        68.63%     6431      1217       62         0          0.24 sec
//   192        71.33%     5878       553       60         0          0.26 sec
//   256        72.62%     5612       266       51         0          0.28 sec
//   320        73.87%     5356       256       50         0          0.30 sec
//   384        75.17%     5090       266       40         0          0.31 sec
//   448        75.69%     4984       106       26         0          0.33 sec
//   474        75.83%     4955        29       12         0          0.34 sec
