// | ------------------------------------------------------------------------------------------------------------------ |
// |                                                                                                                    |
// |          Current split capture setting:     Off (optimal)                                                          |
// |                                                                                                                    |
// |   Current clock off simulation setting:     Off (optimal)                                                          |
// | ------------------------------------------------------------------------------------------------------------------ |
//  ------------------------------------------------------------------------
//  Simulation performed for #gates = 9044  #faults = 20569
//  Run fault simulation without storing patterns.  pattern source = 419 external patterns
//  ------------------------------------------------------------------------
//  #patterns  test      #faults  #faults    # eff.    # test         process 
//  simulated  coverage  in list  detected   patterns  patterns       CPU time
//   64         55.01%     9253     11316       64         0          0.20 sec
//   128        59.98%     8231      1022       57         0          0.24 sec
//   192        62.16%     7784       447       56         0          0.27 sec
//   256        64.12%     7380       404       55         0          0.29 sec
//   320        64.91%     7218       162       41         0          0.32 sec
//   384        66.02%     6990       228       39         0          0.34 sec
//   419        66.63%     6863       127       21         0          0.36 sec
