// | ------------------------------------------------------------------------------------------------------------------ |
// |                                                                                                                    |
// |          Current split capture setting:     Off (optimal)                                                          |
// |                                                                                                                    |
// |   Current clock off simulation setting:     Off (optimal)                                                          |
// | ------------------------------------------------------------------------------------------------------------------ |
//  ------------------------------------------------------------------------
//  Simulation performed for #gates = 9044  #faults = 20492
//  Run fault simulation without storing patterns.  pattern source = 429 external patterns
//  ------------------------------------------------------------------------
//  #patterns  test      #faults  #faults    # eff.    # test         process 
//  simulated  coverage  in list  detected   patterns  patterns       CPU time
//   64         49.78%    10291     10201       64         0          0.17 sec
//   128        55.28%     9164      1127       62         0          0.21 sec
//   192        57.59%     8691       473       53         0          0.24 sec
//   256        59.48%     8303       388       48         0          0.27 sec
//   320        60.89%     8014       289       38         0          0.29 sec
//   384        62.21%     7744       270       30         0          0.32 sec
//   429        63.13%     7555       189       23         0          0.34 sec
