// | ------------------------------------------------------------------------------------------------------------------ |
// |                                                                                                                    |
// |          Current split capture setting:     Off (optimal)                                                          |
// |                                                                                                                    |
// |   Current clock off simulation setting:     Off (optimal)                                                          |
// | ------------------------------------------------------------------------------------------------------------------ |
//  ------------------------------------------------------------------------
//  Simulation performed for #gates = 9044  #faults = 20492
//  Run fault simulation without storing patterns.  pattern source = 419 external patterns
//  ------------------------------------------------------------------------
//  #patterns  test      #faults  #faults    # eff.    # test         process 
//  simulated  coverage  in list  detected   patterns  patterns       CPU time
//   64         53.33%     9564     10928       64         0          0.18 sec
//   128        57.39%     8732       832       61         0          0.22 sec
//   192        59.69%     8260       472       47         0          0.25 sec
//   256        61.28%     7934       326       49         0          0.27 sec
//   320        62.42%     7701       233       35         0          0.30 sec
//   384        63.12%     7557       144       23         0          0.32 sec
//   419        63.59%     7461        96       17         0          0.34 sec
