// | ------------------------------------------------------------------------------------------------------------------ |
// |                                                                                                                    |
// |          Current split capture setting:     Off (optimal)                                                          |
// |                                                                                                                    |
// |   Current clock off simulation setting:     Off (optimal)                                                          |
// | ------------------------------------------------------------------------------------------------------------------ |
//  ------------------------------------------------------------------------
//  Simulation performed for #gates = 9044  #faults = 20818
//  Run fault simulation without storing patterns.  pattern source = 367 external patterns
//  ------------------------------------------------------------------------
//  #patterns  test      #faults  #faults    # eff.    # test         process 
//  simulated  coverage  in list  detected   patterns  patterns       CPU time
//   64         58.68%     8602     12216       64         0          0.19 sec
//   128        64.61%     7368      1234       62         0          0.22 sec
//   192        67.17%     6834       534       55         0          0.24 sec
//   256        69.01%     6452       382       51         0          0.27 sec
//   320        70.18%     6208       244       44         0          0.29 sec
//   367        70.73%     6093       115       26         0          0.30 sec
