// | ------------------------------------------------------------------------------------------------------------------ |
// |                                                                                                                    |
// |          Current split capture setting:     Off (optimal)                                                          |
// |                                                                                                                    |
// |   Current clock off simulation setting:     Off (optimal)                                                          |
// | ------------------------------------------------------------------------------------------------------------------ |
//  ------------------------------------------------------------------------
//  Simulation performed for #gates = 9044  #faults = 20643
//  Run fault simulation without storing patterns.  pattern source = 426 external patterns
//  ------------------------------------------------------------------------
//  #patterns  test      #faults  #faults    # eff.    # test         process 
//  simulated  coverage  in list  detected   patterns  patterns       CPU time
//   64         59.35%     8392     12251       64         0          0.21 sec
//   128        65.91%     7037      1355       63         0          0.24 sec
//   192        68.38%     6527       510       55         0          0.27 sec
//   256        69.99%     6195       332       48         0          0.29 sec
//   320        71.03%     5980       215       42         0          0.31 sec
//   384        71.78%     5825       155       36         0          0.33 sec
//   426        72.20%     5739        86       20         0          0.34 sec
