// | ------------------------------------------------------------------------------------------------------------------ |
// |                                                                                                                    |
// |          Current split capture setting:     Off (optimal)                                                          |
// |                                                                                                                    |
// |   Current clock off simulation setting:     Off (optimal)                                                          |
// | ------------------------------------------------------------------------------------------------------------------ |
//  ------------------------------------------------------------------------
//  Simulation performed for #gates = 9044  #faults = 20843
//  Run fault simulation without storing patterns.  pattern source = 442 external patterns
//  ------------------------------------------------------------------------
//  #patterns  test      #faults  #faults    # eff.    # test         process 
//  simulated  coverage  in list  detected   patterns  patterns       CPU time
//   64         54.82%     9417     11426       64         0          0.17 sec
//   128        59.83%     8372      1045       57         0          0.21 sec
//   192        62.68%     7779       593       51         0          0.24 sec
//   256        64.83%     7330       449       52         0          0.26 sec
//   320        66.08%     7069       261       45         0          0.29 sec
//   384        66.74%     6933       136       34         0          0.31 sec
//   442        67.45%     6784       149       31         0          0.33 sec
