          Statistics Report          
           Stuck-at Faults           
-------------------------------------
Fault Classes              #faults   
                           (coll.)   
---------------------  --------------
  FU (full)                  914     
  -------------------  --------------
  DS (det_simulation)    772 (84.46%)
  TI (tied)                4 ( 0.44%)
  RE (redundant)         138 (15.10%)
-------------------------------------
Coverage                             
  -------------------                
  test_coverage              100.00% 
  fault_coverage              84.46% 
  atpg_effectiveness         100.00% 
-------------------------------------
#test_patterns                    59 
#simulated_patterns               78 
CPU_time (secs)                  1.5 
-------------------------------------

