          Statistics Report          
           Stuck-at Faults           
-------------------------------------
Fault Classes              #faults   
                           (coll.)   
---------------------  --------------
  FU (full)                 9584     
  -------------------  --------------
  DS (det_simulation)   7446 (77.69%)
  UU (unused)             22 ( 0.23%)
  TI (tied)              315 ( 3.29%)
  BL (blocked)           560 ( 5.84%)
  RE (redundant)        1241 (12.95%)
-------------------------------------
Coverage                             
  -------------------                
  test_coverage              100.00% 
  fault_coverage              77.69% 
  atpg_effectiveness         100.00% 
-------------------------------------
#test_patterns                   101 
#simulated_patterns              101 
CPU_time (secs)                  2.6 
-------------------------------------

