           Statistics Report          
            Stuck-at Faults           
--------------------------------------
Fault Classes               #faults   
                            (coll.)   
----------------------  --------------
  FU (full)                  2648     
  --------------------  --------------
  UO (unobserved)          14 ( 0.53%)
  DS (det_simulation)    1111 (41.96%)
  TI (tied)               181 ( 6.84%)
  BL (blocked)            136 ( 5.14%)
  RE (redundant)         1192 (45.02%)
  AU (atpg_untestable)     14 ( 0.53%)
--------------------------------------
Fault Sub-classes                     
  --------------------                
  UC+UO                               
    AAB  (atpg_abort)      14 ( 0.53%)
--------------------------------------
Coverage                              
  --------------------                
  test_coverage                97.54% 
  fault_coverage               41.96% 
  atpg_effectiveness           99.47% 
--------------------------------------
#test_patterns                     96 
#simulated_patterns               125 
CPU_time (secs)                   2.1 
--------------------------------------

