           Statistics Report          
            Stuck-at Faults           
--------------------------------------
Fault Classes               #faults   
                            (coll.)   
----------------------  --------------
  FU (full)                  2648     
  --------------------  --------------
  UO (unobserved)          36 ( 1.36%)
  DS (det_simulation)     955 (36.06%)
  TI (tied)               254 ( 9.59%)
  BL (blocked)            173 ( 6.53%)
  RE (redundant)         1137 (42.94%)
  AU (atpg_untestable)     93 ( 3.51%)
--------------------------------------
Fault Sub-classes                     
  --------------------                
  UC+UO                               
    AAB  (atpg_abort)      36 ( 1.36%)
--------------------------------------
Coverage                              
  --------------------                
  test_coverage                88.10% 
  fault_coverage               36.06% 
  atpg_effectiveness           98.64% 
--------------------------------------
#test_patterns                     83 
#simulated_patterns               101 
CPU_time (secs)                   2.8 
--------------------------------------

