	*******************************************************
	*                                                     *
	*          Welcome to atalanta (version 2.0)          *
	*                                                     *
	*               Dong S. Ha (ha@vt.edu)                *
	*            Web: http://www.ee.vt.edu/ha             *
	*  Virginia Polytechnic Institute & State University  *
	*                                                     *
	*******************************************************

******   SUMMARY OF TEST PATTERN GENERATION RESULTS   ******
1. Circuit structure
   Name of the circuit                       : s382
   Number of primary inputs                  : 24
   Number of primary outputs                 : 27
   Number of gates                           : 158
   Level of the circuit                      : 9

2. ATPG parameters
   Test pattern generation mode              : RPT + DTPG + TC
   Limit of random patterns (packets)        : 16
   Backtrack limit                           : 10
   Initial random number generator seed      : 1556031454
   Test pattern compaction mode              : REVERSE + SHUFFLE 
   Limit of suffling compaction              : 2
   Number of shuffles                        : 5

3. Test pattern generation results
   Number of test patterns before compaction : 60
   Number of test patterns after compaction  : 41
   Fault coverage                            : 85.714 %
   Number of collapsed faults                : 399
   Number of identified redundant faults     : 56
   Number of aborted faults                  : 1
   Total number of backtrackings             : 98

4. Memory used                               : 16363 Kbytes

5. CPU time
   Initialization                            : 0.000 secs
   Fault simulation                          : 0.000 secs
   FAN                                       : 0.000 secs
   Total                                     : 0.000 secs
