           Statistics Report          
            Stuck-at Faults           
--------------------------------------
Fault Classes               #faults   
                            (coll.)   
----------------------  --------------
  FU (full)                  47162    
  --------------------  --------------
  UO (unobserved)          19 ( 0.04%)
  DS (det_simulation)   23470 (49.76%)
  TI (tied)              2443 ( 5.18%)
  BL (blocked)           6939 (14.71%)
  RE (redundant)        14245 (30.20%)
  AU (atpg_untestable)     46 ( 0.10%)
--------------------------------------
Fault Sub-classes                     
  --------------------                
  UC+UO                               
    AAB  (atpg_abort)      19 ( 0.04%)
--------------------------------------
Coverage                              
  --------------------                
  test_coverage                99.72% 
  fault_coverage               49.76% 
  atpg_effectiveness           99.96% 
--------------------------------------
#test_patterns                    240 
#simulated_patterns               247 
CPU_time (secs)                  14.7 
--------------------------------------

