// | ------------------------------------------------------------------------------------------------------------------ |
// |                                                                                                                    |
// |          Current split capture setting:     Off (optimal)                                                          |
// |                                                                                                                    |
// |   Current clock off simulation setting:     Off (optimal)                                                          |
// | ------------------------------------------------------------------------------------------------------------------ |
//  ------------------------------------------------------------------------
//  Simulation performed for #gates = 9044  #faults = 19331
//  Run fault simulation without storing patterns.  pattern source = 378 external patterns
//  ------------------------------------------------------------------------
//  #patterns  test      #faults  #faults    # eff.    # test         process 
//  simulated  coverage  in list  detected   patterns  patterns       CPU time
//   64         50.24%     9619      9712       64         0          0.13 sec
//   128        55.30%     8641       978       62         0          0.16 sec
//   192        57.78%     8162       479       52         0          0.19 sec
//   256        59.44%     7841       321       52         0          0.22 sec
//   320        60.97%     7545       296       48         0          0.24 sec
//   378        62.02%     7342       203       33         0          0.26 sec
