// | ------------------------------------------------------------------------------------------------------------------ |
// |                                                                                                                    |
// |          Current split capture setting:     Off (optimal)                                                          |
// |                                                                                                                    |
// |   Current clock off simulation setting:     Off (optimal)                                                          |
// | ------------------------------------------------------------------------------------------------------------------ |
//  ------------------------------------------------------------------------
//  Simulation performed for #gates = 9044  #faults = 20693
//  Run fault simulation without storing patterns.  pattern source = 358 external patterns
//  ------------------------------------------------------------------------
//  #patterns  test      #faults  #faults    # eff.    # test         process 
//  simulated  coverage  in list  detected   patterns  patterns       CPU time
//   64         53.58%     9605     11088       64         0          0.19 sec
//   128        57.26%     8844       761       61         0          0.22 sec
//   192        59.58%     8364       480       55         0          0.25 sec
//   256        60.74%     8125       239       48         0          0.28 sec
//   320        62.07%     7848       277       51         0          0.30 sec
//   358        62.63%     7734       114       23         0          0.33 sec
