// | ------------------------------------------------------------------------------------------------------------------ |
// |                                                                                                                    |
// |          Current split capture setting:     Off (optimal)                                                          |
// |                                                                                                                    |
// |   Current clock off simulation setting:     Off (optimal)                                                          |
// | ------------------------------------------------------------------------------------------------------------------ |
//  ------------------------------------------------------------------------
//  Simulation performed for #gates = 9044  #faults = 20627
//  Run fault simulation without storing patterns.  pattern source = 422 external patterns
//  ------------------------------------------------------------------------
//  #patterns  test      #faults  #faults    # eff.    # test         process 
//  simulated  coverage  in list  detected   patterns  patterns       CPU time
//   64         53.73%     9544     11083       64         0          0.18 sec
//   128        58.19%     8625       919       62         0          0.21 sec
//   192        60.97%     8051       574       59         0          0.24 sec
//   256        62.63%     7708       343       56         0          0.26 sec
//   320        63.39%     7552       156       40         0          0.29 sec
//   384        64.31%     7361       191       39         0          0.31 sec
//   422        64.60%     7301        60       15         0          0.33 sec
