// | ------------------------------------------------------------------------------------------------------------------ |
// |                                                                                                                    |
// |          Current split capture setting:     Off (optimal)                                                          |
// |                                                                                                                    |
// |   Current clock off simulation setting:     Off (optimal)                                                          |
// | ------------------------------------------------------------------------------------------------------------------ |
//  ------------------------------------------------------------------------
//  Simulation performed for #gates = 9044  #faults = 20555
//  Run fault simulation without storing patterns.  pattern source = 347 external patterns
//  ------------------------------------------------------------------------
//  #patterns  test      #faults  #faults    # eff.    # test         process 
//  simulated  coverage  in list  detected   patterns  patterns       CPU time
//   64         52.11%     9843     10712       64         0          0.17 sec
//   128        56.74%     8892       951       63         0          0.21 sec
//   192        58.74%     8480       412       53         0          0.23 sec
//   256        60.12%     8197       283       49         0          0.26 sec
//   320        61.32%     7950       247       46         0          0.29 sec
//   347        61.69%     7874        76       18         0          0.31 sec
