// | ------------------------------------------------------------------------------------------------------------------ |
// |                                                                                                                    |
// |          Current split capture setting:     Off (optimal)                                                          |
// |                                                                                                                    |
// |   Current clock off simulation setting:     Off (optimal)                                                          |
// | ------------------------------------------------------------------------------------------------------------------ |
//  ------------------------------------------------------------------------
//  Simulation performed for #gates = 9044  #faults = 20539
//  Run fault simulation without storing patterns.  pattern source = 366 external patterns
//  ------------------------------------------------------------------------
//  #patterns  test      #faults  #faults    # eff.    # test         process 
//  simulated  coverage  in list  detected   patterns  patterns       CPU time
//   64         53.52%     9547     10992       64         0          0.18 sec
//   128        58.74%     8474      1073       63         0          0.21 sec
//   192        60.99%     8013       461       58         0          0.24 sec
//   256        62.83%     7635       378       54         0          0.27 sec
//   320        64.07%     7380       255       51         0          0.29 sec
//   366        64.55%     7282        98       31         0          0.31 sec
