// | ------------------------------------------------------------------------------------------------------------------ |
// |                                                                                                                    |
// |          Current split capture setting:     Off (optimal)                                                          |
// |                                                                                                                    |
// |   Current clock off simulation setting:     Off (optimal)                                                          |
// | ------------------------------------------------------------------------------------------------------------------ |
//  ------------------------------------------------------------------------
//  Simulation performed for #gates = 9044  #faults = 20350
//  Run fault simulation without storing patterns.  pattern source = 359 external patterns
//  ------------------------------------------------------------------------
//  #patterns  test      #faults  #faults    # eff.    # test         process 
//  simulated  coverage  in list  detected   patterns  patterns       CPU time
//   64         52.63%     9639     10711       64         0          0.16 sec
//   128        57.11%     8729       910       63         0          0.19 sec
//   192        59.69%     8203       526       61         0          0.22 sec
//   256        61.00%     7937       266       49         0          0.25 sec
//   320        62.44%     7643       294       50         0          0.27 sec
//   359        62.80%     7571        72       26         0          0.30 sec
