// | ------------------------------------------------------------------------------------------------------------------ |
// |                                                                                                                    |
// |          Current split capture setting:     Off (optimal)                                                          |
// |                                                                                                                    |
// |   Current clock off simulation setting:     Off (optimal)                                                          |
// | ------------------------------------------------------------------------------------------------------------------ |
//  ------------------------------------------------------------------------
//  Simulation performed for #gates = 9044  #faults = 20518
//  Run fault simulation without storing patterns.  pattern source = 347 external patterns
//  ------------------------------------------------------------------------
//  #patterns  test      #faults  #faults    # eff.    # test         process 
//  simulated  coverage  in list  detected   patterns  patterns       CPU time
//   64         50.64%    10128     10390       64         0          0.17 sec
//   128        54.70%     9295       833       61         0          0.21 sec
//   192        57.16%     8789       506       59         0          0.24 sec
//   256        59.65%     8278       511       55         0          0.26 sec
//   320        60.75%     8053       225       47         0          0.29 sec
//   347        61.09%     7983        70       18         0          0.31 sec
