// | ------------------------------------------------------------------------------------------------------------------ |
// |                                                                                                                    |
// |          Current split capture setting:     Off (optimal)                                                          |
// |                                                                                                                    |
// |   Current clock off simulation setting:     Off (optimal)                                                          |
// | ------------------------------------------------------------------------------------------------------------------ |
//  ------------------------------------------------------------------------
//  Simulation performed for #gates = 9044  #faults = 20574
//  Run fault simulation without storing patterns.  pattern source = 325 external patterns
//  ------------------------------------------------------------------------
//  #patterns  test      #faults  #faults    # eff.    # test         process 
//  simulated  coverage  in list  detected   patterns  patterns       CPU time
//   64         50.07%    10272     10302       64         0          0.16 sec
//   128        54.21%     9421       851       58         0          0.20 sec
//   192        56.36%     8978       443       48         0          0.23 sec
//   256        57.66%     8712       266       49         0          0.26 sec
//   320        58.40%     8558       154       35         0          0.29 sec
//   325        58.97%     8442       116        4         0          0.31 sec
