// | ------------------------------------------------------------------------------------------------------------------ |
// |                                                                                                                    |
// |          Current split capture setting:     Off (optimal)                                                          |
// |                                                                                                                    |
// |   Current clock off simulation setting:     Off (optimal)                                                          |
// | ------------------------------------------------------------------------------------------------------------------ |
//  ------------------------------------------------------------------------
//  Simulation performed for #gates = 9044  #faults = 20508
//  Run fault simulation without storing patterns.  pattern source = 353 external patterns
//  ------------------------------------------------------------------------
//  #patterns  test      #faults  #faults    # eff.    # test         process 
//  simulated  coverage  in list  detected   patterns  patterns       CPU time
//   64         56.13%     8997     11511       64         0          0.19 sec
//   128        60.80%     8040       957       64         0          0.22 sec
//   192        63.25%     7536       504       60         0          0.25 sec
//   256        65.20%     7137       399       55         0          0.27 sec
//   320        66.43%     6884       253       46         0          0.29 sec
//   353        66.77%     6814        70       22         0          0.31 sec
