// | ------------------------------------------------------------------------------------------------------------------ |
// |                                                                                                                    |
// |          Current split capture setting:     Off (optimal)                                                          |
// |                                                                                                                    |
// |   Current clock off simulation setting:     Off (optimal)                                                          |
// | ------------------------------------------------------------------------------------------------------------------ |
//  ------------------------------------------------------------------------
//  Simulation performed for #gates = 9044  #faults = 20579
//  Run fault simulation without storing patterns.  pattern source = 393 external patterns
//  ------------------------------------------------------------------------
//  #patterns  test      #faults  #faults    # eff.    # test         process 
//  simulated  coverage  in list  detected   patterns  patterns       CPU time
//   64         54.77%     9307     11272       64         0          0.14 sec
//   128        58.84%     8471       836       61         0          0.18 sec
//   192        60.87%     8052       419       57         0          0.20 sec
//   256        62.24%     7771       281       50         0          0.23 sec
//   320        63.11%     7591       180       47         0          0.25 sec
//   384        64.26%     7354       237       35         0          0.27 sec
//   393        64.39%     7329        25        6         0          0.29 sec
