// | ------------------------------------------------------------------------------------------------------------------ |
// |                                                                                                                    |
// |          Current split capture setting:     Off (optimal)                                                          |
// |                                                                                                                    |
// |   Current clock off simulation setting:     Off (optimal)                                                          |
// | ------------------------------------------------------------------------------------------------------------------ |
//  ------------------------------------------------------------------------
//  Simulation performed for #gates = 9044  #faults = 20669
//  Run fault simulation without storing patterns.  pattern source = 363 external patterns
//  ------------------------------------------------------------------------
//  #patterns  test      #faults  #faults    # eff.    # test         process 
//  simulated  coverage  in list  detected   patterns  patterns       CPU time
//   64         50.08%    10317     10352       64         0          0.15 sec
//   128        54.65%     9373       944       59         0          0.18 sec
//   192        56.79%     8931       442       52         0          0.22 sec
//   256        58.09%     8662       269       51         0          0.25 sec
//   320        59.17%     8439       223       45         0          0.27 sec
//   363        59.89%     8290       149       20         0          0.30 sec
