// | ------------------------------------------------------------------------------------------------------------------ |
// |                                                                                                                    |
// |          Current split capture setting:     Off (optimal)                                                          |
// |                                                                                                                    |
// |   Current clock off simulation setting:     Off (optimal)                                                          |
// | ------------------------------------------------------------------------------------------------------------------ |
//  ------------------------------------------------------------------------
//  Simulation performed for #gates = 9044  #faults = 20787
//  Run fault simulation without storing patterns.  pattern source = 398 external patterns
//  ------------------------------------------------------------------------
//  #patterns  test      #faults  #faults    # eff.    # test         process 
//  simulated  coverage  in list  detected   patterns  patterns       CPU time
//   64         52.92%     9787     11000       64         0          0.19 sec
//   128        57.43%     8848       939       62         0          0.23 sec
//   192        59.51%     8416       432       56         0          0.26 sec
//   256        60.58%     8194       222       48         0          0.28 sec
//   320        61.30%     8045       149       42         0          0.31 sec
//   384        61.81%     7939       106       35         0          0.33 sec
//   398        61.95%     7909        30        8         0          0.35 sec
