// | ------------------------------------------------------------------------------------------------------------------ |
// |                                                                                                                    |
// |          Current split capture setting:     Off (optimal)                                                          |
// |                                                                                                                    |
// |   Current clock off simulation setting:     Off (optimal)                                                          |
// | ------------------------------------------------------------------------------------------------------------------ |
//  ------------------------------------------------------------------------
//  Simulation performed for #gates = 9044  #faults = 20539
//  Run fault simulation without storing patterns.  pattern source = 353 external patterns
//  ------------------------------------------------------------------------
//  #patterns  test      #faults  #faults    # eff.    # test         process 
//  simulated  coverage  in list  detected   patterns  patterns       CPU time
//   64         49.12%    10450     10089       64         0          0.18 sec
//   128        54.05%     9438      1012       62         0          0.22 sec
//   192        56.10%     9016       422       53         0          0.25 sec
//   256        57.41%     8748       268       51         0          0.28 sec
//   320        58.66%     8491       257       44         0          0.31 sec
//   353        59.17%     8387       104       23         0          0.33 sec
