// | ------------------------------------------------------------------------------------------------------------------ |
// |                                                                                                                    |
// |          Current split capture setting:     Off (optimal)                                                          |
// |                                                                                                                    |
// |   Current clock off simulation setting:     Off (optimal)                                                          |
// | ------------------------------------------------------------------------------------------------------------------ |
//  ------------------------------------------------------------------------
//  Simulation performed for #gates = 9044  #faults = 19548
//  Run fault simulation without storing patterns.  pattern source = 332 external patterns
//  ------------------------------------------------------------------------
//  #patterns  test      #faults  #faults    # eff.    # test         process 
//  simulated  coverage  in list  detected   patterns  patterns       CPU time
//   64         52.28%     9329     10219       64         0          0.14 sec
//   128        57.11%     8384       945       64         0          0.17 sec
//   192        59.74%     7871       513       54         0          0.20 sec
//   256        61.38%     7549       322       52         0          0.23 sec
//   320        62.29%     7371       178       40         0          0.25 sec
//   332        62.44%     7342        29        6         0          0.27 sec
