// | ------------------------------------------------------------------------------------------------------------------ |
// |                                                                                                                    |
// |          Current split capture setting:     Off (optimal)                                                          |
// |                                                                                                                    |
// |   Current clock off simulation setting:     Off (optimal)                                                          |
// | ------------------------------------------------------------------------------------------------------------------ |
//  ------------------------------------------------------------------------
//  Simulation performed for #gates = 9044  #faults = 20646
//  Run fault simulation without storing patterns.  pattern source = 345 external patterns
//  ------------------------------------------------------------------------
//  #patterns  test      #faults  #faults    # eff.    # test         process 
//  simulated  coverage  in list  detected   patterns  patterns       CPU time
//   64         52.58%     9790     10856       64         0          0.18 sec
//   128        57.58%     8758      1032       62         0          0.22 sec
//   192        59.70%     8320       438       56         0          0.24 sec
//   256        61.21%     8008       312       51         0          0.27 sec
//   320        62.28%     7787       221       43         0          0.30 sec
//   345        62.51%     7740        47       14         0          0.32 sec
