// | ------------------------------------------------------------------------------------------------------------------ |
// |                                                                                                                    |
// |          Current split capture setting:     Off (optimal)                                                          |
// |                                                                                                                    |
// |   Current clock off simulation setting:     Off (optimal)                                                          |
// | ------------------------------------------------------------------------------------------------------------------ |
//  ------------------------------------------------------------------------
//  Simulation performed for #gates = 9044  #faults = 20542
//  Run fault simulation without storing patterns.  pattern source = 390 external patterns
//  ------------------------------------------------------------------------
//  #patterns  test      #faults  #faults    # eff.    # test         process 
//  simulated  coverage  in list  detected   patterns  patterns       CPU time
//   64         52.05%     9850     10692       64         0          0.16 sec
//   128        56.39%     8959       891       60         0          0.19 sec
//   192        58.64%     8497       462       58         0          0.22 sec
//   256        60.21%     8174       323       49         0          0.25 sec
//   320        61.09%     7992       182       39         0          0.27 sec
//   384        62.20%     7765       227       46         0          0.30 sec
//   390        62.30%     7744        21        3         0          0.32 sec
