// | ------------------------------------------------------------------------------------------------------------------ |
// |                                                                                                                    |
// |          Current split capture setting:     Off (optimal)                                                          |
// |                                                                                                                    |
// |   Current clock off simulation setting:     Off (optimal)                                                          |
// | ------------------------------------------------------------------------------------------------------------------ |
//  ------------------------------------------------------------------------
//  Simulation performed for #gates = 9044  #faults = 20598
//  Run fault simulation without storing patterns.  pattern source = 393 external patterns
//  ------------------------------------------------------------------------
//  #patterns  test      #faults  #faults    # eff.    # test         process 
//  simulated  coverage  in list  detected   patterns  patterns       CPU time
//   64         48.69%    10569     10029       64         0          0.15 sec
//   128        53.57%     9564      1005       63         0          0.19 sec
//   192        55.52%     9163       401       57         0          0.22 sec
//   256        57.06%     8844       319       51         0          0.25 sec
//   320        57.85%     8683       161       45         0          0.28 sec
//   384        59.08%     8429       254       41         0          0.30 sec
//   393        59.12%     8420         9        3         0          0.33 sec
