// | ------------------------------------------------------------------------------------------------------------------ |
// |                                                                                                                    |
// |          Current split capture setting:     Off (optimal)                                                          |
// |                                                                                                                    |
// |   Current clock off simulation setting:     Off (optimal)                                                          |
// | ------------------------------------------------------------------------------------------------------------------ |
//  ------------------------------------------------------------------------
//  Simulation performed for #gates = 9044  #faults = 19969
//  Run fault simulation without storing patterns.  pattern source = 353 external patterns
//  ------------------------------------------------------------------------
//  #patterns  test      #faults  #faults    # eff.    # test         process 
//  simulated  coverage  in list  detected   patterns  patterns       CPU time
//   64         51.04%     9776     10193       64         0          0.15 sec
//   128        56.71%     8645      1131       64         0          0.18 sec
//   192        59.07%     8173       472       60         0          0.21 sec
//   256        60.34%     7919       254       46         0          0.24 sec
//   320        61.33%     7723       196       42         0          0.26 sec
//   353        61.77%     7635        88       18         0          0.28 sec
