// | ------------------------------------------------------------------------------------------------------------------ |
// |                                                                                                                    |
// |          Current split capture setting:     Off (optimal)                                                          |
// |                                                                                                                    |
// |   Current clock off simulation setting:     Off (optimal)                                                          |
// | ------------------------------------------------------------------------------------------------------------------ |
//  ------------------------------------------------------------------------
//  Simulation performed for #gates = 9044  #faults = 20213
//  Run fault simulation without storing patterns.  pattern source = 378 external patterns
//  ------------------------------------------------------------------------
//  #patterns  test      #faults  #faults    # eff.    # test         process 
//  simulated  coverage  in list  detected   patterns  patterns       CPU time
//   64         54.76%     9144     11069       64         0          0.17 sec
//   128        59.95%     8096      1048       62         0          0.20 sec
//   192        62.04%     7672       424       56         0          0.23 sec
//   256        63.37%     7404       268       53         0          0.25 sec
//   320        64.24%     7229       175       53         0          0.28 sec
//   378        64.96%     7083       146       39         0          0.30 sec
