// | ------------------------------------------------------------------------------------------------------------------ |
// |                                                                                                                    |
// |          Current split capture setting:     Off (optimal)                                                          |
// |                                                                                                                    |
// |   Current clock off simulation setting:     Off (optimal)                                                          |
// | ------------------------------------------------------------------------------------------------------------------ |
//  ------------------------------------------------------------------------
//  Simulation performed for #gates = 9044  #faults = 20821
//  Run fault simulation without storing patterns.  pattern source = 382 external patterns
//  ------------------------------------------------------------------------
//  #patterns  test      #faults  #faults    # eff.    # test         process 
//  simulated  coverage  in list  detected   patterns  patterns       CPU time
//   64         47.16%    11002      9819       64         0          0.15 sec
//   128        53.19%     9746      1256       61         0          0.20 sec
//   192        55.12%     9345       401       55         0          0.23 sec
//   256        57.30%     8890       455       47         0          0.26 sec
//   320        58.13%     8717       173       44         0          0.29 sec
//   382        59.82%     8365       352       32         0          0.31 sec
