// | ------------------------------------------------------------------------------------------------------------------ |
// |                                                                                                                    |
// |          Current split capture setting:     Off (optimal)                                                          |
// |                                                                                                                    |
// |   Current clock off simulation setting:     Off (optimal)                                                          |
// | ------------------------------------------------------------------------------------------------------------------ |
//  ------------------------------------------------------------------------
//  Simulation performed for #gates = 9044  #faults = 20579
//  Run fault simulation without storing patterns.  pattern source = 359 external patterns
//  ------------------------------------------------------------------------
//  #patterns  test      #faults  #faults    # eff.    # test         process 
//  simulated  coverage  in list  detected   patterns  patterns       CPU time
//   64         55.26%     9208     11371       64         0          0.15 sec
//   128        59.38%     8360       848       63         0          0.19 sec
//   192        61.14%     7996       364       56         0          0.21 sec
//   256        62.72%     7671       325       53         0          0.24 sec
//   320        63.46%     7519       152       47         0          0.26 sec
//   359        63.89%     7432        87       29         0          0.28 sec
