// | ------------------------------------------------------------------------------------------------------------------ |
// |                                                                                                                    |
// |          Current split capture setting:     Off (optimal)                                                          |
// |                                                                                                                    |
// |   Current clock off simulation setting:     Off (optimal)                                                          |
// | ------------------------------------------------------------------------------------------------------------------ |
//  ------------------------------------------------------------------------
//  Simulation performed for #gates = 9044  #faults = 20540
//  Run fault simulation without storing patterns.  pattern source = 421 external patterns
//  ------------------------------------------------------------------------
//  #patterns  test      #faults  #faults    # eff.    # test         process 
//  simulated  coverage  in list  detected   patterns  patterns       CPU time
//   64         51.37%     9988     10552       64         0          0.18 sec
//   128        54.89%     9266       722       64         0          0.22 sec
//   192        57.32%     8767       499       58         0          0.25 sec
//   256        58.42%     8540       227       51         0          0.28 sec
//   320        59.26%     8368       172       44         0          0.30 sec
//   384        59.95%     8227       141       40         0          0.33 sec
//   421        60.29%     8156        71       23         0          0.35 sec
