// | ------------------------------------------------------------------------------------------------------------------ |
// |                                                                                                                    |
// |          Current split capture setting:     Off (optimal)                                                          |
// |                                                                                                                    |
// |   Current clock off simulation setting:     Off (optimal)                                                          |
// | ------------------------------------------------------------------------------------------------------------------ |
//  ------------------------------------------------------------------------
//  Simulation performed for #gates = 9044  #faults = 19961
//  Run fault simulation without storing patterns.  pattern source = 367 external patterns
//  ------------------------------------------------------------------------
//  #patterns  test      #faults  #faults    # eff.    # test         process 
//  simulated  coverage  in list  detected   patterns  patterns       CPU time
//   64         50.98%     9784     10177       64         0          0.14 sec
//   128        55.19%     8945       839       63         0          0.18 sec
//   192        56.93%     8598       347       58         0          0.21 sec
//   256        58.76%     8231       367       49         0          0.24 sec
//   320        60.36%     7913       318       45         0          0.26 sec
//   367        61.28%     7728       185       28         0          0.29 sec
