// | ------------------------------------------------------------------------------------------------------------------ |
// |                                                                                                                    |
// |          Current split capture setting:     Off (optimal)                                                          |
// |                                                                                                                    |
// |   Current clock off simulation setting:     Off (optimal)                                                          |
// | ------------------------------------------------------------------------------------------------------------------ |
//  ------------------------------------------------------------------------
//  Simulation performed for #gates = 9044  #faults = 20821
//  Run fault simulation without storing patterns.  pattern source = 347 external patterns
//  ------------------------------------------------------------------------
//  #patterns  test      #faults  #faults    # eff.    # test         process 
//  simulated  coverage  in list  detected   patterns  patterns       CPU time
//   64         47.42%    10948      9873       64         0          0.16 sec
//   128        52.28%     9936      1012       60         0          0.20 sec
//   192        54.87%     9396       540       48         0          0.24 sec
//   256        56.43%     9072       324       45         0          0.27 sec
//   320        57.85%     8777       295       42         0          0.30 sec
//   347        58.06%     8733        44       15         0          0.32 sec
