// | ------------------------------------------------------------------------------------------------------------------ |
// |                                                                                                                    |
// |          Current split capture setting:     Off (optimal)                                                          |
// |                                                                                                                    |
// |   Current clock off simulation setting:     Off (optimal)                                                          |
// | ------------------------------------------------------------------------------------------------------------------ |
//  ------------------------------------------------------------------------
//  Simulation performed for #gates = 9044  #faults = 20598
//  Run fault simulation without storing patterns.  pattern source = 398 external patterns
//  ------------------------------------------------------------------------
//  #patterns  test      #faults  #faults    # eff.    # test         process 
//  simulated  coverage  in list  detected   patterns  patterns       CPU time
//   64         50.65%    10166     10432       64         0          0.16 sec
//   128        54.75%     9321       845       61         0          0.20 sec
//   192        56.87%     8883       438       59         0          0.23 sec
//   256        58.33%     8584       299       55         0          0.25 sec
//   320        59.15%     8414       170       42         0          0.28 sec
//   384        59.76%     8288       126       36         0          0.30 sec
//   398        59.93%     8254        34        9         0          0.32 sec
