// | ------------------------------------------------------------------------------------------------------------------ |
// |                                                                                                                    |
// |          Current split capture setting:     Off (optimal)                                                          |
// |                                                                                                                    |
// |   Current clock off simulation setting:     Off (optimal)                                                          |
// | ------------------------------------------------------------------------------------------------------------------ |
//  ------------------------------------------------------------------------
//  Simulation performed for #gates = 9044  #faults = 20518
//  Run fault simulation without storing patterns.  pattern source = 378 external patterns
//  ------------------------------------------------------------------------
//  #patterns  test      #faults  #faults    # eff.    # test         process 
//  simulated  coverage  in list  detected   patterns  patterns       CPU time
//   64         49.61%    10338     10180       64         0          0.16 sec
//   128        54.69%     9296      1042       59         0          0.20 sec
//   192        56.59%     8907       389       48         0          0.23 sec
//   256        58.86%     8441       466       53         0          0.26 sec
//   320        60.14%     8179       262       46         0          0.28 sec
//   378        60.70%     8064       115       34         0          0.31 sec
