// | ------------------------------------------------------------------------------------------------------------------ |
// |                                                                                                                    |
// |          Current split capture setting:     Off (optimal)                                                          |
// |                                                                                                                    |
// |   Current clock off simulation setting:     Off (optimal)                                                          |
// | ------------------------------------------------------------------------------------------------------------------ |
//  ------------------------------------------------------------------------
//  Simulation performed for #gates = 9044  #faults = 20441
//  Run fault simulation without storing patterns.  pattern source = 406 external patterns
//  ------------------------------------------------------------------------
//  #patterns  test      #faults  #faults    # eff.    # test         process 
//  simulated  coverage  in list  detected   patterns  patterns       CPU time
//   64         48.80%    10465      9976       64         0          0.14 sec
//   128        53.73%     9459      1006       60         0          0.18 sec
//   192        55.68%     9059       400       52         0          0.21 sec
//   256        57.31%     8727       332       55         0          0.24 sec
//   320        58.52%     8478       249       43         0          0.27 sec
//   384        59.25%     8329       149       36         0          0.29 sec
//   406        59.64%     8250        79       17         0          0.32 sec
