// | ------------------------------------------------------------------------------------------------------------------ |
// |                                                                                                                    |
// |          Current split capture setting:     Off (optimal)                                                          |
// |                                                                                                                    |
// |   Current clock off simulation setting:     Off (optimal)                                                          |
// | ------------------------------------------------------------------------------------------------------------------ |
//  ------------------------------------------------------------------------
//  Simulation performed for #gates = 9044  #faults = 20518
//  Run fault simulation without storing patterns.  pattern source = 346 external patterns
//  ------------------------------------------------------------------------
//  #patterns  test      #faults  #faults    # eff.    # test         process 
//  simulated  coverage  in list  detected   patterns  patterns       CPU time
//   64         50.99%    10055     10463       64         0          0.17 sec
//   128        55.15%     9203       852       61         0          0.21 sec
//   192        57.70%     8679       524       58         0          0.24 sec
//   256        59.66%     8276       403       53         0          0.26 sec
//   320        60.95%     8013       263       48         0          0.29 sec
//   346        61.41%     7918        95       20         0          0.31 sec
