// | ------------------------------------------------------------------------------------------------------------------ |
// |                                                                                                                    |
// |          Current split capture setting:     Off (optimal)                                                          |
// |                                                                                                                    |
// |   Current clock off simulation setting:     Off (optimal)                                                          |
// | ------------------------------------------------------------------------------------------------------------------ |
//  ------------------------------------------------------------------------
//  Simulation performed for #gates = 9044  #faults = 20487
//  Run fault simulation without storing patterns.  pattern source = 344 external patterns
//  ------------------------------------------------------------------------
//  #patterns  test      #faults  #faults    # eff.    # test         process 
//  simulated  coverage  in list  detected   patterns  patterns       CPU time
//   64         52.44%     9744     10743       64         0          0.17 sec
//   128        56.65%     8882       862       62         0          0.20 sec
//   192        58.85%     8431       451       54         0          0.23 sec
//   256        59.80%     8236       195       43         0          0.26 sec
//   320        60.73%     8046       190       42         0          0.28 sec
//   344        60.99%     7993        53       14         0          0.31 sec
