// | ------------------------------------------------------------------------------------------------------------------ |
// |                                                                                                                    |
// |          Current split capture setting:     Off (optimal)                                                          |
// |                                                                                                                    |
// |   Current clock off simulation setting:     Off (optimal)                                                          |
// | ------------------------------------------------------------------------------------------------------------------ |
//  ------------------------------------------------------------------------
//  Simulation performed for #gates = 9044  #faults = 20324
//  Run fault simulation without storing patterns.  pattern source = 350 external patterns
//  ------------------------------------------------------------------------
//  #patterns  test      #faults  #faults    # eff.    # test         process 
//  simulated  coverage  in list  detected   patterns  patterns       CPU time
//   64         53.70%     9411     10913       64         0          0.16 sec
//   128        57.58%     8621       790       60         0          0.19 sec
//   192        60.21%     8086       535       53         0          0.22 sec
//   256        61.56%     7812       274       48         0          0.25 sec
//   320        62.85%     7551       261       39         0          0.27 sec
//   350        63.11%     7497        54       15         0          0.29 sec
