// | ------------------------------------------------------------------------------------------------------------------ |
// |                                                                                                                    |
// |          Current split capture setting:     Off (optimal)                                                          |
// |                                                                                                                    |
// |   Current clock off simulation setting:     Off (optimal)                                                          |
// | ------------------------------------------------------------------------------------------------------------------ |
//  ------------------------------------------------------------------------
//  Simulation performed for #gates = 9044  #faults = 20672
//  Run fault simulation without storing patterns.  pattern source = 350 external patterns
//  ------------------------------------------------------------------------
//  #patterns  test      #faults  #faults    # eff.    # test         process 
//  simulated  coverage  in list  detected   patterns  patterns       CPU time
//   64         48.66%    10614     10058       64         0          0.14 sec
//   128        53.06%     9704       910       61         0          0.18 sec
//   192        55.57%     9185       519       51         0          0.21 sec
//   256        57.07%     8875       310       45         0          0.24 sec
//   320        58.25%     8630       245       42         0          0.27 sec
//   350        58.54%     8571        59       18         0          0.29 sec
