// | ------------------------------------------------------------------------------------------------------------------ |
// |                                                                                                                    |
// |          Current split capture setting:     Off (optimal)                                                          |
// |                                                                                                                    |
// |   Current clock off simulation setting:     Off (optimal)                                                          |
// | ------------------------------------------------------------------------------------------------------------------ |
//  ------------------------------------------------------------------------
//  Simulation performed for #gates = 9044  #faults = 20627
//  Run fault simulation without storing patterns.  pattern source = 325 external patterns
//  ------------------------------------------------------------------------
//  #patterns  test      #faults  #faults    # eff.    # test         process 
//  simulated  coverage  in list  detected   patterns  patterns       CPU time
//   64         54.12%     9463     11164       64         0          0.18 sec
//   128        58.06%     8651       812       61         0          0.21 sec
//   192        60.21%     8208       443       51         0          0.24 sec
//   256        61.92%     7854       354       53         0          0.26 sec
//   320        62.96%     7641       213       45         0          0.29 sec
//   325        63.14%     7604        37        4         0          0.31 sec
