// | ------------------------------------------------------------------------------------------------------------------ |
// |                                                                                                                    |
// |          Current split capture setting:     Off (optimal)                                                          |
// |                                                                                                                    |
// |   Current clock off simulation setting:     Off (optimal)                                                          |
// | ------------------------------------------------------------------------------------------------------------------ |
//  ------------------------------------------------------------------------
//  Simulation performed for #gates = 9044  #faults = 20787
//  Run fault simulation without storing patterns.  pattern source = 354 external patterns
//  ------------------------------------------------------------------------
//  #patterns  test      #faults  #faults    # eff.    # test         process 
//  simulated  coverage  in list  detected   patterns  patterns       CPU time
//   64         51.55%    10072     10715       64         0          0.18 sec
//   128        56.46%     9051      1021       60         0          0.22 sec
//   192        58.36%     8655       396       51         0          0.24 sec
//   256        60.03%     8308       347       54         0          0.27 sec
//   320        60.76%     8156       152       37         0          0.30 sec
//   354        61.17%     8071        85       25         0          0.32 sec
