// | ------------------------------------------------------------------------------------------------------------------ |
// |                                                                                                                    |
// |          Current split capture setting:     Off (optimal)                                                          |
// |                                                                                                                    |
// |   Current clock off simulation setting:     Off (optimal)                                                          |
// | ------------------------------------------------------------------------------------------------------------------ |
//  ------------------------------------------------------------------------
//  Simulation performed for #gates = 9044  #faults = 20555
//  Run fault simulation without storing patterns.  pattern source = 375 external patterns
//  ------------------------------------------------------------------------
//  #patterns  test      #faults  #faults    # eff.    # test         process 
//  simulated  coverage  in list  detected   patterns  patterns       CPU time
//   64         52.44%     9776     10779       64         0          0.17 sec
//   128        56.84%     8871       905       60         0          0.21 sec
//   192        59.16%     8395       476       54         0          0.24 sec
//   256        60.50%     8119       276       46         0          0.26 sec
//   320        62.10%     7790       329       51         0          0.29 sec
//   375        62.72%     7662       128       38         0          0.31 sec
