// | ------------------------------------------------------------------------------------------------------------------ |
// |                                                                                                                    |
// |          Current split capture setting:     Off (optimal)                                                          |
// |                                                                                                                    |
// |   Current clock off simulation setting:     Off (optimal)                                                          |
// | ------------------------------------------------------------------------------------------------------------------ |
//  ------------------------------------------------------------------------
//  Simulation performed for #gates = 9044  #faults = 20598
//  Run fault simulation without storing patterns.  pattern source = 357 external patterns
//  ------------------------------------------------------------------------
//  #patterns  test      #faults  #faults    # eff.    # test         process 
//  simulated  coverage  in list  detected   patterns  patterns       CPU time
//   64         50.76%    10143     10455       64         0          0.17 sec
//   128        55.22%     9224       919       61         0          0.20 sec
//   192        56.58%     8944       280       57         0          0.23 sec
//   256        57.73%     8707       237       47         0          0.26 sec
//   320        59.08%     8428       279       42         0          0.28 sec
//   357        59.44%     8354        74       23         0          0.30 sec
