// | ------------------------------------------------------------------------------------------------------------------ |
// |                                                                                                                    |
// |          Current split capture setting:     Off (optimal)                                                          |
// |                                                                                                                    |
// |   Current clock off simulation setting:     Off (optimal)                                                          |
// | ------------------------------------------------------------------------------------------------------------------ |
//  ------------------------------------------------------------------------
//  Simulation performed for #gates = 9044  #faults = 20411
//  Run fault simulation without storing patterns.  pattern source = 325 external patterns
//  ------------------------------------------------------------------------
//  #patterns  test      #faults  #faults    # eff.    # test         process 
//  simulated  coverage  in list  detected   patterns  patterns       CPU time
//   64         53.05%     9583     10828       64         0          0.17 sec
//   128        57.21%     8733       850       62         0          0.20 sec
//   192        59.27%     8314       419       62         0          0.22 sec
//   256        60.76%     8010       304       51         0          0.25 sec
//   320        61.67%     7824       186       49         0          0.27 sec
//   325        61.80%     7796        28        2         0          0.29 sec
