// | ------------------------------------------------------------------------------------------------------------------ |
// |                                                                                                                    |
// |          Current split capture setting:     Off (optimal)                                                          |
// |                                                                                                                    |
// |   Current clock off simulation setting:     Off (optimal)                                                          |
// | ------------------------------------------------------------------------------------------------------------------ |
//  ------------------------------------------------------------------------
//  Simulation performed for #gates = 9044  #faults = 19331
//  Run fault simulation without storing patterns.  pattern source = 368 external patterns
//  ------------------------------------------------------------------------
//  #patterns  test      #faults  #faults    # eff.    # test         process 
//  simulated  coverage  in list  detected   patterns  patterns       CPU time
//   64         51.25%     9424      9907       64         0          0.13 sec
//   128        55.43%     8616       808       60         0          0.17 sec
//   192        57.92%     8135       481       51         0          0.19 sec
//   256        59.69%     7792       343       48         0          0.22 sec
//   320        61.02%     7536       256       48         0          0.24 sec
//   368        61.48%     7447        89       20         0          0.26 sec
