// | ------------------------------------------------------------------------------------------------------------------ |
// |                                                                                                                    |
// |          Current split capture setting:     Off (optimal)                                                          |
// |                                                                                                                    |
// |   Current clock off simulation setting:     Off (optimal)                                                          |
// | ------------------------------------------------------------------------------------------------------------------ |
//  ------------------------------------------------------------------------
//  Simulation performed for #gates = 9044  #faults = 20487
//  Run fault simulation without storing patterns.  pattern source = 372 external patterns
//  ------------------------------------------------------------------------
//  #patterns  test      #faults  #faults    # eff.    # test         process 
//  simulated  coverage  in list  detected   patterns  patterns       CPU time
//   64         50.74%    10091     10396       64         0          0.17 sec
//   128        55.33%     9152       939       62         0          0.20 sec
//   192        57.50%     8706       446       52         0          0.23 sec
//   256        58.71%     8460       246       51         0          0.25 sec
//   320        59.66%     8265       195       40         0          0.28 sec
//   372        60.31%     8132       133       34         0          0.30 sec
