// | ------------------------------------------------------------------------------------------------------------------ |
// |                                                                                                                    |
// |          Current split capture setting:     Off (optimal)                                                          |
// |                                                                                                                    |
// |   Current clock off simulation setting:     Off (optimal)                                                          |
// | ------------------------------------------------------------------------------------------------------------------ |
//  ------------------------------------------------------------------------
//  Simulation performed for #gates = 9044  #faults = 20598
//  Run fault simulation without storing patterns.  pattern source = 376 external patterns
//  ------------------------------------------------------------------------
//  #patterns  test      #faults  #faults    # eff.    # test         process 
//  simulated  coverage  in list  detected   patterns  patterns       CPU time
//   64         50.51%    10193     10405       64         0          0.17 sec
//   128        55.04%     9260       933       63         0          0.20 sec
//   192        57.18%     8821       439       59         0          0.23 sec
//   256        58.84%     8478       343       46         0          0.26 sec
//   320        60.05%     8229       249       44         0          0.29 sec
//   376        60.70%     8095       134       35         0          0.31 sec
