// | ------------------------------------------------------------------------------------------------------------------ |
// |                                                                                                                    |
// |          Current split capture setting:     Off (optimal)                                                          |
// |                                                                                                                    |
// |   Current clock off simulation setting:     Off (optimal)                                                          |
// | ------------------------------------------------------------------------------------------------------------------ |
//  ------------------------------------------------------------------------
//  Simulation performed for #gates = 9044  #faults = 20396
//  Run fault simulation without storing patterns.  pattern source = 329 external patterns
//  ------------------------------------------------------------------------
//  #patterns  test      #faults  #faults    # eff.    # test         process 
//  simulated  coverage  in list  detected   patterns  patterns       CPU time
//   64         51.53%     9886     10510       64         0          0.16 sec
//   128        55.14%     9149       737       58         0          0.19 sec
//   192        57.67%     8634       515       58         0          0.22 sec
//   256        59.61%     8238       396       54         0          0.25 sec
//   320        60.60%     8037       201       48         0          0.27 sec
//   329        60.75%     8005        32        8         0          0.29 sec
