// | ------------------------------------------------------------------------------------------------------------------ |
// |                                                                                                                    |
// |          Current split capture setting:     Off (optimal)                                                          |
// |                                                                                                                    |
// |   Current clock off simulation setting:     Off (optimal)                                                          |
// | ------------------------------------------------------------------------------------------------------------------ |
//  ------------------------------------------------------------------------
//  Simulation performed for #gates = 9044  #faults = 20102
//  Run fault simulation without storing patterns.  pattern source = 366 external patterns
//  ------------------------------------------------------------------------
//  #patterns  test      #faults  #faults    # eff.    # test         process 
//  simulated  coverage  in list  detected   patterns  patterns       CPU time
//   64         51.45%     9760     10342       64         0          0.16 sec
//   128        55.22%     9001       759       59         0          0.19 sec
//   192        57.84%     8476       525       58         0          0.22 sec
//   256        59.11%     8219       257       42         0          0.25 sec
//   320        59.97%     8046       173       37         0          0.27 sec
//   366        60.39%     7963        83       22         0          0.29 sec
