// | ------------------------------------------------------------------------------------------------------------------ |
// |                                                                                                                    |
// |          Current split capture setting:     Off (optimal)                                                          |
// |                                                                                                                    |
// |   Current clock off simulation setting:     Off (optimal)                                                          |
// | ------------------------------------------------------------------------------------------------------------------ |
//  ------------------------------------------------------------------------
//  Simulation performed for #gates = 9044  #faults = 20693
//  Run fault simulation without storing patterns.  pattern source = 370 external patterns
//  ------------------------------------------------------------------------
//  #patterns  test      #faults  #faults    # eff.    # test         process 
//  simulated  coverage  in list  detected   patterns  patterns       CPU time
//   64         53.59%     9604     11089       64         0          0.18 sec
//   128        58.45%     8598      1006       64         0          0.22 sec
//   192        60.49%     8175       423       56         0          0.24 sec
//   256        61.94%     7875       300       51         0          0.27 sec
//   320        62.96%     7664       211       46         0          0.29 sec
//   370        63.42%     7570        94       26         0          0.32 sec
