// | ------------------------------------------------------------------------------------------------------------------ |
// |                                                                                                                    |
// |          Current split capture setting:     Off (optimal)                                                          |
// |                                                                                                                    |
// |   Current clock off simulation setting:     Off (optimal)                                                          |
// | ------------------------------------------------------------------------------------------------------------------ |
//  ------------------------------------------------------------------------
//  Simulation performed for #gates = 9044  #faults = 20010
//  Run fault simulation without storing patterns.  pattern source = 393 external patterns
//  ------------------------------------------------------------------------
//  #patterns  test      #faults  #faults    # eff.    # test         process 
//  simulated  coverage  in list  detected   patterns  patterns       CPU time
//   64         51.14%     9777     10233       64         0          0.15 sec
//   128        55.90%     8824       953       61         0          0.19 sec
//   192        57.79%     8447       377       47         0          0.22 sec
//   256        59.84%     8036       411       43         0          0.25 sec
//   320        61.19%     7765       271       40         0          0.27 sec
//   384        61.70%     7663       102       25         0          0.29 sec
//   393        61.75%     7653        10        1         0          0.31 sec
