// | ------------------------------------------------------------------------------------------------------------------ |
// |                                                                                                                    |
// |          Current split capture setting:     Off (optimal)                                                          |
// |                                                                                                                    |
// |   Current clock off simulation setting:     Off (optimal)                                                          |
// | ------------------------------------------------------------------------------------------------------------------ |
//  ------------------------------------------------------------------------
//  Simulation performed for #gates = 9044  #faults = 20425
//  Run fault simulation without storing patterns.  pattern source = 329 external patterns
//  ------------------------------------------------------------------------
//  #patterns  test      #faults  #faults    # eff.    # test         process 
//  simulated  coverage  in list  detected   patterns  patterns       CPU time
//   64         50.38%    10134     10291       63         0          0.13 sec
//   128        55.64%     9060      1074       56         0          0.17 sec
//   192        57.80%     8620       440       52         0          0.20 sec
//   256        59.00%     8374       246       43         0          0.23 sec
//   320        60.00%     8169       205       45         0          0.26 sec
//   329        60.13%     8143        26        7         0          0.28 sec
