// | ------------------------------------------------------------------------------------------------------------------ |
// |                                                                                                                    |
// |          Current split capture setting:     Off (optimal)                                                          |
// |                                                                                                                    |
// |   Current clock off simulation setting:     Off (optimal)                                                          |
// | ------------------------------------------------------------------------------------------------------------------ |
//  ------------------------------------------------------------------------
//  Simulation performed for #gates = 9044  #faults = 20350
//  Run fault simulation without storing patterns.  pattern source = 325 external patterns
//  ------------------------------------------------------------------------
//  #patterns  test      #faults  #faults    # eff.    # test         process 
//  simulated  coverage  in list  detected   patterns  patterns       CPU time
//   64         52.67%     9631     10719       64         0          0.16 sec
//   128        57.10%     8731       900       63         0          0.20 sec
//   192        59.10%     8323       408       61         0          0.22 sec
//   256        60.99%     7938       385       53         0          0.25 sec
//   320        62.48%     7636       302       48         0          0.27 sec
//   325        62.55%     7621        15        4         0          0.30 sec
