// | ------------------------------------------------------------------------------------------------------------------ |
// |                                                                                                                    |
// |          Current split capture setting:     Off (optimal)                                                          |
// |                                                                                                                    |
// |   Current clock off simulation setting:     Off (optimal)                                                          |
// | ------------------------------------------------------------------------------------------------------------------ |
//  ------------------------------------------------------------------------
//  Simulation performed for #gates = 9044  #faults = 20288
//  Run fault simulation without storing patterns.  pattern source = 366 external patterns
//  ------------------------------------------------------------------------
//  #patterns  test      #faults  #faults    # eff.    # test         process 
//  simulated  coverage  in list  detected   patterns  patterns       CPU time
//   64         51.91%     9757     10531       64         0          0.15 sec
//   128        56.81%     8763       994       62         0          0.18 sec
//   192        59.50%     8217       546       58         0          0.21 sec
//   256        60.87%     7939       278       50         0          0.24 sec
//   320        62.39%     7631       308       46         0          0.26 sec
//   366        63.18%     7470       161       34         0          0.29 sec
