// | ------------------------------------------------------------------------------------------------------------------ |
// |                                                                                                                    |
// |          Current split capture setting:     Off (optimal)                                                          |
// |                                                                                                                    |
// |   Current clock off simulation setting:     Off (optimal)                                                          |
// | ------------------------------------------------------------------------------------------------------------------ |
//  ------------------------------------------------------------------------
//  Simulation performed for #gates = 9044  #faults = 20598
//  Run fault simulation without storing patterns.  pattern source = 385 external patterns
//  ------------------------------------------------------------------------
//  #patterns  test      #faults  #faults    # eff.    # test         process 
//  simulated  coverage  in list  detected   patterns  patterns       CPU time
//   64         49.17%    10470     10128       64         0          0.15 sec
//   128        54.07%     9460      1010       63         0          0.19 sec
//   192        56.22%     9018       442       57         0          0.22 sec
//   256        57.60%     8734       284       53         0          0.25 sec
//   320        58.62%     8524       210       47         0          0.28 sec
//   384        59.45%     8352       172       40         0          0.30 sec
