// | ------------------------------------------------------------------------------------------------------------------ |
// |                                                                                                                    |
// |          Current split capture setting:     Off (optimal)                                                          |
// |                                                                                                                    |
// |   Current clock off simulation setting:     Off (optimal)                                                          |
// | ------------------------------------------------------------------------------------------------------------------ |
//  ------------------------------------------------------------------------
//  Simulation performed for #gates = 9044  #faults = 20508
//  Run fault simulation without storing patterns.  pattern source = 345 external patterns
//  ------------------------------------------------------------------------
//  #patterns  test      #faults  #faults    # eff.    # test         process 
//  simulated  coverage  in list  detected   patterns  patterns       CPU time
//   64         53.63%     9509     10999       64         0          0.18 sec
//   128        59.74%     8256      1253       64         0          0.22 sec
//   192        62.28%     7735       521       59         0          0.25 sec
//   256        63.96%     7392       343       53         0          0.27 sec
//   320        65.60%     7054       338       50         0          0.30 sec
//   345        65.95%     6982        72       15         0          0.32 sec
