// | ------------------------------------------------------------------------------------------------------------------ |
// |                                                                                                                    |
// |          Current split capture setting:     Off (optimal)                                                          |
// |                                                                                                                    |
// |   Current clock off simulation setting:     Off (optimal)                                                          |
// | ------------------------------------------------------------------------------------------------------------------ |
//  ------------------------------------------------------------------------
//  Simulation performed for #gates = 9044  #faults = 19548
//  Run fault simulation without storing patterns.  pattern source = 413 external patterns
//  ------------------------------------------------------------------------
//  #patterns  test      #faults  #faults    # eff.    # test         process 
//  simulated  coverage  in list  detected   patterns  patterns       CPU time
//   64         54.74%     8847     10701       64         0          0.15 sec
//   128        59.61%     7896       951       59         0          0.18 sec
//   192        61.77%     7474       422       59         0          0.21 sec
//   256        63.21%     7191       283       55         0          0.23 sec
//   320        64.43%     6953       238       41         0          0.25 sec
//   384        65.15%     6813       140       36         0          0.28 sec
//   413        65.40%     6763        50       17         0          0.29 sec
