// | ------------------------------------------------------------------------------------------------------------------ |
// |                                                                                                                    |
// |          Current split capture setting:     Off (optimal)                                                          |
// |                                                                                                                    |
// |   Current clock off simulation setting:     Off (optimal)                                                          |
// | ------------------------------------------------------------------------------------------------------------------ |
//  ------------------------------------------------------------------------
//  Simulation performed for #gates = 9044  #faults = 20708
//  Run fault simulation without storing patterns.  pattern source = 390 external patterns
//  ------------------------------------------------------------------------
//  #patterns  test      #faults  #faults    # eff.    # test         process 
//  simulated  coverage  in list  detected   patterns  patterns       CPU time
//   64         57.15%     8874     11834       64         0          0.17 sec
//   128        62.20%     7827      1047       61         0          0.20 sec
//   192        64.49%     7353       474       53         0          0.23 sec
//   256        66.18%     7004       349       48         0          0.25 sec
//   320        67.18%     6796       208       35         0          0.28 sec
//   384        67.67%     6694       102       35         0          0.30 sec
//   390        67.70%     6689         5        3         0          0.31 sec
