// | ------------------------------------------------------------------------------------------------------------------ |
// |                                                                                                                    |
// |          Current split capture setting:     Off (optimal)                                                          |
// |                                                                                                                    |
// |   Current clock off simulation setting:     Off (optimal)                                                          |
// | ------------------------------------------------------------------------------------------------------------------ |
//  ------------------------------------------------------------------------
//  Simulation performed for #gates = 9044  #faults = 20821
//  Run fault simulation without storing patterns.  pattern source = 346 external patterns
//  ------------------------------------------------------------------------
//  #patterns  test      #faults  #faults    # eff.    # test         process 
//  simulated  coverage  in list  detected   patterns  patterns       CPU time
//   64         46.84%    11069      9752       64         0          0.15 sec
//   128        50.62%    10281       788       58         0          0.19 sec
//   192        53.66%     9648       633       48         0          0.22 sec
//   256        55.37%     9292       356       37         0          0.26 sec
//   320        56.16%     9127       165       35         0          0.29 sec
//   346        56.53%     9051        76       10         0          0.31 sec
