// | ------------------------------------------------------------------------------------------------------------------ |
// |                                                                                                                    |
// |          Current split capture setting:     Off (optimal)                                                          |
// |                                                                                                                    |
// |   Current clock off simulation setting:     Off (optimal)                                                          |
// | ------------------------------------------------------------------------------------------------------------------ |
//  ------------------------------------------------------------------------
//  Simulation performed for #gates = 9044  #faults = 20540
//  Run fault simulation without storing patterns.  pattern source = 382 external patterns
//  ------------------------------------------------------------------------
//  #patterns  test      #faults  #faults    # eff.    # test         process 
//  simulated  coverage  in list  detected   patterns  patterns       CPU time
//   64         50.31%    10206     10334       64         0          0.17 sec
//   128        54.04%     9441       765       62         0          0.21 sec
//   192        56.89%     8855       586       60         0          0.24 sec
//   256        58.29%     8568       287       56         0          0.27 sec
//   320        59.49%     8320       248       48         0          0.30 sec
//   382        60.28%     8158       162       40         0          0.32 sec
