// | ------------------------------------------------------------------------------------------------------------------ |
// |                                                                                                                    |
// |          Current split capture setting:     Off (optimal)                                                          |
// |                                                                                                                    |
// |   Current clock off simulation setting:     Off (optimal)                                                          |
// | ------------------------------------------------------------------------------------------------------------------ |
//  ------------------------------------------------------------------------
//  Simulation performed for #gates = 9044  #faults = 20539
//  Run fault simulation without storing patterns.  pattern source = 344 external patterns
//  ------------------------------------------------------------------------
//  #patterns  test      #faults  #faults    # eff.    # test         process 
//  simulated  coverage  in list  detected   patterns  patterns       CPU time
//   64         60.90%     8031     12508       64         0          0.21 sec
//   128        68.16%     6540      1491       64         0          0.24 sec
//   192        70.92%     5972       568       64         0          0.26 sec
//   256        72.13%     5724       248       64         0          0.28 sec
//   320        72.73%     5600       124       63         0          0.30 sec
//   344        72.86%     5574        26       24         0          0.31 sec
