// | ------------------------------------------------------------------------------------------------------------------ |
// |                                                                                                                    |
// |          Current split capture setting:     Off (optimal)                                                          |
// |                                                                                                                    |
// |   Current clock off simulation setting:     Off (optimal)                                                          |
// | ------------------------------------------------------------------------------------------------------------------ |
//  ------------------------------------------------------------------------
//  Simulation performed for #gates = 15830  #faults = 32504
//  Run fault simulation without storing patterns.  pattern source = 165 external patterns
//  ------------------------------------------------------------------------
//  #patterns  test      #faults  #faults    # eff.    # test         process 
//  simulated  coverage  in list  detected   patterns  patterns       CPU time
//   64         78.95%     6841     25663       64         0          0.19 sec
//   128        82.30%     5753      1088       64         0          0.23 sec
//   165        83.38%     5402       351       37         0          0.26 sec
