//  command: set_current_design s38584
//  Warning: 1 case: Unused net in DFT library model
//  Note: Issue set_current_design with the -show_elaboration_warnings option to see more details about previous warnings
//  command: set_system_mode analysis
//  Flattening process completed,  design_cells=12460  leaf_cells=12460  library_primitives=12439  sim_gates=15830  PIs=1464  POs=1728  CPU time=0.15 sec.
//  ---------------------------------------------------------------------------
//  Begin circuit learning analyses.
//  --------------------------------
//  Learning completed, CPU time=0.06 sec.
//  ---------------------------------------------------------------------------
//  Begin scan chain identification process, memory elements = 0.
//  ---------------------------------------------------------------------------
//  Circuit has no memory elements.
//  command: add_faults -all
//  command: set_fault_mode collapsed
//  command: set_fault_type stuck
//  command: read_patterns /home/animesh/currentResearch/ISI/atpg_structural/code/dumpData/tessent/iscas89/s38584_synth/seventyPercent/s38584_synth_seventyPercent_25.spf
//  Reading STIL input file "/home/animesh/currentResearch/ISI/atpg_structural/code/dumpData/tessent/iscas89/s38584_synth/seventyPercent/s38584_synth_seventyPercent_25.spf"
//  command: simulate_patterns > /home/animesh/currentResearch/ISI/atpg_structural/code/dumpData/tessent/iscas89/s38584_synth/bin_3/simulateLogFile_s38584_synth_thirtyPercent_23_s38584_synth_seventyPercent_25.atpg.result
//  command: exit 
