// | ------------------------------------------------------------------------------------------------------------------ |
// |                                                                                                                    |
// |          Current split capture setting:     Off (optimal)                                                          |
// |                                                                                                                    |
// |   Current clock off simulation setting:     Off (optimal)                                                          |
// | ------------------------------------------------------------------------------------------------------------------ |
//  ------------------------------------------------------------------------
//  Simulation performed for #gates = 15830  #faults = 31440
//  Run fault simulation without storing patterns.  pattern source = 144 external patterns
//  ------------------------------------------------------------------------
//  #patterns  test      #faults  #faults    # eff.    # test         process 
//  simulated  coverage  in list  detected   patterns  patterns       CPU time
//   64         67.63%    10176     21264       64         0          0.17 sec
//   128        70.50%     9274       902       63         0          0.21 sec
//   144        71.03%     9109       165       15         0          0.26 sec
