	*******************************************************
	*                                                     *
	*          Welcome to atalanta (version 2.0)          *
	*                                                     *
	*               Dong S. Ha (ha@vt.edu)                *
	*            Web: http://www.ee.vt.edu/ha             *
	*  Virginia Polytechnic Institute & State University  *
	*                                                     *
	*******************************************************

******   SUMMARY OF TEST PATTERN GENERATION RESULTS   ******
1. Circuit structure
   Name of the circuit                       : combinational_logic_example_"c2670"
   Number of primary inputs                  : 233
   Number of primary outputs                 : 140
   Number of gates                           : 1193
   Level of the circuit                      : 32

2. ATPG parameters
   Test pattern generation mode              : RPT + DTPG + TC
   Limit of random patterns (packets)        : 16
   Backtrack limit                           : 10
   Initial random number generator seed      : 1554967470
   Test pattern compaction mode              : REVERSE + SHUFFLE 
   Limit of suffling compaction              : 2
   Number of shuffles                        : 7

3. Test pattern generation results
   Number of test patterns before compaction : 63
   Number of test patterns after compaction  : 38
   Fault coverage                            : 32.290 %
   Number of collapsed faults                : 2747
   Number of identified redundant faults     : 1677
   Number of aborted faults                  : 183
   Total number of backtrackings             : 4129

4. Memory used                               : 37691 Kbytes

5. CPU time
   Initialization                            : 0.000 secs
   Fault simulation                          : 0.000 secs
   FAN                                       : 0.233 secs
   Total                                     : 0.233 secs
