// | ------------------------------------------------------------------------------------------------------------------ |
// |                                                                                                                    |
// |          Current split capture setting:     Off (optimal)                                                          |
// |                                                                                                                    |
// |   Current clock off simulation setting:     Off (optimal)                                                          |
// | ------------------------------------------------------------------------------------------------------------------ |
//  ------------------------------------------------------------------------
//  Simulation performed for #gates = 3733  #faults = 7927
//  Run fault simulation without storing patterns.  pattern source = 195 external patterns
//  ------------------------------------------------------------------------
//  #patterns  test      #faults  #faults    # eff.    # test         process 
//  simulated  coverage  in list  detected   patterns  patterns       CPU time
//   64         35.71%     5096      2831       62         0          0.03 sec
//   128        40.09%     4749       347       55         0          0.04 sec
//   192        42.58%     4552       197       37         0          0.05 sec
//   195        42.59%     4551         1        1         0          0.06 sec
