// | ------------------------------------------------------------------------------------------------------------------ |
// |                                                                                                                    |
// |          Current split capture setting:     Off (optimal)                                                          |
// |                                                                                                                    |
// |   Current clock off simulation setting:     Off (optimal)                                                          |
// | ------------------------------------------------------------------------------------------------------------------ |
//  ------------------------------------------------------------------------
//  Simulation performed for #gates = 3733  #faults = 7792
//  Run fault simulation without storing patterns.  pattern source = 201 external patterns
//  ------------------------------------------------------------------------
//  #patterns  test      #faults  #faults    # eff.    # test         process 
//  simulated  coverage  in list  detected   patterns  patterns       CPU time
//   64         35.60%     5018      2774       63         0          0.03 sec
//   128        40.18%     4661       357       47         0          0.04 sec
//   192        42.47%     4483       178       40         0          0.05 sec
//   201        42.71%     4464        19        5         0          0.06 sec
