          Statistics Report          
           Stuck-at Faults           
-------------------------------------
Fault Classes              #faults   
                           (coll.)   
---------------------  --------------
  FU (full)                 9584     
  -------------------  --------------
  DS (det_simulation)   8148 (85.02%)
  UU (unused)             22 ( 0.23%)
  TI (tied)              123 ( 1.28%)
  BL (blocked)           149 ( 1.55%)
  RE (redundant)        1142 (11.92%)
-------------------------------------
Coverage                             
  -------------------                
  test_coverage              100.00% 
  fault_coverage              85.02% 
  atpg_effectiveness         100.00% 
-------------------------------------
#test_patterns                   114 
#simulated_patterns              120 
CPU_time (secs)                  2.8 
-------------------------------------

