// | ------------------------------------------------------------------------------------------------------------------ |
// |                                                                                                                    |
// |          Current split capture setting:     Off (optimal)                                                          |
// |                                                                                                                    |
// |   Current clock off simulation setting:     Off (optimal)                                                          |
// | ------------------------------------------------------------------------------------------------------------------ |
//  ------------------------------------------------------------------------
//  Simulation performed for #gates = 12864  #faults = 25984
//  Run fault simulation without storing patterns.  pattern source = 702 external patterns
//  ------------------------------------------------------------------------
//  #patterns  test      #faults  #faults    # eff.    # test         process 
//  simulated  coverage  in list  detected   patterns  patterns       CPU time
//   64         12.28%    22794      3190       62         0          0.12 sec
//   128        13.87%    22380       414       53         0          0.18 sec
//   192        14.57%    22199       181       44         0          0.25 sec
//   256        15.27%    22015       184       43         0          0.31 sec
//   320        15.74%    21895       120       33         0          0.38 sec
//   384        16.32%    21744       151       45         0          0.44 sec
//   448        16.77%    21627       117       29         0          0.50 sec
//   512        17.21%    21511       116       28         0          0.56 sec
//   576        17.55%    21423        88       32         0          0.62 sec
//   640        17.69%    21388        35       17         0          0.68 sec
//   702        17.80%    21360        28       15         0          0.73 sec
