// | ------------------------------------------------------------------------------------------------------------------ |
// |                                                                                                                    |
// |          Current split capture setting:     Off (optimal)                                                          |
// |                                                                                                                    |
// |   Current clock off simulation setting:     Off (optimal)                                                          |
// | ------------------------------------------------------------------------------------------------------------------ |
//  ------------------------------------------------------------------------
//  Simulation performed for #gates = 12864  #faults = 25984
//  Run fault simulation without storing patterns.  pattern source = 534 external patterns
//  ------------------------------------------------------------------------
//  #patterns  test      #faults  #faults    # eff.    # test         process 
//  simulated  coverage  in list  detected   patterns  patterns       CPU time
//   64         13.06%    22590      3394       63         0          0.11 sec
//   128        14.69%    22168       422       55         0          0.17 sec
//   192        15.48%    21962       206       49         0          0.24 sec
//   256        16.03%    21820       142       41         0          0.29 sec
//   320        16.39%    21726        94       32         0          0.35 sec
//   384        16.66%    21654        72       24         0          0.41 sec
//   448        16.96%    21577        77       29         0          0.47 sec
//   512        17.26%    21498        79       24         0          0.52 sec
//   534        17.31%    21487        11        8         0          0.58 sec
