// | ------------------------------------------------------------------------------------------------------------------ |
// |                                                                                                                    |
// |          Current split capture setting:     Off (optimal)                                                          |
// |                                                                                                                    |
// |   Current clock off simulation setting:     Off (optimal)                                                          |
// | ------------------------------------------------------------------------------------------------------------------ |
//  ------------------------------------------------------------------------
//  Simulation performed for #gates = 12864  #faults = 25984
//  Run fault simulation without storing patterns.  pattern source = 582 external patterns
//  ------------------------------------------------------------------------
//  #patterns  test      #faults  #faults    # eff.    # test         process 
//  simulated  coverage  in list  detected   patterns  patterns       CPU time
//   64         12.55%    22723      3261       63         0          0.11 sec
//   128        13.54%    22467       256       47         0          0.17 sec
//   192        14.41%    22240       227       43         0          0.23 sec
//   256        14.82%    22132       108       35         0          0.29 sec
//   320        15.32%    22004       128       33         0          0.35 sec
//   384        15.67%    21913        91       27         0          0.41 sec
//   448        15.96%    21838        75       27         0          0.47 sec
//   512        16.23%    21766        72       22         0          0.53 sec
//   576        16.41%    21721        45       19         0          0.58 sec
//   582        16.41%    21719         2        1         0          0.63 sec
