// | ------------------------------------------------------------------------------------------------------------------ |
// |                                                                                                                    |
// |          Current split capture setting:     Off (optimal)                                                          |
// |                                                                                                                    |
// |   Current clock off simulation setting:     Off (optimal)                                                          |
// | ------------------------------------------------------------------------------------------------------------------ |
//  ------------------------------------------------------------------------
//  Simulation performed for #gates = 12864  #faults = 25984
//  Run fault simulation without storing patterns.  pattern source = 516 external patterns
//  ------------------------------------------------------------------------
//  #patterns  test      #faults  #faults    # eff.    # test         process 
//  simulated  coverage  in list  detected   patterns  patterns       CPU time
//   64         12.16%    22825      3159       61         0          0.11 sec
//   128        13.44%    22492       333       46         0          0.17 sec
//   192        14.03%    22339       153       42         0          0.23 sec
//   256        14.55%    22203       136       28         0          0.30 sec
//   320        15.14%    22049       154       38         0          0.36 sec
//   384        15.46%    21968        81       22         0          0.42 sec
//   448        15.78%    21884        84       31         0          0.48 sec
//   512        16.02%    21822        62       19         0          0.54 sec
//   516        16.02%    21821         1        1         0          0.59 sec
