// | ------------------------------------------------------------------------------------------------------------------ |
// |                                                                                                                    |
// |          Current split capture setting:     Off (optimal)                                                          |
// |                                                                                                                    |
// |   Current clock off simulation setting:     Off (optimal)                                                          |
// | ------------------------------------------------------------------------------------------------------------------ |
//  ------------------------------------------------------------------------
//  Simulation performed for #gates = 12864  #faults = 25984
//  Run fault simulation without storing patterns.  pattern source = 446 external patterns
//  ------------------------------------------------------------------------
//  #patterns  test      #faults  #faults    # eff.    # test         process 
//  simulated  coverage  in list  detected   patterns  patterns       CPU time
//   64         15.67%    21912      4072       64         0          0.13 sec
//   128        17.31%    21487       425       57         0          0.20 sec
//   192        18.17%    21264       223       51         0          0.26 sec
//   256        18.74%    21115       149       41         0          0.32 sec
//   320        19.12%    21016        99       39         0          0.37 sec
//   384        19.44%    20933        83       33         0          0.43 sec
//   446        19.63%    20884        49       21         0          0.48 sec
