// | ------------------------------------------------------------------------------------------------------------------ |
// |                                                                                                                    |
// |          Current split capture setting:     Off (optimal)                                                          |
// |                                                                                                                    |
// |   Current clock off simulation setting:     Off (optimal)                                                          |
// | ------------------------------------------------------------------------------------------------------------------ |
//  ------------------------------------------------------------------------
//  Simulation performed for #gates = 12864  #faults = 25984
//  Run fault simulation without storing patterns.  pattern source = 524 external patterns
//  ------------------------------------------------------------------------
//  #patterns  test      #faults  #faults    # eff.    # test         process 
//  simulated  coverage  in list  detected   patterns  patterns       CPU time
//   64         13.66%    22435      3549       63         0          0.11 sec
//   128        14.78%    22143       292       54         0          0.18 sec
//   192        15.46%    21967       176       42         0          0.24 sec
//   256        15.90%    21853       114       34         0          0.30 sec
//   320        16.36%    21733       120       35         0          0.36 sec
//   384        16.82%    21614       119       33         0          0.42 sec
//   448        17.08%    21546        68       25         0          0.48 sec
//   512        17.30%    21490        56       27         0          0.54 sec
//   524        17.33%    21482         8        4         0          0.59 sec
