// | ------------------------------------------------------------------------------------------------------------------ |
// |                                                                                                                    |
// |          Current split capture setting:     Off (optimal)                                                          |
// |                                                                                                                    |
// |   Current clock off simulation setting:     Off (optimal)                                                          |
// | ------------------------------------------------------------------------------------------------------------------ |
//  ------------------------------------------------------------------------
//  Simulation performed for #gates = 12864  #faults = 25984
//  Run fault simulation without storing patterns.  pattern source = 386 external patterns
//  ------------------------------------------------------------------------
//  #patterns  test      #faults  #faults    # eff.    # test         process 
//  simulated  coverage  in list  detected   patterns  patterns       CPU time
//   64         14.88%    22117      3867       64         0          0.13 sec
//   128        16.44%    21713       404       57         0          0.20 sec
//   192        17.30%    21488       225       48         0          0.26 sec
//   256        17.84%    21348       140       46         0          0.32 sec
//   320        18.13%    21273        75       34         0          0.38 sec
//   384        18.43%    21195        78       30         0          0.44 sec
