// | ------------------------------------------------------------------------------------------------------------------ |
// |                                                                                                                    |
// |          Current split capture setting:     Off (optimal)                                                          |
// |                                                                                                                    |
// |   Current clock off simulation setting:     Off (optimal)                                                          |
// | ------------------------------------------------------------------------------------------------------------------ |
//  ------------------------------------------------------------------------
//  Simulation performed for #gates = 12864  #faults = 25984
//  Run fault simulation without storing patterns.  pattern source = 531 external patterns
//  ------------------------------------------------------------------------
//  #patterns  test      #faults  #faults    # eff.    # test         process 
//  simulated  coverage  in list  detected   patterns  patterns       CPU time
//   64         15.51%    21953      4031       64         0          0.14 sec
//   128        17.35%    21475       478       60         0          0.20 sec
//   192        18.14%    21271       204       50         0          0.26 sec
//   256        18.66%    21136       135       39         0          0.32 sec
//   320        18.99%    21049        87       28         0          0.38 sec
//   384        19.30%    20968        81       35         0          0.44 sec
//   448        19.53%    20909        59       26         0          0.50 sec
//   512        19.68%    20871        38       19         0          0.55 sec
//   531        19.69%    20869         2        2         0          0.61 sec
