// | ------------------------------------------------------------------------------------------------------------------ |
// |                                                                                                                    |
// |          Current split capture setting:     Off (optimal)                                                          |
// |                                                                                                                    |
// |   Current clock off simulation setting:     Off (optimal)                                                          |
// | ------------------------------------------------------------------------------------------------------------------ |
//  ------------------------------------------------------------------------
//  Simulation performed for #gates = 12864  #faults = 25984
//  Run fault simulation without storing patterns.  pattern source = 573 external patterns
//  ------------------------------------------------------------------------
//  #patterns  test      #faults  #faults    # eff.    # test         process 
//  simulated  coverage  in list  detected   patterns  patterns       CPU time
//   64         13.28%    22534      3450       64         0          0.11 sec
//   128        14.82%    22133       401       53         0          0.17 sec
//   192        15.54%    21946       187       46         0          0.24 sec
//   256        16.01%    21823       123       35         0          0.30 sec
//   320        16.39%    21724        99       31         0          0.35 sec
//   384        16.72%    21639        85       30         0          0.41 sec
//   448        16.97%    21575        64       24         0          0.47 sec
//   512        17.20%    21515        60       24         0          0.53 sec
//   573        17.35%    21476        39       17         0          0.58 sec
