// | ------------------------------------------------------------------------------------------------------------------ |
// |                                                                                                                    |
// |          Current split capture setting:     Off (optimal)                                                          |
// |                                                                                                                    |
// |   Current clock off simulation setting:     Off (optimal)                                                          |
// | ------------------------------------------------------------------------------------------------------------------ |
//  ------------------------------------------------------------------------
//  Simulation performed for #gates = 12864  #faults = 25984
//  Run fault simulation without storing patterns.  pattern source = 533 external patterns
//  ------------------------------------------------------------------------
//  #patterns  test      #faults  #faults    # eff.    # test         process 
//  simulated  coverage  in list  detected   patterns  patterns       CPU time
//   64         12.37%    22769      3215       60         0          0.10 sec
//   128        13.69%    22427       342       49         0          0.17 sec
//   192        14.48%    22221       206       40         0          0.23 sec
//   256        15.22%    22029       192       45         0          0.29 sec
//   320        15.78%    21883       146       39         0          0.35 sec
//   384        16.17%    21783       100       31         0          0.41 sec
//   448        16.52%    21691        92       23         0          0.47 sec
//   512        16.76%    21628        63       26         0          0.52 sec
//   533        16.80%    21619         9        4         0          0.58 sec
