// | ------------------------------------------------------------------------------------------------------------------ |
// |                                                                                                                    |
// |          Current split capture setting:     Off (optimal)                                                          |
// |                                                                                                                    |
// |   Current clock off simulation setting:     Off (optimal)                                                          |
// | ------------------------------------------------------------------------------------------------------------------ |
//  ------------------------------------------------------------------------
//  Simulation performed for #gates = 12864  #faults = 25984
//  Run fault simulation without storing patterns.  pattern source = 1364 external patterns
//  ------------------------------------------------------------------------
//  #patterns  test      #faults  #faults    # eff.    # test         process 
//  simulated  coverage  in list  detected   patterns  patterns       CPU time
//   64         15.84%    21868      4116       64         0          0.13 sec
//   128        17.81%    21357       511       60         0          0.20 sec
//   192        18.78%    21104       253       50         0          0.26 sec
//   256        19.49%    20919       185       47         0          0.32 sec
//   320        19.99%    20790       129       41         0          0.38 sec
//   384        20.36%    20693        97       33         0          0.44 sec
//   448        20.57%    20639        54       24         0          0.49 sec
//   512        20.78%    20585        54       27         0          0.55 sec
//   576        20.93%    20546        39       18         0          0.61 sec
//   640        21.09%    20504        42       23         0          0.66 sec
//   704        21.25%    20463        41       22         0          0.72 sec
//   768        21.36%    20434        29       16         0          0.77 sec
//   832        21.48%    20403        31       19         0          0.82 sec
//   896        21.61%    20370        33       16         0          0.88 sec
//   960        21.72%    20340        30       14         0          0.93 sec
//   1024       21.80%    20319        21       13         0          0.99 sec
//   1088       21.89%    20297        22       14         0          1.04 sec
//   1152       21.98%    20274        23       11         0          1.09 sec
//   1216       22.00%    20268         6        4         0          1.14 sec
//   1280       22.03%    20260         8        6         0          1.19 sec
//   1344       22.11%    20240        20        9         0          1.25 sec
//   1364       22.12%    20237         3        2         0          1.30 sec
