// | ------------------------------------------------------------------------------------------------------------------ |
// |                                                                                                                    |
// |          Current split capture setting:     Off (optimal)                                                          |
// |                                                                                                                    |
// |   Current clock off simulation setting:     Off (optimal)                                                          |
// | ------------------------------------------------------------------------------------------------------------------ |
//  ------------------------------------------------------------------------
//  Simulation performed for #gates = 12864  #faults = 25984
//  Run fault simulation without storing patterns.  pattern source = 590 external patterns
//  ------------------------------------------------------------------------
//  #patterns  test      #faults  #faults    # eff.    # test         process 
//  simulated  coverage  in list  detected   patterns  patterns       CPU time
//   64         15.31%    22005      3979       64         0          0.13 sec
//   128        16.93%    21586       419       58         0          0.20 sec
//   192        17.90%    21332       254       50         0          0.26 sec
//   256        18.32%    21224       108       41         0          0.32 sec
//   320        18.54%    21166        58       30         0          0.38 sec
//   384        18.98%    21053       113       39         0          0.44 sec
//   448        19.19%    20998        55       30         0          0.49 sec
//   512        19.38%    20949        49       22         0          0.55 sec
//   576        19.48%    20923        26       14         0          0.61 sec
//   590        19.51%    20915         8        3         0          0.66 sec
