// | ------------------------------------------------------------------------------------------------------------------ |
// |                                                                                                                    |
// |          Current split capture setting:     Off (optimal)                                                          |
// |                                                                                                                    |
// |   Current clock off simulation setting:     Off (optimal)                                                          |
// | ------------------------------------------------------------------------------------------------------------------ |
//  ------------------------------------------------------------------------
//  Simulation performed for #gates = 12864  #faults = 25984
//  Run fault simulation without storing patterns.  pattern source = 545 external patterns
//  ------------------------------------------------------------------------
//  #patterns  test      #faults  #faults    # eff.    # test         process 
//  simulated  coverage  in list  detected   patterns  patterns       CPU time
//   64         14.33%    22261      3723       64         0          0.12 sec
//   128        16.01%    21823       438       60         0          0.19 sec
//   192        16.84%    21607       216       49         0          0.25 sec
//   256        17.31%    21485       122       44         0          0.31 sec
//   320        17.59%    21413        72       31         0          0.37 sec
//   384        17.85%    21345        68       32         0          0.43 sec
//   448        18.03%    21300        45       24         0          0.49 sec
//   512        18.14%    21271        29       14         0          0.55 sec
//   545        18.17%    21262         9        8         0          0.60 sec
