// | ------------------------------------------------------------------------------------------------------------------ |
// |                                                                                                                    |
// |          Current split capture setting:     Off (optimal)                                                          |
// |                                                                                                                    |
// |   Current clock off simulation setting:     Off (optimal)                                                          |
// | ------------------------------------------------------------------------------------------------------------------ |
//  ------------------------------------------------------------------------
//  Simulation performed for #gates = 12864  #faults = 25984
//  Run fault simulation without storing patterns.  pattern source = 1378 external patterns
//  ------------------------------------------------------------------------
//  #patterns  test      #faults  #faults    # eff.    # test         process 
//  simulated  coverage  in list  detected   patterns  patterns       CPU time
//   64         15.16%    22045      3939       64         0          0.13 sec
//   128        17.03%    21559       486       60         0          0.20 sec
//   192        17.75%    21371       188       54         0          0.26 sec
//   256        18.29%    21231       140       48         0          0.32 sec
//   320        18.70%    21125       106       36         0          0.38 sec
//   384        18.86%    21083        42       24         0          0.44 sec
//   448        19.12%    21015        68       28         0          0.50 sec
//   512        19.33%    20960        55       25         0          0.56 sec
//   576        19.50%    20916        44       23         0          0.62 sec
//   640        19.68%    20871        45       20         0          0.68 sec
//   704        19.82%    20833        38       14         0          0.74 sec
//   768        19.91%    20811        22       10         0          0.79 sec
//   832        20.04%    20778        33       18         0          0.85 sec
//   896        20.12%    20755        23       12         0          0.91 sec
//   960        20.19%    20739        16       12         0          0.96 sec
//   1024       20.30%    20710        29       12         0          1.02 sec
//   1088       20.39%    20686        24       12         0          1.07 sec
//   1152       20.52%    20653        33       12         0          1.13 sec
//   1216       20.61%    20629        24       10         0          1.18 sec
//   1280       20.67%    20614        15        9         0          1.24 sec
//   1344       20.74%    20596        18       10         0          1.29 sec
//   1378       20.76%    20590         6        2         0          1.35 sec
