// | ------------------------------------------------------------------------------------------------------------------ |
// |                                                                                                                    |
// |          Current split capture setting:     Off (optimal)                                                          |
// |                                                                                                                    |
// |   Current clock off simulation setting:     Off (optimal)                                                          |
// | ------------------------------------------------------------------------------------------------------------------ |
//  ------------------------------------------------------------------------
//  Simulation performed for #gates = 12864  #faults = 25984
//  Run fault simulation without storing patterns.  pattern source = 1151 external patterns
//  ------------------------------------------------------------------------
//  #patterns  test      #faults  #faults    # eff.    # test         process 
//  simulated  coverage  in list  detected   patterns  patterns       CPU time
//   64         13.96%    22357      3627       63         0          0.12 sec
//   128        15.20%    22035       322       50         0          0.18 sec
//   192        16.10%    21800       235       54         0          0.25 sec
//   256        16.66%    21656       144       39         0          0.31 sec
//   320        17.08%    21547       109       37         0          0.37 sec
//   384        17.35%    21477        70       30         0          0.43 sec
//   448        17.63%    21404        73       32         0          0.48 sec
//   512        17.78%    21364        40       20         0          0.54 sec
//   576        17.94%    21322        42       26         0          0.60 sec
//   640        18.04%    21297        25       16         0          0.65 sec
//   704        18.14%    21270        27       15         0          0.71 sec
//   768        18.29%    21231        39       21         0          0.76 sec
//   832        18.39%    21205        26       10         0          0.82 sec
//   896        18.48%    21181        24       14         0          0.87 sec
//   960        18.56%    21162        19       10         0          0.93 sec
//   1024       18.65%    21139        23       12         0          0.98 sec
//   1088       18.69%    21127        12        9         0          1.04 sec
//   1151       18.74%    21115        12        8         0          1.09 sec
