// | ------------------------------------------------------------------------------------------------------------------ |
// |                                                                                                                    |
// |          Current split capture setting:     Off (optimal)                                                          |
// |                                                                                                                    |
// |   Current clock off simulation setting:     Off (optimal)                                                          |
// | ------------------------------------------------------------------------------------------------------------------ |
//  ------------------------------------------------------------------------
//  Simulation performed for #gates = 12864  #faults = 25984
//  Run fault simulation without storing patterns.  pattern source = 1151 external patterns
//  ------------------------------------------------------------------------
//  #patterns  test      #faults  #faults    # eff.    # test         process 
//  simulated  coverage  in list  detected   patterns  patterns       CPU time
//   64         15.59%    21932      4052       64         0          0.13 sec
//   128        17.32%    21484       448       56         0          0.20 sec
//   192        18.17%    21264       220       46         0          0.26 sec
//   256        18.75%    21112       152       46         0          0.32 sec
//   320        19.13%    21013        99       35         0          0.38 sec
//   384        19.48%    20923        90       39         0          0.44 sec
//   448        19.77%    20848        75       28         0          0.49 sec
//   512        19.89%    20817        31       20         0          0.55 sec
//   576        20.07%    20768        49       26         0          0.60 sec
//   640        20.22%    20730        38       21         0          0.66 sec
//   704        20.30%    20709        21       13         0          0.72 sec
//   768        20.39%    20687        22       15         0          0.77 sec
//   832        20.53%    20649        38       15         0          0.83 sec
//   896        20.62%    20626        23       11         0          0.88 sec
//   960        20.69%    20609        17       10         0          0.94 sec
//   1024       20.76%    20590        19       14         0          0.99 sec
//   1088       20.81%    20578        12        8         0          1.04 sec
//   1151       20.86%    20565        13        9         0          1.10 sec
