// | ------------------------------------------------------------------------------------------------------------------ |
// |                                                                                                                    |
// |          Current split capture setting:     Off (optimal)                                                          |
// |                                                                                                                    |
// |   Current clock off simulation setting:     Off (optimal)                                                          |
// | ------------------------------------------------------------------------------------------------------------------ |
//  ------------------------------------------------------------------------
//  Simulation performed for #gates = 12864  #faults = 25984
//  Run fault simulation without storing patterns.  pattern source = 509 external patterns
//  ------------------------------------------------------------------------
//  #patterns  test      #faults  #faults    # eff.    # test         process 
//  simulated  coverage  in list  detected   patterns  patterns       CPU time
//   64         13.99%    22350      3634       64         0          0.12 sec
//   128        15.66%    21915       435       56         0          0.19 sec
//   192        16.61%    21667       248       56         0          0.25 sec
//   256        17.07%    21549       118       39         0          0.31 sec
//   320        17.38%    21467        82       36         0          0.36 sec
//   384        17.63%    21403        64       28         0          0.42 sec
//   448        17.81%    21355        48       29         0          0.48 sec
//   509        17.99%    21309        46       21         0          0.53 sec
