// | ------------------------------------------------------------------------------------------------------------------ |
// |                                                                                                                    |
// |          Current split capture setting:     Off (optimal)                                                          |
// |                                                                                                                    |
// |   Current clock off simulation setting:     Off (optimal)                                                          |
// | ------------------------------------------------------------------------------------------------------------------ |
//  ------------------------------------------------------------------------
//  Simulation performed for #gates = 12864  #faults = 25984
//  Run fault simulation without storing patterns.  pattern source = 534 external patterns
//  ------------------------------------------------------------------------
//  #patterns  test      #faults  #faults    # eff.    # test         process 
//  simulated  coverage  in list  detected   patterns  patterns       CPU time
//   64         14.54%    22207      3777       64         0          0.12 sec
//   128        16.35%    21735       472       58         0          0.19 sec
//   192        17.25%    21502       233       52         0          0.25 sec
//   256        17.73%    21377       125       38         0          0.30 sec
//   320        18.06%    21290        87       35         0          0.36 sec
//   384        18.37%    21210        80       31         0          0.42 sec
//   448        18.69%    21127        83       29         0          0.48 sec
//   512        18.98%    21053        74       30         0          0.53 sec
//   534        19.02%    21041        12        7         0          0.58 sec
