// | ------------------------------------------------------------------------------------------------------------------ |
// |                                                                                                                    |
// |          Current split capture setting:     Off (optimal)                                                          |
// |                                                                                                                    |
// |   Current clock off simulation setting:     Off (optimal)                                                          |
// | ------------------------------------------------------------------------------------------------------------------ |
//  ------------------------------------------------------------------------
//  Simulation performed for #gates = 12864  #faults = 25984
//  Run fault simulation without storing patterns.  pattern source = 472 external patterns
//  ------------------------------------------------------------------------
//  #patterns  test      #faults  #faults    # eff.    # test         process 
//  simulated  coverage  in list  detected   patterns  patterns       CPU time
//   64         16.00%    21826      4158       64         0          0.14 sec
//   128        17.87%    21341       485       57         0          0.20 sec
//   192        18.56%    21161       180       47         0          0.26 sec
//   256        19.03%    21038       123       42         0          0.32 sec
//   320        19.29%    20972        66       34         0          0.38 sec
//   384        19.54%    20908        64       21         0          0.43 sec
//   448        19.68%    20871        37       20         0          0.49 sec
//   472        19.73%    20858        13        6         0          0.54 sec
