// | ------------------------------------------------------------------------------------------------------------------ |
// |                                                                                                                    |
// |          Current split capture setting:     Off (optimal)                                                          |
// |                                                                                                                    |
// |   Current clock off simulation setting:     Off (optimal)                                                          |
// | ------------------------------------------------------------------------------------------------------------------ |
//  ------------------------------------------------------------------------
//  Simulation performed for #gates = 12864  #faults = 25984
//  Run fault simulation without storing patterns.  pattern source = 546 external patterns
//  ------------------------------------------------------------------------
//  #patterns  test      #faults  #faults    # eff.    # test         process 
//  simulated  coverage  in list  detected   patterns  patterns       CPU time
//   64         12.06%    22850      3134       64         0          0.11 sec
//   128        13.34%    22518       332       47         0          0.17 sec
//   192        13.98%    22351       167       35         0          0.23 sec
//   256        14.90%    22112       239       47         0          0.30 sec
//   320        15.37%    21989       123       36         0          0.36 sec
//   384        15.82%    21873       116       33         0          0.42 sec
//   448        16.09%    21804        69       26         0          0.47 sec
//   512        16.29%    21752        52       22         0          0.53 sec
//   546        16.32%    21744         8        4         0          0.58 sec
