// | ------------------------------------------------------------------------------------------------------------------ |
// |                                                                                                                    |
// |          Current split capture setting:     Off (optimal)                                                          |
// |                                                                                                                    |
// |   Current clock off simulation setting:     Off (optimal)                                                          |
// | ------------------------------------------------------------------------------------------------------------------ |
//  ------------------------------------------------------------------------
//  Simulation performed for #gates = 12864  #faults = 25984
//  Run fault simulation without storing patterns.  pattern source = 658 external patterns
//  ------------------------------------------------------------------------
//  #patterns  test      #faults  #faults    # eff.    # test         process 
//  simulated  coverage  in list  detected   patterns  patterns       CPU time
//   64         15.83%    21872      4112       64         0          0.13 sec
//   128        17.63%    21402       470       60         0          0.20 sec
//   192        18.35%    21216       186       48         0          0.26 sec
//   256        18.77%    21108       108       43         0          0.32 sec
//   320        19.05%    21034        74       31         0          0.38 sec
//   384        19.30%    20968        66       21         0          0.43 sec
//   448        19.49%    20919        49       24         0          0.49 sec
//   512        19.64%    20880        39       18         0          0.55 sec
//   576        19.74%    20855        25       14         0          0.60 sec
//   640        19.85%    20825        30       16         0          0.66 sec
