// | ------------------------------------------------------------------------------------------------------------------ |
// |                                                                                                                    |
// |          Current split capture setting:     Off (optimal)                                                          |
// |                                                                                                                    |
// |   Current clock off simulation setting:     Off (optimal)                                                          |
// | ------------------------------------------------------------------------------------------------------------------ |
//  ------------------------------------------------------------------------
//  Simulation performed for #gates = 12864  #faults = 25984
//  Run fault simulation without storing patterns.  pattern source = 472 external patterns
//  ------------------------------------------------------------------------
//  #patterns  test      #faults  #faults    # eff.    # test         process 
//  simulated  coverage  in list  detected   patterns  patterns       CPU time
//   64         14.92%    22106      3878       64         0          0.14 sec
//   128        17.18%    21520       586       62         0          0.21 sec
//   192        18.07%    21289       231       51         0          0.27 sec
//   256        18.59%    21153       136       48         0          0.33 sec
//   320        19.00%    21048       105       38         0          0.39 sec
//   384        19.20%    20994        54       27         0          0.45 sec
//   448        19.34%    20959        35       21         0          0.51 sec
//   472        19.38%    20948        11        5         0          0.56 sec
