// | ------------------------------------------------------------------------------------------------------------------ |
// |                                                                                                                    |
// |          Current split capture setting:     Off (optimal)                                                          |
// |                                                                                                                    |
// |   Current clock off simulation setting:     Off (optimal)                                                          |
// | ------------------------------------------------------------------------------------------------------------------ |
//  ------------------------------------------------------------------------
//  Simulation performed for #gates = 12864  #faults = 25984
//  Run fault simulation without storing patterns.  pattern source = 589 external patterns
//  ------------------------------------------------------------------------
//  #patterns  test      #faults  #faults    # eff.    # test         process 
//  simulated  coverage  in list  detected   patterns  patterns       CPU time
//   64         15.31%    22005      3979       64         0          0.13 sec
//   128        17.02%    21561       444       57         0          0.20 sec
//   192        18.01%    21303       258       55         0          0.26 sec
//   256        18.41%    21200       103       37         0          0.32 sec
//   320        18.62%    21146        54       26         0          0.38 sec
//   384        18.91%    21070        76       34         0          0.44 sec
//   448        19.28%    20973        97       38         0          0.49 sec
//   512        19.45%    20929        44       24         0          0.55 sec
//   576        19.59%    20895        34       23         0          0.61 sec
//   589        19.65%    20878        17        5         0          0.66 sec
