// | ------------------------------------------------------------------------------------------------------------------ |
// |                                                                                                                    |
// |          Current split capture setting:     Off (optimal)                                                          |
// |                                                                                                                    |
// |   Current clock off simulation setting:     Off (optimal)                                                          |
// | ------------------------------------------------------------------------------------------------------------------ |
//  ------------------------------------------------------------------------
//  Simulation performed for #gates = 12864  #faults = 25984
//  Run fault simulation without storing patterns.  pattern source = 649 external patterns
//  ------------------------------------------------------------------------
//  #patterns  test      #faults  #faults    # eff.    # test         process 
//  simulated  coverage  in list  detected   patterns  patterns       CPU time
//   64         16.03%    21820      4164       64         0          0.14 sec
//   128        17.62%    21405       415       58         0          0.21 sec
//   192        18.35%    21217       188       46         0          0.27 sec
//   256        18.69%    21127        90       39         0          0.33 sec
//   320        18.99%    21049        78       33         0          0.39 sec
//   384        19.22%    20990        59       29         0          0.44 sec
//   448        19.36%    20954        36       19         0          0.50 sec
//   512        19.52%    20913        41       20         0          0.56 sec
//   576        19.62%    20886        27       16         0          0.61 sec
//   640        19.72%    20859        27       12         0          0.67 sec
//   649        19.74%    20856         3        2         0          0.72 sec
