// | ------------------------------------------------------------------------------------------------------------------ |
// |                                                                                                                    |
// |          Current split capture setting:     Off (optimal)                                                          |
// |                                                                                                                    |
// |   Current clock off simulation setting:     Off (optimal)                                                          |
// | ------------------------------------------------------------------------------------------------------------------ |
//  ------------------------------------------------------------------------
//  Simulation performed for #gates = 12864  #faults = 25984
//  Run fault simulation without storing patterns.  pattern source = 541 external patterns
//  ------------------------------------------------------------------------
//  #patterns  test      #faults  #faults    # eff.    # test         process 
//  simulated  coverage  in list  detected   patterns  patterns       CPU time
//   64         12.83%    22649      3335       63         0          0.11 sec
//   128        14.04%    22337       312       52         0          0.17 sec
//   192        14.77%    22145       192       45         0          0.23 sec
//   256        15.43%    21975       170       41         0          0.30 sec
//   320        15.77%    21887        88       29         0          0.35 sec
//   384        16.07%    21808        79       28         0          0.41 sec
//   448        16.33%    21741        67       23         0          0.47 sec
//   512        16.47%    21705        36       19         0          0.53 sec
//   541        16.59%    21673        32       11         0          0.58 sec
