// | ------------------------------------------------------------------------------------------------------------------ |
// |                                                                                                                    |
// |          Current split capture setting:     Off (optimal)                                                          |
// |                                                                                                                    |
// |   Current clock off simulation setting:     Off (optimal)                                                          |
// | ------------------------------------------------------------------------------------------------------------------ |
//  ------------------------------------------------------------------------
//  Simulation performed for #gates = 12864  #faults = 25984
//  Run fault simulation without storing patterns.  pattern source = 545 external patterns
//  ------------------------------------------------------------------------
//  #patterns  test      #faults  #faults    # eff.    # test         process 
//  simulated  coverage  in list  detected   patterns  patterns       CPU time
//   64         12.91%    22629      3355       62         0          0.11 sec
//   128        14.31%    22265       364       55         0          0.17 sec
//   192        15.07%    22069       196       39         0          0.23 sec
//   256        15.57%    21939       130       35         0          0.29 sec
//   320        16.00%    21827       112       38         0          0.35 sec
//   384        16.40%    21723       104       31         0          0.41 sec
//   448        16.74%    21635        88       29         0          0.47 sec
//   512        16.95%    21580        55       20         0          0.52 sec
//   545        17.05%    21555        25       15         0          0.58 sec
