// | ------------------------------------------------------------------------------------------------------------------ |
// |                                                                                                                    |
// |          Current split capture setting:     Off (optimal)                                                          |
// |                                                                                                                    |
// |   Current clock off simulation setting:     Off (optimal)                                                          |
// | ------------------------------------------------------------------------------------------------------------------ |
//  ------------------------------------------------------------------------
//  Simulation performed for #gates = 12864  #faults = 25984
//  Run fault simulation without storing patterns.  pattern source = 531 external patterns
//  ------------------------------------------------------------------------
//  #patterns  test      #faults  #faults    # eff.    # test         process 
//  simulated  coverage  in list  detected   patterns  patterns       CPU time
//   64         15.27%    22015      3969       64         0          0.13 sec
//   128        17.00%    21566       449       59         0          0.19 sec
//   192        17.80%    21360       206       42         0          0.26 sec
//   256        18.42%    21197       163       47         0          0.31 sec
//   320        18.79%    21102        95       39         0          0.37 sec
//   384        19.15%    21007        95       39         0          0.43 sec
//   448        19.42%    20937        70       31         0          0.49 sec
//   512        19.54%    20906        31       16         0          0.54 sec
//   531        19.56%    20902         4        2         0          0.60 sec
