// | ------------------------------------------------------------------------------------------------------------------ |
// |                                                                                                                    |
// |          Current split capture setting:     Off (optimal)                                                          |
// |                                                                                                                    |
// |   Current clock off simulation setting:     Off (optimal)                                                          |
// | ------------------------------------------------------------------------------------------------------------------ |
//  ------------------------------------------------------------------------
//  Simulation performed for #gates = 12864  #faults = 25984
//  Run fault simulation without storing patterns.  pattern source = 592 external patterns
//  ------------------------------------------------------------------------
//  #patterns  test      #faults  #faults    # eff.    # test         process 
//  simulated  coverage  in list  detected   patterns  patterns       CPU time
//   64         13.76%    22409      3575       63         0          0.13 sec
//   128        15.21%    22032       377       55         0          0.19 sec
//   192        16.03%    21820       212       54         0          0.26 sec
//   256        16.58%    21676       144       38         0          0.32 sec
//   320        16.96%    21576       100       35         0          0.38 sec
//   384        17.46%    21446       130       44         0          0.44 sec
//   448        17.76%    21369        77       29         0          0.50 sec
//   512        18.04%    21296        73       28         0          0.55 sec
//   576        18.19%    21257        39       20         0          0.61 sec
//   592        18.22%    21251         6        4         0          0.66 sec
