// | ------------------------------------------------------------------------------------------------------------------ |
// |                                                                                                                    |
// |          Current split capture setting:     Off (optimal)                                                          |
// |                                                                                                                    |
// |   Current clock off simulation setting:     Off (optimal)                                                          |
// | ------------------------------------------------------------------------------------------------------------------ |
//  ------------------------------------------------------------------------
//  Simulation performed for #gates = 12864  #faults = 25984
//  Run fault simulation without storing patterns.  pattern source = 520 external patterns
//  ------------------------------------------------------------------------
//  #patterns  test      #faults  #faults    # eff.    # test         process 
//  simulated  coverage  in list  detected   patterns  patterns       CPU time
//   64         14.51%    22215      3769       63         0          0.12 sec
//   128        16.17%    21783       432       53         0          0.19 sec
//   192        17.10%    21542       241       50         0          0.25 sec
//   256        17.56%    21422       120       43         0          0.31 sec
//   320        17.88%    21338        84       37         0          0.37 sec
//   384        18.16%    21265        73       29         0          0.43 sec
//   448        18.46%    21188        77       30         0          0.48 sec
//   512        18.55%    21164        24       17         0          0.54 sec
//   520        18.56%    21162         2        1         0          0.59 sec
