// | ------------------------------------------------------------------------------------------------------------------ |
// |                                                                                                                    |
// |          Current split capture setting:     Off (optimal)                                                          |
// |                                                                                                                    |
// |   Current clock off simulation setting:     Off (optimal)                                                          |
// | ------------------------------------------------------------------------------------------------------------------ |
//  ------------------------------------------------------------------------
//  Simulation performed for #gates = 12864  #faults = 25984
//  Run fault simulation without storing patterns.  pattern source = 585 external patterns
//  ------------------------------------------------------------------------
//  #patterns  test      #faults  #faults    # eff.    # test         process 
//  simulated  coverage  in list  detected   patterns  patterns       CPU time
//   64         15.12%    22055      3929       64         0          0.14 sec
//   128        16.93%    21585       470       57         0          0.21 sec
//   192        17.78%    21364       221       54         0          0.27 sec
//   256        18.20%    21256       108       46         0          0.33 sec
//   320        18.48%    21182        74       31         0          0.39 sec
//   384        18.80%    21098        84       34         0          0.45 sec
//   448        18.97%    21054        44       22         0          0.51 sec
//   512        19.10%    21021        33       17         0          0.57 sec
//   576        19.18%    21001        20        9         0          0.62 sec
//   585        19.19%    20997         4        3         0          0.67 sec
