// | ------------------------------------------------------------------------------------------------------------------ |
// |                                                                                                                    |
// |          Current split capture setting:     Off (optimal)                                                          |
// |                                                                                                                    |
// |   Current clock off simulation setting:     Off (optimal)                                                          |
// | ------------------------------------------------------------------------------------------------------------------ |
//  ------------------------------------------------------------------------
//  Simulation performed for #gates = 12864  #faults = 25984
//  Run fault simulation without storing patterns.  pattern source = 507 external patterns
//  ------------------------------------------------------------------------
//  #patterns  test      #faults  #faults    # eff.    # test         process 
//  simulated  coverage  in list  detected   patterns  patterns       CPU time
//   64         15.31%    22006      3978       63         0          0.14 sec
//   128        17.03%    21560       446       58         0          0.21 sec
//   192        17.68%    21389       171       38         0          0.27 sec
//   256        18.08%    21287       102       36         0          0.33 sec
//   320        18.40%    21203        84       29         0          0.39 sec
//   384        18.62%    21147        56       26         0          0.45 sec
//   448        18.87%    21082        65       31         0          0.51 sec
//   507        19.02%    21043        39       16         0          0.57 sec
