// | ------------------------------------------------------------------------------------------------------------------ |
// |                                                                                                                    |
// |          Current split capture setting:     Off (optimal)                                                          |
// |                                                                                                                    |
// |   Current clock off simulation setting:     Off (optimal)                                                          |
// | ------------------------------------------------------------------------------------------------------------------ |
//  ------------------------------------------------------------------------
//  Simulation performed for #gates = 12864  #faults = 25984
//  Run fault simulation without storing patterns.  pattern source = 626 external patterns
//  ------------------------------------------------------------------------
//  #patterns  test      #faults  #faults    # eff.    # test         process 
//  simulated  coverage  in list  detected   patterns  patterns       CPU time
//   64         12.36%    22773      3211       61         0          0.11 sec
//   128        13.60%    22449       324       48         0          0.17 sec
//   192        14.16%    22305       144       34         0          0.24 sec
//   256        14.68%    22169       136       37         0          0.30 sec
//   320        15.04%    22075        94       31         0          0.35 sec
//   384        15.40%    21982        93       29         0          0.41 sec
//   448        15.56%    21941        41       16         0          0.47 sec
//   512        15.72%    21900        41       22         0          0.53 sec
//   576        15.99%    21828        72       27         0          0.58 sec
//   626        16.18%    21780        48       17         0          0.64 sec
