// | ------------------------------------------------------------------------------------------------------------------ |
// |                                                                                                                    |
// |          Current split capture setting:     Off (optimal)                                                          |
// |                                                                                                                    |
// |   Current clock off simulation setting:     Off (optimal)                                                          |
// | ------------------------------------------------------------------------------------------------------------------ |
//  ------------------------------------------------------------------------
//  Simulation performed for #gates = 12864  #faults = 25984
//  Run fault simulation without storing patterns.  pattern source = 489 external patterns
//  ------------------------------------------------------------------------
//  #patterns  test      #faults  #faults    # eff.    # test         process 
//  simulated  coverage  in list  detected   patterns  patterns       CPU time
//   64         14.59%    22193      3791       64         0          0.13 sec
//   128        16.14%    21789       404       58         0          0.20 sec
//   192        16.74%    21635       154       36         0          0.27 sec
//   256        17.36%    21474       161       38         0          0.33 sec
//   320        17.85%    21345       129       37         0          0.39 sec
//   384        18.23%    21247        98       38         0          0.45 sec
//   448        18.53%    21168        79       26         0          0.51 sec
//   489        18.64%    21141        27       15         0          0.56 sec
