// | ------------------------------------------------------------------------------------------------------------------ |
// |                                                                                                                    |
// |          Current split capture setting:     Off (optimal)                                                          |
// |                                                                                                                    |
// |   Current clock off simulation setting:     Off (optimal)                                                          |
// | ------------------------------------------------------------------------------------------------------------------ |
//  ------------------------------------------------------------------------
//  Simulation performed for #gates = 12864  #faults = 25984
//  Run fault simulation without storing patterns.  pattern source = 531 external patterns
//  ------------------------------------------------------------------------
//  #patterns  test      #faults  #faults    # eff.    # test         process 
//  simulated  coverage  in list  detected   patterns  patterns       CPU time
//   64         12.49%    22739      3245       62         0          0.11 sec
//   128        13.37%    22509       230       43         0          0.17 sec
//   192        14.23%    22287       222       45         0          0.23 sec
//   256        14.98%    22091       196       41         0          0.29 sec
//   320        15.64%    21920       171       40         0          0.35 sec
//   384        16.19%    21777       143       40         0          0.41 sec
//   448        16.72%    21640       137       35         0          0.47 sec
//   512        16.94%    21582        58       23         0          0.53 sec
//   531        17.00%    21567        15        9         0          0.58 sec
