// | ------------------------------------------------------------------------------------------------------------------ |
// |                                                                                                                    |
// |          Current split capture setting:     Off (optimal)                                                          |
// |                                                                                                                    |
// |   Current clock off simulation setting:     Off (optimal)                                                          |
// | ------------------------------------------------------------------------------------------------------------------ |
//  ------------------------------------------------------------------------
//  Simulation performed for #gates = 12864  #faults = 25984
//  Run fault simulation without storing patterns.  pattern source = 546 external patterns
//  ------------------------------------------------------------------------
//  #patterns  test      #faults  #faults    # eff.    # test         process 
//  simulated  coverage  in list  detected   patterns  patterns       CPU time
//   64         15.65%    21917      4067       63         0          0.14 sec
//   128        17.50%    21437       480       57         0          0.21 sec
//   192        18.36%    21214       223       54         0          0.27 sec
//   256        18.83%    21092       122       43         0          0.33 sec
//   320        19.10%    21021        71       26         0          0.39 sec
//   384        19.34%    20959        62       32         0          0.45 sec
//   448        19.56%    20901        58       23         0          0.50 sec
//   512        19.70%    20866        35       18         0          0.56 sec
//   546        19.79%    20841        25        9         0          0.61 sec
