// | ------------------------------------------------------------------------------------------------------------------ |
// |                                                                                                                    |
// |          Current split capture setting:     Off (optimal)                                                          |
// |                                                                                                                    |
// |   Current clock off simulation setting:     Off (optimal)                                                          |
// | ------------------------------------------------------------------------------------------------------------------ |
//  ------------------------------------------------------------------------
//  Simulation performed for #gates = 12864  #faults = 25984
//  Run fault simulation without storing patterns.  pattern source = 702 external patterns
//  ------------------------------------------------------------------------
//  #patterns  test      #faults  #faults    # eff.    # test         process 
//  simulated  coverage  in list  detected   patterns  patterns       CPU time
//   64         15.93%    21845      4139       63         0          0.14 sec
//   128        17.75%    21371       474       57         0          0.20 sec
//   192        18.56%    21162       209       53         0          0.27 sec
//   256        18.90%    21073        89       38         0          0.33 sec
//   320        19.17%    21004        69       28         0          0.39 sec
//   384        19.43%    20936        68       29         0          0.44 sec
//   448        19.62%    20886        50       31         0          0.50 sec
//   512        19.78%    20844        42       16         0          0.56 sec
//   576        19.96%    20798        46       18         0          0.61 sec
//   640        20.07%    20768        30       16         0          0.67 sec
//   702        20.17%    20743        25       13         0          0.72 sec
