// | ------------------------------------------------------------------------------------------------------------------ |
// |                                                                                                                    |
// |          Current split capture setting:     Off (optimal)                                                          |
// |                                                                                                                    |
// |   Current clock off simulation setting:     Off (optimal)                                                          |
// | ------------------------------------------------------------------------------------------------------------------ |
//  ------------------------------------------------------------------------
//  Simulation performed for #gates = 12864  #faults = 25984
//  Run fault simulation without storing patterns.  pattern source = 505 external patterns
//  ------------------------------------------------------------------------
//  #patterns  test      #faults  #faults    # eff.    # test         process 
//  simulated  coverage  in list  detected   patterns  patterns       CPU time
//   64         15.21%    22032      3952       64         0          0.13 sec
//   128        17.05%    21555       477       59         0          0.20 sec
//   192        17.80%    21359       196       47         0          0.27 sec
//   256        18.40%    21203       156       40         0          0.33 sec
//   320        18.78%    21103       100       35         0          0.39 sec
//   384        19.10%    21021        82       33         0          0.45 sec
//   448        19.27%    20978        43       20         0          0.50 sec
//   505        19.37%    20951        27       12         0          0.56 sec
