// | ------------------------------------------------------------------------------------------------------------------ |
// |                                                                                                                    |
// |          Current split capture setting:     Off (optimal)                                                          |
// |                                                                                                                    |
// |   Current clock off simulation setting:     Off (optimal)                                                          |
// | ------------------------------------------------------------------------------------------------------------------ |
//  ------------------------------------------------------------------------
//  Simulation performed for #gates = 12864  #faults = 25984
//  Run fault simulation without storing patterns.  pattern source = 589 external patterns
//  ------------------------------------------------------------------------
//  #patterns  test      #faults  #faults    # eff.    # test         process 
//  simulated  coverage  in list  detected   patterns  patterns       CPU time
//   64         12.76%    22669      3315       63         0          0.11 sec
//   128        14.14%    22311       358       54         0          0.17 sec
//   192        14.86%    22124       187       40         0          0.24 sec
//   256        15.34%    21999       125       38         0          0.29 sec
//   320        15.86%    21863       136       30         0          0.35 sec
//   384        16.31%    21746       117       32         0          0.41 sec
//   448        16.75%    21631       115       40         0          0.47 sec
//   512        16.94%    21582        49       23         0          0.53 sec
//   576        17.16%    21526        56       14         0          0.58 sec
//   589        17.17%    21523         3        2         0          0.63 sec
