// | ------------------------------------------------------------------------------------------------------------------ |
// |                                                                                                                    |
// |          Current split capture setting:     Off (optimal)                                                          |
// |                                                                                                                    |
// |   Current clock off simulation setting:     Off (optimal)                                                          |
// | ------------------------------------------------------------------------------------------------------------------ |
//  ------------------------------------------------------------------------
//  Simulation performed for #gates = 12864  #faults = 25984
//  Run fault simulation without storing patterns.  pattern source = 702 external patterns
//  ------------------------------------------------------------------------
//  #patterns  test      #faults  #faults    # eff.    # test         process 
//  simulated  coverage  in list  detected   patterns  patterns       CPU time
//   64         12.18%    22818      3166       61         0          0.11 sec
//   128        13.42%    22496       322       45         0          0.17 sec
//   192        14.08%    22325       171       41         0          0.23 sec
//   256        14.75%    22152       173       40         0          0.29 sec
//   320        15.14%    22050       102       25         0          0.35 sec
//   384        15.57%    21938       112       34         0          0.41 sec
//   448        16.06%    21811       127       38         0          0.47 sec
//   512        16.38%    21728        83       27         0          0.53 sec
//   576        16.65%    21658        70       24         0          0.59 sec
//   640        16.81%    21615        43       17         0          0.64 sec
//   702        16.99%    21569        46       20         0          0.69 sec
