// | ------------------------------------------------------------------------------------------------------------------ |
// |                                                                                                                    |
// |          Current split capture setting:     Off (optimal)                                                          |
// |                                                                                                                    |
// |   Current clock off simulation setting:     Off (optimal)                                                          |
// | ------------------------------------------------------------------------------------------------------------------ |
//  ------------------------------------------------------------------------
//  Simulation performed for #gates = 12864  #faults = 25984
//  Run fault simulation without storing patterns.  pattern source = 461 external patterns
//  ------------------------------------------------------------------------
//  #patterns  test      #faults  #faults    # eff.    # test         process 
//  simulated  coverage  in list  detected   patterns  patterns       CPU time
//   64         14.64%    22180      3804       64         0          0.13 sec
//   128        16.31%    21746       434       56         0          0.20 sec
//   192        17.20%    21516       230       48         0          0.26 sec
//   256        17.80%    21359       157       41         0          0.32 sec
//   320        18.29%    21232       127       43         0          0.38 sec
//   384        18.62%    21145        87       39         0          0.44 sec
//   448        18.83%    21092        53       29         0          0.50 sec
//   461        18.83%    21091         1        1         0          0.55 sec
