// | ------------------------------------------------------------------------------------------------------------------ |
// |                                                                                                                    |
// |          Current split capture setting:     Off (optimal)                                                          |
// |                                                                                                                    |
// |   Current clock off simulation setting:     Off (optimal)                                                          |
// | ------------------------------------------------------------------------------------------------------------------ |
//  ------------------------------------------------------------------------
//  Simulation performed for #gates = 12864  #faults = 25984
//  Run fault simulation without storing patterns.  pattern source = 470 external patterns
//  ------------------------------------------------------------------------
//  #patterns  test      #faults  #faults    # eff.    # test         process 
//  simulated  coverage  in list  detected   patterns  patterns       CPU time
//   64         12.22%    22808      3176       59         0          0.10 sec
//   128        13.24%    22544       264       50         0          0.17 sec
//   192        13.86%    22382       162       39         0          0.23 sec
//   256        14.49%    22219       163       33         0          0.29 sec
//   320        15.17%    22041       178       44         0          0.35 sec
//   384        15.51%    21955        86       22         0          0.40 sec
//   448        15.95%    21839       116       34         0          0.46 sec
//   470        16.12%    21796        43       10         0          0.51 sec
