// | ------------------------------------------------------------------------------------------------------------------ |
// |                                                                                                                    |
// |          Current split capture setting:     Off (optimal)                                                          |
// |                                                                                                                    |
// |   Current clock off simulation setting:     Off (optimal)                                                          |
// | ------------------------------------------------------------------------------------------------------------------ |
//  ------------------------------------------------------------------------
//  Simulation performed for #gates = 12864  #faults = 25984
//  Run fault simulation without storing patterns.  pattern source = 581 external patterns
//  ------------------------------------------------------------------------
//  #patterns  test      #faults  #faults    # eff.    # test         process 
//  simulated  coverage  in list  detected   patterns  patterns       CPU time
//   64         15.15%    22047      3937       64         0          0.13 sec
//   128        16.86%    21603       444       57         0          0.20 sec
//   192        17.71%    21381       222       49         0          0.26 sec
//   256        18.06%    21292        89       33         0          0.32 sec
//   320        18.49%    21180       112       37         0          0.38 sec
//   384        18.77%    21107        73       32         0          0.43 sec
//   448        18.95%    21059        48       26         0          0.49 sec
//   512        19.26%    20979        80       31         0          0.55 sec
//   576        19.40%    20942        37       21         0          0.60 sec
