// | ------------------------------------------------------------------------------------------------------------------ |
// |                                                                                                                    |
// |          Current split capture setting:     Off (optimal)                                                          |
// |                                                                                                                    |
// |   Current clock off simulation setting:     Off (optimal)                                                          |
// | ------------------------------------------------------------------------------------------------------------------ |
//  ------------------------------------------------------------------------
//  Simulation performed for #gates = 12864  #faults = 25984
//  Run fault simulation without storing patterns.  pattern source = 541 external patterns
//  ------------------------------------------------------------------------
//  #patterns  test      #faults  #faults    # eff.    # test         process 
//  simulated  coverage  in list  detected   patterns  patterns       CPU time
//   64         12.30%    22788      3196       63         0          0.11 sec
//   128        13.65%    22436       352       47         0          0.17 sec
//   192        14.29%    22270       166       42         0          0.23 sec
//   256        15.11%    22058       212       42         0          0.29 sec
//   320        15.39%    21984        74       32         0          0.35 sec
//   384        15.70%    21904        80       27         0          0.41 sec
//   448        16.05%    21814        90       33         0          0.46 sec
//   512        16.31%    21746        68       27         0          0.52 sec
//   541        16.48%    21701        45       13         0          0.57 sec
