// | ------------------------------------------------------------------------------------------------------------------ |
// |                                                                                                                    |
// |          Current split capture setting:     Off (optimal)                                                          |
// |                                                                                                                    |
// |   Current clock off simulation setting:     Off (optimal)                                                          |
// | ------------------------------------------------------------------------------------------------------------------ |
//  ------------------------------------------------------------------------
//  Simulation performed for #gates = 12864  #faults = 25984
//  Run fault simulation without storing patterns.  pattern source = 568 external patterns
//  ------------------------------------------------------------------------
//  #patterns  test      #faults  #faults    # eff.    # test         process 
//  simulated  coverage  in list  detected   patterns  patterns       CPU time
//   64         14.56%    22202      3782       64         0          0.12 sec
//   128        16.38%    21729       473       61         0          0.19 sec
//   192        17.24%    21504       225       46         0          0.25 sec
//   256        17.67%    21393       111       40         0          0.31 sec
//   320        17.91%    21331        62       30         0          0.36 sec
//   384        18.17%    21263        68       30         0          0.42 sec
//   448        18.39%    21205        58       23         0          0.47 sec
//   512        18.57%    21158        47       22         0          0.53 sec
//   568        18.70%    21125        33       20         0          0.58 sec
