// | ------------------------------------------------------------------------------------------------------------------ |
// |                                                                                                                    |
// |          Current split capture setting:     Off (optimal)                                                          |
// |                                                                                                                    |
// |   Current clock off simulation setting:     Off (optimal)                                                          |
// | ------------------------------------------------------------------------------------------------------------------ |
//  ------------------------------------------------------------------------
//  Simulation performed for #gates = 12864  #faults = 25984
//  Run fault simulation without storing patterns.  pattern source = 555 external patterns
//  ------------------------------------------------------------------------
//  #patterns  test      #faults  #faults    # eff.    # test         process 
//  simulated  coverage  in list  detected   patterns  patterns       CPU time
//   64         12.63%    22702      3282       63         0          0.11 sec
//   128        13.76%    22408       294       46         0          0.17 sec
//   192        14.79%    22142       266       50         0          0.23 sec
//   256        15.27%    22017       125       36         0          0.29 sec
//   320        15.87%    21860       157       38         0          0.35 sec
//   384        16.28%    21753       107       30         0          0.41 sec
//   448        16.64%    21660        93       34         0          0.47 sec
//   512        16.93%    21585        75       24         0          0.52 sec
//   555        17.01%    21563        22       10         0          0.58 sec
