// | ------------------------------------------------------------------------------------------------------------------ |
// |                                                                                                                    |
// |          Current split capture setting:     Off (optimal)                                                          |
// |                                                                                                                    |
// |   Current clock off simulation setting:     Off (optimal)                                                          |
// | ------------------------------------------------------------------------------------------------------------------ |
//  ------------------------------------------------------------------------
//  Simulation performed for #gates = 12864  #faults = 25984
//  Run fault simulation without storing patterns.  pattern source = 419 external patterns
//  ------------------------------------------------------------------------
//  #patterns  test      #faults  #faults    # eff.    # test         process 
//  simulated  coverage  in list  detected   patterns  patterns       CPU time
//   64         15.78%    21885      4099       64         0          0.14 sec
//   128        17.39%    21466       419       59         0          0.20 sec
//   192        18.03%    21300       166       45         0          0.27 sec
//   256        18.51%    21175       125       42         0          0.33 sec
//   320        18.77%    21108        67       23         0          0.38 sec
//   384        19.02%    21042        66       23         0          0.44 sec
//   419        19.13%    21012        30       14         0          0.49 sec
