//  command: set_current_design b14_C 
//  Warning: 1 case: Unused net in DFT library model
//  Note: Issue set_current_design with the -show_elaboration_warnings option to see more details about previous warnings
//  command: set_system_mode analysis
//  Flattening process completed,  design_cells=5856  leaf_cells=5856  library_primitives=5856  sim_gates=6497  PIs=277  POs=245  CPU time=0.02 sec.
//  ---------------------------------------------------------------------------
//  Begin circuit learning analyses.
//  --------------------------------
//  Learning completed, CPU time=0.03 sec.
//  ---------------------------------------------------------------------------
//  Begin scan chain identification process, memory elements = 0.
//  ---------------------------------------------------------------------------
//  Circuit has no memory elements.
//  command: add_faults -all
//  command: set_fault_mode collapsed
//  command: set_fault_type stuck
//  command: create_patterns 
// | ------------------------------------------------------------------------------------------------------------------ |
// |                                             Analyzing the design                                                   |
// |                                                                                                                    |
// |      Current clock restriction setting:     Domain_clock (edge interaction)                                        |
// |                                             (optimal)                                                              |
// |                                                                                                                    |
// |          Current split capture setting:     Off (optimal)                                                          |
// |                                                                                                                    |
// |   Current clock off simulation setting:     Off (optimal)                                                          |
// |                                                                                                                    |
// |            Current abort limit setting:     30                                                                     |
// |                                Calling:     set_abort_limit 300 100                                                |
// | ------------------------------------------------------------------------------------------------------------------ |
// |                                                                                                                    |
// |               Current sequential depth:     0 (optimal)                                                            |
// |                                                                                                                    |
// | ------------------------------------------------------------------------------------------------------------------ |
//  ------------------------------------------------------------------------
//  Simulation performed for #gates = 6497  #faults = 13229
//  system mode = analysis    pattern source = internal patterns
//  ------------------------------------------------------------------------
//  #patterns  test      #faults  #faults    # eff.    # test         process      RE/AU/AAB
//  simulated  coverage  in list  detected   patterns  patterns       CPU time
//  deterministic ATPG invoked with comb/seq abort limit = 300/100
//   ---        ------      ---       ---      ---       ---          1.20 sec     253/0/0
//   64         65.22%     4513      8463       64        64          1.33 sec
//   ---        ------      ---       ---      ---       ---          2.81 sec     1843/6/3
//   128        81.28%     2126       791       62       126          2.82 sec
//   ---        ------      ---       ---      ---       ---          4.38 sec     3671/9/8
//   150        97.97%      185       110       21       147          4.38 sec
//   ---        ------      ---       ---      ---       ---          4.42 sec     3671/9/8
//   214        99.36%       52       133       52       199          4.42 sec
//   ---        ------      ---       ---      ---       ---          4.42 sec     3671/9/8
//   258        99.85%        5        47       34       233          4.42 sec
//  -----------------------------------------------------------------------
//  Performing redundant fault identification for 5 faults
//  -----------------------------------------------------------------------
//  deterministic ATPG invoked with abort limit = 300
//  # red.    # non-red.   # abort     # remn.   progress   test        process
//  faults      faults      faults      faults              coverage    CPU time
//       3           0          2            0   100.00%    99.88%       0.06 sec
// | ------------------------------------------------------------------------------------------------------------------ |
// |                                                                                                                    |
// |                   Next step suggestion:     (optional)                                                             |
// |              If truncating pattern set:     Use command 'order_patterns 3'                                         |
// |                                                                                                                    |
// | ------------------------------------------------------------------------------------------------------------------ |
           Statistics Report          
            Stuck-at Faults           
--------------------------------------
Fault Classes               #faults   
                            (coll.)   
----------------------  --------------
  FU (full)                  15054    
  --------------------  --------------
  UO (unobserved)           2 ( 0.01%)
  DS (det_simulation)    9544 (63.40%)
  UU (unused)               4 ( 0.03%)
  TI (tied)               648 ( 4.30%)
  BL (blocked)           1173 ( 7.79%)
  RE (redundant)         3674 (24.41%)
  AU (atpg_untestable)      9 ( 0.06%)
--------------------------------------
Fault Sub-classes                     
  --------------------                
  UC+UO                               
    AAB  (atpg_abort)       2 ( 0.01%)
--------------------------------------
Coverage                              
  --------------------                
  test_coverage                99.88% 
  fault_coverage               63.40% 
  atpg_effectiveness           99.99% 
--------------------------------------
#test_patterns                    233 
#simulated_patterns               258 
CPU_time (secs)                   6.1 
--------------------------------------

//  command: write_patterns /home/animesh/currentResearch/ISI/atpg_structural/code/dumpData/tessent/itc99/b14_synth/ninetyPercent/b14_synth_ninetyPercent_36.spf -stil -rep
//  command: report_statistics > /home/animesh/currentResearch/ISI/atpg_structural/code/dumpData/tessent/itc99/b14_synth/ninetyPercent/b14_synth_ninetyPercent_36.atpg.result
//  command: exit 
