           Statistics Report          
            Stuck-at Faults           
--------------------------------------
Fault Classes               #faults   
                            (coll.)   
----------------------  --------------
  FU (full)                  15054    
  --------------------  --------------
  UO (unobserved)           6 ( 0.04%)
  DS (det_simulation)   10115 (67.19%)
  UU (unused)               4 ( 0.03%)
  TI (tied)               534 ( 3.55%)
  BL (blocked)            585 ( 3.89%)
  RE (redundant)         3805 (25.28%)
  AU (atpg_untestable)      5 ( 0.03%)
--------------------------------------
Fault Sub-classes                     
  --------------------                
  UC+UO                               
    AAB  (atpg_abort)       6 ( 0.04%)
--------------------------------------
Coverage                              
  --------------------                
  test_coverage                99.89% 
  fault_coverage               67.19% 
  atpg_effectiveness           99.96% 
--------------------------------------
#test_patterns                    230 
#simulated_patterns               241 
CPU_time (secs)                   6.5 
--------------------------------------

