          Statistics Report          
           Stuck-at Faults           
-------------------------------------
Fault Classes              #faults   
                           (coll.)   
---------------------  --------------
  FU (full)                  884     
  -------------------  --------------
  DS (det_simulation)    703 (79.52%)
  TI (tied)                6 ( 0.68%)
  BL (blocked)            50 ( 5.66%)
  RE (redundant)         125 (14.14%)
-------------------------------------
Coverage                             
  -------------------                
  test_coverage              100.00% 
  fault_coverage              79.52% 
  atpg_effectiveness         100.00% 
-------------------------------------
#test_patterns                    95 
#simulated_patterns              105 
CPU_time (secs)                  1.5 
-------------------------------------

