          Statistics Report          
           Stuck-at Faults           
-------------------------------------
Fault Classes              #faults   
                           (coll.)   
---------------------  --------------
  FU (full)                 9584     
  -------------------  --------------
  DS (det_simulation)   7994 (83.41%)
  UU (unused)             22 ( 0.23%)
  TI (tied)              313 ( 3.27%)
  BL (blocked)           202 ( 2.11%)
  RE (redundant)        1053 (10.99%)
-------------------------------------
Coverage                             
  -------------------                
  test_coverage              100.00% 
  fault_coverage              83.41% 
  atpg_effectiveness         100.00% 
-------------------------------------
#test_patterns                   108 
#simulated_patterns              109 
CPU_time (secs)                  2.6 
-------------------------------------

