          Statistics Report          
           Stuck-at Faults           
-------------------------------------
Fault Classes              #faults   
                           (coll.)   
---------------------  --------------
  FU (full)                  582     
  -------------------  --------------
  DS (det_simulation)    425 (73.02%)
  TI (tied)               13 ( 2.23%)
  BL (blocked)             9 ( 1.55%)
  RE (redundant)         135 (23.20%)
-------------------------------------
Coverage                             
  -------------------                
  test_coverage              100.00% 
  fault_coverage              73.02% 
  atpg_effectiveness         100.00% 
-------------------------------------
#test_patterns                    43 
#simulated_patterns               49 
CPU_time (secs)                  1.5 
-------------------------------------

