          Statistics Report          
           Stuck-at Faults           
-------------------------------------
Fault Classes              #faults   
                           (coll.)   
---------------------  --------------
  FU (full)                  582     
  -------------------  --------------
  DS (det_simulation)    466 (80.07%)
  TI (tied)                3 ( 0.52%)
  RE (redundant)         113 (19.42%)
-------------------------------------
Coverage                             
  -------------------                
  test_coverage              100.00% 
  fault_coverage              80.07% 
  atpg_effectiveness         100.00% 
-------------------------------------
#test_patterns                    40 
#simulated_patterns               44 
CPU_time (secs)                  1.6 
-------------------------------------

