	*******************************************************
	*                                                     *
	*            Welcome to HOPE (version 2.0)            *
	*                                                     *
	*               Dong S. Ha (ha@vt.edu)                *
	*            Web: http://www.ee.vt.edu/ha             *
	*  Virginia Polytechnic Institute & State University  *
	*                                                     *
	*******************************************************

******   SUMMARY OF SIMULATION RESULTS   ******
1. Circuit structure
   Name of circuit                           : s420
   Number of primary inputs                  : 35
   Number of primary outputs                 : 18
   Number of flip-flops                      : 0
   Number of gates                           : 196
   Level of the circuit                      : 28

2. Simulator input parameters
   Simulation mode                           : file (/home/animesh/currentResearch/ISI/atpg_structural/code/testData/atalanta/tests/iscas89/s420.test)

3. Simulation results
   Number of test patterns applied           : 53
   Fault coverage                            : 65.116 %
   Number of collapsed faults                : 430
   Number of detected faults                 : 280
   Number of undetected faults               : 150

4. Memory used                               : 31076 Kbytes

5. CPU time
   Initialization                            : 0.000 secs
   Fault simulation                          : 0.000 secs
   Total                                     : 0.000 secs
