           Statistics Report          
            Stuck-at Faults           
--------------------------------------
Fault Classes               #faults   
                            (coll.)   
----------------------  --------------
  FU (full)                  2648     
  --------------------  --------------
  UO (unobserved)          33 ( 1.25%)
  DS (det_simulation)    1892 (71.45%)
  TI (tied)                97 ( 3.66%)
  BL (blocked)             60 ( 2.27%)
  RE (redundant)          563 (21.26%)
  AU (atpg_untestable)      3 ( 0.11%)
--------------------------------------
Fault Sub-classes                     
  --------------------                
  UC+UO                               
    AAB  (atpg_abort)      33 ( 1.25%)
--------------------------------------
Coverage                              
  --------------------                
  test_coverage                98.13% 
  fault_coverage               71.45% 
  atpg_effectiveness           98.75% 
--------------------------------------
#test_patterns                    168 
#simulated_patterns               207 
CPU_time (secs)                   3.8 
--------------------------------------

