// | ------------------------------------------------------------------------------------------------------------------ |
// |                                                                                                                    |
// |          Current split capture setting:     Off (optimal)                                                          |
// |                                                                                                                    |
// |   Current clock off simulation setting:     Off (optimal)                                                          |
// | ------------------------------------------------------------------------------------------------------------------ |
//  ------------------------------------------------------------------------
//  Simulation performed for #gates = 3733  #faults = 8081
//  Run fault simulation without storing patterns.  pattern source = 211 external patterns
//  ------------------------------------------------------------------------
//  #patterns  test      #faults  #faults    # eff.    # test         process 
//  simulated  coverage  in list  detected   patterns  patterns       CPU time
//   64         46.69%     4308      3773       63         0          0.03 sec
//   128        53.22%     3780       528       53         0          0.04 sec
//   192        55.81%     3571       209       45         0          0.05 sec
//   211        56.24%     3536        35       14         0          0.06 sec
