// | ------------------------------------------------------------------------------------------------------------------ |
// |                                                                                                                    |
// |          Current split capture setting:     Off (optimal)                                                          |
// |                                                                                                                    |
// |   Current clock off simulation setting:     Off (optimal)                                                          |
// | ------------------------------------------------------------------------------------------------------------------ |
//  ------------------------------------------------------------------------
//  Simulation performed for #gates = 3733  #faults = 8181
//  Run fault simulation without storing patterns.  pattern source = 217 external patterns
//  ------------------------------------------------------------------------
//  #patterns  test      #faults  #faults    # eff.    # test         process 
//  simulated  coverage  in list  detected   patterns  patterns       CPU time
//   64         40.46%     4871      3310       64         0          0.03 sec
//   128        45.64%     4447       424       56         0          0.04 sec
//   192        48.00%     4254       193       42         0          0.05 sec
//   217        48.65%     4201        53       14         0          0.06 sec
