// | ------------------------------------------------------------------------------------------------------------------ |
// |                                                                                                                    |
// |          Current split capture setting:     Off (optimal)                                                          |
// |                                                                                                                    |
// |   Current clock off simulation setting:     Off (optimal)                                                          |
// | ------------------------------------------------------------------------------------------------------------------ |
//  ------------------------------------------------------------------------
//  Simulation performed for #gates = 3733  #faults = 8042
//  Run fault simulation without storing patterns.  pattern source = 202 external patterns
//  ------------------------------------------------------------------------
//  #patterns  test      #faults  #faults    # eff.    # test         process 
//  simulated  coverage  in list  detected   patterns  patterns       CPU time
//   64         39.72%     4848      3194       61         0          0.03 sec
//   128        44.53%     4461       387       55         0          0.04 sec
//   192        46.89%     4271       190       42         0          0.05 sec
//   202        47.09%     4255        16        5         0          0.06 sec
