// | ------------------------------------------------------------------------------------------------------------------ |
// |                                                                                                                    |
// |          Current split capture setting:     Off (optimal)                                                          |
// |                                                                                                                    |
// |   Current clock off simulation setting:     Off (optimal)                                                          |
// | ------------------------------------------------------------------------------------------------------------------ |
//  ------------------------------------------------------------------------
//  Simulation performed for #gates = 3733  #faults = 8173
//  Run fault simulation without storing patterns.  pattern source = 200 external patterns
//  ------------------------------------------------------------------------
//  #patterns  test      #faults  #faults    # eff.    # test         process 
//  simulated  coverage  in list  detected   patterns  patterns       CPU time
//   64         49.97%     4089      4084       64         0          0.03 sec
//   128        56.86%     3526       563       64         0          0.04 sec
//   192        58.60%     3384       142       63         0          0.05 sec
//   200        58.71%     3375         9        8         0          0.06 sec
