// | ------------------------------------------------------------------------------------------------------------------ |
// |                                                                                                                    |
// |          Current split capture setting:     Off (optimal)                                                          |
// |                                                                                                                    |
// |   Current clock off simulation setting:     Off (optimal)                                                          |
// | ------------------------------------------------------------------------------------------------------------------ |
//  ------------------------------------------------------------------------
//  Simulation performed for #gates = 3733  #faults = 8176
//  Run fault simulation without storing patterns.  pattern source = 207 external patterns
//  ------------------------------------------------------------------------
//  #patterns  test      #faults  #faults    # eff.    # test         process 
//  simulated  coverage  in list  detected   patterns  patterns       CPU time
//   64         40.29%     4882      3294       64         0          0.03 sec
//   128        45.54%     4453       429       54         0          0.04 sec
//   192        48.29%     4228       225       40         0          0.05 sec
//   207        48.47%     4213        15        6         0          0.06 sec
