// | ------------------------------------------------------------------------------------------------------------------ |
// |                                                                                                                    |
// |          Current split capture setting:     Off (optimal)                                                          |
// |                                                                                                                    |
// |   Current clock off simulation setting:     Off (optimal)                                                          |
// | ------------------------------------------------------------------------------------------------------------------ |
//  ------------------------------------------------------------------------
//  Simulation performed for #gates = 3733  #faults = 8173
//  Run fault simulation without storing patterns.  pattern source = 211 external patterns
//  ------------------------------------------------------------------------
//  #patterns  test      #faults  #faults    # eff.    # test         process 
//  simulated  coverage  in list  detected   patterns  patterns       CPU time
//   64         42.38%     4709      3464       63         0          0.03 sec
//   128        48.99%     4169       540       55         0          0.04 sec
//   192        51.19%     3989       180       41         0          0.05 sec
//   211        51.63%     3953        36        9         0          0.06 sec
