// | ------------------------------------------------------------------------------------------------------------------ |
// |                                                                                                                    |
// |          Current split capture setting:     Off (optimal)                                                          |
// |                                                                                                                    |
// |   Current clock off simulation setting:     Off (optimal)                                                          |
// | ------------------------------------------------------------------------------------------------------------------ |
//  ------------------------------------------------------------------------
//  Simulation performed for #gates = 3733  #faults = 8182
//  Run fault simulation without storing patterns.  pattern source = 198 external patterns
//  ------------------------------------------------------------------------
//  #patterns  test      #faults  #faults    # eff.    # test         process 
//  simulated  coverage  in list  detected   patterns  patterns       CPU time
//   64         53.76%     3783      4399       64         0          0.03 sec
//   128        60.63%     3221       562       64         0          0.04 sec
//   192        62.58%     3062       159       63         0          0.05 sec
//   198        62.64%     3057         5        5         0          0.06 sec
