// | ------------------------------------------------------------------------------------------------------------------ |
// |                                                                                                                    |
// |          Current split capture setting:     Off (optimal)                                                          |
// |                                                                                                                    |
// |   Current clock off simulation setting:     Off (optimal)                                                          |
// | ------------------------------------------------------------------------------------------------------------------ |
//  ------------------------------------------------------------------------
//  Simulation performed for #gates = 3733  #faults = 8181
//  Run fault simulation without storing patterns.  pattern source = 196 external patterns
//  ------------------------------------------------------------------------
//  #patterns  test      #faults  #faults    # eff.    # test         process 
//  simulated  coverage  in list  detected   patterns  patterns       CPU time
//   64         39.78%     4927      3254       64         0          0.03 sec
//   128        46.30%     4393       534       56         0          0.04 sec
//   192        49.50%     4131       262       46         0          0.05 sec
//   196        49.61%     4122         9        2         0          0.06 sec
