// | ------------------------------------------------------------------------------------------------------------------ |
// |                                                                                                                    |
// |          Current split capture setting:     Off (optimal)                                                          |
// |                                                                                                                    |
// |   Current clock off simulation setting:     Off (optimal)                                                          |
// | ------------------------------------------------------------------------------------------------------------------ |
//  ------------------------------------------------------------------------
//  Simulation performed for #gates = 3733  #faults = 8243
//  Run fault simulation without storing patterns.  pattern source = 199 external patterns
//  ------------------------------------------------------------------------
//  #patterns  test      #faults  #faults    # eff.    # test         process 
//  simulated  coverage  in list  detected   patterns  patterns       CPU time
//   64         45.04%     4530      3713       63         0          0.03 sec
//   128        50.35%     4093       437       49         0          0.04 sec
//   192        52.59%     3908       185       49         0          0.05 sec
//   199        52.71%     3898        10        2         0          0.06 sec
