// | ------------------------------------------------------------------------------------------------------------------ |
// |                                                                                                                    |
// |          Current split capture setting:     Off (optimal)                                                          |
// |                                                                                                                    |
// |   Current clock off simulation setting:     Off (optimal)                                                          |
// | ------------------------------------------------------------------------------------------------------------------ |
//  ------------------------------------------------------------------------
//  Simulation performed for #gates = 3733  #faults = 8065
//  Run fault simulation without storing patterns.  pattern source = 201 external patterns
//  ------------------------------------------------------------------------
//  #patterns  test      #faults  #faults    # eff.    # test         process 
//  simulated  coverage  in list  detected   patterns  patterns       CPU time
//   64         37.51%     5040      3025       63         0          0.03 sec
//   128        44.38%     4486       554       48         0          0.04 sec
//   192        46.77%     4293       193       34         0          0.05 sec
//   201        47.55%     4230        63        6         0          0.06 sec
