// | ------------------------------------------------------------------------------------------------------------------ |
// |                                                                                                                    |
// |          Current split capture setting:     Off (optimal)                                                          |
// |                                                                                                                    |
// |   Current clock off simulation setting:     Off (optimal)                                                          |
// | ------------------------------------------------------------------------------------------------------------------ |
//  ------------------------------------------------------------------------
//  Simulation performed for #gates = 3733  #faults = 8079
//  Run fault simulation without storing patterns.  pattern source = 196 external patterns
//  ------------------------------------------------------------------------
//  #patterns  test      #faults  #faults    # eff.    # test         process 
//  simulated  coverage  in list  detected   patterns  patterns       CPU time
//   64         38.56%     4964      3115       62         0          0.03 sec
//   128        43.43%     4570       394       48         0          0.04 sec
//   192        46.42%     4329       241       43         0          0.06 sec
//   196        46.48%     4324         5        3         0          0.06 sec
