// | ------------------------------------------------------------------------------------------------------------------ |
// |                                                                                                                    |
// |          Current split capture setting:     Off (optimal)                                                          |
// |                                                                                                                    |
// |   Current clock off simulation setting:     Off (optimal)                                                          |
// | ------------------------------------------------------------------------------------------------------------------ |
//  ------------------------------------------------------------------------
//  Simulation performed for #gates = 3733  #faults = 8051
//  Run fault simulation without storing patterns.  pattern source = 200 external patterns
//  ------------------------------------------------------------------------
//  #patterns  test      #faults  #faults    # eff.    # test         process 
//  simulated  coverage  in list  detected   patterns  patterns       CPU time
//   64         45.49%     4389      3662       63         0          0.03 sec
//   128        49.82%     4040       349       53         0          0.04 sec
//   192        52.18%     3850       190       36         0          0.05 sec
//   200        52.39%     3833        17        2         0          0.06 sec
