// | ------------------------------------------------------------------------------------------------------------------ |
// |                                                                                                                    |
// |          Current split capture setting:     Off (optimal)                                                          |
// |                                                                                                                    |
// |   Current clock off simulation setting:     Off (optimal)                                                          |
// | ------------------------------------------------------------------------------------------------------------------ |
//  ------------------------------------------------------------------------
//  Simulation performed for #gates = 3733  #faults = 7853
//  Run fault simulation without storing patterns.  pattern source = 217 external patterns
//  ------------------------------------------------------------------------
//  #patterns  test      #faults  #faults    # eff.    # test         process 
//  simulated  coverage  in list  detected   patterns  patterns       CPU time
//   64         42.01%     4554      3299       61         0          0.03 sec
//   128        46.26%     4220       334       52         0          0.04 sec
//   192        49.14%     3994       226       42         0          0.05 sec
//   217        49.71%     3949        45       12         0          0.06 sec
