           Statistics Report          
            Stuck-at Faults           
--------------------------------------
Fault Classes               #faults   
                            (coll.)   
----------------------  --------------
  FU (full)                  20876    
  --------------------  --------------
  UO (unobserved)           1 ( 0.00%)
  DS (det_simulation)   18040 (86.42%)
  TI (tied)                26 ( 0.12%)
  BL (blocked)              3 ( 0.01%)
  RE (redundant)         2805 (13.44%)
  AU (atpg_untestable)      1 ( 0.00%)
--------------------------------------
Fault Sub-classes                     
  --------------------                
  UC+UO                               
    AAB  (atpg_abort)       1 ( 0.00%)
--------------------------------------
Coverage                              
  --------------------                
  test_coverage                99.99% 
  fault_coverage               86.42% 
  atpg_effectiveness          100.00% 
--------------------------------------
#test_patterns                    451 
#simulated_patterns               477 
CPU_time (secs)                  10.0 
--------------------------------------

