           Statistics Report          
            Stuck-at Faults           
--------------------------------------
Fault Classes               #faults   
                            (coll.)   
----------------------  --------------
  FU (full)                  20876    
  --------------------  --------------
  UO (unobserved)           1 ( 0.00%)
  DS (det_simulation)   15562 (74.54%)
  TI (tied)               424 ( 2.03%)
  BL (blocked)            442 ( 2.12%)
  RE (redundant)         4441 (21.27%)
  AU (atpg_untestable)      6 ( 0.03%)
--------------------------------------
Fault Sub-classes                     
  --------------------                
  UC+UO                               
    AAB  (atpg_abort)       1 ( 0.00%)
--------------------------------------
Coverage                              
  --------------------                
  test_coverage                99.96% 
  fault_coverage               74.54% 
  atpg_effectiveness          100.00% 
--------------------------------------
#test_patterns                    423 
#simulated_patterns               446 
CPU_time (secs)                  13.4 
--------------------------------------

