// | ------------------------------------------------------------------------------------------------------------------ |
// |                                                                                                                    |
// |          Current split capture setting:     Off (optimal)                                                          |
// |                                                                                                                    |
// |   Current clock off simulation setting:     Off (optimal)                                                          |
// | ------------------------------------------------------------------------------------------------------------------ |
//  ------------------------------------------------------------------------
//  Simulation performed for #gates = 6497  #faults = 14916
//  Run fault simulation without storing patterns.  pattern source = 320 external patterns
//  ------------------------------------------------------------------------
//  #patterns  test      #faults  #faults    # eff.    # test         process 
//  simulated  coverage  in list  detected   patterns  patterns       CPU time
//   64         41.54%     8720      6196       62         0          0.12 sec
//   128        44.09%     8339       381       51         0          0.15 sec
//   192        46.64%     7959       380       35         0          0.18 sec
//   256        48.30%     7711       248       24         0          0.20 sec
//   320        48.79%     7639        72       22         0          0.23 sec
