// | ------------------------------------------------------------------------------------------------------------------ |
// |                                                                                                                    |
// |          Current split capture setting:     Off (optimal)                                                          |
// |                                                                                                                    |
// |   Current clock off simulation setting:     Off (optimal)                                                          |
// | ------------------------------------------------------------------------------------------------------------------ |
//  ------------------------------------------------------------------------
//  Simulation performed for #gates = 6497  #faults = 12966
//  Run fault simulation without storing patterns.  pattern source = 312 external patterns
//  ------------------------------------------------------------------------
//  #patterns  test      #faults  #faults    # eff.    # test         process 
//  simulated  coverage  in list  detected   patterns  patterns       CPU time
//   64         51.86%     6242      6724       63         0          0.13 sec
//   128        56.53%     5636       606       44         0          0.15 sec
//   192        61.90%     4940       696       47         0          0.17 sec
//   256        63.27%     4763       177       37         0          0.19 sec
//   312        64.77%     4568       195       26         0          0.20 sec
