// | ------------------------------------------------------------------------------------------------------------------ |
// |                                                                                                                    |
// |          Current split capture setting:     Off (optimal)                                                          |
// |                                                                                                                    |
// |   Current clock off simulation setting:     Off (optimal)                                                          |
// | ------------------------------------------------------------------------------------------------------------------ |
//  ------------------------------------------------------------------------
//  Simulation performed for #gates = 6497  #faults = 13386
//  Run fault simulation without storing patterns.  pattern source = 303 external patterns
//  ------------------------------------------------------------------------
//  #patterns  test      #faults  #faults    # eff.    # test         process 
//  simulated  coverage  in list  detected   patterns  patterns       CPU time
//   64         37.54%     8361      5025       61         0          0.11 sec
//   128        42.92%     7641       720       38         0          0.14 sec
//   192        46.32%     7186       455       28         0          0.16 sec
//   256        48.74%     6861       325       25         0          0.19 sec
//   303        49.67%     6737       124       15         0          0.21 sec
