// | ------------------------------------------------------------------------------------------------------------------ |
// |                                                                                                                    |
// |          Current split capture setting:     Off (optimal)                                                          |
// |                                                                                                                    |
// |   Current clock off simulation setting:     Off (optimal)                                                          |
// | ------------------------------------------------------------------------------------------------------------------ |
//  ------------------------------------------------------------------------
//  Simulation performed for #gates = 6497  #faults = 13591
//  Run fault simulation without storing patterns.  pattern source = 320 external patterns
//  ------------------------------------------------------------------------
//  #patterns  test      #faults  #faults    # eff.    # test         process 
//  simulated  coverage  in list  detected   patterns  patterns       CPU time
//   64         41.01%     8018      5573       59         0          0.08 sec
//   128        44.15%     7590       428       30         0          0.11 sec
//   192        46.55%     7265       325       22         0          0.13 sec
//   256        47.60%     7122       143       18         0          0.15 sec
//   320        48.13%     7049        73        9         0          0.16 sec
