// | ------------------------------------------------------------------------------------------------------------------ |
// |                                                                                                                    |
// |          Current split capture setting:     Off (optimal)                                                          |
// |                                                                                                                    |
// |   Current clock off simulation setting:     Off (optimal)                                                          |
// | ------------------------------------------------------------------------------------------------------------------ |
//  ------------------------------------------------------------------------
//  Simulation performed for #gates = 6497  #faults = 13997
//  Run fault simulation without storing patterns.  pattern source = 357 external patterns
//  ------------------------------------------------------------------------
//  #patterns  test      #faults  #faults    # eff.    # test         process 
//  simulated  coverage  in list  detected   patterns  patterns       CPU time
//   64         50.50%     6928      7069       64         0          0.12 sec
//   128        54.60%     6354       574       52         0          0.14 sec
//   192        57.74%     5915       439       43         0          0.17 sec
//   256        59.47%     5673       242       36         0          0.18 sec
//   320        60.73%     5496       177       30         0          0.20 sec
//   357        61.16%     5437        59       12         0          0.22 sec
