// | ------------------------------------------------------------------------------------------------------------------ |
// |                                                                                                                    |
// |          Current split capture setting:     Off (optimal)                                                          |
// |                                                                                                                    |
// |   Current clock off simulation setting:     Off (optimal)                                                          |
// | ------------------------------------------------------------------------------------------------------------------ |
//  ------------------------------------------------------------------------
//  Simulation performed for #gates = 6497  #faults = 14737
//  Run fault simulation without storing patterns.  pattern source = 360 external patterns
//  ------------------------------------------------------------------------
//  #patterns  test      #faults  #faults    # eff.    # test         process 
//  simulated  coverage  in list  detected   patterns  patterns       CPU time
//   64         42.98%     8403      6334       63         0          0.11 sec
//   128        45.27%     8065       338       43         0          0.14 sec
//   192        46.65%     7862       203       28         0          0.16 sec
//   256        47.00%     7811        51       13         0          0.18 sec
//   320        47.55%     7729        82       14         0          0.20 sec
//   360        47.66%     7713        16        8         0          0.23 sec
