// | ------------------------------------------------------------------------------------------------------------------ |
// |                                                                                                                    |
// |          Current split capture setting:     Off (optimal)                                                          |
// |                                                                                                                    |
// |   Current clock off simulation setting:     Off (optimal)                                                          |
// | ------------------------------------------------------------------------------------------------------------------ |
//  ------------------------------------------------------------------------
//  Simulation performed for #gates = 6497  #faults = 13386
//  Run fault simulation without storing patterns.  pattern source = 312 external patterns
//  ------------------------------------------------------------------------
//  #patterns  test      #faults  #faults    # eff.    # test         process 
//  simulated  coverage  in list  detected   patterns  patterns       CPU time
//   64         39.47%     8103      5283       58         0          0.11 sec
//   128        42.74%     7665       438       34         0          0.14 sec
//   192        45.29%     7323       342       31         0          0.16 sec
//   256        48.04%     6956       367       27         0          0.19 sec
//   312        48.74%     6862        94       20         0          0.21 sec
