// | ------------------------------------------------------------------------------------------------------------------ |
// |                                                                                                                    |
// |          Current split capture setting:     Off (optimal)                                                          |
// |                                                                                                                    |
// |   Current clock off simulation setting:     Off (optimal)                                                          |
// | ------------------------------------------------------------------------------------------------------------------ |
//  ------------------------------------------------------------------------
//  Simulation performed for #gates = 6497  #faults = 14674
//  Run fault simulation without storing patterns.  pattern source = 324 external patterns
//  ------------------------------------------------------------------------
//  #patterns  test      #faults  #faults    # eff.    # test         process 
//  simulated  coverage  in list  detected   patterns  patterns       CPU time
//   64         34.02%     9682      4992       56         0          0.11 sec
//   128        37.38%     9189       493       46         0          0.14 sec
//   192        38.37%     9044       145       28         0          0.17 sec
//   256        39.18%     8925       119       19         0          0.20 sec
//   320        39.60%     8863        62       20         0          0.23 sec
//   324        39.62%     8860         3        3         0          0.25 sec
