// | ------------------------------------------------------------------------------------------------------------------ |
// |                                                                                                                    |
// |          Current split capture setting:     Off (optimal)                                                          |
// |                                                                                                                    |
// |   Current clock off simulation setting:     Off (optimal)                                                          |
// | ------------------------------------------------------------------------------------------------------------------ |
//  ------------------------------------------------------------------------
//  Simulation performed for #gates = 6497  #faults = 13617
//  Run fault simulation without storing patterns.  pattern source = 357 external patterns
//  ------------------------------------------------------------------------
//  #patterns  test      #faults  #faults    # eff.    # test         process 
//  simulated  coverage  in list  detected   patterns  patterns       CPU time
//   64         47.51%     7147      6470       63         0          0.14 sec
//   128        52.23%     6505       642       49         0          0.17 sec
//   192        55.34%     6081       424       37         0          0.19 sec
//   256        56.95%     5862       219       31         0          0.21 sec
//   320        58.08%     5708       154       32         0          0.23 sec
//   357        58.33%     5674        34       12         0          0.24 sec
