// | ------------------------------------------------------------------------------------------------------------------ |
// |                                                                                                                    |
// |          Current split capture setting:     Off (optimal)                                                          |
// |                                                                                                                    |
// |   Current clock off simulation setting:     Off (optimal)                                                          |
// | ------------------------------------------------------------------------------------------------------------------ |
//  ------------------------------------------------------------------------
//  Simulation performed for #gates = 6497  #faults = 14861
//  Run fault simulation without storing patterns.  pattern source = 324 external patterns
//  ------------------------------------------------------------------------
//  #patterns  test      #faults  #faults    # eff.    # test         process 
//  simulated  coverage  in list  detected   patterns  patterns       CPU time
//   64         49.07%     7569      7292       64         0          0.15 sec
//   128        56.17%     6513      1056       53         0          0.17 sec
//   192        58.80%     6122       391       46         0          0.19 sec
//   256        60.74%     5834       288       34         0          0.21 sec
//   320        62.38%     5590       244       27         0          0.23 sec
//   324        62.44%     5582         8        2         0          0.24 sec
