// | ------------------------------------------------------------------------------------------------------------------ |
// |                                                                                                                    |
// |          Current split capture setting:     Off (optimal)                                                          |
// |                                                                                                                    |
// |   Current clock off simulation setting:     Off (optimal)                                                          |
// | ------------------------------------------------------------------------------------------------------------------ |
//  ------------------------------------------------------------------------
//  Simulation performed for #gates = 6497  #faults = 14108
//  Run fault simulation without storing patterns.  pattern source = 352 external patterns
//  ------------------------------------------------------------------------
//  #patterns  test      #faults  #faults    # eff.    # test         process 
//  simulated  coverage  in list  detected   patterns  patterns       CPU time
//   64         49.90%     7068      7040       64         0          0.14 sec
//   128        53.61%     6545       523       54         0          0.16 sec
//   192        56.50%     6137       408       52         0          0.19 sec
//   256        58.82%     5810       327       28         0          0.21 sec
//   320        59.97%     5647       163       25         0          0.22 sec
//   352        60.53%     5569        78        8         0          0.24 sec
