          Statistics Report          
           Stuck-at Faults           
-------------------------------------
Fault Classes              #faults   
                           (coll.)   
---------------------  --------------
  FU (full)                 33032    
  -------------------  --------------
  DS (det_simulation)  28739 (87.00%)
  UU (unused)             18 ( 0.05%)
  TI (tied)              254 ( 0.77%)
  BL (blocked)           116 ( 0.35%)
  RE (redundant)        3905 (11.82%)
-------------------------------------
Coverage                             
  -------------------                
  test_coverage              100.00% 
  fault_coverage              87.00% 
  atpg_effectiveness         100.00% 
-------------------------------------
#test_patterns                   167 
#simulated_patterns              167 
CPU_time (secs)                  4.3 
-------------------------------------

