           Statistics Report          
            Stuck-at Faults           
--------------------------------------
Fault Classes               #faults   
                            (coll.)   
----------------------  --------------
  FU (full)                  47162    
  --------------------  --------------
  UO (unobserved)           1 ( 0.00%)
  DS (det_simulation)   16814 (35.65%)
  TI (tied)              5628 (11.93%)
  BL (blocked)          10776 (22.85%)
  RE (redundant)        13927 (29.53%)
  AU (atpg_untestable)     16 ( 0.03%)
--------------------------------------
Fault Sub-classes                     
  --------------------                
  UC+UO                               
    AAB  (atpg_abort)       1 ( 0.00%)
--------------------------------------
Coverage                              
  --------------------                
  test_coverage                99.90% 
  fault_coverage               35.65% 
  atpg_effectiveness          100.00% 
--------------------------------------
#test_patterns                    179 
#simulated_patterns               194 
CPU_time (secs)                  10.7 
--------------------------------------

