           Statistics Report          
            Stuck-at Faults           
--------------------------------------
Fault Classes               #faults   
                            (coll.)   
----------------------  --------------
  FU (full)                  47162    
  --------------------  --------------
  UO (unobserved)           1 ( 0.00%)
  DS (det_simulation)   18886 (40.04%)
  TI (tied)              4720 (10.01%)
  BL (blocked)          10949 (23.22%)
  RE (redundant)        12595 (26.71%)
  AU (atpg_untestable)     11 ( 0.02%)
--------------------------------------
Fault Sub-classes                     
  --------------------                
  UC+UO                               
    AAB  (atpg_abort)       1 ( 0.00%)
--------------------------------------
Coverage                              
  --------------------                
  test_coverage                99.94% 
  fault_coverage               40.04% 
  atpg_effectiveness          100.00% 
--------------------------------------
#test_patterns                    186 
#simulated_patterns               191 
CPU_time (secs)                  10.2 
--------------------------------------

