          Statistics Report          
           Stuck-at Faults           
-------------------------------------
Fault Classes              #faults   
                           (coll.)   
---------------------  --------------
  FU (full)                  582     
  -------------------  --------------
  DS (det_simulation)    514 (88.32%)
  TI (tied)                5 ( 0.86%)
  BL (blocked)             1 ( 0.17%)
  RE (redundant)          62 (10.65%)
-------------------------------------
Coverage                             
  -------------------                
  test_coverage              100.00% 
  fault_coverage              88.32% 
  atpg_effectiveness         100.00% 
-------------------------------------
#test_patterns                    68 
#simulated_patterns               95 
CPU_time (secs)                  1.6 
-------------------------------------

