	*******************************************************
	*                                                     *
	*          Welcome to atalanta (version 2.0)          *
	*                                                     *
	*               Dong S. Ha (ha@vt.edu)                *
	*            Web: http://www.ee.vt.edu/ha             *
	*  Virginia Polytechnic Institute & State University  *
	*                                                     *
	*******************************************************

******   SUMMARY OF TEST PATTERN GENERATION RESULTS   ******
1. Circuit structure
   Name of the circuit                       : s15850.1
   Number of primary inputs                  : 611
   Number of primary outputs                 : 684
   Number of gates                           : 9775
   Level of the circuit                      : 82

2. ATPG parameters
   Test pattern generation mode              : RPT + DTPG + TC
   Limit of random patterns (packets)        : 16
   Backtrack limit                           : 10
   Initial random number generator seed      : 1556531435
   Test pattern compaction mode              : REVERSE + SHUFFLE 
   Limit of suffling compaction              : 2
   Number of shuffles                        : 9

3. Test pattern generation results
   Number of test patterns before compaction : 296
   Number of test patterns after compaction  : 171
   Fault coverage                            : 53.228 %
   Number of collapsed faults                : 11725
   Number of identified redundant faults     : 5268
   Number of aborted faults                  : 216
   Total number of backtrackings             : 9007

4. Memory used                               : 45830 Kbytes

5. CPU time
   Initialization                            : 0.033 secs
   Fault simulation                          : 0.350 secs
   FAN                                       : 3.567 secs
   Total                                     : 3.950 secs
