	*******************************************************
	*                                                     *
	*            Welcome to HOPE (version 2.0)            *
	*                                                     *
	*               Dong S. Ha (ha@vt.edu)                *
	*            Web: http://www.ee.vt.edu/ha             *
	*  Virginia Polytechnic Institute & State University  *
	*                                                     *
	*******************************************************

******   SUMMARY OF SIMULATION RESULTS   ******
1. Circuit structure
   Name of circuit                           : combinational_logic_example_"c1908"
   Number of primary inputs                  : 33
   Number of primary outputs                 : 25
   Number of flip-flops                      : 0
   Number of gates                           : 880
   Level of the circuit                      : 40

2. Simulator input parameters
   Simulation mode                           : file (/home/animesh/currentResearch/ISI/atpg_structural/code/testData/atalanta/tests/iscas85/c1908.test)

3. Simulation results
   Number of test patterns applied           : 115
   Fault coverage                            : 21.235 %
   Number of collapsed faults                : 1879
   Number of detected faults                 : 399
   Number of undetected faults               : 1480

4. Memory used                               : 19984 Kbytes

5. CPU time
   Initialization                            : 0.000 secs
   Fault simulation                          : 0.017 secs
   Total                                     : 0.017 secs
