	*******************************************************
	*                                                     *
	*            Welcome to HOPE (version 2.0)            *
	*                                                     *
	*               Dong S. Ha (ha@vt.edu)                *
	*            Web: http://www.ee.vt.edu/ha             *
	*  Virginia Polytechnic Institute & State University  *
	*                                                     *
	*******************************************************

******   SUMMARY OF SIMULATION RESULTS   ******
1. Circuit structure
   Name of circuit                           : s38417
   Number of primary inputs                  : 1664
   Number of primary outputs                 : 1742
   Number of flip-flops                      : 0
   Number of gates                           : 22257
   Level of the circuit                      : 47

2. Simulator input parameters
   Simulation mode                           : file (/home/animesh/currentResearch/ISI/atpg_structural/code/testData/atalanta/tests/iscas89/s38417.test)

3. Simulation results
   Number of test patterns applied           : 881
   Fault coverage                            : 56.235 %
   Number of collapsed faults                : 31180
   Number of detected faults                 : 17534
   Number of undetected faults               : 13646

4. Memory used                               : 40116 Kbytes

5. CPU time
   Initialization                            : 0.067 secs
   Fault simulation                          : 1.967 secs
   Total                                     : 2.033 secs
