          Statistics Report          
           Stuck-at Faults           
-------------------------------------
Fault Classes              #faults   
                           (coll.)   
---------------------  --------------
  FU (full)                 2586     
  -------------------  --------------
  DS (det_simulation)   1954 (75.56%)
  TI (tied)               85 ( 3.29%)
  BL (blocked)           142 ( 5.49%)
  RE (redundant)         405 (15.66%)
-------------------------------------
Coverage                             
  -------------------                
  test_coverage              100.00% 
  fault_coverage              75.56% 
  atpg_effectiveness         100.00% 
-------------------------------------
#test_patterns                   163 
#simulated_patterns              184 
CPU_time (secs)                  2.1 
-------------------------------------

