          Statistics Report          
           Stuck-at Faults           
-------------------------------------
Fault Classes              #faults   
                           (coll.)   
---------------------  --------------
  FU (full)                  582     
  -------------------  --------------
  DS (det_simulation)    471 (80.93%)
  TI (tied)                4 ( 0.69%)
  BL (blocked)             4 ( 0.69%)
  RE (redundant)         103 (17.70%)
-------------------------------------
Coverage                             
  -------------------                
  test_coverage              100.00% 
  fault_coverage              80.93% 
  atpg_effectiveness         100.00% 
-------------------------------------
#test_patterns                    48 
#simulated_patterns               52 
CPU_time (secs)                  1.5 
-------------------------------------

