// | ------------------------------------------------------------------------------------------------------------------ |
// |                                                                                                                    |
// |          Current split capture setting:     Off (optimal)                                                          |
// |                                                                                                                    |
// |   Current clock off simulation setting:     Off (optimal)                                                          |
// | ------------------------------------------------------------------------------------------------------------------ |
//  ------------------------------------------------------------------------
//  Simulation performed for #gates = 12864  #faults = 25984
//  Run fault simulation without storing patterns.  pattern source = 1192 external patterns
//  ------------------------------------------------------------------------
//  #patterns  test      #faults  #faults    # eff.    # test         process 
//  simulated  coverage  in list  detected   patterns  patterns       CPU time
//   64         14.94%    22103      3881       64         0          0.13 sec
//   128        16.51%    21695       408       57         0          0.19 sec
//   192        17.33%    21480       215       47         0          0.25 sec
//   256        17.84%    21349       131       41         0          0.31 sec
//   320        18.21%    21253        96       39         0          0.37 sec
//   384        18.42%    21198        55       24         0          0.42 sec
//   448        18.66%    21136        62       22         0          0.48 sec
//   512        18.85%    21085        51       26         0          0.53 sec
//   576        18.97%    21055        30       20         0          0.59 sec
//   640        19.15%    21008        47       19         0          0.64 sec
//   704        19.35%    20956        52       21         0          0.70 sec
//   768        19.51%    20915        41       17         0          0.75 sec
//   832        19.70%    20865        50       23         0          0.81 sec
//   896        19.83%    20831        34       16         0          0.86 sec
//   960        19.90%    20813        18       11         0          0.91 sec
//   1024       20.00%    20786        27       11         0          0.97 sec
//   1088       20.06%    20772        14        9         0          1.02 sec
//   1152       20.12%    20756        16        6         0          1.07 sec
//   1192       20.15%    20748         8        4         0          1.12 sec
