// | ------------------------------------------------------------------------------------------------------------------ |
// |                                                                                                                    |
// |          Current split capture setting:     Off (optimal)                                                          |
// |                                                                                                                    |
// |   Current clock off simulation setting:     Off (optimal)                                                          |
// | ------------------------------------------------------------------------------------------------------------------ |
//  ------------------------------------------------------------------------
//  Simulation performed for #gates = 12864  #faults = 25984
//  Run fault simulation without storing patterns.  pattern source = 1052 external patterns
//  ------------------------------------------------------------------------
//  #patterns  test      #faults  #faults    # eff.    # test         process 
//  simulated  coverage  in list  detected   patterns  patterns       CPU time
//   64         14.32%    22262      3722       64         0          0.12 sec
//   128        16.12%    21796       466       54         0          0.18 sec
//   192        16.89%    21596       200       51         0          0.24 sec
//   256        17.46%    21446       150       48         0          0.30 sec
//   320        17.87%    21341       105       36         0          0.35 sec
//   384        18.13%    21272        69       25         0          0.41 sec
//   448        18.34%    21219        53       24         0          0.46 sec
//   512        18.50%    21177        42       23         0          0.52 sec
//   576        18.62%    21145        32       22         0          0.58 sec
//   640        18.67%    21132        13       12         0          0.63 sec
//   704        18.77%    21106        26       15         0          0.69 sec
//   768        18.85%    21087        19        9         0          0.74 sec
//   832        18.92%    21067        20       10         0          0.79 sec
//   896        19.02%    21041        26       12         0          0.85 sec
//   960        19.11%    21018        23       12         0          0.90 sec
//   1024       19.14%    21011         7        4         0          0.96 sec
//   1052       19.18%    21001        10        7         0          1.01 sec
