// | ------------------------------------------------------------------------------------------------------------------ |
// |                                                                                                                    |
// |          Current split capture setting:     Off (optimal)                                                          |
// |                                                                                                                    |
// |   Current clock off simulation setting:     Off (optimal)                                                          |
// | ------------------------------------------------------------------------------------------------------------------ |
//  ------------------------------------------------------------------------
//  Simulation performed for #gates = 12864  #faults = 25984
//  Run fault simulation without storing patterns.  pattern source = 1517 external patterns
//  ------------------------------------------------------------------------
//  #patterns  test      #faults  #faults    # eff.    # test         process 
//  simulated  coverage  in list  detected   patterns  patterns       CPU time
//   64         13.69%    22427      3557       63         0          0.12 sec
//   128        15.37%    21989       438       58         0          0.19 sec
//   192        16.49%    21700       289       48         0          0.25 sec
//   256        17.11%    21538       162       44         0          0.31 sec
//   320        17.60%    21410       128       40         0          0.37 sec
//   384        17.93%    21326        84       28         0          0.43 sec
//   448        18.13%    21274        52       26         0          0.49 sec
//   512        18.38%    21207        67       25         0          0.54 sec
//   576        18.57%    21160        47       21         0          0.60 sec
//   640        18.81%    21097        63       27         0          0.66 sec
//   704        19.00%    21047        50       26         0          0.71 sec
//   768        19.21%    20992        55       21         0          0.77 sec
//   832        19.29%    20971        21        9         0          0.82 sec
//   896        19.39%    20947        24       15         0          0.88 sec
//   960        19.51%    20914        33       15         0          0.93 sec
//   1024       19.57%    20900        14       10         0          0.99 sec
//   1088       19.64%    20880        20        8         0          1.04 sec
//   1152       19.72%    20859        21        9         0          1.10 sec
//   1216       19.74%    20855         4        4         0          1.15 sec
//   1280       19.77%    20848         7        4         0          1.21 sec
//   1344       19.79%    20842         6        3         0          1.26 sec
//   1408       19.81%    20837         5        3         0          1.31 sec
