// | ------------------------------------------------------------------------------------------------------------------ |
// |                                                                                                                    |
// |          Current split capture setting:     Off (optimal)                                                          |
// |                                                                                                                    |
// |   Current clock off simulation setting:     Off (optimal)                                                          |
// | ------------------------------------------------------------------------------------------------------------------ |
//  ------------------------------------------------------------------------
//  Simulation performed for #gates = 12864  #faults = 25984
//  Run fault simulation without storing patterns.  pattern source = 1199 external patterns
//  ------------------------------------------------------------------------
//  #patterns  test      #faults  #faults    # eff.    # test         process 
//  simulated  coverage  in list  detected   patterns  patterns       CPU time
//   64         16.18%    21781      4203       63         0          0.14 sec
//   128        18.10%    21281       500       59         0          0.21 sec
//   192        18.98%    21053       228       55         0          0.27 sec
//   256        19.55%    20903       150       43         0          0.33 sec
//   320        19.87%    20822        81       34         0          0.39 sec
//   384        20.10%    20761        61       31         0          0.45 sec
//   448        20.35%    20696        65       28         0          0.50 sec
//   512        20.58%    20637        59       25         0          0.56 sec
//   576        20.83%    20572        65       28         0          0.61 sec
//   640        20.96%    20537        35       18         0          0.67 sec
//   704        21.02%    20522        15        9         0          0.72 sec
//   768        21.07%    20510        12       10         0          0.78 sec
//   832        21.11%    20498        12        8         0          0.83 sec
//   896        21.17%    20482        16        8         0          0.89 sec
//   960        21.20%    20475         7        5         0          0.94 sec
//   1024       21.29%    20452        23       10         0          1.00 sec
//   1088       21.36%    20434        18       10         0          1.05 sec
//   1152       21.39%    20427         7        6         0          1.11 sec
//   1199       21.42%    20418         9        7         0          1.16 sec
