// | ------------------------------------------------------------------------------------------------------------------ |
// |                                                                                                                    |
// |          Current split capture setting:     Off (optimal)                                                          |
// |                                                                                                                    |
// |   Current clock off simulation setting:     Off (optimal)                                                          |
// | ------------------------------------------------------------------------------------------------------------------ |
//  ------------------------------------------------------------------------
//  Simulation performed for #gates = 12864  #faults = 25984
//  Run fault simulation without storing patterns.  pattern source = 1244 external patterns
//  ------------------------------------------------------------------------
//  #patterns  test      #faults  #faults    # eff.    # test         process 
//  simulated  coverage  in list  detected   patterns  patterns       CPU time
//   64         12.19%    22817      3167       62         0          0.10 sec
//   128        13.32%    22524       293       45         0          0.17 sec
//   192        14.12%    22314       210       43         0          0.23 sec
//   256        14.75%    22151       163       36         0          0.29 sec
//   320        15.33%    22001       150       34         0          0.35 sec
//   384        15.83%    21871       130       29         0          0.41 sec
//   448        16.21%    21773        98       32         0          0.46 sec
//   512        16.36%    21732        41       14         0          0.52 sec
//   576        16.66%    21655        77       23         0          0.57 sec
//   640        16.82%    21614        41       21         0          0.63 sec
//   704        16.98%    21573        41       18         0          0.68 sec
//   768        17.18%    21519        54       18         0          0.74 sec
//   832        17.35%    21475        44       20         0          0.79 sec
//   896        17.49%    21440        35       13         0          0.85 sec
//   960        17.63%    21403        37       18         0          0.90 sec
//   1024       17.67%    21393        10        7         0          0.96 sec
//   1088       17.73%    21377        16        8         0          1.01 sec
//   1152       17.80%    21358        19        8         0          1.06 sec
//   1244       17.84%    21348        10        3         0          1.16 sec
