// | ------------------------------------------------------------------------------------------------------------------ |
// |                                                                                                                    |
// |          Current split capture setting:     Off (optimal)                                                          |
// |                                                                                                                    |
// |   Current clock off simulation setting:     Off (optimal)                                                          |
// | ------------------------------------------------------------------------------------------------------------------ |
//  ------------------------------------------------------------------------
//  Simulation performed for #gates = 12864  #faults = 25984
//  Run fault simulation without storing patterns.  pattern source = 592 external patterns
//  ------------------------------------------------------------------------
//  #patterns  test      #faults  #faults    # eff.    # test         process 
//  simulated  coverage  in list  detected   patterns  patterns       CPU time
//   64         14.28%    22273      3711       64         0          0.12 sec
//   128        16.04%    21816       457       57         0          0.18 sec
//   192        17.10%    21540       276       55         0          0.24 sec
//   256        17.66%    21396       144       44         0          0.30 sec
//   320        17.95%    21320        76       35         0          0.36 sec
//   384        18.19%    21258        62       26         0          0.41 sec
//   448        18.39%    21205        53       25         0          0.47 sec
//   512        18.48%    21182        23       18         0          0.52 sec
//   576        18.62%    21147        35       20         0          0.58 sec
//   592        18.63%    21144         3        3         0          0.63 sec
