// | ------------------------------------------------------------------------------------------------------------------ |
// |                                                                                                                    |
// |          Current split capture setting:     Off (optimal)                                                          |
// |                                                                                                                    |
// |   Current clock off simulation setting:     Off (optimal)                                                          |
// | ------------------------------------------------------------------------------------------------------------------ |
//  ------------------------------------------------------------------------
//  Simulation performed for #gates = 12864  #faults = 25984
//  Run fault simulation without storing patterns.  pattern source = 533 external patterns
//  ------------------------------------------------------------------------
//  #patterns  test      #faults  #faults    # eff.    # test         process 
//  simulated  coverage  in list  detected   patterns  patterns       CPU time
//   64         12.34%    22778      3206       63         0          0.10 sec
//   128        13.84%    22387       391       54         0          0.16 sec
//   192        14.61%    22187       200       43         0          0.22 sec
//   256        15.49%    21959       228       45         0          0.28 sec
//   320        15.93%    21844       115       34         0          0.34 sec
//   384        16.23%    21766        78       28         0          0.39 sec
//   448        16.60%    21670        96       26         0          0.45 sec
//   512        16.87%    21601        69       26         0          0.51 sec
//   533        16.94%    21582        19        9         0          0.56 sec
