// | ------------------------------------------------------------------------------------------------------------------ |
// |                                                                                                                    |
// |          Current split capture setting:     Off (optimal)                                                          |
// |                                                                                                                    |
// |   Current clock off simulation setting:     Off (optimal)                                                          |
// | ------------------------------------------------------------------------------------------------------------------ |
//  ------------------------------------------------------------------------
//  Simulation performed for #gates = 12864  #faults = 25984
//  Run fault simulation without storing patterns.  pattern source = 519 external patterns
//  ------------------------------------------------------------------------
//  #patterns  test      #faults  #faults    # eff.    # test         process 
//  simulated  coverage  in list  detected   patterns  patterns       CPU time
//   64         15.20%    22035      3949       64         0          0.13 sec
//   128        17.07%    21548       487       60         0          0.20 sec
//   192        18.04%    21297       251       55         0          0.26 sec
//   256        18.56%    21162       135       44         0          0.32 sec
//   320        18.83%    21090        72       34         0          0.37 sec
//   384        19.24%    20985       105       35         0          0.43 sec
//   448        19.60%    20890        95       34         0          0.49 sec
//   512        19.83%    20832        58       26         0          0.54 sec
//   519        19.84%    20829         3        1         0          0.59 sec
