// | ------------------------------------------------------------------------------------------------------------------ |
// |                                                                                                                    |
// |          Current split capture setting:     Off (optimal)                                                          |
// |                                                                                                                    |
// |   Current clock off simulation setting:     Off (optimal)                                                          |
// | ------------------------------------------------------------------------------------------------------------------ |
//  ------------------------------------------------------------------------
//  Simulation performed for #gates = 12864  #faults = 25984
//  Run fault simulation without storing patterns.  pattern source = 507 external patterns
//  ------------------------------------------------------------------------
//  #patterns  test      #faults  #faults    # eff.    # test         process 
//  simulated  coverage  in list  detected   patterns  patterns       CPU time
//   64         13.75%    22411      3573       63         0          0.11 sec
//   128        15.25%    22021       390       53         0          0.18 sec
//   192        15.96%    21838       183       38         0          0.24 sec
//   256        16.47%    21705       133       37         0          0.29 sec
//   320        17.08%    21546       159       36         0          0.35 sec
//   384        17.59%    21414       132       41         0          0.41 sec
//   448        17.86%    21342        72       30         0          0.46 sec
//   507        17.98%    21311        31       15         0          0.52 sec
