// | ------------------------------------------------------------------------------------------------------------------ |
// |                                                                                                                    |
// |          Current split capture setting:     Off (optimal)                                                          |
// |                                                                                                                    |
// |   Current clock off simulation setting:     Off (optimal)                                                          |
// | ------------------------------------------------------------------------------------------------------------------ |
//  ------------------------------------------------------------------------
//  Simulation performed for #gates = 12864  #faults = 25984
//  Run fault simulation without storing patterns.  pattern source = 555 external patterns
//  ------------------------------------------------------------------------
//  #patterns  test      #faults  #faults    # eff.    # test         process 
//  simulated  coverage  in list  detected   patterns  patterns       CPU time
//   64         19.46%    20927      5057       64         0          0.15 sec
//   128        22.96%    20017       910       64         0          0.21 sec
//   192        24.86%    19524       493       64         0          0.27 sec
//   256        26.14%    19193       331       64         0          0.32 sec
//   320        27.03%    18961       232       64         0          0.37 sec
//   384        27.68%    18791       170       64         0          0.42 sec
//   448        28.23%    18650       141       64         0          0.47 sec
//   512        28.63%    18544       106       64         0          0.52 sec
//   555        28.83%    18492        52       43         0          0.57 sec
