// | ------------------------------------------------------------------------------------------------------------------ |
// |                                                                                                                    |
// |          Current split capture setting:     Off (optimal)                                                          |
// |                                                                                                                    |
// |   Current clock off simulation setting:     Off (optimal)                                                          |
// | ------------------------------------------------------------------------------------------------------------------ |
//  ------------------------------------------------------------------------
//  Simulation performed for #gates = 12864  #faults = 25984
//  Run fault simulation without storing patterns.  pattern source = 627 external patterns
//  ------------------------------------------------------------------------
//  #patterns  test      #faults  #faults    # eff.    # test         process 
//  simulated  coverage  in list  detected   patterns  patterns       CPU time
//   64         13.98%    22352      3632       64         0          0.12 sec
//   128        15.88%    21858       494       58         0          0.18 sec
//   192        16.61%    21668       190       46         0          0.24 sec
//   256        16.95%    21579        89       35         0          0.30 sec
//   320        17.43%    21454       125       38         0          0.36 sec
//   384        17.68%    21389        65       28         0          0.41 sec
//   448        18.04%    21296        93       31         0          0.47 sec
//   512        18.31%    21227        69       33         0          0.52 sec
//   576        18.46%    21188        39       17         0          0.58 sec
//   627        18.51%    21175        13        8         0          0.63 sec
