// | ------------------------------------------------------------------------------------------------------------------ |
// |                                                                                                                    |
// |          Current split capture setting:     Off (optimal)                                                          |
// |                                                                                                                    |
// |   Current clock off simulation setting:     Off (optimal)                                                          |
// | ------------------------------------------------------------------------------------------------------------------ |
//  ------------------------------------------------------------------------
//  Simulation performed for #gates = 12864  #faults = 25984
//  Run fault simulation without storing patterns.  pattern source = 534 external patterns
//  ------------------------------------------------------------------------
//  #patterns  test      #faults  #faults    # eff.    # test         process 
//  simulated  coverage  in list  detected   patterns  patterns       CPU time
//   64         12.82%    22654      3330       64         0          0.11 sec
//   128        14.31%    22266       388       55         0          0.17 sec
//   192        15.03%    22079       187       43         0          0.23 sec
//   256        15.59%    21933       146       35         0          0.29 sec
//   320        16.09%    21803       130       35         0          0.35 sec
//   384        16.49%    21700       103       30         0          0.40 sec
//   448        16.73%    21636        64       26         0          0.46 sec
//   512        17.00%    21566        70       29         0          0.51 sec
//   534        17.08%    21547        19        7         0          0.57 sec
