// | ------------------------------------------------------------------------------------------------------------------ |
// |                                                                                                                    |
// |          Current split capture setting:     Off (optimal)                                                          |
// |                                                                                                                    |
// |   Current clock off simulation setting:     Off (optimal)                                                          |
// | ------------------------------------------------------------------------------------------------------------------ |
//  ------------------------------------------------------------------------
//  Simulation performed for #gates = 12864  #faults = 25984
//  Run fault simulation without storing patterns.  pattern source = 587 external patterns
//  ------------------------------------------------------------------------
//  #patterns  test      #faults  #faults    # eff.    # test         process 
//  simulated  coverage  in list  detected   patterns  patterns       CPU time
//   64         12.89%    22635      3349       63         0          0.11 sec
//   128        14.35%    22255       380       55         0          0.17 sec
//   192        15.02%    22080       175       48         0          0.23 sec
//   256        15.42%    21977       103       30         0          0.29 sec
//   320        15.86%    21864       113       38         0          0.35 sec
//   384        16.09%    21804        60       24         0          0.41 sec
//   448        16.34%    21737        67       25         0          0.46 sec
//   512        16.56%    21680        57       25         0          0.52 sec
//   576        16.74%    21635        45       18         0          0.57 sec
//   587        16.76%    21629         6        3         0          0.62 sec
