// | ------------------------------------------------------------------------------------------------------------------ |
// |                                                                                                                    |
// |          Current split capture setting:     Off (optimal)                                                          |
// |                                                                                                                    |
// |   Current clock off simulation setting:     Off (optimal)                                                          |
// | ------------------------------------------------------------------------------------------------------------------ |
//  ------------------------------------------------------------------------
//  Simulation performed for #gates = 12864  #faults = 25984
//  Run fault simulation without storing patterns.  pattern source = 589 external patterns
//  ------------------------------------------------------------------------
//  #patterns  test      #faults  #faults    # eff.    # test         process 
//  simulated  coverage  in list  detected   patterns  patterns       CPU time
//   64         13.05%    22593      3391       64         0          0.12 sec
//   128        14.44%    22232       361       50         0          0.18 sec
//   192        15.22%    22028       204       38         0          0.24 sec
//   256        15.59%    21934        94       34         0          0.30 sec
//   320        16.08%    21805       129       30         0          0.36 sec
//   384        16.51%    21694       111       39         0          0.42 sec
//   448        16.99%    21570       124       37         0          0.48 sec
//   512        17.32%    21483        87       29         0          0.53 sec
//   576        17.55%    21423        60       22         0          0.59 sec
//   589        17.63%    21404        19        6         0          0.64 sec
