// | ------------------------------------------------------------------------------------------------------------------ |
// |                                                                                                                    |
// |          Current split capture setting:     Off (optimal)                                                          |
// |                                                                                                                    |
// |   Current clock off simulation setting:     Off (optimal)                                                          |
// | ------------------------------------------------------------------------------------------------------------------ |
//  ------------------------------------------------------------------------
//  Simulation performed for #gates = 12864  #faults = 25984
//  Run fault simulation without storing patterns.  pattern source = 581 external patterns
//  ------------------------------------------------------------------------
//  #patterns  test      #faults  #faults    # eff.    # test         process 
//  simulated  coverage  in list  detected   patterns  patterns       CPU time
//   64         15.55%    21944      4040       64         0          0.13 sec
//   128        16.86%    21604       340       56         0          0.19 sec
//   192        17.68%    21389       215       54         0          0.25 sec
//   256        18.18%    21260       129       43         0          0.31 sec
//   320        18.59%    21154       106       31         0          0.37 sec
//   384        18.91%    21071        83       33         0          0.42 sec
//   448        19.08%    21025        46       23         0          0.48 sec
//   512        19.37%    20951        74       26         0          0.53 sec
//   576        19.54%    20907        44       19         0          0.59 sec
//   581        19.56%    20902         5        2         0          0.63 sec
