// | ------------------------------------------------------------------------------------------------------------------ |
// |                                                                                                                    |
// |          Current split capture setting:     Off (optimal)                                                          |
// |                                                                                                                    |
// |   Current clock off simulation setting:     Off (optimal)                                                          |
// | ------------------------------------------------------------------------------------------------------------------ |
//  ------------------------------------------------------------------------
//  Simulation performed for #gates = 12864  #faults = 25984
//  Run fault simulation without storing patterns.  pattern source = 573 external patterns
//  ------------------------------------------------------------------------
//  #patterns  test      #faults  #faults    # eff.    # test         process 
//  simulated  coverage  in list  detected   patterns  patterns       CPU time
//   64         12.37%    22770      3214       62         0          0.10 sec
//   128        13.60%    22449       321       52         0          0.16 sec
//   192        14.15%    22307       142       41         0          0.22 sec
//   256        14.61%    22187       120       24         0          0.28 sec
//   320        15.16%    22046       141       33         0          0.34 sec
//   384        15.69%    21908       138       41         0          0.40 sec
//   448        16.18%    21780       128       38         0          0.45 sec
//   512        16.44%    21713        67       33         0          0.51 sec
//   573        16.59%    21674        39       18         0          0.56 sec
