// | ------------------------------------------------------------------------------------------------------------------ |
// |                                                                                                                    |
// |          Current split capture setting:     Off (optimal)                                                          |
// |                                                                                                                    |
// |   Current clock off simulation setting:     Off (optimal)                                                          |
// | ------------------------------------------------------------------------------------------------------------------ |
//  ------------------------------------------------------------------------
//  Simulation performed for #gates = 12864  #faults = 25984
//  Run fault simulation without storing patterns.  pattern source = 534 external patterns
//  ------------------------------------------------------------------------
//  #patterns  test      #faults  #faults    # eff.    # test         process 
//  simulated  coverage  in list  detected   patterns  patterns       CPU time
//   64         14.12%    22316      3668       64         0          0.13 sec
//   128        16.10%    21801       515       63         0          0.20 sec
//   192        17.26%    21499       302       50         0          0.26 sec
//   256        17.80%    21359       140       44         0          0.32 sec
//   320        18.23%    21247       112       42         0          0.38 sec
//   384        18.47%    21185        62       23         0          0.43 sec
//   448        18.74%    21114        71       32         0          0.49 sec
//   512        19.07%    21029        85       32         0          0.55 sec
//   534        19.17%    21004        25       10         0          0.60 sec
