// | ------------------------------------------------------------------------------------------------------------------ |
// |                                                                                                                    |
// |          Current split capture setting:     Off (optimal)                                                          |
// |                                                                                                                    |
// |   Current clock off simulation setting:     Off (optimal)                                                          |
// | ------------------------------------------------------------------------------------------------------------------ |
//  ------------------------------------------------------------------------
//  Simulation performed for #gates = 12864  #faults = 25984
//  Run fault simulation without storing patterns.  pattern source = 702 external patterns
//  ------------------------------------------------------------------------
//  #patterns  test      #faults  #faults    # eff.    # test         process 
//  simulated  coverage  in list  detected   patterns  patterns       CPU time
//   64         15.96%    21837      4147       63         0          0.14 sec
//   128        17.80%    21358       479       60         0          0.20 sec
//   192        18.51%    21175       183       45         0          0.26 sec
//   256        18.86%    21084        91       34         0          0.32 sec
//   320        19.06%    21032        52       26         0          0.38 sec
//   384        19.35%    20956        76       32         0          0.44 sec
//   448        19.57%    20900        56       33         0          0.49 sec
//   512        19.72%    20859        41       17         0          0.55 sec
//   576        19.84%    20828        31       11         0          0.60 sec
//   640        19.96%    20798        30       16         0          0.66 sec
//   702        20.03%    20779        19        8         0          0.71 sec
