// | ------------------------------------------------------------------------------------------------------------------ |
// |                                                                                                                    |
// |          Current split capture setting:     Off (optimal)                                                          |
// |                                                                                                                    |
// |   Current clock off simulation setting:     Off (optimal)                                                          |
// | ------------------------------------------------------------------------------------------------------------------ |
//  ------------------------------------------------------------------------
//  Simulation performed for #gates = 12864  #faults = 25984
//  Run fault simulation without storing patterns.  pattern source = 614 external patterns
//  ------------------------------------------------------------------------
//  #patterns  test      #faults  #faults    # eff.    # test         process 
//  simulated  coverage  in list  detected   patterns  patterns       CPU time
//   64         15.85%    21865      4119       64         0          0.13 sec
//   128        17.30%    21489       376       55         0          0.19 sec
//   192        18.13%    21272       217       48         0          0.25 sec
//   256        18.54%    21167       105       38         0          0.31 sec
//   320        18.82%    21095        72       36         0          0.37 sec
//   384        19.05%    21033        62       27         0          0.42 sec
//   448        19.26%    20980        53       22         0          0.48 sec
//   512        19.42%    20939        41       16         0          0.53 sec
//   576        19.62%    20887        52       22         0          0.59 sec
//   614        19.69%    20869        18       11         0          0.64 sec
