// | ------------------------------------------------------------------------------------------------------------------ |
// |                                                                                                                    |
// |          Current split capture setting:     Off (optimal)                                                          |
// |                                                                                                                    |
// |   Current clock off simulation setting:     Off (optimal)                                                          |
// | ------------------------------------------------------------------------------------------------------------------ |
//  ------------------------------------------------------------------------
//  Simulation performed for #gates = 12864  #faults = 25984
//  Run fault simulation without storing patterns.  pattern source = 573 external patterns
//  ------------------------------------------------------------------------
//  #patterns  test      #faults  #faults    # eff.    # test         process 
//  simulated  coverage  in list  detected   patterns  patterns       CPU time
//   64         15.46%    21967      4017       64         0          0.14 sec
//   128        17.21%    21513       454       59         0          0.20 sec
//   192        18.06%    21291       222       48         0          0.27 sec
//   256        18.42%    21197        94       33         0          0.33 sec
//   320        18.89%    21076       121       39         0          0.39 sec
//   384        19.06%    21031        45       19         0          0.45 sec
//   448        19.23%    20986        45       28         0          0.50 sec
//   512        19.37%    20952        34       17         0          0.56 sec
//   573        19.47%    20926        26       15         0          0.62 sec
