// | ------------------------------------------------------------------------------------------------------------------ |
// |                                                                                                                    |
// |          Current split capture setting:     Off (optimal)                                                          |
// |                                                                                                                    |
// |   Current clock off simulation setting:     Off (optimal)                                                          |
// | ------------------------------------------------------------------------------------------------------------------ |
//  ------------------------------------------------------------------------
//  Simulation performed for #gates = 12864  #faults = 25984
//  Run fault simulation without storing patterns.  pattern source = 585 external patterns
//  ------------------------------------------------------------------------
//  #patterns  test      #faults  #faults    # eff.    # test         process 
//  simulated  coverage  in list  detected   patterns  patterns       CPU time
//   64         12.89%    22635      3349       64         0          0.11 sec
//   128        14.22%    22290       345       54         0          0.18 sec
//   192        15.05%    22073       217       42         0          0.24 sec
//   256        15.70%    21904       169       42         0          0.30 sec
//   320        16.13%    21792       112       35         0          0.36 sec
//   384        16.56%    21681       111       35         0          0.42 sec
//   448        16.74%    21633        48       20         0          0.47 sec
//   512        17.04%    21556        77       24         0          0.53 sec
//   576        17.25%    21501        55       23         0          0.59 sec
//   585        17.28%    21495         6        4         0          0.64 sec
