// | ------------------------------------------------------------------------------------------------------------------ |
// |                                                                                                                    |
// |          Current split capture setting:     Off (optimal)                                                          |
// |                                                                                                                    |
// |   Current clock off simulation setting:     Off (optimal)                                                          |
// | ------------------------------------------------------------------------------------------------------------------ |
//  ------------------------------------------------------------------------
//  Simulation performed for #gates = 12864  #faults = 25984
//  Run fault simulation without storing patterns.  pattern source = 589 external patterns
//  ------------------------------------------------------------------------
//  #patterns  test      #faults  #faults    # eff.    # test         process 
//  simulated  coverage  in list  detected   patterns  patterns       CPU time
//   64         13.99%    22348      3636       64         0          0.12 sec
//   128        15.51%    21955       393       56         0          0.18 sec
//   192        16.08%    21806       149       42         0          0.24 sec
//   256        16.52%    21691       115       38         0          0.29 sec
//   320        16.84%    21607        84       36         0          0.35 sec
//   384        17.29%    21491       116       32         0          0.41 sec
//   448        17.70%    21386       105       37         0          0.46 sec
//   512        18.00%    21306        80       31         0          0.52 sec
//   576        18.19%    21257        49       19         0          0.57 sec
//   589        18.23%    21246        11        5         0          0.62 sec
