// | ------------------------------------------------------------------------------------------------------------------ |
// |                                                                                                                    |
// |          Current split capture setting:     Off (optimal)                                                          |
// |                                                                                                                    |
// |   Current clock off simulation setting:     Off (optimal)                                                          |
// | ------------------------------------------------------------------------------------------------------------------ |
//  ------------------------------------------------------------------------
//  Simulation performed for #gates = 12864  #faults = 25984
//  Run fault simulation without storing patterns.  pattern source = 614 external patterns
//  ------------------------------------------------------------------------
//  #patterns  test      #faults  #faults    # eff.    # test         process 
//  simulated  coverage  in list  detected   patterns  patterns       CPU time
//   64         14.46%    22227      3757       64         0          0.13 sec
//   128        16.38%    21728       499       61         0          0.20 sec
//   192        17.18%    21521       207       45         0          0.26 sec
//   256        17.66%    21394       127       38         0          0.32 sec
//   320        18.05%    21293       101       34         0          0.38 sec
//   384        18.28%    21234        59       30         0          0.43 sec
//   448        18.49%    21180        54       29         0          0.49 sec
//   512        18.66%    21136        44       21         0          0.55 sec
//   576        18.78%    21105        31       17         0          0.60 sec
//   614        18.85%    21085        20        9         0          0.66 sec
