// | ------------------------------------------------------------------------------------------------------------------ |
// |                                                                                                                    |
// |          Current split capture setting:     Off (optimal)                                                          |
// |                                                                                                                    |
// |   Current clock off simulation setting:     Off (optimal)                                                          |
// | ------------------------------------------------------------------------------------------------------------------ |
//  ------------------------------------------------------------------------
//  Simulation performed for #gates = 12864  #faults = 25984
//  Run fault simulation without storing patterns.  pattern source = 573 external patterns
//  ------------------------------------------------------------------------
//  #patterns  test      #faults  #faults    # eff.    # test         process 
//  simulated  coverage  in list  detected   patterns  patterns       CPU time
//   64         14.86%    22124      3860       63         0          0.13 sec
//   128        16.76%    21630       494       58         0          0.20 sec
//   192        17.69%    21387       243       52         0          0.26 sec
//   256        18.11%    21277       110       37         0          0.32 sec
//   320        18.53%    21169       108       32         0          0.38 sec
//   384        18.78%    21105        64       24         0          0.43 sec
//   448        18.93%    21064        41       23         0          0.49 sec
//   512        19.13%    21013        51       25         0          0.55 sec
//   573        19.29%    20972        41       24         0          0.60 sec
