// | ------------------------------------------------------------------------------------------------------------------ |
// |                                                                                                                    |
// |          Current split capture setting:     Off (optimal)                                                          |
// |                                                                                                                    |
// |   Current clock off simulation setting:     Off (optimal)                                                          |
// | ------------------------------------------------------------------------------------------------------------------ |
//  ------------------------------------------------------------------------
//  Simulation performed for #gates = 12864  #faults = 25984
//  Run fault simulation without storing patterns.  pattern source = 573 external patterns
//  ------------------------------------------------------------------------
//  #patterns  test      #faults  #faults    # eff.    # test         process 
//  simulated  coverage  in list  detected   patterns  patterns       CPU time
//   64         12.97%    22613      3371       61         0          0.11 sec
//   128        14.52%    22212       401       50         0          0.17 sec
//   192        15.33%    22000       212       42         0          0.23 sec
//   256        15.79%    21881       119       34         0          0.29 sec
//   320        16.27%    21757       124       36         0          0.35 sec
//   384        16.61%    21669        88       33         0          0.40 sec
//   448        16.93%    21584        85       33         0          0.46 sec
//   512        17.24%    21505        79       31         0          0.52 sec
//   573        17.44%    21452        53       26         0          0.57 sec
