// | ------------------------------------------------------------------------------------------------------------------ |
// |                                                                                                                    |
// |          Current split capture setting:     Off (optimal)                                                          |
// |                                                                                                                    |
// |   Current clock off simulation setting:     Off (optimal)                                                          |
// | ------------------------------------------------------------------------------------------------------------------ |
//  ------------------------------------------------------------------------
//  Simulation performed for #gates = 12864  #faults = 25984
//  Run fault simulation without storing patterns.  pattern source = 658 external patterns
//  ------------------------------------------------------------------------
//  #patterns  test      #faults  #faults    # eff.    # test         process 
//  simulated  coverage  in list  detected   patterns  patterns       CPU time
//   64         12.73%    22677      3307       63         0          0.10 sec
//   128        13.91%    22369       308       51         0          0.16 sec
//   192        14.64%    22180       189       43         0          0.22 sec
//   256        15.32%    22002       178       39         0          0.28 sec
//   320        15.93%    21846       156       36         0          0.34 sec
//   384        16.26%    21760        86       31         0          0.39 sec
//   448        16.60%    21671        89       33         0          0.45 sec
//   512        16.93%    21585        86       30         0          0.50 sec
//   576        17.05%    21553        32       17         0          0.56 sec
//   640        17.18%    21520        33       10         0          0.61 sec
//   658        17.21%    21513         7        3         0          0.66 sec
