// | ------------------------------------------------------------------------------------------------------------------ |
// |                                                                                                                    |
// |          Current split capture setting:     Off (optimal)                                                          |
// |                                                                                                                    |
// |   Current clock off simulation setting:     Off (optimal)                                                          |
// | ------------------------------------------------------------------------------------------------------------------ |
//  ------------------------------------------------------------------------
//  Simulation performed for #gates = 12864  #faults = 25984
//  Run fault simulation without storing patterns.  pattern source = 446 external patterns
//  ------------------------------------------------------------------------
//  #patterns  test      #faults  #faults    # eff.    # test         process 
//  simulated  coverage  in list  detected   patterns  patterns       CPU time
//   64         13.35%    22514      3470       63         0          0.11 sec
//   128        14.57%    22197       317       52         0          0.17 sec
//   192        15.26%    22018       179       42         0          0.23 sec
//   256        15.73%    21896       122       37         0          0.29 sec
//   320        16.13%    21793       103       35         0          0.34 sec
//   384        16.53%    21688       105       33         0          0.40 sec
//   446        16.88%    21598        90       34         0          0.46 sec
