// | ------------------------------------------------------------------------------------------------------------------ |
// |                                                                                                                    |
// |          Current split capture setting:     Off (optimal)                                                          |
// |                                                                                                                    |
// |   Current clock off simulation setting:     Off (optimal)                                                          |
// | ------------------------------------------------------------------------------------------------------------------ |
//  ------------------------------------------------------------------------
//  Simulation performed for #gates = 12864  #faults = 25984
//  Run fault simulation without storing patterns.  pattern source = 587 external patterns
//  ------------------------------------------------------------------------
//  #patterns  test      #faults  #faults    # eff.    # test         process 
//  simulated  coverage  in list  detected   patterns  patterns       CPU time
//   64         15.21%    22032      3952       64         0          0.13 sec
//   128        16.73%    21637       395       58         0          0.19 sec
//   192        17.63%    21402       235       52         0          0.25 sec
//   256        18.23%    21247       155       44         0          0.31 sec
//   320        18.77%    21108       139       37         0          0.37 sec
//   384        18.98%    21053        55       31         0          0.43 sec
//   448        19.28%    20974        79       28         0          0.48 sec
//   512        19.55%    20903        71       28         0          0.54 sec
//   576        19.68%    20871        32       21         0          0.59 sec
//   587        19.74%    20854        17        3         0          0.64 sec
