// | ------------------------------------------------------------------------------------------------------------------ |
// |                                                                                                                    |
// |          Current split capture setting:     Off (optimal)                                                          |
// |                                                                                                                    |
// |   Current clock off simulation setting:     Off (optimal)                                                          |
// | ------------------------------------------------------------------------------------------------------------------ |
//  ------------------------------------------------------------------------
//  Simulation performed for #gates = 12864  #faults = 25984
//  Run fault simulation without storing patterns.  pattern source = 568 external patterns
//  ------------------------------------------------------------------------
//  #patterns  test      #faults  #faults    # eff.    # test         process 
//  simulated  coverage  in list  detected   patterns  patterns       CPU time
//   64         13.92%    22368      3616       64         0          0.13 sec
//   128        15.90%    21853       515       58         0          0.19 sec
//   192        16.57%    21678       175       44         0          0.26 sec
//   256        17.14%    21531       147       43         0          0.32 sec
//   320        17.60%    21411       120       41         0          0.38 sec
//   384        17.99%    21309       102       34         0          0.44 sec
//   448        18.14%    21271        38       21         0          0.49 sec
//   512        18.33%    21221        50       24         0          0.55 sec
//   568        18.50%    21178        43       17         0          0.61 sec
