// | ------------------------------------------------------------------------------------------------------------------ |
// |                                                                                                                    |
// |          Current split capture setting:     Off (optimal)                                                          |
// |                                                                                                                    |
// |   Current clock off simulation setting:     Off (optimal)                                                          |
// | ------------------------------------------------------------------------------------------------------------------ |
//  ------------------------------------------------------------------------
//  Simulation performed for #gates = 12864  #faults = 25984
//  Run fault simulation without storing patterns.  pattern source = 545 external patterns
//  ------------------------------------------------------------------------
//  #patterns  test      #faults  #faults    # eff.    # test         process 
//  simulated  coverage  in list  detected   patterns  patterns       CPU time
//   64         12.78%    22663      3321       64         0          0.11 sec
//   128        14.20%    22294       369       56         0          0.18 sec
//   192        15.01%    22083       211       45         0          0.24 sec
//   256        15.57%    21937       146       38         0          0.30 sec
//   320        16.11%    21798       139       40         0          0.36 sec
//   384        16.53%    21690       108       35         0          0.42 sec
//   448        16.83%    21611        79       27         0          0.48 sec
//   512        16.98%    21572        39       23         0          0.53 sec
//   545        17.03%    21560        12        7         0          0.59 sec
