// | ------------------------------------------------------------------------------------------------------------------ |
// |                                                                                                                    |
// |          Current split capture setting:     Off (optimal)                                                          |
// |                                                                                                                    |
// |   Current clock off simulation setting:     Off (optimal)                                                          |
// | ------------------------------------------------------------------------------------------------------------------ |
//  ------------------------------------------------------------------------
//  Simulation performed for #gates = 12864  #faults = 25984
//  Run fault simulation without storing patterns.  pattern source = 534 external patterns
//  ------------------------------------------------------------------------
//  #patterns  test      #faults  #faults    # eff.    # test         process 
//  simulated  coverage  in list  detected   patterns  patterns       CPU time
//   64         13.02%    22600      3384       64         0          0.11 sec
//   128        14.57%    22197       403       54         0          0.17 sec
//   192        15.39%    21985       212       48         0          0.23 sec
//   256        15.97%    21835       150       42         0          0.29 sec
//   320        16.44%    21713       122       40         0          0.35 sec
//   384        16.72%    21639        74       25         0          0.40 sec
//   448        17.04%    21557        82       31         0          0.46 sec
//   512        17.23%    21507        50       23         0          0.51 sec
//   534        17.27%    21497        10        5         0          0.56 sec
