// | ------------------------------------------------------------------------------------------------------------------ |
// |                                                                                                                    |
// |          Current split capture setting:     Off (optimal)                                                          |
// |                                                                                                                    |
// |   Current clock off simulation setting:     Off (optimal)                                                          |
// | ------------------------------------------------------------------------------------------------------------------ |
//  ------------------------------------------------------------------------
//  Simulation performed for #gates = 12864  #faults = 25984
//  Run fault simulation without storing patterns.  pattern source = 578 external patterns
//  ------------------------------------------------------------------------
//  #patterns  test      #faults  #faults    # eff.    # test         process 
//  simulated  coverage  in list  detected   patterns  patterns       CPU time
//   64         15.38%    21988      3996       63         0          0.13 sec
//   128        17.28%    21494       494       63         0          0.20 sec
//   192        18.20%    21255       239       57         0          0.26 sec
//   256        18.66%    21136       119       39         0          0.32 sec
//   320        18.99%    21050        86       35         0          0.38 sec
//   384        19.22%    20990        60       27         0          0.43 sec
//   448        19.40%    20943        47       23         0          0.49 sec
//   512        19.53%    20910        33       13         0          0.54 sec
//   576        19.64%    20881        29       13         0          0.60 sec
