// | ------------------------------------------------------------------------------------------------------------------ |
// |                                                                                                                    |
// |          Current split capture setting:     Off (optimal)                                                          |
// |                                                                                                                    |
// |   Current clock off simulation setting:     Off (optimal)                                                          |
// | ------------------------------------------------------------------------------------------------------------------ |
//  ------------------------------------------------------------------------
//  Simulation performed for #gates = 12864  #faults = 25984
//  Run fault simulation without storing patterns.  pattern source = 576 external patterns
//  ------------------------------------------------------------------------
//  #patterns  test      #faults  #faults    # eff.    # test         process 
//  simulated  coverage  in list  detected   patterns  patterns       CPU time
//   64         15.41%    21979      4005       64         0          0.13 sec
//   128        17.31%    21486       493       57         0          0.19 sec
//   192        18.18%    21259       227       51         0          0.25 sec
//   256        18.63%    21143       116       38         0          0.31 sec
//   320        18.93%    21066        77       32         0          0.36 sec
//   384        19.14%    21011        55       25         0          0.42 sec
//   448        19.35%    20955        56       22         0          0.47 sec
//   512        19.55%    20904        51       23         0          0.53 sec
//   576        19.69%    20869        35       15         0          0.58 sec
