// | ------------------------------------------------------------------------------------------------------------------ |
// |                                                                                                                    |
// |          Current split capture setting:     Off (optimal)                                                          |
// |                                                                                                                    |
// |   Current clock off simulation setting:     Off (optimal)                                                          |
// | ------------------------------------------------------------------------------------------------------------------ |
//  ------------------------------------------------------------------------
//  Simulation performed for #gates = 12864  #faults = 25984
//  Run fault simulation without storing patterns.  pattern source = 614 external patterns
//  ------------------------------------------------------------------------
//  #patterns  test      #faults  #faults    # eff.    # test         process 
//  simulated  coverage  in list  detected   patterns  patterns       CPU time
//   64         12.72%    22680      3304       62         0          0.11 sec
//   128        14.47%    22224       456       58         0          0.17 sec
//   192        15.30%    22009       215       45         0          0.23 sec
//   256        15.88%    21858       151       40         0          0.29 sec
//   320        16.37%    21731       127       40         0          0.35 sec
//   384        16.68%    21650        81       28         0          0.40 sec
//   448        16.95%    21580        70       27         0          0.46 sec
//   512        17.13%    21533        47       17         0          0.52 sec
//   576        17.28%    21494        39       18         0          0.57 sec
//   614        17.34%    21478        16        9         0          0.62 sec
