// | ------------------------------------------------------------------------------------------------------------------ |
// |                                                                                                                    |
// |          Current split capture setting:     Off (optimal)                                                          |
// |                                                                                                                    |
// |   Current clock off simulation setting:     Off (optimal)                                                          |
// | ------------------------------------------------------------------------------------------------------------------ |
//  ------------------------------------------------------------------------
//  Simulation performed for #gates = 12864  #faults = 25984
//  Run fault simulation without storing patterns.  pattern source = 576 external patterns
//  ------------------------------------------------------------------------
//  #patterns  test      #faults  #faults    # eff.    # test         process 
//  simulated  coverage  in list  detected   patterns  patterns       CPU time
//   64         14.27%    22275      3709       64         0          0.12 sec
//   128        16.00%    21826       449       60         0          0.19 sec
//   192        16.80%    21618       208       52         0          0.25 sec
//   256        17.14%    21530        88       40         0          0.31 sec
//   320        17.55%    21424       106       38         0          0.36 sec
//   384        17.75%    21372        52       29         0          0.42 sec
//   448        18.00%    21307        65       26         0          0.48 sec
//   512        18.20%    21254        53       22         0          0.53 sec
//   576        18.28%    21234        20       13         0          0.59 sec
