	*******************************************************
	*                                                     *
	*            Welcome to HOPE (version 2.0)            *
	*                                                     *
	*               Dong S. Ha (ha@vt.edu)                *
	*            Web: http://www.ee.vt.edu/ha             *
	*  Virginia Polytechnic Institute & State University  *
	*                                                     *
	*******************************************************

******   SUMMARY OF SIMULATION RESULTS   ******
1. Circuit structure
   Name of circuit                           : s838
   Number of primary inputs                  : 67
   Number of primary outputs                 : 34
   Number of flip-flops                      : 0
   Number of gates                           : 390
   Level of the circuit                      : 56

2. Simulator input parameters
   Simulation mode                           : file (/home/animesh/currentResearch/ISI/atpg_structural/code/testData/atalanta/tests/iscas89/s838.test)

3. Simulation results
   Number of test patterns applied           : 95
   Fault coverage                            : 55.076 %
   Number of collapsed faults                : 857
   Number of detected faults                 : 472
   Number of undetected faults               : 385

4. Memory used                               : 12689 Kbytes

5. CPU time
   Initialization                            : 0.000 secs
   Fault simulation                          : 0.000 secs
   Total                                     : 0.000 secs
