//  command: set_current_design s838
//  Warning: 1 case: Unused net in DFT library model
//  Note: Issue set_current_design with the -show_elaboration_warnings option to see more details about previous warnings
//  command: set_system_mode analysis
//  Flattening process completed,  design_cells=313  leaf_cells=313  library_primitives=313  sim_gates=414  PIs=67  POs=34  CPU time=0.00 sec.
//  ---------------------------------------------------------------------------
//  Begin circuit learning analyses.
//  --------------------------------
//  Learning completed, CPU time=0.00 sec.
//  ---------------------------------------------------------------------------
//  Begin scan chain identification process, memory elements = 0.
//  ---------------------------------------------------------------------------
//  Circuit has no memory elements.
//  command: add_faults -all
//  command: set_fault_mode collapsed
//  command: set_fault_type stuck
//  command: read_patterns /home/animesh/currentResearch/ISI/atpg_structural/code/dumpData/tessent/iscas89/s838_synth/thirtyPercent/s838_synth_thirtyPercent_37.spf
//  Reading STIL input file "/home/animesh/currentResearch/ISI/atpg_structural/code/dumpData/tessent/iscas89/s838_synth/thirtyPercent/s838_synth_thirtyPercent_37.spf"
//  command: simulate_patterns > /home/animesh/currentResearch/ISI/atpg_structural/code/dumpData/tessent/iscas89/s838_synth/bin_2/simulateLogFile_s838_synth_fiftyPercent_34_s838_synth_thirtyPercent_37.atpg.result
//  command: exit 
