//  command: set_current_design s9234
//  Warning: 1 case: Unused net in DFT library model
//  Note: Issue set_current_design with the -show_elaboration_warnings option to see more details about previous warnings
//  command: set_system_mode analysis
//  Flattening process completed,  design_cells=1818  leaf_cells=1818  library_primitives=1816  sim_gates=2323  PIs=247  POs=250  CPU time=0.01 sec.
//  ---------------------------------------------------------------------------
//  Begin circuit learning analyses.
//  --------------------------------
//  Learning completed, CPU time=0.01 sec.
//  ---------------------------------------------------------------------------
//  Begin scan chain identification process, memory elements = 0.
//  ---------------------------------------------------------------------------
//  Circuit has no memory elements.
//  command: add_faults -all
//  command: set_fault_mode collapsed
//  command: set_fault_type stuck
//  command: read_patterns /home/animesh/currentResearch/ISI/atpg_structural/code/dumpData/tessent/iscas89/s9234_synth/seventyPercent/s9234_synth_seventyPercent_18.spf
//  Reading STIL input file "/home/animesh/currentResearch/ISI/atpg_structural/code/dumpData/tessent/iscas89/s9234_synth/seventyPercent/s9234_synth_seventyPercent_18.spf"
//  command: simulate_patterns > /home/animesh/currentResearch/ISI/atpg_structural/code/dumpData/tessent/iscas89/s9234_synth/bin_3/simulateLogFile_s9234_synth_fiftyPercent_31_s9234_synth_seventyPercent_18.atpg.result
//  command: exit 
