          Statistics Report          
           Stuck-at Faults           
-------------------------------------
Fault Classes              #faults   
                           (coll.)   
---------------------  --------------
  FU (full)                  914     
  -------------------  --------------
  DS (det_simulation)    701 (76.70%)
  TI (tied)                4 ( 0.44%)
  RE (redundant)         209 (22.87%)
-------------------------------------
Coverage                             
  -------------------                
  test_coverage              100.00% 
  fault_coverage              76.70% 
  atpg_effectiveness         100.00% 
-------------------------------------
#test_patterns                    56 
#simulated_patterns               71 
CPU_time (secs)                  1.5 
-------------------------------------

