          Statistics Report          
           Stuck-at Faults           
-------------------------------------
Fault Classes              #faults   
                           (coll.)   
---------------------  --------------
  FU (full)                 9584     
  -------------------  --------------
  DS (det_simulation)   7795 (81.33%)
  UU (unused)             22 ( 0.23%)
  TI (tied)              186 ( 1.94%)
  BL (blocked)           120 ( 1.25%)
  RE (redundant)        1461 (15.24%)
-------------------------------------
Coverage                             
  -------------------                
  test_coverage              100.00% 
  fault_coverage              81.33% 
  atpg_effectiveness         100.00% 
-------------------------------------
#test_patterns                   116 
#simulated_patterns              117 
CPU_time (secs)                  2.7 
-------------------------------------

