          Statistics Report          
           Stuck-at Faults           
-------------------------------------
Fault Classes              #faults   
                           (coll.)   
---------------------  --------------
  FU (full)                 9584     
  -------------------  --------------
  DS (det_simulation)   7562 (78.90%)
  UU (unused)             22 ( 0.23%)
  TI (tied)              191 ( 1.99%)
  BL (blocked)            67 ( 0.70%)
  RE (redundant)        1742 (18.18%)
-------------------------------------
Coverage                             
  -------------------                
  test_coverage              100.00% 
  fault_coverage              78.90% 
  atpg_effectiveness         100.00% 
-------------------------------------
#test_patterns                   113 
#simulated_patterns              117 
CPU_time (secs)                  2.7 
-------------------------------------

