	*******************************************************
	*                                                     *
	*          Welcome to atalanta (version 2.0)          *
	*                                                     *
	*               Dong S. Ha (ha@vt.edu)                *
	*            Web: http://www.ee.vt.edu/ha             *
	*  Virginia Polytechnic Institute & State University  *
	*                                                     *
	*******************************************************

******   SUMMARY OF TEST PATTERN GENERATION RESULTS   ******
1. Circuit structure
   Name of the circuit                       : s5378
   Number of primary inputs                  : 214
   Number of primary outputs                 : 213
   Number of gates                           : 2836
   Level of the circuit                      : 25

2. ATPG parameters
   Test pattern generation mode              : RPT + DTPG + TC
   Limit of random patterns (packets)        : 16
   Backtrack limit                           : 10
   Initial random number generator seed      : 1554980601
   Test pattern compaction mode              : REVERSE + SHUFFLE 
   Limit of suffling compaction              : 2
   Number of shuffles                        : 9

3. Test pattern generation results
   Number of test patterns before compaction : 221
   Number of test patterns after compaction  : 110
   Fault coverage                            : 55.570 %
   Number of collapsed faults                : 4551
   Number of identified redundant faults     : 1952
   Number of aborted faults                  : 70
   Total number of backtrackings             : 3331

4. Memory used                               : 41467 Kbytes

5. CPU time
   Initialization                            : 0.000 secs
   Fault simulation                          : 0.067 secs
   FAN                                       : 0.267 secs
   Total                                     : 0.333 secs
