	*******************************************************
	*                                                     *
	*            Welcome to HOPE (version 2.0)            *
	*                                                     *
	*               Dong S. Ha (ha@vt.edu)                *
	*            Web: http://www.ee.vt.edu/ha             *
	*  Virginia Polytechnic Institute & State University  *
	*                                                     *
	*******************************************************

******   SUMMARY OF SIMULATION RESULTS   ******
1. Circuit structure
   Name of circuit                           : s5378
   Number of primary inputs                  : 214
   Number of primary outputs                 : 213
   Number of flip-flops                      : 0
   Number of gates                           : 2836
   Level of the circuit                      : 25

2. Simulator input parameters
   Simulation mode                           : file (/home/animesh/currentResearch/ISI/atpg_structural/code/testData/atalanta/tests/iscas89/s5378.test)

3. Simulation results
   Number of test patterns applied           : 253
   Fault coverage                            : 47.286 %
   Number of collapsed faults                : 4551
   Number of detected faults                 : 2152
   Number of undetected faults               : 2399

4. Memory used                               : 36413 Kbytes

5. CPU time
   Initialization                            : 0.000 secs
   Fault simulation                          : 0.067 secs
   Total                                     : 0.067 secs
