          Statistics Report          
           Stuck-at Faults           
-------------------------------------
Fault Classes              #faults   
                           (coll.)   
---------------------  --------------
  FU (full)                  582     
  -------------------  --------------
  DS (det_simulation)    538 (92.44%)
  TI (tied)                3 ( 0.52%)
  RE (redundant)          41 ( 7.04%)
-------------------------------------
Coverage                             
  -------------------                
  test_coverage              100.00% 
  fault_coverage              92.44% 
  atpg_effectiveness         100.00% 
-------------------------------------
#test_patterns                    47 
#simulated_patterns               56 
CPU_time (secs)                  1.5 
-------------------------------------

