          Statistics Report          
           Stuck-at Faults           
-------------------------------------
Fault Classes              #faults   
                           (coll.)   
---------------------  --------------
  FU (full)                  582     
  -------------------  --------------
  DS (det_simulation)    541 (92.96%)
  TI (tied)                3 ( 0.52%)
  RE (redundant)          38 ( 6.53%)
-------------------------------------
Coverage                             
  -------------------                
  test_coverage              100.00% 
  fault_coverage              92.96% 
  atpg_effectiveness         100.00% 
-------------------------------------
#test_patterns                    50 
#simulated_patterns               57 
CPU_time (secs)                  1.5 
-------------------------------------

