           Statistics Report          
            Stuck-at Faults           
--------------------------------------
Fault Classes               #faults   
                            (coll.)   
----------------------  --------------
  FU (full)                  15054    
  --------------------  --------------
  UO (unobserved)           1 ( 0.01%)
  DS (det_simulation)    7051 (46.84%)
  UU (unused)               4 ( 0.03%)
  TI (tied)               977 ( 6.49%)
  BL (blocked)           2018 (13.41%)
  RE (redundant)         4970 (33.01%)
  AU (atpg_untestable)     33 ( 0.22%)
--------------------------------------
Fault Sub-classes                     
  --------------------                
  UC+UO                               
    AAB  (atpg_abort)       1 ( 0.01%)
--------------------------------------
Coverage                              
  --------------------                
  test_coverage                99.52% 
  fault_coverage               46.84% 
  atpg_effectiveness           99.99% 
--------------------------------------
#test_patterns                    180 
#simulated_patterns               204 
CPU_time (secs)                   6.2 
--------------------------------------

