//  command: set_current_design top 
//  Warning: 1 case: Unused net in DFT library model
//  Note: Issue set_current_design with the -show_elaboration_warnings option to see more details about previous warnings
//  command: set_system_mode analysis
//  Flattening process completed,  design_cells=719  leaf_cells=719  library_primitives=719  sim_gates=760  PIs=10  POs=11  CPU time=0.00 sec.
//  ---------------------------------------------------------------------------
//  Begin circuit learning analyses.
//  --------------------------------
//  Learning completed, CPU time=0.01 sec.
//  ---------------------------------------------------------------------------
//  Begin scan chain identification process, memory elements = 0.
//  ---------------------------------------------------------------------------
//  Circuit has no memory elements.
//  command: add_faults -all
//  command: set_fault_mode collapsed
//  command: set_fault_type stuck
//  command: read_patterns /home/animesh/currentResearch/ISI/atpg_structural/code/dumpData/tessent/epfl/random_control/cavlc_synth/fiftyPercent/cavlc_synth_fiftyPercent_39.spf
//  Reading STIL input file "/home/animesh/currentResearch/ISI/atpg_structural/code/dumpData/tessent/epfl/random_control/cavlc_synth/fiftyPercent/cavlc_synth_fiftyPercent_39.spf"
//  command: simulate_patterns > /home/animesh/currentResearch/ISI/atpg_structural/code/dumpData/tessent/epfl/random_control/cavlc_synth/bin_3/simulateLogFile_cavlc_synth_thirtyPercent_28_cavlc_synth_fiftyPercent_39.atpg.result
//  command: exit 
