// | ------------------------------------------------------------------------------------------------------------------ |
// |                                                                                                                    |
// |          Current split capture setting:     Off (optimal)                                                          |
// |                                                                                                                    |
// |   Current clock off simulation setting:     Off (optimal)                                                          |
// | ------------------------------------------------------------------------------------------------------------------ |
//  ------------------------------------------------------------------------
//  Simulation performed for #gates = 12864  #faults = 25984
//  Run fault simulation without storing patterns.  pattern source = 939 external patterns
//  ------------------------------------------------------------------------
//  #patterns  test      #faults  #faults    # eff.    # test         process 
//  simulated  coverage  in list  detected   patterns  patterns       CPU time
//   64         15.02%    22081      3903       64         0          0.13 sec
//   128        16.80%    21619       462       62         0          0.20 sec
//   192        17.61%    21409       210       48         0          0.26 sec
//   256        18.30%    21230       179       48         0          0.32 sec
//   320        18.74%    21114       116       40         0          0.38 sec
//   384        19.08%    21025        89       34         0          0.44 sec
//   448        19.33%    20962        63       30         0          0.49 sec
//   512        19.55%    20903        59       27         0          0.55 sec
//   576        19.75%    20851        52       24         0          0.60 sec
//   640        19.87%    20820        31       16         0          0.66 sec
//   704        20.01%    20785        35       17         0          0.71 sec
//   768        20.12%    20755        30       16         0          0.76 sec
//   832        20.19%    20739        16       10         0          0.82 sec
//   896        20.24%    20725        14        9         0          0.87 sec
//   939        20.30%    20708        17        9         0          0.92 sec
