// | ------------------------------------------------------------------------------------------------------------------ |
// |                                                                                                                    |
// |          Current split capture setting:     Off (optimal)                                                          |
// |                                                                                                                    |
// |   Current clock off simulation setting:     Off (optimal)                                                          |
// | ------------------------------------------------------------------------------------------------------------------ |
//  ------------------------------------------------------------------------
//  Simulation performed for #gates = 12864  #faults = 25984
//  Run fault simulation without storing patterns.  pattern source = 1014 external patterns
//  ------------------------------------------------------------------------
//  #patterns  test      #faults  #faults    # eff.    # test         process 
//  simulated  coverage  in list  detected   patterns  patterns       CPU time
//   64         13.64%    22440      3544       63         0          0.11 sec
//   128        15.26%    22019       421       58         0          0.18 sec
//   192        16.07%    21808       211       43         0          0.24 sec
//   256        16.58%    21677       131       32         0          0.30 sec
//   320        16.90%    21593        84       38         0          0.36 sec
//   384        17.21%    21512        81       30         0          0.42 sec
//   448        17.38%    21468        44       17         0          0.48 sec
//   512        17.56%    21420        48       26         0          0.53 sec
//   576        17.70%    21386        34       16         0          0.59 sec
//   640        17.83%    21351        35       18         0          0.65 sec
//   704        17.96%    21318        33       14         0          0.71 sec
//   768        18.06%    21292        26       14         0          0.76 sec
//   832        18.15%    21268        24       13         0          0.82 sec
//   896        18.24%    21244        24       12         0          0.88 sec
//   960        18.32%    21224        20       11         0          0.93 sec
//   1014       18.35%    21216         8        6         0          0.99 sec
