// | ------------------------------------------------------------------------------------------------------------------ |
// |                                                                                                                    |
// |          Current split capture setting:     Off (optimal)                                                          |
// |                                                                                                                    |
// |   Current clock off simulation setting:     Off (optimal)                                                          |
// | ------------------------------------------------------------------------------------------------------------------ |
//  ------------------------------------------------------------------------
//  Simulation performed for #gates = 12864  #faults = 25984
//  Run fault simulation without storing patterns.  pattern source = 1040 external patterns
//  ------------------------------------------------------------------------
//  #patterns  test      #faults  #faults    # eff.    # test         process 
//  simulated  coverage  in list  detected   patterns  patterns       CPU time
//   64         13.06%    22591      3393       61         0          0.11 sec
//   128        14.67%    22173       418       53         0          0.17 sec
//   192        15.33%    22001       172       45         0          0.24 sec
//   256        15.93%    21846       155       40         0          0.30 sec
//   320        16.35%    21736       110       32         0          0.35 sec
//   384        16.56%    21681        55       23         0          0.41 sec
//   448        16.83%    21612        69       28         0          0.47 sec
//   512        17.06%    21552        60       27         0          0.52 sec
//   576        17.25%    21502        50       24         0          0.58 sec
//   640        17.33%    21480        22       14         0          0.63 sec
//   704        17.46%    21446        34       15         0          0.69 sec
//   768        17.70%    21384        62       21         0          0.74 sec
//   832        17.83%    21352        32       12         0          0.80 sec
//   896        17.89%    21336        16       11         0          0.85 sec
//   960        17.97%    21314        22        9         0          0.91 sec
//   1024       18.02%    21302        12       10         0          0.96 sec
//   1040       18.03%    21300         2        2         0          1.01 sec
