// | ------------------------------------------------------------------------------------------------------------------ |
// |                                                                                                                    |
// |          Current split capture setting:     Off (optimal)                                                          |
// |                                                                                                                    |
// |   Current clock off simulation setting:     Off (optimal)                                                          |
// | ------------------------------------------------------------------------------------------------------------------ |
//  ------------------------------------------------------------------------
//  Simulation performed for #gates = 12864  #faults = 25984
//  Run fault simulation without storing patterns.  pattern source = 1119 external patterns
//  ------------------------------------------------------------------------
//  #patterns  test      #faults  #faults    # eff.    # test         process 
//  simulated  coverage  in list  detected   patterns  patterns       CPU time
//   64         12.72%    22679      3305       61         0          0.11 sec
//   128        14.49%    22218       461       56         0          0.18 sec
//   192        15.25%    22022       196       44         0          0.24 sec
//   256        15.75%    21892       130       43         0          0.30 sec
//   320        16.06%    21812        80       29         0          0.36 sec
//   384        16.39%    21725        87       26         0          0.42 sec
//   448        16.76%    21630        95       36         0          0.48 sec
//   512        17.03%    21558        72       29         0          0.53 sec
//   576        17.18%    21519        39       19         0          0.59 sec
//   640        17.35%    21476        43       14         0          0.65 sec
//   704        17.50%    21437        39       21         0          0.70 sec
//   768        17.69%    21387        50       22         0          0.76 sec
//   832        17.76%    21368        19       11         0          0.81 sec
//   896        17.96%    21317        51       21         0          0.87 sec
//   960        18.07%    21288        29       11         0          0.92 sec
//   1024       18.10%    21281         7        4         0          0.98 sec
//   1088       18.13%    21273         8        6         0          1.03 sec
//   1119       18.14%    21271         2        2         0          1.08 sec
