// | ------------------------------------------------------------------------------------------------------------------ |
// |                                                                                                                    |
// |          Current split capture setting:     Off (optimal)                                                          |
// |                                                                                                                    |
// |   Current clock off simulation setting:     Off (optimal)                                                          |
// | ------------------------------------------------------------------------------------------------------------------ |
//  ------------------------------------------------------------------------
//  Simulation performed for #gates = 12864  #faults = 25984
//  Run fault simulation without storing patterns.  pattern source = 1005 external patterns
//  ------------------------------------------------------------------------
//  #patterns  test      #faults  #faults    # eff.    # test         process 
//  simulated  coverage  in list  detected   patterns  patterns       CPU time
//   64         15.06%    22070      3914       64         0          0.13 sec
//   128        17.05%    21553       517       62         0          0.20 sec
//   192        17.81%    21357       196       48         0          0.26 sec
//   256        18.42%    21198       159       45         0          0.33 sec
//   320        18.72%    21120        78       37         0          0.39 sec
//   384        19.04%    21037        83       30         0          0.44 sec
//   448        19.33%    20960        77       34         0          0.50 sec
//   512        19.55%    20903        57       26         0          0.56 sec
//   576        19.69%    20869        34       21         0          0.62 sec
//   640        19.85%    20826        43       20         0          0.68 sec
//   704        20.03%    20779        47       19         0          0.73 sec
//   768        20.21%    20732        47       16         0          0.79 sec
//   832        20.36%    20693        39       17         0          0.85 sec
//   896        20.43%    20676        17        8         0          0.91 sec
//   960        20.51%    20654        22       14         0          0.96 sec
//   1005       20.56%    20641        13        6         0          1.02 sec
