// | ------------------------------------------------------------------------------------------------------------------ |
// |                                                                                                                    |
// |          Current split capture setting:     Off (optimal)                                                          |
// |                                                                                                                    |
// |   Current clock off simulation setting:     Off (optimal)                                                          |
// | ------------------------------------------------------------------------------------------------------------------ |
//  ------------------------------------------------------------------------
//  Simulation performed for #gates = 12864  #faults = 25984
//  Run fault simulation without storing patterns.  pattern source = 939 external patterns
//  ------------------------------------------------------------------------
//  #patterns  test      #faults  #faults    # eff.    # test         process 
//  simulated  coverage  in list  detected   patterns  patterns       CPU time
//   64         15.65%    21918      4066       64         0          0.13 sec
//   128        17.48%    21443       475       62         0          0.20 sec
//   192        18.27%    21238       205       53         0          0.26 sec
//   256        18.84%    21089       149       39         0          0.32 sec
//   320        19.27%    20977       112       41         0          0.37 sec
//   384        19.62%    20886        91       35         0          0.43 sec
//   448        19.89%    20816        70       28         0          0.48 sec
//   512        20.09%    20763        53       24         0          0.54 sec
//   576        20.29%    20712        51       21         0          0.59 sec
//   640        20.45%    20671        41       20         0          0.65 sec
//   704        20.55%    20644        27       16         0          0.70 sec
//   768        20.66%    20615        29       15         0          0.75 sec
//   832        20.73%    20597        18       12         0          0.81 sec
//   896        20.77%    20587        10        6         0          0.86 sec
//   939        20.80%    20579         8        7         0          0.91 sec
