// | ------------------------------------------------------------------------------------------------------------------ |
// |                                                                                                                    |
// |          Current split capture setting:     Off (optimal)                                                          |
// |                                                                                                                    |
// |   Current clock off simulation setting:     Off (optimal)                                                          |
// | ------------------------------------------------------------------------------------------------------------------ |
//  ------------------------------------------------------------------------
//  Simulation performed for #gates = 12864  #faults = 25984
//  Run fault simulation without storing patterns.  pattern source = 1573 external patterns
//  ------------------------------------------------------------------------
//  #patterns  test      #faults  #faults    # eff.    # test         process 
//  simulated  coverage  in list  detected   patterns  patterns       CPU time
//   64         13.49%    22480      3504       63         0          0.12 sec
//   128        15.25%    22021       459       53         0          0.19 sec
//   192        16.04%    21815       206       42         0          0.25 sec
//   256        16.69%    21648       167       44         0          0.31 sec
//   320        17.12%    21536       112       34         0          0.36 sec
//   384        17.52%    21432       104       37         0          0.42 sec
//   448        17.70%    21385        47       23         0          0.48 sec
//   512        18.04%    21297        88       31         0          0.53 sec
//   576        18.25%    21243        54       24         0          0.59 sec
//   640        18.40%    21203        40       21         0          0.64 sec
//   704        18.62%    21145        58       23         0          0.70 sec
//   768        18.76%    21110        35       18         0          0.75 sec
//   832        18.92%    21068        42       26         0          0.81 sec
//   896        19.07%    21030        38       14         0          0.86 sec
//   960        19.15%    21009        21       10         0          0.92 sec
//   1024       19.27%    20978        31       15         0          0.97 sec
//   1088       19.37%    20952        26       14         0          1.02 sec
//   1152       19.42%    20938        14        8         0          1.08 sec
//   1216       19.48%    20922        16        9         0          1.13 sec
//   1280       19.57%    20898        24        8         0          1.18 sec
//   1344       19.58%    20896         2        2         0          1.24 sec
//   1408       19.61%    20888         8        4         0          1.29 sec
//   1472       19.63%    20883         5        3         0          1.34 sec
//   1536       19.64%    20881         2        2         0          1.40 sec
