// | ------------------------------------------------------------------------------------------------------------------ |
// |                                                                                                                    |
// |          Current split capture setting:     Off (optimal)                                                          |
// |                                                                                                                    |
// |   Current clock off simulation setting:     Off (optimal)                                                          |
// | ------------------------------------------------------------------------------------------------------------------ |
//  ------------------------------------------------------------------------
//  Simulation performed for #gates = 12864  #faults = 25984
//  Run fault simulation without storing patterns.  pattern source = 1326 external patterns
//  ------------------------------------------------------------------------
//  #patterns  test      #faults  #faults    # eff.    # test         process 
//  simulated  coverage  in list  detected   patterns  patterns       CPU time
//   64         14.40%    22243      3741       64         0          0.11 sec
//   128        16.04%    21815       428       60         0          0.18 sec
//   192        16.85%    21605       210       47         0          0.24 sec
//   256        17.28%    21493       112       44         0          0.29 sec
//   320        17.71%    21383       110       41         0          0.35 sec
//   384        18.00%    21307        76       28         0          0.40 sec
//   448        18.23%    21246        61       26         0          0.46 sec
//   512        18.37%    21212        34       16         0          0.51 sec
//   576        18.52%    21171        41       21         0          0.57 sec
//   640        18.67%    21133        38       22         0          0.62 sec
//   704        18.78%    21105        28       16         0          0.68 sec
//   768        18.85%    21085        20       11         0          0.73 sec
//   832        18.94%    21062        23       19         0          0.78 sec
//   896        19.00%    21048        14       11         0          0.84 sec
//   960        19.06%    21031        17        9         0          0.89 sec
//   1024       19.13%    21012        19       12         0          0.95 sec
//   1088       19.20%    20995        17        8         0          1.00 sec
//   1152       19.24%    20985        10        6         0          1.05 sec
//   1216       19.29%    20972        13        8         0          1.11 sec
//   1280       19.33%    20960        12        9         0          1.16 sec
//   1326       19.40%    20944        16        7         0          1.21 sec
