// | ------------------------------------------------------------------------------------------------------------------ |
// |                                                                                                                    |
// |          Current split capture setting:     Off (optimal)                                                          |
// |                                                                                                                    |
// |   Current clock off simulation setting:     Off (optimal)                                                          |
// | ------------------------------------------------------------------------------------------------------------------ |
//  ------------------------------------------------------------------------
//  Simulation performed for #gates = 12864  #faults = 25984
//  Run fault simulation without storing patterns.  pattern source = 1320 external patterns
//  ------------------------------------------------------------------------
//  #patterns  test      #faults  #faults    # eff.    # test         process 
//  simulated  coverage  in list  detected   patterns  patterns       CPU time
//   64         15.29%    22011      3973       63         0          0.13 sec
//   128        16.99%    21569       442       57         0          0.20 sec
//   192        18.03%    21298       271       52         0          0.26 sec
//   256        18.63%    21143       155       44         0          0.32 sec
//   320        19.13%    21012       131       44         0          0.38 sec
//   384        19.59%    20895       117       43         0          0.44 sec
//   448        19.81%    20836        59       29         0          0.49 sec
//   512        20.07%    20769        67       27         0          0.55 sec
//   576        20.23%    20728        41       21         0          0.60 sec
//   640        20.35%    20695        33       18         0          0.66 sec
//   704        20.47%    20664        31       15         0          0.72 sec
//   768        20.58%    20636        28       14         0          0.77 sec
//   832        20.70%    20606        30       20         0          0.82 sec
//   896        20.81%    20576        30       15         0          0.88 sec
//   960        20.92%    20549        27       20         0          0.93 sec
//   1024       21.04%    20516        33       18         0          0.98 sec
//   1088       21.11%    20499        17       12         0          1.04 sec
//   1152       21.18%    20480        19       10         0          1.09 sec
//   1216       21.26%    20461        19       10         0          1.14 sec
//   1280       21.32%    20444        17       11         0          1.19 sec
//   1320       21.35%    20437         7        4         0          1.24 sec
