// | ------------------------------------------------------------------------------------------------------------------ |
// |                                                                                                                    |
// |          Current split capture setting:     Off (optimal)                                                          |
// |                                                                                                                    |
// |   Current clock off simulation setting:     Off (optimal)                                                          |
// | ------------------------------------------------------------------------------------------------------------------ |
//  ------------------------------------------------------------------------
//  Simulation performed for #gates = 12864  #faults = 25984
//  Run fault simulation without storing patterns.  pattern source = 1517 external patterns
//  ------------------------------------------------------------------------
//  #patterns  test      #faults  #faults    # eff.    # test         process 
//  simulated  coverage  in list  detected   patterns  patterns       CPU time
//   64         15.92%    21847      4137       62         0          0.13 sec
//   128        17.51%    21434       413       59         0          0.20 sec
//   192        18.35%    21217       217       51         0          0.26 sec
//   256        18.79%    21102       115       41         0          0.32 sec
//   320        19.19%    20998       104       38         0          0.38 sec
//   384        19.40%    20942        56       27         0          0.43 sec
//   448        19.74%    20856        86       30         0          0.49 sec
//   512        19.91%    20811        45       24         0          0.55 sec
//   576        20.09%    20764        47       22         0          0.60 sec
//   640        20.29%    20713        51       20         0          0.66 sec
//   704        20.44%    20674        39       17         0          0.71 sec
//   768        20.54%    20647        27       17         0          0.77 sec
//   832        20.73%    20597        50       21         0          0.82 sec
//   896        20.81%    20577        20        9         0          0.88 sec
//   960        20.86%    20563        14       10         0          0.93 sec
//   1024       20.93%    20546        17        8         0          0.99 sec
//   1088       21.01%    20525        21        9         0          1.04 sec
//   1152       21.04%    20518         7        3         0          1.10 sec
//   1216       21.07%    20509         9        6         0          1.15 sec
//   1280       21.11%    20500         9        5         0          1.21 sec
//   1344       21.14%    20491         9        7         0          1.26 sec
//   1408       21.17%    20484         7        4         0          1.31 sec
//   1472       21.20%    20476         8        5         0          1.37 sec
//   1517       21.25%    20462        14        4         0          1.42 sec
