// | ------------------------------------------------------------------------------------------------------------------ |
// |                                                                                                                    |
// |          Current split capture setting:     Off (optimal)                                                          |
// |                                                                                                                    |
// |   Current clock off simulation setting:     Off (optimal)                                                          |
// | ------------------------------------------------------------------------------------------------------------------ |
//  ------------------------------------------------------------------------
//  Simulation performed for #gates = 12864  #faults = 25984
//  Run fault simulation without storing patterns.  pattern source = 1012 external patterns
//  ------------------------------------------------------------------------
//  #patterns  test      #faults  #faults    # eff.    # test         process 
//  simulated  coverage  in list  detected   patterns  patterns       CPU time
//   64         14.42%    22236      3748       64         0          0.13 sec
//   128        16.57%    21678       558       59         0          0.20 sec
//   192        17.72%    21380       298       56         0          0.26 sec
//   256        18.28%    21233       147       41         0          0.32 sec
//   320        18.66%    21136        97       32         0          0.38 sec
//   384        18.93%    21065        71       30         0          0.43 sec
//   448        19.23%    20986        79       32         0          0.49 sec
//   512        19.51%    20914        72       28         0          0.55 sec
//   576        19.62%    20885        29       14         0          0.60 sec
//   640        19.82%    20833        52       22         0          0.66 sec
//   704        19.96%    20797        36       20         0          0.71 sec
//   768        20.11%    20758        39       18         0          0.77 sec
//   832        20.26%    20719        39       19         0          0.82 sec
//   896        20.40%    20682        37       16         0          0.87 sec
//   960        20.45%    20669        13        7         0          0.93 sec
//   1012       20.53%    20650        19       10         0          0.98 sec
