// | ------------------------------------------------------------------------------------------------------------------ |
// |                                                                                                                    |
// |          Current split capture setting:     Off (optimal)                                                          |
// |                                                                                                                    |
// |   Current clock off simulation setting:     Off (optimal)                                                          |
// | ------------------------------------------------------------------------------------------------------------------ |
//  ------------------------------------------------------------------------
//  Simulation performed for #gates = 12864  #faults = 25984
//  Run fault simulation without storing patterns.  pattern source = 1337 external patterns
//  ------------------------------------------------------------------------
//  #patterns  test      #faults  #faults    # eff.    # test         process 
//  simulated  coverage  in list  detected   patterns  patterns       CPU time
//   64         15.31%    22007      3977       64         0          0.13 sec
//   128        17.20%    21514       493       59         0          0.20 sec
//   192        18.09%    21284       230       56         0          0.26 sec
//   256        18.71%    21123       161       47         0          0.32 sec
//   320        19.17%    21004       119       39         0          0.38 sec
//   384        19.53%    20909        95       37         0          0.44 sec
//   448        19.74%    20855        54       25         0          0.49 sec
//   512        19.97%    20796        59       24         0          0.55 sec
//   576        20.20%    20734        62       29         0          0.61 sec
//   640        20.39%    20685        49       21         0          0.66 sec
//   704        20.56%    20641        44       21         0          0.71 sec
//   768        20.72%    20600        41       17         0          0.77 sec
//   832        20.86%    20565        35       18         0          0.82 sec
//   896        20.96%    20539        26       14         0          0.88 sec
//   960        21.09%    20505        34       14         0          0.93 sec
//   1024       21.27%    20458        47       16         0          0.99 sec
//   1088       21.31%    20447        11        9         0          1.04 sec
//   1152       21.36%    20435        12        5         0          1.09 sec
//   1216       21.42%    20419        16        9         0          1.14 sec
//   1280       21.45%    20411         8        6         0          1.20 sec
//   1337       21.47%    20404         7        5         0          1.25 sec
