// | ------------------------------------------------------------------------------------------------------------------ |
// |                                                                                                                    |
// |          Current split capture setting:     Off (optimal)                                                          |
// |                                                                                                                    |
// |   Current clock off simulation setting:     Off (optimal)                                                          |
// | ------------------------------------------------------------------------------------------------------------------ |
//  ------------------------------------------------------------------------
//  Simulation performed for #gates = 12864  #faults = 25984
//  Run fault simulation without storing patterns.  pattern source = 1246 external patterns
//  ------------------------------------------------------------------------
//  #patterns  test      #faults  #faults    # eff.    # test         process 
//  simulated  coverage  in list  detected   patterns  patterns       CPU time
//   64         15.75%    21891      4093       64         0          0.13 sec
//   128        17.89%    21335       556       61         0          0.20 sec
//   192        18.79%    21101       234       48         0          0.26 sec
//   256        19.46%    20927       174       44         0          0.31 sec
//   320        19.94%    20802       125       42         0          0.37 sec
//   384        20.25%    20723        79       33         0          0.43 sec
//   448        20.51%    20655        68       29         0          0.48 sec
//   512        20.71%    20602        53       28         0          0.54 sec
//   576        20.88%    20558        44       22         0          0.59 sec
//   640        21.03%    20519        39       13         0          0.65 sec
//   704        21.16%    20486        33       18         0          0.70 sec
//   768        21.29%    20452        34       20         0          0.76 sec
//   832        21.37%    20432        20       14         0          0.81 sec
//   896        21.49%    20401        31       17         0          0.86 sec
//   960        21.58%    20376        25       14         0          0.91 sec
//   1024       21.67%    20354        22       13         0          0.97 sec
//   1088       21.72%    20340        14        8         0          1.02 sec
//   1152       21.80%    20319        21       10         0          1.07 sec
//   1216       21.85%    20306        13        8         0          1.13 sec
//   1246       21.87%    20301         5        3         0          1.18 sec
