// | ------------------------------------------------------------------------------------------------------------------ |
// |                                                                                                                    |
// |          Current split capture setting:     Off (optimal)                                                          |
// |                                                                                                                    |
// |   Current clock off simulation setting:     Off (optimal)                                                          |
// | ------------------------------------------------------------------------------------------------------------------ |
//  ------------------------------------------------------------------------
//  Simulation performed for #gates = 12864  #faults = 25984
//  Run fault simulation without storing patterns.  pattern source = 1182 external patterns
//  ------------------------------------------------------------------------
//  #patterns  test      #faults  #faults    # eff.    # test         process 
//  simulated  coverage  in list  detected   patterns  patterns       CPU time
//   64         14.75%    22151      3833       64         0          0.13 sec
//   128        16.79%    21621       530       60         0          0.20 sec
//   192        17.70%    21386       235       49         0          0.26 sec
//   256        18.41%    21200       186       50         0          0.32 sec
//   320        18.73%    21118        82       36         0          0.38 sec
//   384        18.97%    21056        62       24         0          0.44 sec
//   448        19.17%    21002        54       23         0          0.49 sec
//   512        19.35%    20955        47       22         0          0.55 sec
//   576        19.50%    20918        37       20         0          0.61 sec
//   640        19.65%    20878        40       20         0          0.66 sec
//   704        19.80%    20840        38       18         0          0.72 sec
//   768        19.92%    20809        31       15         0          0.78 sec
//   832        19.99%    20791        18       12         0          0.83 sec
//   896        20.08%    20767        24       16         0          0.89 sec
//   960        20.17%    20744        23        8         0          0.94 sec
//   1024       20.29%    20712        32       13         0          0.99 sec
//   1088       20.35%    20695        17        8         0          1.05 sec
//   1152       20.42%    20678        17        9         0          1.10 sec
//   1182       20.42%    20677         1        1         0          1.15 sec
