// | ------------------------------------------------------------------------------------------------------------------ |
// |                                                                                                                    |
// |          Current split capture setting:     Off (optimal)                                                          |
// |                                                                                                                    |
// |   Current clock off simulation setting:     Off (optimal)                                                          |
// | ------------------------------------------------------------------------------------------------------------------ |
//  ------------------------------------------------------------------------
//  Simulation performed for #gates = 12864  #faults = 25984
//  Run fault simulation without storing patterns.  pattern source = 1078 external patterns
//  ------------------------------------------------------------------------
//  #patterns  test      #faults  #faults    # eff.    # test         process 
//  simulated  coverage  in list  detected   patterns  patterns       CPU time
//   64         14.14%    22311      3673       63         0          0.13 sec
//   128        15.78%    21884       427       56         0          0.19 sec
//   192        16.56%    21682       202       49         0          0.26 sec
//   256        17.25%    21502       180       45         0          0.32 sec
//   320        17.61%    21408        94       29         0          0.38 sec
//   384        17.91%    21330        78       28         0          0.44 sec
//   448        18.18%    21261        69       23         0          0.50 sec
//   512        18.47%    21186        75       24         0          0.55 sec
//   576        18.68%    21129        57       28         0          0.61 sec
//   640        18.80%    21098        31       14         0          0.67 sec
//   704        19.10%    21022        76       25         0          0.73 sec
//   768        19.36%    20953        69       24         0          0.79 sec
//   832        19.51%    20915        38       15         0          0.84 sec
//   896        19.65%    20877        38       23         0          0.90 sec
//   960        19.74%    20855        22       12         0          0.96 sec
//   1024       19.82%    20834        21        8         0          1.01 sec
//   1078       19.89%    20817        17        8         0          1.06 sec
