// | ------------------------------------------------------------------------------------------------------------------ |
// |                                                                                                                    |
// |          Current split capture setting:     Off (optimal)                                                          |
// |                                                                                                                    |
// |   Current clock off simulation setting:     Off (optimal)                                                          |
// | ------------------------------------------------------------------------------------------------------------------ |
//  ------------------------------------------------------------------------
//  Simulation performed for #gates = 12864  #faults = 25984
//  Run fault simulation without storing patterns.  pattern source = 1320 external patterns
//  ------------------------------------------------------------------------
//  #patterns  test      #faults  #faults    # eff.    # test         process 
//  simulated  coverage  in list  detected   patterns  patterns       CPU time
//   64         14.10%    22320      3664       64         0          0.13 sec
//   128        15.63%    21923       397       54         0          0.19 sec
//   192        16.49%    21700       223       48         0          0.26 sec
//   256        17.19%    21518       182       43         0          0.32 sec
//   320        17.53%    21429        89       32         0          0.38 sec
//   384        17.70%    21386        43       20         0          0.43 sec
//   448        18.01%    21304        82       31         0          0.49 sec
//   512        18.20%    21256        48       16         0          0.55 sec
//   576        18.37%    21212        44       20         0          0.60 sec
//   640        18.63%    21142        70       28         0          0.66 sec
//   704        18.87%    21080        62       19         0          0.72 sec
//   768        19.01%    21045        35       22         0          0.78 sec
//   832        19.20%    20994        51       22         0          0.83 sec
//   896        19.39%    20946        48       22         0          0.89 sec
//   960        19.59%    20895        51       22         0          0.94 sec
//   1024       19.67%    20873        22        8         0          1.00 sec
//   1088       19.71%    20863        10        8         0          1.05 sec
//   1152       19.76%    20850        13        8         0          1.11 sec
//   1216       19.80%    20838        12        6         0          1.16 sec
//   1280       19.83%    20832         6        5         0          1.21 sec
//   1320       19.85%    20825         7        3         0          1.26 sec
