// | ------------------------------------------------------------------------------------------------------------------ |
// |                                                                                                                    |
// |          Current split capture setting:     Off (optimal)                                                          |
// |                                                                                                                    |
// |   Current clock off simulation setting:     Off (optimal)                                                          |
// | ------------------------------------------------------------------------------------------------------------------ |
//  ------------------------------------------------------------------------
//  Simulation performed for #gates = 12864  #faults = 25984
//  Run fault simulation without storing patterns.  pattern source = 1378 external patterns
//  ------------------------------------------------------------------------
//  #patterns  test      #faults  #faults    # eff.    # test         process 
//  simulated  coverage  in list  detected   patterns  patterns       CPU time
//   64         15.40%    21982      4002       64         0          0.13 sec
//   128        17.50%    21436       546       61         0          0.19 sec
//   192        18.56%    21161       275       57         0          0.25 sec
//   256        19.34%    20958       203       47         0          0.31 sec
//   320        19.81%    20836       122       43         0          0.37 sec
//   384        20.09%    20765        71       28         0          0.43 sec
//   448        20.31%    20706        59       23         0          0.48 sec
//   512        20.52%    20653        53       20         0          0.54 sec
//   576        20.79%    20581        72       22         0          0.59 sec
//   640        20.92%    20547        34       20         0          0.64 sec
//   704        21.04%    20516        31       18         0          0.70 sec
//   768        21.14%    20490        26       14         0          0.75 sec
//   832        21.32%    20445        45       21         0          0.80 sec
//   896        21.41%    20420        25       14         0          0.86 sec
//   960        21.46%    20409        11        8         0          0.91 sec
//   1024       21.57%    20379        30       16         0          0.96 sec
//   1088       21.66%    20357        22        8         0          1.01 sec
//   1152       21.69%    20348         9        8         0          1.06 sec
//   1216       21.72%    20339         9        7         0          1.12 sec
//   1280       21.76%    20329        10        7         0          1.17 sec
//   1344       21.81%    20317        12        7         0          1.22 sec
//   1378       21.81%    20316         1        1         0          1.27 sec
