// | ------------------------------------------------------------------------------------------------------------------ |
// |                                                                                                                    |
// |          Current split capture setting:     Off (optimal)                                                          |
// |                                                                                                                    |
// |   Current clock off simulation setting:     Off (optimal)                                                          |
// | ------------------------------------------------------------------------------------------------------------------ |
//  ------------------------------------------------------------------------
//  Simulation performed for #gates = 12864  #faults = 25984
//  Run fault simulation without storing patterns.  pattern source = 1364 external patterns
//  ------------------------------------------------------------------------
//  #patterns  test      #faults  #faults    # eff.    # test         process 
//  simulated  coverage  in list  detected   patterns  patterns       CPU time
//   64         15.61%    21928      4056       64         0          0.13 sec
//   128        17.42%    21458       470       62         0          0.20 sec
//   192        18.56%    21162       296       54         0          0.27 sec
//   256        19.28%    20974       188       50         0          0.33 sec
//   320        19.74%    20856       118       43         0          0.38 sec
//   384        19.96%    20798        58       31         0          0.44 sec
//   448        20.17%    20742        56       26         0          0.50 sec
//   512        20.39%    20686        56       28         0          0.56 sec
//   576        20.54%    20646        40       26         0          0.61 sec
//   640        20.69%    20608        38       21         0          0.67 sec
//   704        20.79%    20581        27       16         0          0.73 sec
//   768        20.87%    20562        19       11         0          0.78 sec
//   832        20.98%    20533        29       15         0          0.84 sec
//   896        21.02%    20522        11        7         0          0.90 sec
//   960        21.12%    20496        26       13         0          0.95 sec
//   1024       21.22%    20471        25       11         0          1.01 sec
//   1088       21.27%    20456        15       11         0          1.06 sec
//   1152       21.33%    20442        14        9         0          1.12 sec
//   1216       21.37%    20432        10        6         0          1.18 sec
//   1280       21.44%    20412        20        9         0          1.23 sec
//   1344       21.50%    20397        15       10         0          1.29 sec
//   1364       21.52%    20391         6        3         0          1.34 sec
