// | ------------------------------------------------------------------------------------------------------------------ |
// |                                                                                                                    |
// |          Current split capture setting:     Off (optimal)                                                          |
// |                                                                                                                    |
// |   Current clock off simulation setting:     Off (optimal)                                                          |
// | ------------------------------------------------------------------------------------------------------------------ |
//  ------------------------------------------------------------------------
//  Simulation performed for #gates = 12864  #faults = 25984
//  Run fault simulation without storing patterns.  pattern source = 1052 external patterns
//  ------------------------------------------------------------------------
//  #patterns  test      #faults  #faults    # eff.    # test         process 
//  simulated  coverage  in list  detected   patterns  patterns       CPU time
//   64         15.58%    21936      4048       64         0          0.14 sec
//   128        17.40%    21463       473       57         0          0.20 sec
//   192        18.10%    21281       182       53         0          0.27 sec
//   256        18.68%    21130       151       46         0          0.33 sec
//   320        19.10%    21020       110       38         0          0.39 sec
//   384        19.49%    20919       101       34         0          0.45 sec
//   448        19.71%    20863        56       26         0          0.50 sec
//   512        19.93%    20805        58       24         0          0.56 sec
//   576        20.08%    20766        39       21         0          0.62 sec
//   640        20.25%    20723        43       22         0          0.67 sec
//   704        20.35%    20696        27       15         0          0.73 sec
//   768        20.54%    20647        49       19         0          0.78 sec
//   832        20.61%    20628        19       12         0          0.84 sec
//   896        20.67%    20613        15        9         0          0.89 sec
//   960        20.76%    20590        23        9         0          0.95 sec
//   1024       20.77%    20587         3        3         0          1.00 sec
//   1052       20.80%    20580         7        3         0          1.05 sec
