// | ------------------------------------------------------------------------------------------------------------------ |
// |                                                                                                                    |
// |          Current split capture setting:     Off (optimal)                                                          |
// |                                                                                                                    |
// |   Current clock off simulation setting:     Off (optimal)                                                          |
// | ------------------------------------------------------------------------------------------------------------------ |
//  ------------------------------------------------------------------------
//  Simulation performed for #gates = 2323  #faults = 4659
//  Run fault simulation without storing patterns.  pattern source = 135 external patterns
//  ------------------------------------------------------------------------
//  #patterns  test      #faults  #faults    # eff.    # test         process 
//  simulated  coverage  in list  detected   patterns  patterns       CPU time
//   64         61.97%     1772      2887       62         0          0.02 sec
//   128        66.82%     1546       226       40         0          0.02 sec
//   135        67.12%     1532        14        4         0          0.03 sec
