           Statistics Report          
            Stuck-at Faults           
--------------------------------------
Fault Classes               #faults   
                            (coll.)   
----------------------  --------------
  FU (full)                  40696    
  --------------------  --------------
  UC (uncontrolled)       333 ( 0.82%)
  UO (unobserved)         386 ( 0.95%)
  DS (det_simulation)       8 ( 0.02%)
  TI (tied)              4571 (11.23%)
  BL (blocked)          17366 (42.67%)
  RE (redundant)         9234 (22.69%)
  AU (atpg_untestable)   8798 (21.62%)
--------------------------------------
Fault Sub-classes                     
  --------------------                
  UC+UO                               
    AAB  (atpg_abort)     719 ( 1.77%)
--------------------------------------
Coverage                              
  --------------------                
  test_coverage                 0.08% 
  fault_coverage                0.02% 
  atpg_effectiveness           98.23% 
--------------------------------------
#test_patterns                      1 
#simulated_patterns                 1 
CPU_time (secs)                1173.5 
--------------------------------------

