//  command: set_current_design top 
//  Warning: 1 case: Unused net in DFT library model
//  Note: Issue set_current_design with the -show_elaboration_warnings option to see more details about previous warnings
//  command: set_system_mode analysis
//  Flattening process completed,  design_cells=11967  leaf_cells=11967  library_primitives=11967  sim_gates=12864  PIs=256  POs=129  CPU time=0.04 sec.
//  ---------------------------------------------------------------------------
//  Begin circuit learning analyses.
//  --------------------------------
//  Learning completed, CPU time=0.09 sec.
//  ---------------------------------------------------------------------------
//  Begin scan chain identification process, memory elements = 0.
//  ---------------------------------------------------------------------------
//  Circuit has no memory elements.
//  command: add_faults -all
//  command: set_fault_mode collapsed
//  command: set_fault_type stuck
//  command: create_patterns 
// | ------------------------------------------------------------------------------------------------------------------ |
// |                                             Analyzing the design                                                   |
// |                                                                                                                    |
// |      Current clock restriction setting:     Domain_clock (edge interaction)                                        |
// |                                             (optimal)                                                              |
// |                                                                                                                    |
// |          Current split capture setting:     Off (optimal)                                                          |
// |                                                                                                                    |
// |   Current clock off simulation setting:     Off (optimal)                                                          |
// |                                                                                                                    |
// |            Current abort limit setting:     30                                                                     |
// |                                Calling:     set_abort_limit 300 100                                                |
// | ------------------------------------------------------------------------------------------------------------------ |
// |                                                                                                                    |
// |               Current sequential depth:     0 (optimal)                                                            |
// |                                                                                                                    |
// | ------------------------------------------------------------------------------------------------------------------ |
//  ------------------------------------------------------------------------
//  Simulation performed for #gates = 12864  #faults = 25984
//  system mode = analysis    pattern source = internal patterns
//  ------------------------------------------------------------------------
//  #patterns  test      #faults  #faults    # eff.    # test         process      RE/AU/AAB
//  simulated  coverage  in list  detected   patterns  patterns       CPU time
//  deterministic ATPG invoked with comb/seq abort limit = 300/100
//   ---        ------      ---       ---      ---       ---          1.31 sec     4325/0/0
//   64         23.25%    16624      5035       64        64          1.44 sec
//   ---        ------      ---       ---      ---       ---          1.66 sec     7868/0/0
//   128        32.57%    12216       865       64       128          1.70 sec
//   ---        ------      ---       ---      ---       ---          1.85 sec     11799/0/0
//   192        45.03%     7798       487       64       192          1.87 sec
//   ---        ------      ---       ---      ---       ---          2.02 sec     15648/0/0
//   256        65.38%     3578       371       64       256          2.03 sec
//   ---        ------      ---       ---      ---       ---          2.15 sec     18092/0/0
//   320        89.23%      850       284       64       320          2.15 sec
//   ---        ------      ---       ---      ---       ---          2.21 sec     18387/0/0
//   335        93.47%      496        59       15       335          2.21 sec
//   ---        ------      ---       ---      ---       ---          2.24 sec     18387/0/0
//   399        96.04%      301       195       60       395          2.25 sec
//   ---        ------      ---       ---      ---       ---          2.27 sec     18387/0/0
//   463        98.04%      149       152       60       455          2.27 sec
//   ---        ------      ---       ---      ---       ---          2.30 sec     18387/0/0
//   527        99.26%       56        93       50       505          2.30 sec
//   ---        ------      ---       ---      ---       ---          2.30 sec     18387/0/0
//   570       100.00%        0        56       36       541          2.30 sec
// | ------------------------------------------------------------------------------------------------------------------ |
// |                                                                                                                    |
// |                   Next step suggestion:     (optional)                                                             |
// |              If truncating pattern set:     Use command 'order_patterns 3'                                         |
// |                                                                                                                    |
// | ------------------------------------------------------------------------------------------------------------------ |
          Statistics Report          
           Stuck-at Faults           
-------------------------------------
Fault Classes              #faults   
                           (coll.)   
---------------------  --------------
  FU (full)                 25984    
  -------------------  --------------
  DS (det_simulation)   7597 (29.24%)
  RE (redundant)       18387 (70.76%)
-------------------------------------
Coverage                             
  -------------------                
  test_coverage              100.00% 
  fault_coverage              29.24% 
  atpg_effectiveness         100.00% 
-------------------------------------
#test_patterns                   541 
#simulated_patterns              570 
CPU_time (secs)                  4.2 
-------------------------------------

//  command: write_patterns /home/animesh/currentResearch/ISI/atpg_structural/code/dumpData/tessent/epfl/random_control/arbiter_synth/tenPercent/arbiter_synth_tenPercent_21.spf -stil -rep
//  command: report_statistics > /home/animesh/currentResearch/ISI/atpg_structural/code/dumpData/tessent/epfl/random_control/arbiter_synth/tenPercent/arbiter_synth_tenPercent_21.atpg.result
//  command: exit 
