	*******************************************************
	*                                                     *
	*            Welcome to HOPE (version 2.0)            *
	*                                                     *
	*               Dong S. Ha (ha@vt.edu)                *
	*            Web: http://www.ee.vt.edu/ha             *
	*  Virginia Polytechnic Institute & State University  *
	*                                                     *
	*******************************************************

******   SUMMARY OF SIMULATION RESULTS   ******
1. Circuit structure
   Name of circuit                           : combinational_logic_example_"c7552"
   Number of primary inputs                  : 207
   Number of primary outputs                 : 108
   Number of flip-flops                      : 0
   Number of gates                           : 3512
   Level of the circuit                      : 43

2. Simulator input parameters
   Simulation mode                           : file (/home/animesh/currentResearch/ISI/atpg_structural/code/testData/atalanta/tests/iscas85/c7552.test)

3. Simulation results
   Number of test patterns applied           : 205
   Fault coverage                            : 42.874 %
   Number of collapsed faults                : 7550
   Number of detected faults                 : 3237
   Number of undetected faults               : 4313

4. Memory used                               : 28405 Kbytes

5. CPU time
   Initialization                            : 0.000 secs
   Fault simulation                          : 0.083 secs
   Total                                     : 0.083 secs
