          Statistics Report          
           Stuck-at Faults           
-------------------------------------
Fault Classes              #faults   
                           (coll.)   
---------------------  --------------
  FU (full)                 20876    
  -------------------  --------------
  UO (unobserved)         14 ( 0.07%)
  DS (det_simulation)  17774 (85.14%)
  TI (tied)               56 ( 0.27%)
  BL (blocked)            54 ( 0.26%)
  RE (redundant)        2978 (14.27%)
-------------------------------------
Fault Sub-classes                    
  -------------------                
  UC+UO                              
    AAB  (atpg_abort)     14 ( 0.07%)
-------------------------------------
Coverage                             
  -------------------                
  test_coverage               99.92% 
  fault_coverage              85.14% 
  atpg_effectiveness          99.93% 
-------------------------------------
#test_patterns                   438 
#simulated_patterns              452 
CPU_time (secs)                 10.5 
-------------------------------------

