          Statistics Report          
           Stuck-at Faults           
-------------------------------------
Fault Classes              #faults   
                           (coll.)   
---------------------  --------------
  FU (full)                  834     
  -------------------  --------------
  DS (det_simulation)    654 (78.42%)
  TI (tied)               27 ( 3.24%)
  RE (redundant)         153 (18.35%)
-------------------------------------
Coverage                             
  -------------------                
  test_coverage              100.00% 
  fault_coverage              78.42% 
  atpg_effectiveness         100.00% 
-------------------------------------
#test_patterns                    95 
#simulated_patterns              137 
CPU_time (secs)                  1.5 
-------------------------------------

