          Statistics Report          
           Stuck-at Faults           
-------------------------------------
Fault Classes              #faults   
                           (coll.)   
---------------------  --------------
  FU (full)                  834     
  -------------------  --------------
  DS (det_simulation)    182 (21.82%)
  TI (tied)               30 ( 3.60%)
  BL (blocked)             7 ( 0.84%)
  RE (redundant)         615 (73.74%)
-------------------------------------
Coverage                             
  -------------------                
  test_coverage              100.00% 
  fault_coverage              21.82% 
  atpg_effectiveness         100.00% 
-------------------------------------
#test_patterns                    27 
#simulated_patterns               50 
CPU_time (secs)                  1.9 
-------------------------------------

