// | ------------------------------------------------------------------------------------------------------------------ |
// |                                                                                                                    |
// |          Current split capture setting:     Off (optimal)                                                          |
// |                                                                                                                    |
// |   Current clock off simulation setting:     Off (optimal)                                                          |
// | ------------------------------------------------------------------------------------------------------------------ |
//  ------------------------------------------------------------------------
//  Simulation performed for #gates = 20077  #faults = 34218
//  Run fault simulation without storing patterns.  pattern source = 220 external patterns
//  ------------------------------------------------------------------------
//  #patterns  test      #faults  #faults    # eff.    # test         process 
//  simulated  coverage  in list  detected   patterns  patterns       CPU time
//   64         43.55%    19317     14901       64         0          0.31 sec
//   128        46.79%    18206      1111       60         0          0.39 sec
//   192        48.14%    17745       461       54         0          0.47 sec
//   220        48.94%    17473       272       22         0          0.53 sec
