// | ------------------------------------------------------------------------------------------------------------------ |
// |                                                                                                                    |
// |          Current split capture setting:     Off (optimal)                                                          |
// |                                                                                                                    |
// |   Current clock off simulation setting:     Off (optimal)                                                          |
// | ------------------------------------------------------------------------------------------------------------------ |
//  ------------------------------------------------------------------------
//  Simulation performed for #gates = 20077  #faults = 30408
//  Run fault simulation without storing patterns.  pattern source = 193 external patterns
//  ------------------------------------------------------------------------
//  #patterns  test      #faults  #faults    # eff.    # test         process 
//  simulated  coverage  in list  detected   patterns  patterns       CPU time
//   64         48.38%    15697     14711       64         0          0.24 sec
//   128        51.90%    14626      1071       57         0          0.31 sec
//   192        53.40%    14170       456       47         0          0.37 sec
//   193        53.42%    14165         5        1         0          0.41 sec
