// | ------------------------------------------------------------------------------------------------------------------ |
// |                                                                                                                    |
// |          Current split capture setting:     Off (optimal)                                                          |
// |                                                                                                                    |
// |   Current clock off simulation setting:     Off (optimal)                                                          |
// | ------------------------------------------------------------------------------------------------------------------ |
//  ------------------------------------------------------------------------
//  Simulation performed for #gates = 20077  #faults = 34737
//  Run fault simulation without storing patterns.  pattern source = 202 external patterns
//  ------------------------------------------------------------------------
//  #patterns  test      #faults  #faults    # eff.    # test         process 
//  simulated  coverage  in list  detected   patterns  patterns       CPU time
//   64         45.32%    18995     15742       64         0          0.32 sec
//   128        48.60%    17856      1139       62         0          0.40 sec
//   192        50.52%    17187       669       55         0          0.47 sec
//   202        50.67%    17137        50        9         0          0.53 sec
