// | ------------------------------------------------------------------------------------------------------------------ |
// |                                                                                                                    |
// |          Current split capture setting:     Off (optimal)                                                          |
// |                                                                                                                    |
// |   Current clock off simulation setting:     Off (optimal)                                                          |
// | ------------------------------------------------------------------------------------------------------------------ |
//  ------------------------------------------------------------------------
//  Simulation performed for #gates = 20077  #faults = 33703
//  Run fault simulation without storing patterns.  pattern source = 207 external patterns
//  ------------------------------------------------------------------------
//  #patterns  test      #faults  #faults    # eff.    # test         process 
//  simulated  coverage  in list  detected   patterns  patterns       CPU time
//   64         45.99%    18202     15501       64         0          0.29 sec
//   128        48.31%    17422       780       61         0          0.37 sec
//   192        49.36%    17068       354       52         0          0.44 sec
//   207        49.53%    17011        57       13         0          0.51 sec
