// | ------------------------------------------------------------------------------------------------------------------ |
// |                                                                                                                    |
// |          Current split capture setting:     Off (optimal)                                                          |
// |                                                                                                                    |
// |   Current clock off simulation setting:     Off (optimal)                                                          |
// | ------------------------------------------------------------------------------------------------------------------ |
//  ------------------------------------------------------------------------
//  Simulation performed for #gates = 20077  #faults = 34737
//  Run fault simulation without storing patterns.  pattern source = 208 external patterns
//  ------------------------------------------------------------------------
//  #patterns  test      #faults  #faults    # eff.    # test         process 
//  simulated  coverage  in list  detected   patterns  patterns       CPU time
//   64         46.14%    18709     16028       64         0          0.31 sec
//   128        48.91%    17747       962       60         0          0.39 sec
//   192        50.60%    17161       586       57         0          0.47 sec
//   208        50.93%    17044       117       14         0          0.53 sec
