// | ------------------------------------------------------------------------------------------------------------------ |
// |                                                                                                                    |
// |          Current split capture setting:     Off (optimal)                                                          |
// |                                                                                                                    |
// |   Current clock off simulation setting:     Off (optimal)                                                          |
// | ------------------------------------------------------------------------------------------------------------------ |
//  ------------------------------------------------------------------------
//  Simulation performed for #gates = 20077  #faults = 30758
//  Run fault simulation without storing patterns.  pattern source = 207 external patterns
//  ------------------------------------------------------------------------
//  #patterns  test      #faults  #faults    # eff.    # test         process 
//  simulated  coverage  in list  detected   patterns  patterns       CPU time
//   64         46.54%    16444     14314       64         0          0.28 sec
//   128        49.14%    15642       802       60         0          0.35 sec
//   192        50.25%    15301       341       50         0          0.41 sec
//   207        50.49%    15227        74       14         0          0.47 sec
