// | ------------------------------------------------------------------------------------------------------------------ |
// |                                                                                                                    |
// |          Current split capture setting:     Off (optimal)                                                          |
// |                                                                                                                    |
// |   Current clock off simulation setting:     Off (optimal)                                                          |
// | ------------------------------------------------------------------------------------------------------------------ |
//  ------------------------------------------------------------------------
//  Simulation performed for #gates = 20077  #faults = 35811
//  Run fault simulation without storing patterns.  pattern source = 207 external patterns
//  ------------------------------------------------------------------------
//  #patterns  test      #faults  #faults    # eff.    # test         process 
//  simulated  coverage  in list  detected   patterns  patterns       CPU time
//   64         40.56%    21287     14524       64         0          0.29 sec
//   128        42.56%    20569       718       59         0          0.38 sec
//   192        44.09%    20022       547       59         0          0.47 sec
//   207        44.37%    19922       100       13         0          0.54 sec
