// | ------------------------------------------------------------------------------------------------------------------ |
// |                                                                                                                    |
// |          Current split capture setting:     Off (optimal)                                                          |
// |                                                                                                                    |
// |   Current clock off simulation setting:     Off (optimal)                                                          |
// | ------------------------------------------------------------------------------------------------------------------ |
//  ------------------------------------------------------------------------
//  Simulation performed for #gates = 20077  #faults = 32391
//  Run fault simulation without storing patterns.  pattern source = 234 external patterns
//  ------------------------------------------------------------------------
//  #patterns  test      #faults  #faults    # eff.    # test         process 
//  simulated  coverage  in list  detected   patterns  patterns       CPU time
//   64         46.04%    17478     14913       64         0          0.28 sec
//   128        49.40%    16390      1088       58         0          0.36 sec
//   192        52.01%    15543       847       52         0          0.42 sec
//   234        52.29%    15455        88       22         0          0.48 sec
