//  command: set_current_design b22_C 
//  Warning: 1 case: Unused net in DFT library model
//  Note: Issue set_current_design with the -show_elaboration_warnings option to see more details about previous warnings
//  command: set_system_mode analysis
//  Flattening process completed,  design_cells=18259  leaf_cells=18259  library_primitives=18259  sim_gates=20077  PIs=767  POs=757  CPU time=0.08 sec.
//  ---------------------------------------------------------------------------
//  Begin circuit learning analyses.
//  --------------------------------
//  Learning completed, CPU time=0.09 sec.
//  ---------------------------------------------------------------------------
//  Begin scan chain identification process, memory elements = 0.
//  ---------------------------------------------------------------------------
//  Circuit has no memory elements.
//  command: add_faults -all
//  command: set_fault_mode collapsed
//  command: set_fault_type stuck
//  command: read_patterns /home/animesh/currentResearch/ISI/atpg_structural/code/dumpData/tessent/itc99/b22_synth/thirtyPercent/b22_synth_thirtyPercent_15.spf
//  Reading STIL input file "/home/animesh/currentResearch/ISI/atpg_structural/code/dumpData/tessent/itc99/b22_synth/thirtyPercent/b22_synth_thirtyPercent_15.spf"
//  command: simulate_patterns > /home/animesh/currentResearch/ISI/atpg_structural/code/dumpData/tessent/itc99/b22_synth/bin_4/simulateLogFile_b22_synth_fiftyPercent_16_b22_synth_thirtyPercent_15.atpg.result
//  command: exit 
