// | ------------------------------------------------------------------------------------------------------------------ |
// |                                                                                                                    |
// |          Current split capture setting:     Off (optimal)                                                          |
// |                                                                                                                    |
// |   Current clock off simulation setting:     Off (optimal)                                                          |
// | ------------------------------------------------------------------------------------------------------------------ |
//  ------------------------------------------------------------------------
//  Simulation performed for #gates = 20077  #faults = 29039
//  Run fault simulation without storing patterns.  pattern source = 226 external patterns
//  ------------------------------------------------------------------------
//  #patterns  test      #faults  #faults    # eff.    # test         process 
//  simulated  coverage  in list  detected   patterns  patterns       CPU time
//   64         50.73%    14307     14732       64         0          0.28 sec
//   128        54.07%    13337       970       62         0          0.35 sec
//   192        55.63%    12885       452       50         0          0.41 sec
//   226        56.24%    12708       177       26         0          0.46 sec
