	*******************************************************
	*                                                     *
	*          Welcome to atalanta (version 2.0)          *
	*                                                     *
	*               Dong S. Ha (ha@vt.edu)                *
	*            Web: http://www.ee.vt.edu/ha             *
	*  Virginia Polytechnic Institute & State University  *
	*                                                     *
	*******************************************************

******   SUMMARY OF TEST PATTERN GENERATION RESULTS   ******
1. Circuit structure
   Name of the circuit                       : combinational_logic_example_"c6288"
   Number of primary inputs                  : 32
   Number of primary outputs                 : 32
   Number of gates                           : 2416
   Level of the circuit                      : 124

2. ATPG parameters
   Test pattern generation mode              : RPT + DTPG + TC
   Limit of random patterns (packets)        : 16
   Backtrack limit                           : 10
   Initial random number generator seed      : 1556018938
   Test pattern compaction mode              : REVERSE + SHUFFLE 
   Limit of suffling compaction              : 2
   Number of shuffles                        : 4

3. Test pattern generation results
   Number of test patterns before compaction : 21
   Number of test patterns after compaction  : 12
   Fault coverage                            : 5.927 %
   Number of collapsed faults                : 7744
   Number of identified redundant faults     : 4958
   Number of aborted faults                  : 2327
   Total number of backtrackings             : 34266

4. Memory used                               : 41549 Kbytes

5. CPU time
   Initialization                            : 0.000 secs
   Fault simulation                          : 0.017 secs
   FAN                                       : 3.683 secs
   Total                                     : 3.700 secs
