          Statistics Report          
           Stuck-at Faults           
-------------------------------------
Fault Classes              #faults   
                           (coll.)   
---------------------  --------------
  FU (full)                  914     
  -------------------  --------------
  DS (det_simulation)    698 (76.37%)
  TI (tied)                6 ( 0.66%)
  RE (redundant)         210 (22.98%)
-------------------------------------
Coverage                             
  -------------------                
  test_coverage              100.00% 
  fault_coverage              76.37% 
  atpg_effectiveness         100.00% 
-------------------------------------
#test_patterns                    56 
#simulated_patterns               71 
CPU_time (secs)                  1.5 
-------------------------------------

