          Statistics Report          
           Stuck-at Faults           
-------------------------------------
Fault Classes              #faults   
                           (coll.)   
---------------------  --------------
  FU (full)                  914     
  -------------------  --------------
  DS (det_simulation)    668 (73.09%)
  TI (tied)                8 ( 0.88%)
  RE (redundant)         238 (26.04%)
-------------------------------------
Coverage                             
  -------------------                
  test_coverage              100.00% 
  fault_coverage              73.09% 
  atpg_effectiveness         100.00% 
-------------------------------------
#test_patterns                    48 
#simulated_patterns               59 
CPU_time (secs)                  1.5 
-------------------------------------

