          Statistics Report          
           Stuck-at Faults           
-------------------------------------
Fault Classes              #faults   
                           (coll.)   
---------------------  --------------
  FU (full)                  914     
  -------------------  --------------
  DS (det_simulation)    510 (55.80%)
  TI (tied)               10 ( 1.09%)
  RE (redundant)         394 (43.11%)
-------------------------------------
Coverage                             
  -------------------                
  test_coverage              100.00% 
  fault_coverage              55.80% 
  atpg_effectiveness         100.00% 
-------------------------------------
#test_patterns                    24 
#simulated_patterns               24 
CPU_time (secs)                  1.7 
-------------------------------------

