          Statistics Report          
           Stuck-at Faults           
-------------------------------------
Fault Classes              #faults   
                           (coll.)   
---------------------  --------------
  FU (full)                  914     
  -------------------  --------------
  DS (det_simulation)    699 (76.48%)
  TI (tied)                5 ( 0.55%)
  RE (redundant)         210 (22.98%)
-------------------------------------
Coverage                             
  -------------------                
  test_coverage              100.00% 
  fault_coverage              76.48% 
  atpg_effectiveness         100.00% 
-------------------------------------
#test_patterns                    63 
#simulated_patterns               76 
CPU_time (secs)                  1.5 
-------------------------------------

