          Statistics Report          
           Stuck-at Faults           
-------------------------------------
Fault Classes              #faults   
                           (coll.)   
---------------------  --------------
  FU (full)                  914     
  -------------------  --------------
  DS (det_simulation)    695 (76.04%)
  TI (tied)                9 ( 0.98%)
  RE (redundant)         210 (22.98%)
-------------------------------------
Coverage                             
  -------------------                
  test_coverage              100.00% 
  fault_coverage              76.04% 
  atpg_effectiveness         100.00% 
-------------------------------------
#test_patterns                    68 
#simulated_patterns               86 
CPU_time (secs)                  1.5 
-------------------------------------

