          Statistics Report          
           Stuck-at Faults           
-------------------------------------
Fault Classes              #faults   
                           (coll.)   
---------------------  --------------
  FU (full)                 1556     
  -------------------  --------------
  DS (det_simulation)   1261 (81.04%)
  TI (tied)                4 ( 0.26%)
  BL (blocked)             1 ( 0.06%)
  RE (redundant)         290 (18.64%)
-------------------------------------
Coverage                             
  -------------------                
  test_coverage              100.00% 
  fault_coverage              81.04% 
  atpg_effectiveness         100.00% 
-------------------------------------
#test_patterns                   130 
#simulated_patterns              142 
CPU_time (secs)                  1.6 
-------------------------------------

