// | ------------------------------------------------------------------------------------------------------------------ |
// |                                                                                                                    |
// |          Current split capture setting:     Off (optimal)                                                          |
// |                                                                                                                    |
// |   Current clock off simulation setting:     Off (optimal)                                                          |
// | ------------------------------------------------------------------------------------------------------------------ |
//  ------------------------------------------------------------------------
//  Simulation performed for #gates = 6497  #faults = 14272
//  Run fault simulation without storing patterns.  pattern source = 334 external patterns
//  ------------------------------------------------------------------------
//  #patterns  test      #faults  #faults    # eff.    # test         process 
//  simulated  coverage  in list  detected   patterns  patterns       CPU time
//   64         33.67%     9467      4805       56         0          0.10 sec
//   128        37.28%     8951       516       27         0          0.13 sec
//   192        40.25%     8527       424       27         0          0.16 sec
//   256        42.40%     8221       306       18         0          0.19 sec
//   320        46.63%     7617       604       15         0          0.21 sec
//   334        47.29%     7523        94        2         0          0.23 sec
