// | ------------------------------------------------------------------------------------------------------------------ |
// |                                                                                                                    |
// |          Current split capture setting:     Off (optimal)                                                          |
// |                                                                                                                    |
// |   Current clock off simulation setting:     Off (optimal)                                                          |
// | ------------------------------------------------------------------------------------------------------------------ |
//  ------------------------------------------------------------------------
//  Simulation performed for #gates = 6497  #faults = 10731
//  Run fault simulation without storing patterns.  pattern source = 238 external patterns
//  ------------------------------------------------------------------------
//  #patterns  test      #faults  #faults    # eff.    # test         process 
//  simulated  coverage  in list  detected   patterns  patterns       CPU time
//   64         68.40%     3391      7340       64         0          0.12 sec
//   128        73.39%     2855       536       57         0          0.13 sec
//   192        75.27%     2654       201       43         0          0.14 sec
//   238        75.85%     2592        62       22         0          0.15 sec
