// | ------------------------------------------------------------------------------------------------------------------ |
// |                                                                                                                    |
// |          Current split capture setting:     Off (optimal)                                                          |
// |                                                                                                                    |
// |   Current clock off simulation setting:     Off (optimal)                                                          |
// | ------------------------------------------------------------------------------------------------------------------ |
//  ------------------------------------------------------------------------
//  Simulation performed for #gates = 6497  #faults = 14104
//  Run fault simulation without storing patterns.  pattern source = 242 external patterns
//  ------------------------------------------------------------------------
//  #patterns  test      #faults  #faults    # eff.    # test         process 
//  simulated  coverage  in list  detected   patterns  patterns       CPU time
//   64         43.74%     7935      6169       63         0          0.11 sec
//   128        46.34%     7568       367       47         0          0.14 sec
//   192        48.36%     7283       285       34         0          0.16 sec
//   242        48.95%     7200        83       24         0          0.18 sec
