// | ------------------------------------------------------------------------------------------------------------------ |
// |                                                                                                                    |
// |          Current split capture setting:     Off (optimal)                                                          |
// |                                                                                                                    |
// |   Current clock off simulation setting:     Off (optimal)                                                          |
// | ------------------------------------------------------------------------------------------------------------------ |
//  ------------------------------------------------------------------------
//  Simulation performed for #gates = 6497  #faults = 12808
//  Run fault simulation without storing patterns.  pattern source = 233 external patterns
//  ------------------------------------------------------------------------
//  #patterns  test      #faults  #faults    # eff.    # test         process 
//  simulated  coverage  in list  detected   patterns  patterns       CPU time
//   64         54.67%     5806      7002       63         0          0.12 sec
//   128        61.45%     4937       869       52         0          0.14 sec
//   192        63.98%     4613       324       42         0          0.16 sec
//   233        64.80%     4508       105       26         0          0.17 sec
