// | ------------------------------------------------------------------------------------------------------------------ |
// |                                                                                                                    |
// |          Current split capture setting:     Off (optimal)                                                          |
// |                                                                                                                    |
// |   Current clock off simulation setting:     Off (optimal)                                                          |
// | ------------------------------------------------------------------------------------------------------------------ |
//  ------------------------------------------------------------------------
//  Simulation performed for #gates = 6497  #faults = 13229
//  Run fault simulation without storing patterns.  pattern source = 259 external patterns
//  ------------------------------------------------------------------------
//  #patterns  test      #faults  #faults    # eff.    # test         process 
//  simulated  coverage  in list  detected   patterns  patterns       CPU time
//   64         56.54%     5749      7480       64         0          0.10 sec
//   128        60.86%     5178       571       50         0          0.12 sec
//   192        62.74%     4929       249       43         0          0.14 sec
//   256        64.48%     4699       230       38         0          0.15 sec
//   259        64.49%     4698         1        1         0          0.17 sec
