// | ------------------------------------------------------------------------------------------------------------------ |
// |                                                                                                                    |
// |          Current split capture setting:     Off (optimal)                                                          |
// |                                                                                                                    |
// |   Current clock off simulation setting:     Off (optimal)                                                          |
// | ------------------------------------------------------------------------------------------------------------------ |
//  ------------------------------------------------------------------------
//  Simulation performed for #gates = 6497  #faults = 12491
//  Run fault simulation without storing patterns.  pattern source = 252 external patterns
//  ------------------------------------------------------------------------
//  #patterns  test      #faults  #faults    # eff.    # test         process 
//  simulated  coverage  in list  detected   patterns  patterns       CPU time
//   64         37.40%     7819      4672       60         0          0.11 sec
//   128        41.14%     7352       467       42         0          0.13 sec
//   192        43.03%     7116       236       30         0          0.16 sec
//   252        43.90%     7008       108       18         0          0.18 sec
