// | ------------------------------------------------------------------------------------------------------------------ |
// |                                                                                                                    |
// |          Current split capture setting:     Off (optimal)                                                          |
// |                                                                                                                    |
// |   Current clock off simulation setting:     Off (optimal)                                                          |
// | ------------------------------------------------------------------------------------------------------------------ |
//  ------------------------------------------------------------------------
//  Simulation performed for #gates = 6497  #faults = 12302
//  Run fault simulation without storing patterns.  pattern source = 295 external patterns
//  ------------------------------------------------------------------------
//  #patterns  test      #faults  #faults    # eff.    # test         process 
//  simulated  coverage  in list  detected   patterns  patterns       CPU time
//   64         51.22%     6001      6301       62         0          0.10 sec
//   128        55.97%     5416       585       41         0          0.13 sec
//   192        58.13%     5151       265       31         0          0.14 sec
//   256        59.43%     4991       160       28         0          0.16 sec
//   295        60.21%     4895        96       14         0          0.18 sec
