// | ------------------------------------------------------------------------------------------------------------------ |
// |                                                                                                                    |
// |          Current split capture setting:     Off (optimal)                                                          |
// |                                                                                                                    |
// |   Current clock off simulation setting:     Off (optimal)                                                          |
// | ------------------------------------------------------------------------------------------------------------------ |
//  ------------------------------------------------------------------------
//  Simulation performed for #gates = 6497  #faults = 12628
//  Run fault simulation without storing patterns.  pattern source = 345 external patterns
//  ------------------------------------------------------------------------
//  #patterns  test      #faults  #faults    # eff.    # test         process 
//  simulated  coverage  in list  detected   patterns  patterns       CPU time
//   64         53.63%     5856      6772       61         0          0.12 sec
//   128        58.54%     5236       620       52         0          0.14 sec
//   192        61.74%     4832       404       38         0          0.16 sec
//   256        63.45%     4615       217       34         0          0.17 sec
//   320        64.09%     4535        80       22         0          0.19 sec
//   345        64.49%     4484        51       10         0          0.20 sec
