// | ------------------------------------------------------------------------------------------------------------------ |
// |                                                                                                                    |
// |          Current split capture setting:     Off (optimal)                                                          |
// |                                                                                                                    |
// |   Current clock off simulation setting:     Off (optimal)                                                          |
// | ------------------------------------------------------------------------------------------------------------------ |
//  ------------------------------------------------------------------------
//  Simulation performed for #gates = 6497  #faults = 13195
//  Run fault simulation without storing patterns.  pattern source = 282 external patterns
//  ------------------------------------------------------------------------
//  #patterns  test      #faults  #faults    # eff.    # test         process 
//  simulated  coverage  in list  detected   patterns  patterns       CPU time
//   64         35.94%     8453      4742       58         0          0.07 sec
//   128        39.45%     7989       464       30         0          0.10 sec
//   192        40.27%     7881       108       21         0          0.12 sec
//   256        40.76%     7817        64       13         0          0.14 sec
//   282        41.26%     7751        66        8         0          0.16 sec
