// | ------------------------------------------------------------------------------------------------------------------ |
// |                                                                                                                    |
// |          Current split capture setting:     Off (optimal)                                                          |
// |                                                                                                                    |
// |   Current clock off simulation setting:     Off (optimal)                                                          |
// | ------------------------------------------------------------------------------------------------------------------ |
//  ------------------------------------------------------------------------
//  Simulation performed for #gates = 6497  #faults = 12808
//  Run fault simulation without storing patterns.  pattern source = 206 external patterns
//  ------------------------------------------------------------------------
//  #patterns  test      #faults  #faults    # eff.    # test         process 
//  simulated  coverage  in list  detected   patterns  patterns       CPU time
//   64         55.50%     5699      7109       63         0          0.12 sec
//   128        62.14%     4849       850       57         0          0.14 sec
//   192        63.79%     4638       211       34         0          0.15 sec
//   206        64.06%     4603        35        8         0          0.17 sec
