// | ------------------------------------------------------------------------------------------------------------------ |
// |                                                                                                                    |
// |          Current split capture setting:     Off (optimal)                                                          |
// |                                                                                                                    |
// |   Current clock off simulation setting:     Off (optimal)                                                          |
// | ------------------------------------------------------------------------------------------------------------------ |
//  ------------------------------------------------------------------------
//  Simulation performed for #gates = 6497  #faults = 14142
//  Run fault simulation without storing patterns.  pattern source = 296 external patterns
//  ------------------------------------------------------------------------
//  #patterns  test      #faults  #faults    # eff.    # test         process 
//  simulated  coverage  in list  detected   patterns  patterns       CPU time
//   64         37.12%     8893      5249       64         0          0.13 sec
//   128        42.42%     8143       750       49         0          0.16 sec
//   192        44.01%     7918       225       33         0          0.19 sec
//   256        45.48%     7710       208       30         0          0.22 sec
//   296        45.70%     7679        31       13         0          0.24 sec
