// | ------------------------------------------------------------------------------------------------------------------ |
// |                                                                                                                    |
// |          Current split capture setting:     Off (optimal)                                                          |
// |                                                                                                                    |
// |   Current clock off simulation setting:     Off (optimal)                                                          |
// | ------------------------------------------------------------------------------------------------------------------ |
//  ------------------------------------------------------------------------
//  Simulation performed for #gates = 6497  #faults = 12170
//  Run fault simulation without storing patterns.  pattern source = 250 external patterns
//  ------------------------------------------------------------------------
//  #patterns  test      #faults  #faults    # eff.    # test         process 
//  simulated  coverage  in list  detected   patterns  patterns       CPU time
//   64         43.56%     6869      5301       60         0          0.09 sec
//   128        52.51%     5780      1089       42         0          0.12 sec
//   192        53.43%     5668       112       19         0          0.13 sec
//   250        54.95%     5482       186       18         0          0.15 sec
