// | ------------------------------------------------------------------------------------------------------------------ |
// |                                                                                                                    |
// |          Current split capture setting:     Off (optimal)                                                          |
// |                                                                                                                    |
// |   Current clock off simulation setting:     Off (optimal)                                                          |
// | ------------------------------------------------------------------------------------------------------------------ |
//  ------------------------------------------------------------------------
//  Simulation performed for #gates = 6497  #faults = 13931
//  Run fault simulation without storing patterns.  pattern source = 255 external patterns
//  ------------------------------------------------------------------------
//  #patterns  test      #faults  #faults    # eff.    # test         process 
//  simulated  coverage  in list  detected   patterns  patterns       CPU time
//   64         35.51%     8984      4947       57         0          0.09 sec
//   128        39.85%     8379       605       40         0          0.12 sec
//   192        42.06%     8071       308       24         0          0.15 sec
//   255        42.83%     7964       107       17         0          0.17 sec
