// | ------------------------------------------------------------------------------------------------------------------ |
// |                                                                                                                    |
// |          Current split capture setting:     Off (optimal)                                                          |
// |                                                                                                                    |
// |   Current clock off simulation setting:     Off (optimal)                                                          |
// | ------------------------------------------------------------------------------------------------------------------ |
//  ------------------------------------------------------------------------
//  Simulation performed for #gates = 6497  #faults = 12575
//  Run fault simulation without storing patterns.  pattern source = 321 external patterns
//  ------------------------------------------------------------------------
//  #patterns  test      #faults  #faults    # eff.    # test         process 
//  simulated  coverage  in list  detected   patterns  patterns       CPU time
//   64         56.76%     5437      7138       61         0          0.13 sec
//   128        62.29%     4742       695       50         0          0.15 sec
//   192        63.58%     4580       162       35         0          0.16 sec
//   256        64.29%     4491        89       27         0          0.18 sec
//   320        64.62%     4449        42       19         0          0.19 sec
//   321        64.63%     4448         1        1         0          0.20 sec
