// | ------------------------------------------------------------------------------------------------------------------ |
// |                                                                                                                    |
// |          Current split capture setting:     Off (optimal)                                                          |
// |                                                                                                                    |
// |   Current clock off simulation setting:     Off (optimal)                                                          |
// | ------------------------------------------------------------------------------------------------------------------ |
//  ------------------------------------------------------------------------
//  Simulation performed for #gates = 6497  #faults = 13537
//  Run fault simulation without storing patterns.  pattern source = 228 external patterns
//  ------------------------------------------------------------------------
//  #patterns  test      #faults  #faults    # eff.    # test         process 
//  simulated  coverage  in list  detected   patterns  patterns       CPU time
//   64         38.46%     8330      5207       59         0          0.12 sec
//   128        40.70%     8028       302       43         0          0.15 sec
//   192        41.70%     7892       136       29         0          0.18 sec
//   228        41.90%     7865        27       10         0          0.20 sec
