// | ------------------------------------------------------------------------------------------------------------------ |
// |                                                                                                                    |
// |          Current split capture setting:     Off (optimal)                                                          |
// |                                                                                                                    |
// |   Current clock off simulation setting:     Off (optimal)                                                          |
// | ------------------------------------------------------------------------------------------------------------------ |
//  ------------------------------------------------------------------------
//  Simulation performed for #gates = 6497  #faults = 14797
//  Run fault simulation without storing patterns.  pattern source = 334 external patterns
//  ------------------------------------------------------------------------
//  #patterns  test      #faults  #faults    # eff.    # test         process 
//  simulated  coverage  in list  detected   patterns  patterns       CPU time
//   64         41.86%     8603      6194       64         0          0.15 sec
//   128        45.96%     7996       607       50         0          0.18 sec
//   192        48.37%     7640       356       41         0          0.20 sec
//   256        49.79%     7430       210       32         0          0.23 sec
//   320        50.80%     7280       150       24         0          0.25 sec
//   334        51.08%     7238        42        8         0          0.27 sec
