// | ------------------------------------------------------------------------------------------------------------------ |
// |                                                                                                                    |
// |          Current split capture setting:     Off (optimal)                                                          |
// |                                                                                                                    |
// |   Current clock off simulation setting:     Off (optimal)                                                          |
// | ------------------------------------------------------------------------------------------------------------------ |
//  ------------------------------------------------------------------------
//  Simulation performed for #gates = 6497  #faults = 13604
//  Run fault simulation without storing patterns.  pattern source = 255 external patterns
//  ------------------------------------------------------------------------
//  #patterns  test      #faults  #faults    # eff.    # test         process 
//  simulated  coverage  in list  detected   patterns  patterns       CPU time
//   64         55.70%     6026      7578       64         0          0.11 sec
//   128        60.78%     5336       690       45         0          0.13 sec
//   192        64.48%     4832       504       44         0          0.14 sec
//   255        65.40%     4707       125       23         0          0.16 sec
