// | ------------------------------------------------------------------------------------------------------------------ |
// |                                                                                                                    |
// |          Current split capture setting:     Off (optimal)                                                          |
// |                                                                                                                    |
// |   Current clock off simulation setting:     Off (optimal)                                                          |
// | ------------------------------------------------------------------------------------------------------------------ |
//  ------------------------------------------------------------------------
//  Simulation performed for #gates = 6497  #faults = 13960
//  Run fault simulation without storing patterns.  pattern source = 252 external patterns
//  ------------------------------------------------------------------------
//  #patterns  test      #faults  #faults    # eff.    # test         process 
//  simulated  coverage  in list  detected   patterns  patterns       CPU time
//   64         45.71%     7579      6381       63         0          0.12 sec
//   128        51.95%     6708       871       57         0          0.15 sec
//   192        54.44%     6360       348       41         0          0.17 sec
//   252        55.50%     6212       148       28         0          0.19 sec
