// | ------------------------------------------------------------------------------------------------------------------ |
// |                                                                                                                    |
// |          Current split capture setting:     Off (optimal)                                                          |
// |                                                                                                                    |
// |   Current clock off simulation setting:     Off (optimal)                                                          |
// | ------------------------------------------------------------------------------------------------------------------ |
//  ------------------------------------------------------------------------
//  Simulation performed for #gates = 6497  #faults = 14779
//  Run fault simulation without storing patterns.  pattern source = 242 external patterns
//  ------------------------------------------------------------------------
//  #patterns  test      #faults  #faults    # eff.    # test         process 
//  simulated  coverage  in list  detected   patterns  patterns       CPU time
//   64         34.93%     9617      5162       61         0          0.11 sec
//   128        39.08%     9003       614       45         0          0.15 sec
//   192        42.57%     8488       515       30         0          0.17 sec
//   242        45.20%     8099       389       29         0          0.20 sec
