// | ------------------------------------------------------------------------------------------------------------------ |
// |                                                                                                                    |
// |          Current split capture setting:     Off (optimal)                                                          |
// |                                                                                                                    |
// |   Current clock off simulation setting:     Off (optimal)                                                          |
// | ------------------------------------------------------------------------------------------------------------------ |
//  ------------------------------------------------------------------------
//  Simulation performed for #gates = 6497  #faults = 12808
//  Run fault simulation without storing patterns.  pattern source = 219 external patterns
//  ------------------------------------------------------------------------
//  #patterns  test      #faults  #faults    # eff.    # test         process 
//  simulated  coverage  in list  detected   patterns  patterns       CPU time
//   64         50.41%     6351      6457       62         0          0.10 sec
//   128        55.62%     5684       667       38         0          0.13 sec
//   192        59.82%     5146       538       41         0          0.14 sec
//   219        60.59%     5048        98       17         0          0.16 sec
