// | ------------------------------------------------------------------------------------------------------------------ |
// |                                                                                                                    |
// |          Current split capture setting:     Off (optimal)                                                          |
// |                                                                                                                    |
// |   Current clock off simulation setting:     Off (optimal)                                                          |
// | ------------------------------------------------------------------------------------------------------------------ |
//  ------------------------------------------------------------------------
//  Simulation performed for #gates = 9044  #faults = 20827
//  Run fault simulation without storing patterns.  pattern source = 399 external patterns
//  ------------------------------------------------------------------------
//  #patterns  test      #faults  #faults    # eff.    # test         process 
//  simulated  coverage  in list  detected   patterns  patterns       CPU time
//   64         50.98%    10210     10617       63         0          0.15 sec
//   128        55.58%     9251       959       56         0          0.19 sec
//   192        57.49%     8854       397       52         0          0.21 sec
//   256        58.96%     8548       306       46         0          0.24 sec
//   320        60.48%     8231       317       47         0          0.27 sec
//   384        61.41%     8038       193       35         0          0.30 sec
//   399        61.54%     8010        28        9         0          0.32 sec
