// | ------------------------------------------------------------------------------------------------------------------ |
// |                                                                                                                    |
// |          Current split capture setting:     Off (optimal)                                                          |
// |                                                                                                                    |
// |   Current clock off simulation setting:     Off (optimal)                                                          |
// | ------------------------------------------------------------------------------------------------------------------ |
//  ------------------------------------------------------------------------
//  Simulation performed for #gates = 9044  #faults = 20632
//  Run fault simulation without storing patterns.  pattern source = 378 external patterns
//  ------------------------------------------------------------------------
//  #patterns  test      #faults  #faults    # eff.    # test         process 
//  simulated  coverage  in list  detected   patterns  patterns       CPU time
//   64         51.05%    10100     10532       64         0          0.16 sec
//   128        55.31%     9220       880       61         0          0.20 sec
//   192        57.88%     8691       529       47         0          0.23 sec
//   256        59.90%     8274       417       51         0          0.26 sec
//   320        61.05%     8037       237       41         0          0.28 sec
//   378        62.48%     7742       295       41         0          0.31 sec
