// | ------------------------------------------------------------------------------------------------------------------ |
// |                                                                                                                    |
// |          Current split capture setting:     Off (optimal)                                                          |
// |                                                                                                                    |
// |   Current clock off simulation setting:     Off (optimal)                                                          |
// | ------------------------------------------------------------------------------------------------------------------ |
//  ------------------------------------------------------------------------
//  Simulation performed for #gates = 9044  #faults = 20602
//  Run fault simulation without storing patterns.  pattern source = 383 external patterns
//  ------------------------------------------------------------------------
//  #patterns  test      #faults  #faults    # eff.    # test         process 
//  simulated  coverage  in list  detected   patterns  patterns       CPU time
//   64         52.11%     9867     10735       64         0          0.18 sec
//   128        56.63%     8936       931       59         0          0.21 sec
//   192        58.55%     8539       397       57         0          0.24 sec
//   256        60.07%     8226       313       52         0          0.27 sec
//   320        61.13%     8007       219       43         0          0.30 sec
//   383        61.73%     7884       123       37         0          0.32 sec
