// | ------------------------------------------------------------------------------------------------------------------ |
// |                                                                                                                    |
// |          Current split capture setting:     Off (optimal)                                                          |
// |                                                                                                                    |
// |   Current clock off simulation setting:     Off (optimal)                                                          |
// | ------------------------------------------------------------------------------------------------------------------ |
//  ------------------------------------------------------------------------
//  Simulation performed for #gates = 9044  #faults = 20827
//  Run fault simulation without storing patterns.  pattern source = 432 external patterns
//  ------------------------------------------------------------------------
//  #patterns  test      #faults  #faults    # eff.    # test         process 
//  simulated  coverage  in list  detected   patterns  patterns       CPU time
//   64         55.12%     9347     11480       64         0          0.17 sec
//   128        59.78%     8376       971       62         0          0.21 sec
//   192        61.84%     7948       428       50         0          0.24 sec
//   256        63.64%     7573       375       52         0          0.26 sec
//   320        64.79%     7334       239       48         0          0.28 sec
//   384        65.35%     7217       117       39         0          0.31 sec
//   432        65.70%     7144        73       21         0          0.33 sec
