// | ------------------------------------------------------------------------------------------------------------------ |
// |                                                                                                                    |
// |          Current split capture setting:     Off (optimal)                                                          |
// |                                                                                                                    |
// |   Current clock off simulation setting:     Off (optimal)                                                          |
// | ------------------------------------------------------------------------------------------------------------------ |
//  ------------------------------------------------------------------------
//  Simulation performed for #gates = 9044  #faults = 20376
//  Run fault simulation without storing patterns.  pattern source = 387 external patterns
//  ------------------------------------------------------------------------
//  #patterns  test      #faults  #faults    # eff.    # test         process 
//  simulated  coverage  in list  detected   patterns  patterns       CPU time
//   64         56.75%     8812     11564       64         0          0.17 sec
//   128        62.25%     7692      1120       60         0          0.21 sec
//   192        65.13%     7106       586       50         0          0.23 sec
//   256        67.01%     6722       384       48         0          0.25 sec
//   320        68.27%     6465       257       45         0          0.28 sec
//   384        69.18%     6279       186       41         0          0.30 sec
//   387        69.21%     6273         6        2         0          0.31 sec
