// | ------------------------------------------------------------------------------------------------------------------ |
// |                                                                                                                    |
// |          Current split capture setting:     Off (optimal)                                                          |
// |                                                                                                                    |
// |   Current clock off simulation setting:     Off (optimal)                                                          |
// | ------------------------------------------------------------------------------------------------------------------ |
//  ------------------------------------------------------------------------
//  Simulation performed for #gates = 9044  #faults = 20602
//  Run fault simulation without storing patterns.  pattern source = 398 external patterns
//  ------------------------------------------------------------------------
//  #patterns  test      #faults  #faults    # eff.    # test         process 
//  simulated  coverage  in list  detected   patterns  patterns       CPU time
//   64         51.21%    10052     10550       64         0          0.17 sec
//   128        56.50%     8961      1091       60         0          0.21 sec
//   192        58.50%     8549       412       55         0          0.24 sec
//   256        59.80%     8282       267       46         0          0.26 sec
//   320        61.50%     7931       351       40         0          0.29 sec
//   384        62.67%     7690       241       45         0          0.32 sec
//   398        63.09%     7605        85        7         0          0.34 sec
