// | ------------------------------------------------------------------------------------------------------------------ |
// |                                                                                                                    |
// |          Current split capture setting:     Off (optimal)                                                          |
// |                                                                                                                    |
// |   Current clock off simulation setting:     Off (optimal)                                                          |
// | ------------------------------------------------------------------------------------------------------------------ |
//  ------------------------------------------------------------------------
//  Simulation performed for #gates = 9044  #faults = 20654
//  Run fault simulation without storing patterns.  pattern source = 473 external patterns
//  ------------------------------------------------------------------------
//  #patterns  test      #faults  #faults    # eff.    # test         process 
//  simulated  coverage  in list  detected   patterns  patterns       CPU time
//   64         52.99%     9709     10945       64         0          0.17 sec
//   128        58.71%     8528      1181       60         0          0.21 sec
//   192        61.86%     7877       651       53         0          0.24 sec
//   256        63.47%     7544       333       40         0          0.26 sec
//   320        64.53%     7326       218       39         0          0.29 sec
//   384        65.31%     7164       162       30         0          0.31 sec
//   448        66.36%     6948       216       29         0          0.33 sec
//   473        66.85%     6846       102       11         0          0.35 sec
