// | ------------------------------------------------------------------------------------------------------------------ |
// |                                                                                                                    |
// |          Current split capture setting:     Off (optimal)                                                          |
// |                                                                                                                    |
// |   Current clock off simulation setting:     Off (optimal)                                                          |
// | ------------------------------------------------------------------------------------------------------------------ |
//  ------------------------------------------------------------------------
//  Simulation performed for #gates = 9044  #faults = 20688
//  Run fault simulation without storing patterns.  pattern source = 473 external patterns
//  ------------------------------------------------------------------------
//  #patterns  test      #faults  #faults    # eff.    # test         process 
//  simulated  coverage  in list  detected   patterns  patterns       CPU time
//   64         52.67%     9791     10897       64         0          0.17 sec
//   128        58.83%     8518      1273       59         0          0.20 sec
//   192        61.49%     7967       551       51         0          0.23 sec
//   256        62.98%     7659       308       47         0          0.26 sec
//   320        64.67%     7309       350       45         0          0.28 sec
//   384        65.25%     7190       119       34         0          0.30 sec
//   448        65.98%     7039       151       28         0          0.33 sec
//   473        66.39%     6954        85       10         0          0.35 sec
