// | ------------------------------------------------------------------------------------------------------------------ |
// |                                                                                                                    |
// |          Current split capture setting:     Off (optimal)                                                          |
// |                                                                                                                    |
// |   Current clock off simulation setting:     Off (optimal)                                                          |
// | ------------------------------------------------------------------------------------------------------------------ |
//  ------------------------------------------------------------------------
//  Simulation performed for #gates = 9044  #faults = 20744
//  Run fault simulation without storing patterns.  pattern source = 421 external patterns
//  ------------------------------------------------------------------------
//  #patterns  test      #faults  #faults    # eff.    # test         process 
//  simulated  coverage  in list  detected   patterns  patterns       CPU time
//   64         51.16%    10131     10613       64         0          0.16 sec
//   128        56.22%     9082      1049       61         0          0.20 sec
//   192        59.04%     8497       585       55         0          0.24 sec
//   256        61.02%     8087       410       47         0          0.26 sec
//   320        63.07%     7661       426       44         0          0.29 sec
//   384        64.16%     7434       227       38         0          0.31 sec
//   421        64.63%     7337        97       22         0          0.33 sec
