// | ------------------------------------------------------------------------------------------------------------------ |
// |                                                                                                                    |
// |          Current split capture setting:     Off (optimal)                                                          |
// |                                                                                                                    |
// |   Current clock off simulation setting:     Off (optimal)                                                          |
// | ------------------------------------------------------------------------------------------------------------------ |
//  ------------------------------------------------------------------------
//  Simulation performed for #gates = 9044  #faults = 20839
//  Run fault simulation without storing patterns.  pattern source = 396 external patterns
//  ------------------------------------------------------------------------
//  #patterns  test      #faults  #faults    # eff.    # test         process 
//  simulated  coverage  in list  detected   patterns  patterns       CPU time
//   64         54.80%     9419     11420       64         0          0.19 sec
//   128        60.93%     8141      1278       59         0          0.23 sec
//   192        64.79%     7337       804       57         0          0.26 sec
//   256        66.66%     6947       390       48         0          0.29 sec
//   320        67.72%     6727       220       37         0          0.31 sec
//   384        68.21%     6625       102       32         0          0.33 sec
//   396        68.29%     6608        17        4         0          0.35 sec
