	*******************************************************
	*                                                     *
	*            Welcome to HOPE (version 2.0)            *
	*                                                     *
	*               Dong S. Ha (ha@vt.edu)                *
	*            Web: http://www.ee.vt.edu/ha             *
	*  Virginia Polytechnic Institute & State University  *
	*                                                     *
	*******************************************************

******   SUMMARY OF SIMULATION RESULTS   ******
1. Circuit structure
   Name of circuit                           : s641
   Number of primary inputs                  : 54
   Number of primary outputs                 : 42
   Number of flip-flops                      : 0
   Number of gates                           : 379
   Level of the circuit                      : 74

2. Simulator input parameters
   Simulation mode                           : file (/home/animesh/currentResearch/ISI/atpg_structural/code/testData/atalanta/tests/iscas89/s641.test)

3. Simulation results
   Number of test patterns applied           : 61
   Fault coverage                            : 68.467 %
   Number of collapsed faults                : 463
   Number of detected faults                 : 317
   Number of undetected faults               : 146

4. Memory used                               : 8704 Kbytes

5. CPU time
   Initialization                            : 0.000 secs
   Fault simulation                          : 0.000 secs
   Total                                     : 0.000 secs
