//  command: set_current_design b15_C 
//  Warning: 1 case: Unused net in DFT library model
//  Note: Issue set_current_design with the -show_elaboration_warnings option to see more details about previous warnings
//  command: set_system_mode analysis
//  Flattening process completed,  design_cells=8010  leaf_cells=8010  library_primitives=8010  sim_gates=9044  PIs=485  POs=449  CPU time=0.04 sec.
//  ---------------------------------------------------------------------------
//  Begin circuit learning analyses.
//  --------------------------------
//  Learning completed, CPU time=0.03 sec.
//  ---------------------------------------------------------------------------
//  Begin scan chain identification process, memory elements = 0.
//  ---------------------------------------------------------------------------
//  Circuit has no memory elements.
//  command: add_faults -all
//  command: set_fault_mode collapsed
//  command: set_fault_type stuck
//  command: read_patterns /home/animesh/currentResearch/ISI/atpg_structural/code/dumpData/tessent/itc99/b15_synth/fiftyPercent/b15_synth_fiftyPercent_7.spf
//  Reading STIL input file "/home/animesh/currentResearch/ISI/atpg_structural/code/dumpData/tessent/itc99/b15_synth/fiftyPercent/b15_synth_fiftyPercent_7.spf"
//  command: simulate_patterns > /home/animesh/currentResearch/ISI/atpg_structural/code/dumpData/tessent/itc99/b15_synth/bin_4/simulateLogFile_b15_synth_fiftyPercent_7_b15_synth_fiftyPercent_7.atpg.result
//  command: exit 
