          Statistics Report          
           Stuck-at Faults           
-------------------------------------
Fault Classes              #faults   
                           (coll.)   
---------------------  --------------
  FU (full)                 1010     
  -------------------  --------------
  DS (det_simulation)    890 (88.12%)
  TI (tied)               10 ( 0.99%)
  BL (blocked)            15 ( 1.49%)
  RE (redundant)          95 ( 9.41%)
-------------------------------------
Coverage                             
  -------------------                
  test_coverage              100.00% 
  fault_coverage              88.12% 
  atpg_effectiveness         100.00% 
-------------------------------------
#test_patterns                    63 
#simulated_patterns               93 
CPU_time (secs)                  1.8 
-------------------------------------

