          Statistics Report          
           Stuck-at Faults           
-------------------------------------
Fault Classes              #faults   
                           (coll.)   
---------------------  --------------
  FU (full)                 4754     
  -------------------  --------------
  DS (det_simulation)   4175 (87.82%)
  TI (tied)               57 ( 1.20%)
  BL (blocked)            15 ( 0.32%)
  RE (redundant)         507 (10.66%)
-------------------------------------
Coverage                             
  -------------------                
  test_coverage              100.00% 
  fault_coverage              87.82% 
  atpg_effectiveness         100.00% 
-------------------------------------
#test_patterns                   125 
#simulated_patterns              149 
CPU_time (secs)                  2.3 
-------------------------------------

