          Statistics Report          
           Stuck-at Faults           
-------------------------------------
Fault Classes              #faults   
                           (coll.)   
---------------------  --------------
  FU (full)                 4754     
  -------------------  --------------
  DS (det_simulation)   3734 (78.54%)
  TI (tied)               97 ( 2.04%)
  BL (blocked)           105 ( 2.21%)
  RE (redundant)         818 (17.21%)
-------------------------------------
Coverage                             
  -------------------                
  test_coverage              100.00% 
  fault_coverage              78.54% 
  atpg_effectiveness         100.00% 
-------------------------------------
#test_patterns                    92 
#simulated_patterns              116 
CPU_time (secs)                  3.8 
-------------------------------------

