          Statistics Report          
           Stuck-at Faults           
-------------------------------------
Fault Classes              #faults   
                           (coll.)   
---------------------  --------------
  FU (full)                 1010     
  -------------------  --------------
  DS (det_simulation)    920 (91.09%)
  TI (tied)                2 ( 0.20%)
  RE (redundant)          88 ( 8.71%)
-------------------------------------
Coverage                             
  -------------------                
  test_coverage              100.00% 
  fault_coverage              91.09% 
  atpg_effectiveness         100.00% 
-------------------------------------
#test_patterns                    68 
#simulated_patterns              105 
CPU_time (secs)                  1.8 
-------------------------------------

