	*******************************************************
	*                                                     *
	*            Welcome to HOPE (version 2.0)            *
	*                                                     *
	*               Dong S. Ha (ha@vt.edu)                *
	*            Web: http://www.ee.vt.edu/ha             *
	*  Virginia Polytechnic Institute & State University  *
	*                                                     *
	*******************************************************

******   SUMMARY OF SIMULATION RESULTS   ******
1. Circuit structure
   Name of circuit                           : s1494
   Number of primary inputs                  : 14
   Number of primary outputs                 : 25
   Number of flip-flops                      : 0
   Number of gates                           : 647
   Level of the circuit                      : 17

2. Simulator input parameters
   Simulation mode                           : file (/home/animesh/currentResearch/ISI/atpg_structural/code/testData/atalanta/tests/iscas89/s1494.test)

3. Simulation results
   Number of test patterns applied           : 126
   Fault coverage                            : 33.001 %
   Number of collapsed faults                : 1506
   Number of detected faults                 : 497
   Number of undetected faults               : 1009

4. Memory used                               : 17137 Kbytes

5. CPU time
   Initialization                            : 0.000 secs
   Fault simulation                          : 0.000 secs
   Total                                     : 0.000 secs
