// | ------------------------------------------------------------------------------------------------------------------ |
// |                                                                                                                    |
// |          Current split capture setting:     Off (optimal)                                                          |
// |                                                                                                                    |
// |   Current clock off simulation setting:     Off (optimal)                                                          |
// | ------------------------------------------------------------------------------------------------------------------ |
//  ------------------------------------------------------------------------
//  Simulation performed for #gates = 12864  #faults = 25984
//  Run fault simulation without storing patterns.  pattern source = 607 external patterns
//  ------------------------------------------------------------------------
//  #patterns  test      #faults  #faults    # eff.    # test         process 
//  simulated  coverage  in list  detected   patterns  patterns       CPU time
//   64         20.34%    20698      5286       64         0          0.14 sec
//   128        23.78%    19805       893       64         0          0.20 sec
//   192        25.74%    19295       510       64         0          0.25 sec
//   256        27.00%    18968       327       64         0          0.30 sec
//   320        28.01%    18705       263       64         0          0.35 sec
//   384        28.88%    18481       224       64         0          0.40 sec
//   448        29.43%    18336       145       64         0          0.45 sec
//   512        29.89%    18218       118       64         0          0.49 sec
//   576        30.30%    18110       108       64         0          0.54 sec
//   607        30.43%    18076        34       31         0          0.58 sec
