// | ------------------------------------------------------------------------------------------------------------------ |
// |                                                                                                                    |
// |          Current split capture setting:     Off (optimal)                                                          |
// |                                                                                                                    |
// |   Current clock off simulation setting:     Off (optimal)                                                          |
// | ------------------------------------------------------------------------------------------------------------------ |
//  ------------------------------------------------------------------------
//  Simulation performed for #gates = 12864  #faults = 25984
//  Run fault simulation without storing patterns.  pattern source = 749 external patterns
//  ------------------------------------------------------------------------
//  #patterns  test      #faults  #faults    # eff.    # test         process 
//  simulated  coverage  in list  detected   patterns  patterns       CPU time
//   64         15.69%    21907      4077       64         0          0.13 sec
//   128        17.61%    21407       500       62         0          0.20 sec
//   192        18.38%    21208       199       47         0          0.26 sec
//   256        18.82%    21095       113       38         0          0.32 sec
//   320        19.33%    20961       134       41         0          0.37 sec
//   384        19.64%    20880        81       29         0          0.43 sec
//   448        19.90%    20814        66       28         0          0.49 sec
//   512        20.05%    20775        39       20         0          0.54 sec
//   576        20.19%    20739        36       16         0          0.60 sec
//   640        20.34%    20699        40       20         0          0.65 sec
//   704        20.44%    20672        27       14         0          0.71 sec
//   749        20.55%    20643        29        9         0          0.76 sec
