// | ------------------------------------------------------------------------------------------------------------------ |
// |                                                                                                                    |
// |          Current split capture setting:     Off (optimal)                                                          |
// |                                                                                                                    |
// |   Current clock off simulation setting:     Off (optimal)                                                          |
// | ------------------------------------------------------------------------------------------------------------------ |
//  ------------------------------------------------------------------------
//  Simulation performed for #gates = 12864  #faults = 25984
//  Run fault simulation without storing patterns.  pattern source = 610 external patterns
//  ------------------------------------------------------------------------
//  #patterns  test      #faults  #faults    # eff.    # test         process 
//  simulated  coverage  in list  detected   patterns  patterns       CPU time
//   64         14.26%    22279      3705       63         0          0.12 sec
//   128        15.65%    21918       361       56         0          0.18 sec
//   192        16.52%    21691       227       49         0          0.25 sec
//   256        16.98%    21572       119       40         0          0.30 sec
//   320        17.36%    21474        98       36         0          0.36 sec
//   384        17.68%    21390        84       29         0          0.42 sec
//   448        17.94%    21322        68       27         0          0.48 sec
//   512        18.20%    21254        68       25         0          0.53 sec
//   576        18.43%    21194        60       26         0          0.59 sec
//   610        18.50%    21177        17        9         0          0.64 sec
