// | ------------------------------------------------------------------------------------------------------------------ |
// |                                                                                                                    |
// |          Current split capture setting:     Off (optimal)                                                          |
// |                                                                                                                    |
// |   Current clock off simulation setting:     Off (optimal)                                                          |
// | ------------------------------------------------------------------------------------------------------------------ |
//  ------------------------------------------------------------------------
//  Simulation performed for #gates = 12864  #faults = 25984
//  Run fault simulation without storing patterns.  pattern source = 689 external patterns
//  ------------------------------------------------------------------------
//  #patterns  test      #faults  #faults    # eff.    # test         process 
//  simulated  coverage  in list  detected   patterns  patterns       CPU time
//   64         15.51%    21955      4029       64         0          0.13 sec
//   128        17.28%    21494       461       60         0          0.19 sec
//   192        18.28%    21234       260       53         0          0.26 sec
//   256        18.69%    21128       106       40         0          0.31 sec
//   320        18.98%    21052        76       33         0          0.37 sec
//   384        19.22%    20991        61       27         0          0.43 sec
//   448        19.47%    20924        67       24         0          0.49 sec
//   512        19.74%    20855        69       22         0          0.54 sec
//   576        19.88%    20819        36       17         0          0.60 sec
//   640        19.99%    20789        30       12         0          0.65 sec
//   689        20.08%    20766        23       11         0          0.71 sec
