// | ------------------------------------------------------------------------------------------------------------------ |
// |                                                                                                                    |
// |          Current split capture setting:     Off (optimal)                                                          |
// |                                                                                                                    |
// |   Current clock off simulation setting:     Off (optimal)                                                          |
// | ------------------------------------------------------------------------------------------------------------------ |
//  ------------------------------------------------------------------------
//  Simulation performed for #gates = 12864  #faults = 25984
//  Run fault simulation without storing patterns.  pattern source = 695 external patterns
//  ------------------------------------------------------------------------
//  #patterns  test      #faults  #faults    # eff.    # test         process 
//  simulated  coverage  in list  detected   patterns  patterns       CPU time
//   64         13.40%    22503      3481       64         0          0.11 sec
//   128        14.90%    22112       391       54         0          0.17 sec
//   192        15.55%    21943       169       37         0          0.23 sec
//   256        16.04%    21816       127       37         0          0.28 sec
//   320        16.47%    21704       112       32         0          0.34 sec
//   384        16.82%    21613        91       31         0          0.40 sec
//   448        17.02%    21562        51       21         0          0.45 sec
//   512        17.26%    21500        62       25         0          0.51 sec
//   576        17.52%    21432        68       31         0          0.56 sec
//   640        17.68%    21390        42       18         0          0.61 sec
//   695        17.78%    21364        26       14         0          0.67 sec
