// | ------------------------------------------------------------------------------------------------------------------ |
// |                                                                                                                    |
// |          Current split capture setting:     Off (optimal)                                                          |
// |                                                                                                                    |
// |   Current clock off simulation setting:     Off (optimal)                                                          |
// | ------------------------------------------------------------------------------------------------------------------ |
//  ------------------------------------------------------------------------
//  Simulation performed for #gates = 12864  #faults = 25984
//  Run fault simulation without storing patterns.  pattern source = 664 external patterns
//  ------------------------------------------------------------------------
//  #patterns  test      #faults  #faults    # eff.    # test         process 
//  simulated  coverage  in list  detected   patterns  patterns       CPU time
//   64         13.94%    22363      3621       62         0          0.11 sec
//   128        15.33%    22000       363       55         0          0.17 sec
//   192        16.05%    21813       187       45         0          0.23 sec
//   256        16.71%    21642       171       38         0          0.29 sec
//   320        17.18%    21520       122       34         0          0.35 sec
//   384        17.55%    21425        95       37         0          0.40 sec
//   448        17.80%    21359        66       27         0          0.46 sec
//   512        17.98%    21311        48       23         0          0.51 sec
//   576        18.15%    21268        43       21         0          0.56 sec
//   640        18.32%    21224        44       17         0          0.62 sec
//   664        18.32%    21223         1        1         0          0.67 sec
