// | ------------------------------------------------------------------------------------------------------------------ |
// |                                                                                                                    |
// |          Current split capture setting:     Off (optimal)                                                          |
// |                                                                                                                    |
// |   Current clock off simulation setting:     Off (optimal)                                                          |
// | ------------------------------------------------------------------------------------------------------------------ |
//  ------------------------------------------------------------------------
//  Simulation performed for #gates = 12864  #faults = 25984
//  Run fault simulation without storing patterns.  pattern source = 657 external patterns
//  ------------------------------------------------------------------------
//  #patterns  test      #faults  #faults    # eff.    # test         process 
//  simulated  coverage  in list  detected   patterns  patterns       CPU time
//   64         13.41%    22500      3484       62         0          0.11 sec
//   128        14.92%    22106       394       57         0          0.18 sec
//   192        15.61%    21929       177       43         0          0.24 sec
//   256        16.08%    21806       123       38         0          0.30 sec
//   320        16.47%    21704       102       35         0          0.35 sec
//   384        16.72%    21640        64       25         0          0.41 sec
//   448        17.00%    21568        72       27         0          0.47 sec
//   512        17.22%    21509        59       25         0          0.52 sec
//   576        17.36%    21473        36       18         0          0.58 sec
//   640        17.54%    21426        47       21         0          0.63 sec
//   657        17.55%    21425         1        1         0          0.68 sec
