// | ------------------------------------------------------------------------------------------------------------------ |
// |                                                                                                                    |
// |          Current split capture setting:     Off (optimal)                                                          |
// |                                                                                                                    |
// |   Current clock off simulation setting:     Off (optimal)                                                          |
// | ------------------------------------------------------------------------------------------------------------------ |
//  ------------------------------------------------------------------------
//  Simulation performed for #gates = 12864  #faults = 25984
//  Run fault simulation without storing patterns.  pattern source = 614 external patterns
//  ------------------------------------------------------------------------
//  #patterns  test      #faults  #faults    # eff.    # test         process 
//  simulated  coverage  in list  detected   patterns  patterns       CPU time
//   64         15.26%    22018      3966       64         0          0.13 sec
//   128        16.87%    21600       418       58         0          0.19 sec
//   192        17.60%    21410       190       47         0          0.25 sec
//   256        18.23%    21247       163       49         0          0.31 sec
//   320        18.62%    21146       101       35         0          0.37 sec
//   384        18.95%    21061        85       36         0          0.43 sec
//   448        19.18%    21000        61       27         0          0.48 sec
//   512        19.29%    20971        29       13         0          0.54 sec
//   576        19.45%    20930        41       20         0          0.59 sec
//   614        19.53%    20909        21       10         0          0.64 sec
