// | ------------------------------------------------------------------------------------------------------------------ |
// |                                                                                                                    |
// |          Current split capture setting:     Off (optimal)                                                          |
// |                                                                                                                    |
// |   Current clock off simulation setting:     Off (optimal)                                                          |
// | ------------------------------------------------------------------------------------------------------------------ |
//  ------------------------------------------------------------------------
//  Simulation performed for #gates = 12864  #faults = 25984
//  Run fault simulation without storing patterns.  pattern source = 804 external patterns
//  ------------------------------------------------------------------------
//  #patterns  test      #faults  #faults    # eff.    # test         process 
//  simulated  coverage  in list  detected   patterns  patterns       CPU time
//   64         12.60%    22709      3275       62         0          0.11 sec
//   128        13.97%    22353       356       52         0          0.17 sec
//   192        14.56%    22200       153       38         0          0.23 sec
//   256        15.11%    22057       143       32         0          0.29 sec
//   320        15.36%    21993        64       18         0          0.34 sec
//   384        15.73%    21897        96       27         0          0.40 sec
//   448        16.10%    21801        96       31         0          0.46 sec
//   512        16.33%    21742        59       22         0          0.51 sec
//   576        16.66%    21655        87       26         0          0.57 sec
//   640        16.90%    21593        62       24         0          0.62 sec
//   704        17.20%    21516        77       26         0          0.68 sec
//   768        17.32%    21483        33       16         0          0.73 sec
//   804        17.36%    21472        11        7         0          0.78 sec
