// | ------------------------------------------------------------------------------------------------------------------ |
// |                                                                                                                    |
// |          Current split capture setting:     Off (optimal)                                                          |
// |                                                                                                                    |
// |   Current clock off simulation setting:     Off (optimal)                                                          |
// | ------------------------------------------------------------------------------------------------------------------ |
//  ------------------------------------------------------------------------
//  Simulation performed for #gates = 12864  #faults = 25984
//  Run fault simulation without storing patterns.  pattern source = 627 external patterns
//  ------------------------------------------------------------------------
//  #patterns  test      #faults  #faults    # eff.    # test         process 
//  simulated  coverage  in list  detected   patterns  patterns       CPU time
//   64         14.84%    22127      3857       64         0          0.13 sec
//   128        16.65%    21657       470       57         0          0.20 sec
//   192        17.57%    21418       239       50         0          0.26 sec
//   256        18.20%    21254       164       44         0          0.32 sec
//   320        18.55%    21163        91       39         0          0.38 sec
//   384        18.85%    21085        78       28         0          0.44 sec
//   448        19.05%    21034        51       25         0          0.50 sec
//   512        19.26%    20979        55       21         0          0.56 sec
//   576        19.39%    20945        34       21         0          0.61 sec
//   627        19.50%    20918        27       14         0          0.67 sec
