// | ------------------------------------------------------------------------------------------------------------------ |
// |                                                                                                                    |
// |          Current split capture setting:     Off (optimal)                                                          |
// |                                                                                                                    |
// |   Current clock off simulation setting:     Off (optimal)                                                          |
// | ------------------------------------------------------------------------------------------------------------------ |
//  ------------------------------------------------------------------------
//  Simulation performed for #gates = 12864  #faults = 25984
//  Run fault simulation without storing patterns.  pattern source = 656 external patterns
//  ------------------------------------------------------------------------
//  #patterns  test      #faults  #faults    # eff.    # test         process 
//  simulated  coverage  in list  detected   patterns  patterns       CPU time
//   64         13.16%    22565      3419       64         0          0.11 sec
//   128        14.71%    22162       403       55         0          0.17 sec
//   192        15.56%    21941       221       48         0          0.23 sec
//   256        16.16%    21784       157       49         0          0.29 sec
//   320        16.41%    21719        65       28         0          0.34 sec
//   384        16.68%    21649        70       29         0          0.40 sec
//   448        16.88%    21598        51       23         0          0.45 sec
//   512        17.05%    21555        43       22         0          0.51 sec
//   576        17.21%    21513        42       15         0          0.56 sec
//   640        17.39%    21466        47       21         0          0.61 sec
//   656        17.42%    21458         8        4         0          0.66 sec
