// | ------------------------------------------------------------------------------------------------------------------ |
// |                                                                                                                    |
// |          Current split capture setting:     Off (optimal)                                                          |
// |                                                                                                                    |
// |   Current clock off simulation setting:     Off (optimal)                                                          |
// | ------------------------------------------------------------------------------------------------------------------ |
//  ------------------------------------------------------------------------
//  Simulation performed for #gates = 12864  #faults = 25984
//  Run fault simulation without storing patterns.  pattern source = 607 external patterns
//  ------------------------------------------------------------------------
//  #patterns  test      #faults  #faults    # eff.    # test         process 
//  simulated  coverage  in list  detected   patterns  patterns       CPU time
//   64         13.17%    22563      3421       63         0          0.11 sec
//   128        14.80%    22138       425       54         0          0.17 sec
//   192        15.59%    21934       204       45         0          0.23 sec
//   256        16.01%    21824       110       35         0          0.29 sec
//   320        16.32%    21744        80       30         0          0.34 sec
//   384        16.74%    21634       110       33         0          0.40 sec
//   448        16.99%    21569        65       31         0          0.46 sec
//   512        17.28%    21493        76       26         0          0.51 sec
//   576        17.52%    21432        61       20         0          0.56 sec
//   607        17.57%    21418        14        5         0          0.62 sec
