// | ------------------------------------------------------------------------------------------------------------------ |
// |                                                                                                                    |
// |          Current split capture setting:     Off (optimal)                                                          |
// |                                                                                                                    |
// |   Current clock off simulation setting:     Off (optimal)                                                          |
// | ------------------------------------------------------------------------------------------------------------------ |
//  ------------------------------------------------------------------------
//  Simulation performed for #gates = 12864  #faults = 25984
//  Run fault simulation without storing patterns.  pattern source = 657 external patterns
//  ------------------------------------------------------------------------
//  #patterns  test      #faults  #faults    # eff.    # test         process 
//  simulated  coverage  in list  detected   patterns  patterns       CPU time
//   64         14.38%    22247      3737       64         0          0.13 sec
//   128        16.48%    21701       546       58         0          0.20 sec
//   192        17.54%    21427       274       51         0          0.26 sec
//   256        18.06%    21290       137       48         0          0.32 sec
//   320        18.50%    21178       112       48         0          0.38 sec
//   384        18.76%    21110        68       27         0          0.43 sec
//   448        19.04%    21036        74       29         0          0.49 sec
//   512        19.25%    20983        53       29         0          0.55 sec
//   576        19.46%    20928        55       24         0          0.60 sec
//   640        19.58%    20896        32       19         0          0.66 sec
//   657        19.59%    20893         3        2         0          0.71 sec
