// | ------------------------------------------------------------------------------------------------------------------ |
// |                                                                                                                    |
// |          Current split capture setting:     Off (optimal)                                                          |
// |                                                                                                                    |
// |   Current clock off simulation setting:     Off (optimal)                                                          |
// | ------------------------------------------------------------------------------------------------------------------ |
//  ------------------------------------------------------------------------
//  Simulation performed for #gates = 12864  #faults = 25984
//  Run fault simulation without storing patterns.  pattern source = 658 external patterns
//  ------------------------------------------------------------------------
//  #patterns  test      #faults  #faults    # eff.    # test         process 
//  simulated  coverage  in list  detected   patterns  patterns       CPU time
//   64         16.09%    21802      4182       64         0          0.14 sec
//   128        17.81%    21355       447       60         0          0.21 sec
//   192        18.65%    21137       218       51         0          0.27 sec
//   256        19.12%    21017       120       41         0          0.33 sec
//   320        19.45%    20931        86       35         0          0.38 sec
//   384        19.65%    20878        53       25         0          0.44 sec
//   448        19.87%    20820        58       26         0          0.50 sec
//   512        20.03%    20779        41       18         0          0.55 sec
//   576        20.15%    20748        31       16         0          0.61 sec
//   640        20.30%    20710        38       17         0          0.67 sec
//   658        20.35%    20696        14        7         0          0.72 sec
