// | ------------------------------------------------------------------------------------------------------------------ |
// |                                                                                                                    |
// |          Current split capture setting:     Off (optimal)                                                          |
// |                                                                                                                    |
// |   Current clock off simulation setting:     Off (optimal)                                                          |
// | ------------------------------------------------------------------------------------------------------------------ |
//  ------------------------------------------------------------------------
//  Simulation performed for #gates = 12864  #faults = 25984
//  Run fault simulation without storing patterns.  pattern source = 607 external patterns
//  ------------------------------------------------------------------------
//  #patterns  test      #faults  #faults    # eff.    # test         process 
//  simulated  coverage  in list  detected   patterns  patterns       CPU time
//   64         13.19%    22556      3428       63         0          0.11 sec
//   128        14.89%    22114       442       52         0          0.17 sec
//   192        15.74%    21893       221       54         0          0.23 sec
//   256        16.40%    21722       171       42         0          0.29 sec
//   320        16.59%    21673        49       27         0          0.35 sec
//   384        16.94%    21583        90       34         0          0.40 sec
//   448        17.11%    21537        46       20         0          0.46 sec
//   512        17.38%    21469        68       25         0          0.51 sec
//   576        17.55%    21423        46       19         0          0.57 sec
//   607        17.60%    21412        11        8         0          0.62 sec
