// | ------------------------------------------------------------------------------------------------------------------ |
// |                                                                                                                    |
// |          Current split capture setting:     Off (optimal)                                                          |
// |                                                                                                                    |
// |   Current clock off simulation setting:     Off (optimal)                                                          |
// | ------------------------------------------------------------------------------------------------------------------ |
//  ------------------------------------------------------------------------
//  Simulation performed for #gates = 12864  #faults = 25984
//  Run fault simulation without storing patterns.  pattern source = 664 external patterns
//  ------------------------------------------------------------------------
//  #patterns  test      #faults  #faults    # eff.    # test         process 
//  simulated  coverage  in list  detected   patterns  patterns       CPU time
//   64         15.94%    21842      4142       63         0          0.14 sec
//   128        17.72%    21379       463       57         0          0.21 sec
//   192        18.46%    21187       192       47         0          0.27 sec
//   256        18.96%    21057       130       39         0          0.33 sec
//   320        19.20%    20995        62       32         0          0.39 sec
//   384        19.42%    20937        58       25         0          0.45 sec
//   448        19.59%    20894        43       16         0          0.51 sec
//   512        19.77%    20847        47       25         0          0.56 sec
//   576        19.88%    20819        28       16         0          0.62 sec
//   640        19.99%    20790        29       15         0          0.67 sec
//   664        20.01%    20784         6        4         0          0.73 sec
