// | ------------------------------------------------------------------------------------------------------------------ |
// |                                                                                                                    |
// |          Current split capture setting:     Off (optimal)                                                          |
// |                                                                                                                    |
// |   Current clock off simulation setting:     Off (optimal)                                                          |
// | ------------------------------------------------------------------------------------------------------------------ |
//  ------------------------------------------------------------------------
//  Simulation performed for #gates = 12864  #faults = 25984
//  Run fault simulation without storing patterns.  pattern source = 783 external patterns
//  ------------------------------------------------------------------------
//  #patterns  test      #faults  #faults    # eff.    # test         process 
//  simulated  coverage  in list  detected   patterns  patterns       CPU time
//   64         15.19%    22037      3947       63         0          0.13 sec
//   128        16.94%    21582       455       60         0          0.19 sec
//   192        17.84%    21349       233       55         0          0.25 sec
//   256        18.38%    21209       140       47         0          0.31 sec
//   320        18.84%    21089       120       36         0          0.37 sec
//   384        19.05%    21033        56       31         0          0.42 sec
//   448        19.28%    20973        60       25         0          0.48 sec
//   512        19.45%    20930        43       20         0          0.53 sec
//   576        19.62%    20887        43       20         0          0.59 sec
//   640        19.75%    20853        34       21         0          0.64 sec
//   704        19.87%    20822        31       18         0          0.70 sec
//   768        19.95%    20800        22       12         0          0.75 sec
//   783        19.97%    20795         5        1         0          0.80 sec
