// | ------------------------------------------------------------------------------------------------------------------ |
// |                                                                                                                    |
// |          Current split capture setting:     Off (optimal)                                                          |
// |                                                                                                                    |
// |   Current clock off simulation setting:     Off (optimal)                                                          |
// | ------------------------------------------------------------------------------------------------------------------ |
//  ------------------------------------------------------------------------
//  Simulation performed for #gates = 12864  #faults = 25984
//  Run fault simulation without storing patterns.  pattern source = 824 external patterns
//  ------------------------------------------------------------------------
//  #patterns  test      #faults  #faults    # eff.    # test         process 
//  simulated  coverage  in list  detected   patterns  patterns       CPU time
//   64         12.14%    22829      3155       63         0          0.11 sec
//   128        13.54%    22465       364       54         0          0.17 sec
//   192        14.35%    22255       210       44         0          0.23 sec
//   256        14.99%    22088       167       34         0          0.29 sec
//   320        15.43%    21974       114       29         0          0.35 sec
//   384        15.77%    21886        88       27         0          0.40 sec
//   448        16.08%    21807        79       29         0          0.46 sec
//   512        16.19%    21778        29       17         0          0.52 sec
//   576        16.45%    21710        68       22         0          0.57 sec
//   640        16.63%    21663        47       16         0          0.63 sec
//   704        16.84%    21609        54       19         0          0.68 sec
//   768        16.96%    21577        32       13         0          0.74 sec
//   824        17.03%    21559        18       10         0          0.79 sec
