// | ------------------------------------------------------------------------------------------------------------------ |
// |                                                                                                                    |
// |          Current split capture setting:     Off (optimal)                                                          |
// |                                                                                                                    |
// |   Current clock off simulation setting:     Off (optimal)                                                          |
// | ------------------------------------------------------------------------------------------------------------------ |
//  ------------------------------------------------------------------------
//  Simulation performed for #gates = 12864  #faults = 25984
//  Run fault simulation without storing patterns.  pattern source = 747 external patterns
//  ------------------------------------------------------------------------
//  #patterns  test      #faults  #faults    # eff.    # test         process 
//  simulated  coverage  in list  detected   patterns  patterns       CPU time
//   64         12.43%    22755      3229       64         0          0.11 sec
//   128        13.89%    22374       381       48         0          0.18 sec
//   192        14.66%    22176       198       47         0          0.24 sec
//   256        15.31%    22005       171       46         0          0.30 sec
//   320        15.61%    21928        77       32         0          0.36 sec
//   384        16.13%    21794       134       33         0          0.42 sec
//   448        16.54%    21687       107       32         0          0.48 sec
//   512        17.01%    21565       122       32         0          0.54 sec
//   576        17.25%    21502        63       20         0          0.60 sec
//   640        17.46%    21447        55       22         0          0.66 sec
//   704        17.65%    21398        49       18         0          0.71 sec
//   747        17.76%    21368        30       10         0          0.77 sec
